epoch,loss,val_loss
0,0.9805576275530861,0.9137368612902882
1,0.6162992439491095,0.28694433350213044
2,0.2773558876509194,0.27332612788620764
3,0.2702150105250825,0.2703267556057262
4,0.26996529459071866,0.2598029699561722
5,0.25552211600027497,0.25426620471966765
6,0.25520650943001205,0.2531582354652477
7,0.21638383148766632,0.18638540188110805
8,0.1873248094301239,0.18969632328826797
9,0.18591887358543302,0.18109082036020252
10,0.1855265201269675,0.18677534935694562
11,0.1854673269912779,0.18167020215843263
12,0.18541628758398462,0.18176161264375898
13,0.18545039131534663,0.18249058919858066
14,0.185914162888849,0.1816235487044281
15,0.18682683210411993,0.1820467364722194
16,0.18567720153849188,0.18328065352827522
17,0.18635040500181185,0.18324213603771664
18,0.18538233395412768,0.18236566922423778
19,0.18580948999769492,0.18990216237781737
20,0.18751091228352842,0.1819658628367211
21,0.18565634401629774,0.18713720332193112
22,0.18638314785574267,0.1859042942641566
23,0.18693117834300066,0.18534827244121818
24,0.18634251178764136,0.1873021024766642
25,0.1739658559058353,0.13297694976770136
26,0.10502385231647655,0.0886453226702648
27,0.09940603812881034,0.1018075080972162
28,0.09530434253321086,0.08777144743569178
29,0.09614902595095307,0.094805118804996
30,0.09434083254812814,0.09142893755069001
31,0.09492738233160058,0.10251235406795824
32,0.09614432809188021,0.10506028136872078
33,0.0945274831412984,0.08735357307268111
34,0.09471797952942139,0.09271521664032714
35,0.09601447251524857,0.09239555158503147
36,0.09459801367539868,0.08563672606528229
37,0.09540552133731514,0.09259545115640809
38,0.09608717672794843,0.09816706465188217
39,0.09561786008217066,0.08542307201646497
40,0.09661443100022755,0.086182778446855
41,0.09428560582818173,0.08820911954379777
42,0.09482000766993522,0.08815650555474983
43,0.09550551886705282,0.09027017767069936
44,0.09644873950073568,0.10074157940536949
45,0.09699069214858216,0.09567062688466593
46,0.09634054785402273,0.09282105126739396
47,0.09850711266485622,0.09637214443348671
48,0.09736091880013141,0.09262720309638939
49,0.09833602707901543,0.10094087366852689
50,0.10239946224289737,0.10133701368825306
51,0.11629549704557605,0.10685110422646614
52,0.10401317456381308,0.10177265372253726
53,0.09704254060644182,0.09713756894632504
54,0.08961321366615861,0.08249294661402985
55,0.08508002791973612,0.08599023359233032
56,0.07777787697651117,0.07040258403205928
57,0.07212677524000001,0.06590370566899512
58,0.07092398685737432,0.06551442909530043
59,0.07318707206379547,0.06689027195242134
60,0.07389072632248835,0.08081069382256001
61,0.07539773965142757,0.07367944202570344
62,0.07696142495958973,0.07451824689814682
63,0.07906343394832359,0.0740129887916577
64,0.07829205730228687,0.07347612826840183
65,0.08354707221261604,0.08106410034418389
66,0.08172914529774639,0.07760388844579623
67,0.08140531752696283,0.075555665734582
68,0.07428683760575205,0.07044559319363208
69,0.06930544719004707,0.0683742189881316
70,0.0693951774281349,0.06622232042470595
71,0.0689926759349547,0.060366836241972005
72,0.06835382441721327,0.07005558501937866
73,0.07020872286100277,0.06099580411505963
74,0.06757000254260169,0.059104814622683514
75,0.06868429378949577,0.07212046521473985
76,0.06773647332756068,0.06701606145421161
77,0.07059258406759976,0.06307960535681144
78,0.07104449394902737,0.06972220789085436
79,0.06973003749426701,0.06613696191015918
80,0.07015208338798998,0.05017418277044887
81,0.06833410417909722,0.06256576970325461
82,0.07037512674856243,0.06408290994583667
83,0.07000464755151388,0.0659183760680076
84,0.07243925057423058,0.06535170664503617
85,0.07440154675802262,0.06695705776903323
86,0.07582026494623754,0.07460487991183314
87,0.07642190036573093,0.07793225776683466
88,0.07753603775605118,0.0701224741885393
89,0.07538434347624687,0.07065191163130886
90,0.07967539849452121,0.07829928566020308
91,0.07972081466842232,0.07615810994649837
92,0.08090012377614883,0.07110252793828332
93,0.0780969965893278,0.07057742729794819
94,0.07966256806765386,0.07612344307123721
95,0.07831525668609056,0.07607355128441538
96,0.07735999557468817,0.0669895228213133
97,0.0768084984085114,0.06798168706642235
98,0.07767870898048083,0.06960008448047156
99,0.07708739914107236,0.07142711708347159
100,0.07716529507734936,0.06846519533453631
101,0.07805453303406279,0.0710442086686134
102,0.07852674159351632,0.06966818040258882
103,0.07795599934985216,0.07514953618573691
104,0.07939281133558157,0.07699718605653451
105,0.07977285686222245,0.07199128328189665
106,0.07796313280282881,0.06810530497388945
107,0.07852480271689707,0.07676141233357653
108,0.07790073417990709,0.0776920605924248
109,0.07828861793323005,0.06907479093360826
110,0.07985635049236145,0.07226031512057302
111,0.0779261516331197,0.06718712366805739
112,0.0778687971425976,0.07679959341013347
113,0.07795147331867763,0.08318796439865206
114,0.07522388026981855,0.06757397672136468
115,0.07625290310288743,0.07358232661846499
116,0.07573778926730633,0.07412056008320017
117,0.07815699159449858,0.08344130451190443
118,0.0796084912831811,0.08160705083500426
119,0.07731595493072896,0.07074734647688474
120,0.07745431731793759,0.07475350678096443
121,0.07773560204124041,0.07961310184286538
122,0.07839406171082546,0.0704418754509423
123,0.07703526717105168,0.0718737463801276
124,0.07772899662210739,0.07323229724825041
125,0.07946433012130306,0.07231273845532041
126,0.07936173815467804,0.07420073393452986
127,0.0806670842273868,0.07681976162314698
128,0.08067111160418541,0.07255559786566149
129,0.08165380193425312,0.08426796011303293
130,0.08314401951643059,0.07451434717781918
131,0.08339474700260267,0.07731193480770608
132,0.08407200107143985,0.07582706420284703
133,0.08454584954179925,0.07816180536536692
134,0.08591842033909998,0.07761973159677321
135,0.08718278334527421,0.08418677308859088
136,0.08708658272759329,0.08349001816317334
137,0.08677450207461843,0.08355279917804481
138,0.08663632139283643,0.07721662237628671
139,0.08835084385556473,0.09355228010862007
140,0.08936593615018922,0.08462756604614838
141,0.08994035264380354,0.07873130802303294
142,0.08971703814999234,0.08947150571817193
143,0.0904314616467241,0.08865326017894044
144,0.09055096125282305,0.08647184929536286
145,0.0909622768528289,0.08200094988826889
146,0.09105883726029754,0.08350016806207027
147,0.09271428927177672,0.0806474951467085
148,0.09303389097765671,0.09107601496772495
149,0.09290137116780146,0.08785883986465368
150,0.09299627954302599,0.08561032029911111
151,0.09270383243848809,0.08729458816978719
152,0.09250862589128298,0.08889576055597581
153,0.09357451785394519,0.09377419670430713
154,0.09307724074404732,0.08767847538041429
155,0.09284672169960279,0.09310563460239389
156,0.09456872345237947,0.08414184348547468
157,0.09501157684041728,0.09736079191046619
158,0.0956271021611256,0.09128908697154076
159,0.0955544365115827,0.09134814820025225
160,0.09540572093664218,0.09420293808900755
161,0.09538712398075372,0.08982321465036582
162,0.09547817309816584,0.09001066869429085
163,0.09479564090939067,0.0889575111237961
164,0.09495448270629493,0.09017609116557365
165,0.09524552082176879,0.09212270468449912
166,0.09651756027845933,0.087560956652299
167,0.09738907447273878,0.09114748168363285
168,0.09794888527934356,0.0946682040015825
169,0.09804968362589249,0.09347997721646278
170,0.0971545730095854,0.09323134579076105
171,0.09713057213299851,0.09122584023363682
172,0.09794096853718054,0.09667201045585977
173,0.09867348648208699,0.09764746093759409
174,0.09890730134088645,0.10441649695762802
175,0.09844229871527754,0.10100309067973963
176,0.09927711618407596,0.0870629595893993
177,0.09985607856219049,0.09176214706761308
178,0.09894137385395839,0.10598736856170969
179,0.0987419069131954,0.09463866206728387
180,0.09943947284151133,0.09528214584421528
181,0.09956520912851646,0.09671367971254505
182,0.10092595147548153,0.09729405740112795
183,0.09987810464035407,0.09305407381201224
184,0.10016682262507846,0.09406077129076858
185,0.0998883345704094,0.09153836090544029
186,0.09991873857929266,0.09213172259204672
187,0.09993841274858092,0.09028437224399789
188,0.10028938036992681,0.09641656581233031
189,0.10055296743313948,0.09296219650694208
190,0.10026670085619108,0.0952936657825698
191,0.10042974364450223,0.0958625968566257
192,0.10020511352020106,0.09499828996402877
193,0.10078910433297916,0.09159875996028614
194,0.10165073766673116,0.09355774029630701
195,0.1012638409902676,0.10218677312229785
196,0.10082202189141136,0.09862816601921087
197,0.10177172327356086,0.09217905580127154
198,0.10195914047995774,0.09823356036628995
199,0.10119129895127649,0.09233361285035782
200,0.10104900862065723,0.09350719545756914
201,0.1028590205488064,0.09911997105276481
202,0.10233877802328717,0.09519441904472195
203,0.10201868170099579,0.09978563997721052
204,0.10377665289300238,0.09565205411028467
205,0.10272581674319377,0.10191375312366727
206,0.10215207388539681,0.09730522777376537
207,0.10296878743050196,0.0979918949100194
208,0.10333375766170587,0.09895810800080423
209,0.1029203047754048,0.10316116345168666
210,0.10336093540243108,0.10287743912687806
211,0.10421753445451112,0.09385776215166018
212,0.10343961468894038,0.09709403987300612
213,0.10304667023446062,0.09997317578346596
214,0.10399885896703513,0.09427726732738957
215,0.10427067879971555,0.10230901085234291
216,0.10470385508809825,0.0960026062031195
217,0.10443114951628146,0.10601502332333608
218,0.10439152117791793,0.09619818907745635
219,0.10352170120159404,0.09501447276621704
220,0.1028993861239067,0.10072309487949889
221,0.10366495799639527,0.1045406195728348
222,0.1034542178596667,0.09521366125406387
223,0.10292305629685533,0.09947374651257034
224,0.10257315253325218,0.10076384548606511
225,0.10267261672410652,0.09778078900681016
226,0.10242832578915201,0.09686705611216899
227,0.10251015059346204,0.0936188547333207
228,0.10294478164195157,0.09523327429297408
229,0.1018272661816159,0.11057367425738307
230,0.1033071162049576,0.0957821245939598
231,0.10305878107281898,0.09537607761895271
232,0.10364599211467541,0.10013535650536688
233,0.10236256252780712,0.10249097377720459
234,0.10304205515366092,0.099367972242851
235,0.1027325554955587,0.09593206373555696
236,0.10362786889004764,0.09947582647710121
237,0.10220067197982546,0.09898187440026908
238,0.10255177242816876,0.0935108809016686
239,0.10412469192696132,0.09218466711754675
240,0.10279347244009887,0.09961572365325176
241,0.10188138135355249,0.0948977222241279
242,0.10206021889925099,0.0984038926114129
243,0.10249829264901143,0.09997535925049808
244,0.1020636658558695,0.10195783102898119
245,0.10210373849986935,0.10186478853719669
246,0.10243925660086288,0.09253382646929305
247,0.10064987230191319,0.09237836614756859
248,0.10192302886625941,0.10589853877638303
249,0.10190583961151486,0.09541441187932911
250,0.10122698151784168,0.09890898326507401
251,0.10005695608367832,0.0920339707864394
252,0.10111854752178767,0.09835161646238537
253,0.1001320634361842,0.09478394651892812
254,0.09994493509165579,0.09663218548543451
255,0.09956724197268009,0.09187761217285162
256,0.0993567447957518,0.09262148416127007
257,0.0995739707760483,0.0957812009660061
258,0.09884822943049083,0.09283446134806808
259,0.09916497905590503,0.09765456418706003
260,0.09790652187363945,0.10164858252633342
261,0.09710289356853369,0.08971756539103923
262,0.09672496013855525,0.09416704061540357
263,0.0965823486631961,0.09030211070624504
264,0.09575259512056597,0.08827396184970472
265,0.09518248759370913,0.08805383290528028
266,0.09617226766787178,0.08657286707797009
267,0.09658662500760729,0.10274491799023552
268,0.09557947704790355,0.0873523385138284
269,0.09618187292987447,0.08955382796235224
270,0.09370024364254029,0.09142592834527792
271,0.09286514706433201,0.08950289071852896
272,0.08984082181611174,0.09356573085288128
273,0.09002505685928629,0.08528955745633512
274,0.08893811325136897,0.08629645016735336
275,0.08856244820008556,0.08251655040913053
276,0.0872001590387379,0.08671851636402327
277,0.08651979858253737,0.07949024885775258
278,0.08567988131936792,0.08994427833767886
279,0.08568622280570339,0.08319128559639158
280,0.08405564645592638,0.0744344894557415
281,0.08325910877189238,0.08137415356834102
282,0.08323775018921954,0.07876766781780602
283,0.08143705116074196,0.08192932400514313
284,0.08142222622357351,0.07842967230547293
285,0.0789989127645747,0.07465900610412024
286,0.07848477914935345,0.08009620155806887
287,0.07785253538984618,0.07199856112604548
288,0.07690324010751802,0.07339934668935183
289,0.07716019329973024,0.06527314645597665
290,0.07621454319758095,0.07147668455539957
291,0.07702090117565209,0.06831426054368644
292,0.07575638446179654,0.06885057231727414
293,0.07730411099259564,0.07566405251775092
294,0.07824475473786097,0.08113136627044655
295,0.08215509039118327,0.07573833656750896
296,0.0815043442344351,0.07451127262252376
297,0.08085135879556386,0.07515259604568827
298,0.08476790082868008,0.09051513852406037
299,0.08958653878900025,0.081951725210674
300,0.08943224665102104,0.08008731731699505
301,0.0918707819052523,0.09874495878615715
302,0.09153498129116641,0.09074327733658766
303,0.09019226543783998,0.08946349213653977
304,0.09200251051675168,0.08891569468139096
305,0.09164033419669246,0.08486583170017202
306,0.09210412929967629,0.08096818052579215
307,0.09330215671216603,0.08740801586171916
308,0.09390598895113102,0.1029393933507619
309,0.09357593391986964,0.10837164106642815
310,0.09634146167428422,0.08284607289422188
311,0.09406240861550223,0.09585824028986499
312,0.0924212182034477,0.08501460298531245
313,0.09566575883895898,0.08533753134786565
314,0.09563219222090513,0.09154819651861876
315,0.09474651533648741,0.08518673162598636
316,0.09182397353736092,0.0785939726528683
317,0.09443777715630955,0.08278065645845273
318,0.09320641914270908,0.09281307231890656
319,0.09255355998700995,0.08379175471937271
320,0.09156635804749508,0.09046529158185389
321,0.08736825163225286,0.07634387515785192
322,0.08936313793009562,0.08023705307597143
323,0.08968356010808552,0.0890750750228939
324,0.08680575419899275,0.07476362222607152
325,0.08343911108126839,0.07117024854695882
326,0.08188716692181466,0.08040845449999175
327,0.082498742653121,0.0872792149022892
328,0.08177508816843648,0.07750345686275656
329,0.0789880163500087,0.07869449336061161
330,0.07823626463302225,0.07596974237730114
331,0.07204660576739186,0.061919851280049065
332,0.0706349532086429,0.068658436268521
333,0.07253234687415387,0.06244076016905182
334,0.06907777647993309,0.05788082016989201
335,0.06742644053604677,0.059074759280460507
336,0.06831627855186077,0.058894200251976524
337,0.07050290753801378,0.08004314345678853
338,0.07672094624879644,0.06503796279900828
339,0.07237618989337215,0.0610490439117143
340,0.06936896095077673,0.061429992932664566
341,0.0698029247583817,0.08184910334217425
342,0.07139795267586704,0.0693560466111506
343,0.07196993428877266,0.0737221706408681
344,0.07340095017394192,0.07126531976656643
345,0.07368682617013403,0.0800281057594419
346,0.07708486543892384,0.0689136156725573
347,0.07383177893237769,0.0634038487997644
348,0.07836987568343953,0.06967693075079004
349,0.07625858453091243,0.07985074732279157
350,0.07571154279257658,0.0715881306428136
351,0.07515695491294971,0.05479097326345677
352,0.0734902782995495,0.06406881467342941
353,0.07436794520383307,0.06585477289009395
354,0.07492336663279793,0.06411422809972571
355,0.07310673560229518,0.061003562577521604
356,0.07122174556181728,0.05848394360484433
357,0.06906919478238534,0.06929454474982635
358,0.07167600041075195,0.0625756588024282
359,0.06851883494346547,0.06478978139837144
360,0.06787916873808769,0.05425075358683986
361,0.07171022916863339,0.05938704772290039
362,0.06969745571521832,0.07006221344281391
363,0.06984429665618568,0.05688836302934619
364,0.06890682672722925,0.06501257321382002
365,0.06993419970784018,0.06214814500231958
366,0.06975555466823012,0.06648028177086443
367,0.07200196742427815,0.060101809672534985
368,0.07089409274276165,0.06982649037145496
369,0.06931240122607477,0.06582225045599426
370,0.07029466466348377,0.06618419281650267
371,0.07149404399454308,0.07524255882204756
372,0.07072824782741775,0.06168764734371685
373,0.07296316582057402,0.06455080062680199
374,0.07076330348658715,0.07806667983061513
375,0.07361644431561541,0.08151307476253705
376,0.07203378269730283,0.07261188051295074
377,0.07317152843147302,0.0682900978256702
378,0.07166786452414368,0.06091721829882549
379,0.07116706821349837,0.06701834537471103
380,0.07334055958671583,0.06591489679388109
381,0.07040581698987267,0.05952689990742337
382,0.07000099358816655,0.04932927224129415
383,0.07050995995624841,0.06391586781418408
384,0.06993401429350142,0.06576324748235512
385,0.07007632010596261,0.06883356404426819
386,0.0705728930302804,0.05938746722528289
387,0.07024652238110368,0.06923092368052244
388,0.0721567565713712,0.07042035152922489
389,0.06830498868738004,0.06339721794180636
390,0.06903679189469507,0.061292530914390755
391,0.070380613387977,0.06312891380492401
392,0.07136067439564507,0.06675804671026538
393,0.06981621992191393,0.06288708103989746
394,0.06999567225218105,0.0742309043667593
395,0.06995826211127398,0.06514802436919878
396,0.06955465319887293,0.0653418397094287
397,0.07171365111131224,0.06561532259669564
398,0.07203376439692591,0.06354622791308819
399,0.07402093043859057,0.06766638713105984
400,0.0740120476044768,0.06442845192897385
401,0.07085573913262998,0.06955199481679777
402,0.07436740241772075,0.06673303886001375
403,0.07237334458900394,0.06686530922316809
404,0.07384500092120289,0.08812855806822088
405,0.07450022049498357,0.06902482232994796
406,0.07515333248205561,0.07576664702727179
407,0.07594126936563438,0.0682473424160537
408,0.0792809320668832,0.08176809961259977
409,0.07813186404093517,0.06900422380327144
410,0.0764164026770041,0.07804029357884941
411,0.07832673798910053,0.06778637167204528
412,0.07677734800600272,0.07755347878775826
413,0.07899640457664463,0.06549342030155066
414,0.0765400429730483,0.07739311065333701
415,0.07800691314994526,0.06353856226239697
416,0.07471922794572837,0.0815513953684161
417,0.07553597303668706,0.0751129714000291
418,0.07832156370976846,0.06992063848353222
419,0.07436933170864098,0.06795371220327308
420,0.07293366016499954,0.08242351669103683
421,0.07380841549435298,0.06728555872777643
422,0.07461316328790547,nan
423,0.07345836889668764,nan
424,0.07349393799228014,nan
425,0.07339315505163799,nan
426,0.07240542174755431,nan
