epoch,loss,val_loss
0,0.449221436255508,0.4472087544600169
1,0.4467830561929279,0.4486564977566401
2,0.4465916302866406,0.44641261094808576
3,0.44650610065460206,0.4465343890984853
4,0.4464581710828675,0.4463362086613973
5,0.446416702316867,0.4462844221989314
6,0.4463721305529276,0.446353561659654
7,0.4463569610979822,0.44621130430698397
8,0.44633851860629187,0.4462399400671323
9,0.44632064015335504,0.44647322710355125
10,0.44631728870338866,0.4462084680000941
11,0.44630773058864803,0.44620921232302985
12,0.4462917998168204,0.44623115062713625
13,0.4462856941289372,0.4461653369863828
14,0.44628278761439855,0.4463418955405553
15,0.44628424153063034,0.4461468979517619
16,0.44628029242489076,0.4461543731689453
17,0.446269915289349,0.44640075544516244
18,0.4462603213654624,0.4462846055030823
19,0.4462611445652114,0.44625145345926287
20,0.446261842098501,0.4463888631661733
21,0.44625509782632194,0.44628480563561124
22,0.44624174592230054,0.4464903717835744
23,0.44625008739365474,0.446287475725015
24,0.44623978716135027,0.4462496671875318
25,0.44623813669549095,0.4461556324362755
26,0.44623940800295936,0.44613612701495486
27,0.4462369402050972,0.44616883432865145
28,0.4462399681078063,0.44618365504344304
29,0.44623447728157045,0.4462202991843224
30,0.4462389289405611,0.44616591624418894
31,0.4462426343758901,0.44622910863161086
32,0.4462295883960194,0.44621843653917315
33,0.44623080518510605,0.4461192614833514
34,0.4462362274792459,0.446262513756752
35,0.44622792130708694,0.4462018112142881
36,0.44624077354537117,0.44628039886554083
37,0.4462299280696445,0.44614335387945175
38,0.44622337940004136,0.4461454341808955
39,0.4462235379947556,0.4461393420100212
40,0.4462353831926982,0.4461913007100423
41,0.4462242743174235,0.44618144557873407
42,0.44622859752840466,0.44615897194544474
43,0.4462190845410029,0.446147971868515
44,0.44621790139542683,0.4461345370411873
45,0.4462199094692866,0.4461053520441055
46,0.44621652288569347,0.44610709814230604
47,0.4462149041162597,0.4460847938855489
48,0.44620655101537704,0.44612895892063775
49,0.4462166223857138,0.446127378086249
50,0.446217397040791,0.4461937213540077
51,0.44620666233036255,0.4462214222550392
52,0.44621288014120525,0.44633254313468934
53,0.44620761783917745,0.446152947584788
54,0.4462118345234129,0.4463186808824539
55,0.44620674571063784,0.446201118628184
56,0.44620517525408004,0.44634704126914343
57,0.4462078631122907,0.44611765452226004
58,0.4462066697412067,0.4463948286175728
59,0.4462126415371895,0.44626054058472314
60,0.4462063294649124,0.44615805393457414
61,0.4462044181889958,0.4461118737061818
62,0.44620488498608274,0.44615941955645877
63,0.4462095338768429,0.44619076627492904
64,0.44620095396704146,0.44612857429186503
65,0.4462091848187976,0.4461014594833056
66,0.44620075508621004,0.44640546236435574
67,0.4462093386385176,0.4461209962368011
