epoch,loss,val_loss
0,0.5952622703641199,0.5580924031991642
1,0.5158414344748465,0.49858817366304575
2,0.48220415279758366,0.4682319588228057
3,0.4724541808649289,0.47008136649588117
4,0.4738630995309477,0.47098318015475243
5,0.4783172356285411,0.4767176215230984
6,0.4783488779520397,0.471568656494631
7,0.44587448835850146,0.40110041983032846
8,0.40550238352188406,0.4119768751798755
9,0.40342239417535386,0.3931514889074358
10,0.39909685913136334,0.3891412894946235
11,0.38621449297528154,0.38038367091014147
12,0.3856221496629371,0.37699625575242734
13,0.38606037650469116,0.39229861709129876
14,0.39190487282050906,0.39318414350302355
15,0.38248362625427873,0.3736792909644623
16,0.37053085431707106,0.3599484789352154
17,0.3380545972704028,0.29771162942958285
18,0.27450188021477556,0.25668190651711464
19,0.26709220838174524,0.24888186495137815
20,0.26946937767647094,0.262838192966926
21,0.27157052510303914,0.24928731811501006
22,0.2736554095466391,0.25979085053889034
23,0.26710068057473896,0.2521138928425766
24,0.2671500891685677,0.24631771167312708
25,0.26534312945590005,0.2499163651480872
26,0.2635834173167391,0.23422648562518736
27,0.2612841905380269,0.2650089209169657
28,0.2570988192700977,0.2357356997519514
29,0.2596044762729644,0.23502036268065252
30,0.25202742882902096,0.23966391124767883
31,0.2498173235868625,0.22776907874574917
32,0.24416468577016537,0.22509585830948745
33,0.24052567853390264,0.22852243299370167
34,0.23403714786919716,0.2188623876032168
35,0.22886999772251654,0.20611758837106262
36,0.21832913803973134,0.2180935790624835
37,0.2124986880309015,0.1901129955502902
38,0.20353574253875223,0.19244408353691844
39,0.2022776059907756,0.19873646823787536
40,0.20186521921804945,0.19114769224171124
41,0.20208856064954503,0.21357589616876063
42,0.20464947424214586,0.18832744717211233
43,0.1929975167167387,0.16951597775034274
44,0.19199449889320103,0.18720661795003957
45,0.19551682933043538,0.18107132127830292
46,0.19063840748024902,0.16569518918490275
47,0.18627458808718442,0.1747096238623087
48,0.18177036412531514,0.16571010286645588
49,0.17050584992938178,0.15057249569061415
50,0.16309220748569508,0.14882217270880332
51,0.15992395349258515,0.14740560420117335
52,0.15874601358934057,0.13629977596623088
53,0.1534748388748106,0.13806277570304887
54,0.1466898303613174,0.14798611482878768
55,0.14752004783543898,0.12586171924463638
56,0.14416245396753805,0.13164857738112784
57,0.1401068679481339,0.11693085688985853
58,0.14083602649269342,0.13644455955798124
59,0.14140364251511875,0.12873294016547254
60,0.1391287013333592,0.13205129032635823
61,0.14317041339637568,0.12724743112136172
62,0.14277529984032564,0.13386797898321354
63,0.14529804252177547,0.1472843406663034
64,0.1429740503770385,0.1139749975063795
65,0.1435075715166316,0.13333270031677835
66,0.14252981426920577,0.15376313061537245
67,0.13751623780131816,0.13972116380760752
68,0.13570391452364963,0.10739550174539493
69,0.13356973718198611,0.12270164551381067
70,0.13194021944096795,0.10886571259635885
71,0.13064756892245707,0.1180210206582115
72,0.13159091214092375,0.12092999700647201
73,0.13215680604426264,0.11189508563797355
74,0.12784216893587808,0.11734327670286461
75,0.13592411091833043,0.11469996228681187
76,0.1315499483178958,0.11579045769361974
77,0.1332102709049411,0.11101192159809335
78,0.1299318075418663,0.10997945241877825
79,0.12688407104453436,0.11206280137959865
80,0.12438747865126265,0.11539004424651851
81,0.12540166712909626,0.11962886654378337
82,0.12534085115950236,0.11875666550452015
83,0.1253478203842743,0.09391049235841653
84,0.12321922902444346,0.11190403411157326
85,0.12034864155791873,0.09515621930070747
86,0.12724602347116074,0.12917887833987612
87,0.1277495679006374,0.12239547520392519
88,0.12314422591458901,0.08730193546581153
89,0.12425981455738302,0.1287852383708915
90,0.12717524167296407,0.11702436134400448
91,0.12790649859987802,0.12899690845321082
92,0.13128102645934153,0.1391978440300198
93,0.13172879083763608,0.11497584242141064
94,0.12543701486374206,0.13375690986084338
95,0.12400656507564507,0.13330650226864887
96,0.12528246038371893,0.1021807141064244
97,0.12317189991808204,0.10622311274718194
98,0.12190969220345453,0.11877082879840119
99,0.11936617230144952,0.10700332560098375
100,0.1210842514015418,0.1253903754363675
101,0.12187758577559546,0.13172393906725585
102,0.11894865650191509,0.09820117595373666
103,0.13305935960671633,0.11895115353886132
104,0.13617214173066605,0.13388975060696728
105,0.13301644945819918,0.09613675529866902
106,0.12423483572536416,0.1007800188885408
107,0.1225622354076804,0.14129625455403078
108,0.1292800669304078,0.12222011607904697
109,0.1286529904399947,0.11772833634636215
110,0.1322816395826393,0.12179021893215682
111,0.1357239507365408,0.12814525013905856
112,0.1395592633053195,0.13728802294650894
113,0.13905936213518927,0.11073053607056997
114,0.1364816652865912,0.13964619923198696
115,0.1368055464901191,0.12769187920985914
116,0.13654314067730722,0.11968180389783291
117,0.13697646386784204,0.11498927387853802
118,0.13808208299253444,0.13628346509838724
119,0.13689516620148268,0.12313965673574276
120,0.14487925083566608,0.122734935179244
121,0.1444416866720534,0.1313800792974954
122,0.14288080463989722,0.14877513924195143
123,0.1495861922315448,0.10958896649265715
124,0.14394573103174196,0.11014656310437272
125,0.1450904502814488,0.13645446126478433
126,0.14639267739686992,0.14140899275752072
127,0.16219033461639745,0.12696718457793185
128,0.15702113788351238,0.154647362179033
129,0.17819541000766312,0.1314525018232389
130,0.16037062071770836,0.13592297035750583
131,0.17774236504379226,0.21260430927887644
132,0.1819983731815107,0.16576133974180507
133,0.1886347644866181,0.13524823418281373
134,0.18437572260252277,0.19042201264061198
135,0.16266768591238367,0.16301070152504699
136,0.1858442598421446,0.18295996055454136
137,0.1706545485364045,0.1691273995777116
138,0.1630640144529249,0.12886444855683815
139,0.22006399602330237,0.19126135974953257
140,0.23334539234876825,0.44390133632360584
141,0.47429535190184846,0.460731900207221
142,0.4531420592167933,0.4427182486360864
143,0.4512235873980556,0.44482618609000685
144,0.45522763838378594,0.4632747047622322
145,0.4140089421307115,0.192333812937926
146,0.19818056921800487,0.18948027456522182
147,0.22229201901999351,0.18228283902782785
148,0.20648929385469855,0.20370676684505265
149,0.17097486819538046,0.13294187457046175
150,0.1492897069321765,0.15054734478442533
151,0.1447434197303006,0.12778519802792518
152,0.14486921995615748,0.09586348275851159
153,0.13897769508347976,0.16438324437669305
154,0.13867369938113863,0.13415219438385403
155,0.13973248577874312,0.11388632039398269
156,0.13997006365019765,0.14083084386123068
157,0.1414373493772015,0.12430216575045945
158,0.1494918137973695,0.1255584704626989
159,0.14696034295760316,0.14331520213432072
160,0.15836446624610118,0.1974454278010038
161,0.15329927961834913,0.14773117272909927
162,0.15335750217744118,0.10058421496564744
163,0.15547214087256916,0.15833871548169043
164,0.17850972837906443,0.19347822730220243
165,0.19946838618577528,0.2099708681873258
166,0.19609687636920317,0.19119245300956209
167,0.18118551418221027,0.2108931926359322
168,0.16913458440986703,0.14770431828058936
169,0.16162994071495257,0.2169445256150455
170,0.1663428653833912,0.17140149214551978
171,0.1868863235965216,0.17905432161091792
172,0.26870904213862956,0.5156515647460075
173,0.41696153930705293,0.36274174247344915
174,0.4463810574015777,0.48346775001563
175,0.4357405818873544,0.42940217372564793
176,0.42713199120411594,0.42024428157524085
177,0.42335663290859893,0.4208721474526089
178,0.4231490234645297,0.4209746648795413
179,0.4219000113425587,0.4209287921684308
180,0.4221273238798253,0.41463026612247766
181,0.42231301511164376,0.428336526138069
182,0.42173519412024296,0.4153600556765353
183,0.4215462982917042,0.4205033026955907
184,0.4219203040039568,0.42096770034509273
185,0.42193805904174636,0.4210791110702385
186,0.4218746612819316,0.42289264694714296
187,0.4212857727364028,0.42173093216552643
188,0.4229172715504137,0.4183864040966452
189,0.42161002684775306,0.4222541438885462
190,0.42104069029597685,0.41587086566946707
191,0.4221076817274857,0.4192039035774302
192,0.4211937939528946,0.42252285844991583
193,0.42134628327394885,0.41611309403920693
194,0.42071541274090213,0.41969945840688616
195,0.42114438466113313,0.41702888476974287
196,0.4211847442474434,0.41250881016109403
197,0.4216431614825781,0.41559679391707044
198,0.4213841322830336,0.414545534252637
199,0.42086034260385985,0.4132986479625408
200,0.4206537870620135,0.41797398367937466
201,0.41973826685268656,0.4090116957968459
202,0.4155738134089234,0.41852471894688076
203,0.415050360682108,0.4133340050704288
204,0.4143967283926934,0.40699066019889696
205,0.41462059391795203,0.41280031334744755
206,0.41421812794225704,0.40754931490786755
207,0.41430048040860745,0.40996061029805464
208,0.41420789467419883,0.40949901464695093
209,0.4150184052552673,0.4093350012758739
210,0.4152195188429377,0.40576047026714657
211,0.4145493230001749,0.405469949518097
212,0.4157691994626776,0.4080947964344195
213,0.41670782312905913,0.41356199817839234
214,0.41654671309851377,0.4130392926356121
215,0.41564200335354495,0.41108179343781237
216,0.4159715284434579,0.40848354568640005
217,0.41616156123417486,0.41140842582767606
218,0.41698128086409636,0.41310662637855206
219,0.41647990274610663,0.4186772942929759
220,0.4168871526984428,0.4099516355933354
221,0.41635453048422394,0.4107550663959661
222,0.41170272358758053,0.399288243572594
223,0.40968811378372105,0.4029851099725477
224,0.40897571075382566,0.4023764205481691
225,0.40843944980489244,0.40230041747158946
226,0.4086159250920443,0.40538493852642427
227,0.4087877699835383,0.40839449588786464
228,0.4093137771320687,0.40710229689477423
229,0.4079970367270722,0.40179279318497807
230,0.408059474799612,0.4020843310077695
231,0.4081440254318132,0.40460084839168836
232,0.4087363216187879,0.4058044155438741
233,0.4088554451640269,0.40490000985641356
234,0.4080350198466077,0.4004768384295755
235,0.40753462746011626,0.41861711088371584
236,0.4090983179972781,0.4009600748690956
237,0.40868389063639293,0.40486285088029417
238,0.40867849696484254,0.4042529585104306
239,0.4079233722222911,0.4136229505504135
240,0.408691803105265,0.401311647838823
241,0.40811753863568684,0.410543585394034
242,0.4082636532662295,0.4055858486953636
243,0.40816799193930875,0.414602091035897
244,0.407932907020788,0.4010937386959042
245,0.4083729884546217,0.4015212167788596
246,0.40758499989898994,0.41232328869807267
247,0.4081098334945804,0.40402880823428516
248,0.40782556100021466,0.3977128198885473
249,0.4080935408226293,0.404470633488792
250,0.40837443006143653,0.4048818848718982
251,0.4079895529201071,0.40493976898243633
252,0.40787360693713587,0.4077233676251027
253,0.40766879114463295,0.406018257672866
254,0.40823028875504425,0.40812137768893153
255,0.40792255426903934,0.41155523552415046
256,0.4083116695320635,0.4122015245542812
257,0.408591626511754,0.4008261214545947
258,0.40843536222191024,0.39851042828904065
259,0.40716101471379434,0.40772960796070024
260,0.4080567895721874,0.40721071477063964
261,0.40893670043246666,0.40399995221418766
262,0.40840048481933205,0.4071621718391208
263,0.40884216908839727,0.3987273066776706
264,0.40767249166726877,0.4007241787556604
265,0.4077621889744309,0.4115535765040337
266,0.4071056601331175,0.4112402607973088
267,0.4078312497958839,0.41349633034418387
268,0.4090047369034792,0.41059799553994136
269,0.40793518782902755,0.3997297988900883
270,0.4078268705247592,0.4037973249190625
271,0.4084096170597977,0.4100682297955658
272,0.40913126470328715,0.42177710338327234
273,0.4074758801630156,0.40225004564913325
274,0.4072468281865979,0.4036757191892378
275,0.4080252490036959,0.4058652964193262
276,0.40736149060573457,0.40426000440304394
277,0.4079394385015802,0.4066354704889358
278,0.4083468983228728,0.402125343523273
279,0.4078498104150244,0.40315912205904164
280,0.4091841791323226,0.4025305515851611
281,0.40786445699184776,0.4103376545126807
282,0.40814927747671464,0.40666637518303433
283,0.408331188454544,0.4016594024856982
284,0.4083977116046666,0.4006358892426487
285,0.40812090061921136,0.4045364460564201
286,0.4083406533762586,0.4087995046875096
287,0.40835339407189736,0.40331624125622195
288,0.4079791758779147,0.40795811771476354
289,0.40864399384507377,0.40066885740314184
290,0.40834682872049133,0.4044979396431019
291,0.4083066279168507,0.403713375233289
292,0.40870020756299635,0.3993142953947706
293,0.4083072621527436,0.40105038808790144
294,0.40785485396297383,0.396221180515181
295,0.40737140188224796,0.4120113244408625
296,0.40864357131543017,0.400426849251536
297,0.4076550487425921,0.40862737693925844
298,0.40760907696618187,0.40551777987681265
299,0.40795079755296315,0.4008824993997498
300,0.4082407750803724,0.40043688241002623
301,0.40728490156016417,0.4007798751630342
302,0.4081108777331199,0.41049458024855656
303,0.40719966436501404,0.40586260582312084
304,0.4082180487217189,0.4145062323856044
305,0.40732780621469833,0.4090762485456196
306,0.40763695292276225,0.3997178209427403
307,0.40857100722978745,0.4121253440414902
308,0.40765166668008096,0.40057523477299856
309,0.4086441598576102,0.4031013169137811
310,0.4073440151108657,0.4001803896771344
311,0.40696463650994724,0.4011949692087645
312,0.40772234657413964,0.4081597366133842
313,0.4075065808739063,0.40175354983491424
314,0.40800607353568175,0.399434232001177
315,0.4077829031275214,0.40352141173119865
316,0.40783872507256064,0.40289382956807246
317,0.4082023157917852,0.40612709137935127
318,0.4083384544468575,0.4033381914038631
319,0.4076134194675878,0.40029538313451085
320,0.40824811139089573,0.404168035378808
321,0.40864530995523957,0.41012977018940283
322,0.40714517300180475,0.4115129533523674
323,0.40755425714511123,0.40511779302228107
324,0.40801086579207135,0.39856495641153805
325,0.40871102211950683,0.40700056590593064
326,0.4077820430596988,0.4041097211770091
327,0.40838529985603855,0.4037458059368149
328,0.4087976292670489,0.40386380043729764
329,0.4077746680586504,0.40430396307027155
330,0.4081336663330527,0.40275656865170983
331,0.40837547906023486,0.4040065684506106
332,0.40809864968992027,0.4041393315124976
333,0.40779152091404647,0.40312101516120336
334,0.4077434717558975,0.4038018192446338
335,0.4084922900025228,0.4025757588077539
336,0.40842272460556106,0.4009528194659141
337,0.40799113849194363,0.39695970379329754
338,0.40752097708974677,0.39874362488732723
339,0.4072850717006444,0.40066493132785386
340,0.4082225759903654,0.4002062103560758
341,0.4073748750935754,0.40844022604090746
342,0.4085377765904435,0.40469374225474136
343,0.4081904684977115,0.40049960240057014
344,0.40796115406281097,0.399931711968811
345,0.4070586673348689,0.40777350876356466
346,0.40824501962066173,0.40330032425398565
347,0.4075259649104553,0.40194459582187253
348,0.40675351617811584,0.4002249573462394
349,0.4090493246614694,0.4083720293841706
350,0.4085692166327667,0.4107346301724634
351,0.4076226421887632,0.40091531982967166
352,0.4074855453257946,0.39874055493390376
353,0.4067784469064662,0.4049127828949173
354,0.4068257835528868,0.40037391172224973
355,0.4082223956731914,0.40445637292042075
356,0.4074171167478455,0.40011360637076193
357,0.40839075623415677,0.4011659658206544
358,0.4077214826408437,0.40640638861729667
359,0.40767623354092514,0.4051944214642193
360,0.40813860562059573,0.40137451901633087
361,0.4074521639568506,0.40843279595696047
362,0.40692188302644067,0.4056084184557659
363,0.40773212155692573,0.4025695186171799
364,0.407547548043432,0.40587525360969057
365,0.407421509727084,0.3965345374085704
366,0.40762340619241455,0.40020251764771614
367,0.40721700914961706,0.4070969936283062
368,0.4072581272992828,0.41028837174394706
369,0.406556889307413,0.40144917576755823
370,0.4074232648070857,0.40671268869297156
371,0.4074680406131966,0.3968879872478321
372,0.4078421290990732,0.40061429546600613
373,0.4072095251159729,0.4014317505696104
374,0.40744911375238574,0.4023441298406296
375,0.4071448514994094,0.4009101334521177
376,0.40652721827988436,0.4046162360582715
377,0.4073893448488535,0.4089437432629445
378,0.4075556152266822,0.4005432679753717
379,0.4070972153742472,0.40330592189392034
380,0.407747591157452,0.39703985678888587
381,0.4064229068587168,0.40146651095427444
382,0.4061586677765636,0.4034971859961724
383,0.4071652114248161,0.4055216632668603
384,0.4070618620173658,0.409184139309525
385,0.4069484115672932,0.3976625347659536
386,0.40718125539412015,0.4015118498823455
387,0.40765229734876235,0.40377892132029725
388,0.4068357632745257,0.39723194382679916
389,0.4070172198325563,0.40011397830761264
390,0.4071359500181589,0.39921051904329513
391,0.4067305538466303,0.39908693661945
392,0.4072814852452641,0.39792958317688587
393,0.4073636208871921,0.4016634164935481
394,0.407421324542277,0.39749432903233334
395,0.40715097054373844,0.4036323391173008
396,0.40723753121015643,0.4047785065131563
397,0.40726101793366687,0.3990095028380311
398,0.40616894537826076,0.40331892377945433
399,0.40636585039601886,0.40683826540701773
400,0.40737428047878443,0.3986504161058165
401,0.4071903765869675,0.3983860146631966
402,0.4069149791478538,0.40627932275395423
403,0.407051674884448,0.40457458640633803
404,0.4062878419462445,0.412090298129791
405,0.40651068656896955,0.4080129130429982
406,0.40681795684025707,0.4009055434593996
407,0.4073865007791069,0.403024475625735
408,0.40684716395133014,0.4012137672230178
409,0.4061390233693646,0.40124657298139893
410,0.4066855700088559,0.39936528741008176
411,0.40728074326526653,0.39902021016227646
412,0.40585930634728423,0.3988672939868642
413,0.4068146544255859,0.40996847989978774
414,0.4062361789761399,0.40158824609337257
415,0.4073170246101552,0.3975827036982905
416,0.4068732395756235,0.40637351721162634
417,0.40611375962571206,0.40017065205229846
418,0.4061456675931298,0.40085661988962207
419,0.4061415911293488,0.4054393148335227
420,0.4069210054804746,0.4027217752742071
421,0.40603153289462013,0.400155348209279
422,0.4077700654132735,0.40962384884084807
423,0.40712350104645406,0.40109548161209646
424,0.4069558836346726,0.4069994357863965
425,0.40698894766495647,0.39711883122710223
426,0.4069006751187808,0.4013770860042015
427,0.4061969711815862,0.40408570968998414
428,0.4061261363703313,0.407422127345666
429,0.4065530957270852,0.39935839159258574
430,0.4068052816906388,0.40689641524888787
431,0.40687376937215286,0.3977830047686701
432,0.40667092883653694,0.4003363088776402
433,0.40630436399347597,0.406144664791282
434,0.40606269063808326,0.41741676588708176
435,0.4052735460911683,0.4000542318057163
436,0.40661615594994843,0.40707547294349083
437,0.4063118486236438,0.3982769055329777
438,0.405980029208265,0.39823900754144304
439,0.40655854158252597,0.400324776877452
440,0.4066802538257298,0.405386866371707
441,0.40576045895166835,0.39765910575859736
442,0.40619346245323973,0.4020204835564551
443,0.40636794314420727,0.39923305382887136
444,0.4064168515827677,0.3965337287818912
445,0.40598493072392944,0.3977056858458368
446,0.40682554527747333,0.40376717248585586
447,0.40681247825952793,0.4036201746697747
448,0.405949406701627,0.4020830434652624
449,0.40673899979854794,0.4039511236347808
450,0.40672750050445095,0.4002438880327941
451,0.40642680237300877,0.4014306153500844
452,0.4065197510204857,0.40305714506205753
453,0.4049056113911591,0.403369874777295
454,0.4066647388655439,0.39755549864950745
455,0.4061339889601577,0.40165840112283185
456,0.4061870656317,0.40475508121098336
457,0.40595749212657095,0.39985755827981867
458,0.40652583118340224,0.3989271206867376
459,0.4063346472451742,0.4027630874323632
460,0.40630893039407495,0.39852703161483266
461,0.4059130311775818,0.4054506397885418
462,0.4060192058881442,0.3987944323119359
463,0.40577842630416133,0.40860797021317463
464,0.40440667789873835,0.40201583185625195
465,0.4060394958771163,0.39900690800565486
466,0.4059289194780698,0.39820698435385826
467,0.40636896747078677,0.4113941364721467
468,0.40667422615689597,0.4054534503674952
469,0.4070110410881386,0.3981111382480955
470,0.4063566681310785,0.40151433534285735
471,0.4057071019855855,0.3993610853309662
472,0.4059193554618437,0.4002368141506517
473,0.4052961229967823,0.39661391025042014
474,0.40595522175749554,0.404765127228221
475,0.40480812373545,0.40174352315413886
476,0.4062929014213759,0.4026033223303758
477,0.40530827890834015,0.3974442638378267
478,0.4051118145545451,0.4101711313896612
479,0.4053882200947946,0.3997619001969804
480,0.40586208052831807,0.3980883564875557
481,0.40443347575809596,0.39865303078223707
482,0.4048279589467091,0.39985444788901864
483,0.40588759330867097,0.40611834880886094
484,0.40419624008542543,0.4030118342443684
485,0.40534105308777435,0.3953152537249204
486,0.40558862834095094,0.40510911034648245
487,0.4060066890201156,0.3989153426058971
488,0.4055992481682757,0.39784800933805403
489,0.40541003087313293,0.4002229346072683
490,0.40519025408811243,0.3996318479620724
491,0.40561050329330545,0.3998077912535594
492,0.4045498794298157,0.4013982620649191
493,0.40593786418342515,0.40215650128332076
494,0.4053269896009047,0.3990567652848515
495,0.4059699577532166,0.4032618218771539
496,0.4054997143051546,0.40030934439861765
497,0.406215124518228,0.40251335027927515
498,0.4057747909338404,0.39961751616300845
499,0.4054495105870348,0.4025252489229575
500,0.40597411362622815,0.40160079763270157
