epoch,loss,val_loss
0,0.4885310409687537,0.4162304356682136
1,0.35866817537310414,0.24344912752666226
2,0.21054068160615413,0.19135978606447201
3,0.2201562939380244,0.24082387587401505
4,0.24233678136590578,0.23854318535482602
5,0.2550888608356683,0.27131255112425257
6,0.27177190506835286,0.25924458194581457
7,0.27615155884511383,0.2522067129732822
8,0.26769855847541957,0.2504396822669114
9,0.26633606645300256,0.253599218945627
10,0.2710343360531034,0.26454205261143066
11,0.2745779406628292,0.29131211116849554
12,0.2747419814022185,0.26335988218525225
13,0.27799087435937675,0.264863908037072
14,0.2813391775441609,0.27738587007180326
15,0.2808753166726535,0.26487597235797966
16,0.28212954154054676,0.267320522898015
17,0.28089039225736745,0.2807514231594616
18,0.2813310610880558,0.2679466397319494
19,0.28175108053619335,0.2770375177832222
20,0.28186752481327904,0.27843168341620417
21,0.28347672455853895,0.273075477775286
22,0.2801810398316078,0.27842523278449477
23,0.28091447958476645,0.2794671606118372
24,0.282666050106454,0.2747678895573836
25,0.27825157909249193,0.2723936928377244
26,0.27895599250510944,0.27252005684791497
27,0.27482632537476054,0.25944217646740747
28,0.27372807062703003,0.26873711828332747
29,0.27296984511866773,0.25892047523630407
30,0.2716264126060293,0.25665743827868165
31,0.2737338264302028,0.26300792970119796
32,0.27125239402079604,0.2640648865400053
33,0.2729637804116794,0.2566757746711555
34,0.2715925112831965,0.2700848632582009
35,0.2738488580616977,0.2708806374502298
36,0.27140773763004733,0.2608065433552472
37,0.2700044150360591,0.25907709950464874
38,0.26952808373589054,0.26764986638073407
39,0.27011931352943686,0.25816332124058833
40,0.26898526930637223,0.2539814808145347
41,0.2676310412603631,0.25294634126978777
42,0.26672001502173154,0.275790091788295
43,0.26820455687799105,0.2717122561015062
44,0.27188419186777835,0.2730019523158657
45,0.2738234922468805,0.26220682091763226
46,0.2787194796819225,0.2672317425530806
47,0.2793709040702201,0.2637226514500133
48,0.27722363652970144,0.2845817296633562
49,0.2740402718941816,0.26145740118049937
50,0.27345475920135254,0.2623785042535553
51,0.2729264978495381,0.27252434843067996
52,0.27448675093100106,0.2639868617396188
53,0.27278023350945085,0.25785984109788046
54,0.269338185854966,0.2582857566375802
55,0.27011733001069704,0.26592136590778587
56,0.26896312581695875,0.2684670320537549
57,0.2673073023307123,0.25657107158347253
58,0.2679412072782425,0.2661357758036495
59,0.26625075376778246,0.25515691422391307
60,0.2656734267278038,0.26023810480729603
61,0.267236879186405,0.2559022948762216
62,0.26698253973065805,0.2536696790440336
63,0.2670295810978636,0.2645590497726168
64,0.2670766681349211,0.24833920069902965
65,0.26618397416020506,0.2592229989250791
66,0.2677486636537948,0.26421870245308965
67,0.26684935872343846,0.2538743309030084
68,0.2676193113919732,0.26357224357630893
69,0.26727406813608734,0.2526056481418045
70,0.268090598482051,0.26152950652179346
71,0.2679210009218885,0.265985584292872
72,0.2694379411238112,0.2549548391298076
73,0.2695226891337632,0.25704221230450436
74,0.27051618129754657,0.2636129283629485
75,0.2714630184863643,0.27719217271748736
76,0.2707788359472234,0.26051907263097973
77,0.27218875886680033,0.26892915110663485
78,0.27259099656481856,0.26200605640059454
79,0.2735463134389672,0.25998030212577145
80,0.2746562715038192,0.2617154393801337
81,0.2736349308235441,0.2613333498837014
82,0.27664840266740826,0.26864442284863266
83,0.2778047629422527,0.26838878081131057
84,0.2776444897687941,0.2713112999463797
85,0.27853184016205196,0.26590431934193876
86,0.28001411766219464,0.27054556453750084
87,0.28320182207897243,0.27348311702265354
88,0.28002025476926035,0.2681375799726299
89,0.2812162239888938,0.2701405130526155
90,0.2822507050416296,0.27998529009623735
91,0.2829987913477507,0.2773270968465619
92,0.2842189638470534,0.27438601115469224
93,0.2847821135536206,0.2721640861865861
94,0.2851238598207458,0.28081537655041844
95,0.2857126446367742,0.2752975489753876
96,0.287232292483481,0.2714340975515647
97,0.2837868055240739,0.2747914358332983
98,0.28468001212736815,0.27742507192098503
99,0.2855686356214355,0.28098008775024613
100,0.28359080619626853,0.26827850183721297
101,0.2847980962718745,0.2763366810886819
102,0.2846107591358159,0.27785770579362823
103,0.2864537290793309,0.2713797994846265
104,0.28484059970459047,0.287661370859819
105,0.28668523790408745,0.27356886110795
106,0.2852388672930322,0.27619864428468766
107,0.28372343598579386,0.27698725655324463
108,0.28175511737887243,0.27474129018702353
109,0.2807948111569146,0.27597598112751
110,0.28156309277773667,0.2662737379084732
111,0.28125695089061703,0.2745187534540529
112,0.28233827528259675,0.2763840476986072
113,0.2828940639646651,0.2794706339117771
114,0.28344847498725567,0.2708553079415992
115,0.2826959870761638,0.2717415097034374
116,0.2820146043506787,0.2892648515209181
117,0.28228335814465516,0.29091221217401414
118,0.2815844748285506,0.2726055004445886
119,0.2827343178974141,0.26945813747073033
120,0.2822291533156239,0.27566899401524736
121,0.28022015076264845,0.2683198440998237
122,0.2811260761751281,0.2691383412332914
123,0.2799044919727419,0.2744383936550012
124,0.2813906266128091,0.2734164903295398
125,0.28119453364271846,0.2706944930147371
126,0.2823678564080436,0.26970372349628086
127,0.281200519387869,0.2742324320890994
128,0.28088670462560805,0.27853783567504775
129,0.2811968031229736,0.2751865337413206
130,0.28221142228194673,0.27774619751603064
131,0.2824203183619474,0.2737273676600383
132,0.28444485498772704,0.28284690916441557
133,0.28613526560217023,0.2754437330285418
134,0.28658311177578993,0.2825822601183971
135,0.2855112734642193,0.2781563918714299
136,0.2864510725208337,0.27306278330324535
137,0.28652891439137407,0.2802032544930969
138,0.2841234228389563,0.2733857057027863
139,0.2786017551457433,0.2681887619807676
140,0.2766895851879429,0.2622625149321189
141,0.2742687941575833,0.2636795295802733
142,0.2748149715727859,0.26562609941081505
143,0.27574490159272763,0.2609752264940342
144,0.27463738931666576,0.2689434647656802
145,0.27496314913726405,0.26843178753241814
146,0.2749157870610396,0.26747997091827797
147,0.2733519163796957,0.26390586351101125
148,0.27306275652517215,0.2761358567857201
149,0.27141601345341526,0.2643518093656159
150,0.2731978276951777,0.27811637146146145
151,0.27287184309253126,0.26527202211543977
152,0.2742395322498462,0.2695593113398417
153,0.27416783772868286,0.26989690905069785
154,0.27607594046285383,0.27202835914717394
155,0.2762141363789216,0.26394534188368796
156,0.27744840933763093,0.26602373532618534
157,0.27748240003163954,0.26960847506847985
158,0.2776603196875108,0.27416587802857184
159,0.27832949656644185,0.2706929382302369
160,0.2793279130629199,0.2816581868076363
161,0.27816070215381367,0.26751550978891075
162,0.2787070188692229,0.26382441098430925
163,0.27791405872429154,0.2707578891530234
164,0.27930854691015045,0.2702513985752769
165,0.2802889228666468,0.2677292347510269
166,0.28002059960766157,0.27430250973645404
167,0.279368541937909,0.2681985224951406
168,0.27963056705229944,0.2814703930323431
169,0.2795186045410349,0.273958456898161
170,0.2796424682721126,0.26824978541428735
171,0.279491417229271,0.26530662013424766
172,0.2788781336336445,0.27145845268377905
173,0.27962918561086164,0.2741444031228308
174,0.27952033896938716,0.2666979078007054
175,0.2798824043597003,0.267299639325459
176,0.2791222297162223,0.26559922697335264
177,0.27914586174693273,0.2757051291740337
178,0.27845919722791096,0.27142243147718165
179,0.2777674734186802,0.2684452250321899
180,0.278813727092657,0.26507551129378637
181,0.2790388608570572,0.266590890791101
182,0.27826577688666515,0.2658240260119759
183,0.27742915255747574,0.2640817668001921
184,0.2780374006164656,0.27015225615863
185,0.2773545192743989,0.26271833180897813
186,0.2771041534119267,0.2660680658577519
187,0.27728803904415417,0.2726377185557977
188,0.27781374124382097,0.2658786402421566
189,0.27875929593658144,0.27035271641643477
190,0.27746559198710136,0.27021863441446015
191,0.2775143990226036,0.26911168461491786
192,0.27840100415498376,0.2862383517567355
193,0.27749306285639014,0.2706449794049004
194,0.27789489185218336,0.26634941447680305
195,0.276441287395475,0.27141206057112294
196,0.2766352451508574,0.2696408860608996
197,0.278528540902991,0.26926197383525596
198,0.2758001880682975,0.2663292704635003
199,0.27767166692772516,0.26011516584048694
200,0.2765737165144389,0.2663970893703625
201,0.2786282356008231,0.2669808937588651
202,0.27890640513910303,0.26553405995351553
203,0.2783706802919543,0.2753868391986601
204,0.2786921647737463,0.2775738971777689
205,0.2787978719409892,0.2740802365836339
206,0.2770933563096987,0.2745733555022624
207,0.27761440654341174,0.277420914122368
208,0.27805753912421777,0.279378391784183
209,0.27805037843622715,0.2778436078086483
210,0.27835646715519236,0.28312031788160813
211,0.27716353236793806,0.274047674730553
212,0.27822815159781633,0.2836972887401937
213,0.27838454958054426,0.2685764173328248
214,0.2779792364212491,0.2636872025906121
215,0.27774491836969334,0.2695099796740291
216,0.27803583709810903,0.2704164314250683
217,0.27959009375664784,0.27212232008080894
218,0.2783942295848321,0.26735813406938863
219,0.27803824786499465,0.27136119710702966
220,0.27964032937088806,0.2680265618743494
221,0.2791856946744281,0.2691266602335765
222,0.2784030491753136,0.2696760843922622
223,0.2775681466222096,0.267823415987393
224,0.278776378071814,0.2639107423300484
225,0.27876277992112625,0.26570100122753043
226,0.2794466485158265,0.27776373261759557
227,0.278426292970526,0.26437189825791607
228,0.28022495961432653,0.27142615887032034
229,0.2777038905098497,0.274176102908085
230,0.2803125874436885,0.2680012770812877
231,0.27896506243867814,0.270862005330737
232,0.27869670384759615,0.2750347313944731
233,0.27852421163248003,0.26400880595338316
234,0.27870494879489904,0.2681998052760439
235,0.27871642717487627,0.26929877755222337
236,0.27901721128923973,0.2717360865871595
237,0.280281310168813,0.26735472866460164
238,0.27914688974213275,0.27109109445354945
239,0.27985471206679163,0.26422831458428575
240,0.27848884506259947,0.2618181077644096
241,0.2787171532515529,0.26466302646192613
242,0.27918725582458576,0.26503633560925505
243,0.2793388004132134,0.2719835508357966
244,0.2802472066483181,0.27329092008112316
245,0.2788274994401859,0.2689370079583882
246,0.28021600741066865,0.27140198500535395
247,0.2786201347318814,0.2732748204701718
248,0.2820200282480833,0.2701546315825865
249,0.28106679107018523,0.27185477016664383
250,0.2813945024298896,0.27025763868125396
251,0.28122742830800285,0.2708700852890084
252,0.2833212828151792,0.2802704876260069
253,0.2830346399803368,0.2770590843196236
254,0.28224527514916214,0.2707975074008337
255,0.2830102201566112,0.26874374391001987
256,0.28243961535376294,0.2877429065333086
257,0.28294134676289423,0.2835823183778042
258,0.2850510333601335,0.2714318906207058
259,0.28302429790636174,0.2765164420383303
260,0.2844555520290752,0.27132160971296193
261,0.28371113107455453,0.27935822921996184
262,0.2835654136094692,0.2721188012435005
263,0.2840816962828724,0.27646760224377537
264,0.2847203087386749,0.27367193119514305
265,0.28613053626709695,0.2758875181543469
266,0.2848501584952693,0.27825416235399747
267,0.28544277696608544,0.28282656905521536
268,0.2852357443782976,0.2706084587979104
269,0.2854987642018675,0.2787054055049375
270,0.2859495680829923,0.2800247360199134
271,0.28680801527012434,0.27570379708515175
272,0.2870993811467154,0.27133923666272236
273,0.28733332604885675,0.2869723877429189
274,0.2861057041142825,0.2784633298449079
275,0.2876981931139795,0.2826837035861329
276,0.28832736659088165,0.27810527276722086
277,0.2887387186336556,0.27805558228918137
278,0.29042302670361425,0.2902000496663993
279,0.28880059338503594,0.28542033538814493
280,0.28940136025579954,0.28310783241255344
281,0.28875559044657373,0.2769704356922527
282,0.28920939261670875,0.2817098019887834
283,0.29037140890228164,0.2845068466513503
284,0.2901338816130514,0.28151392882322746
285,0.2911874778431544,0.2786986828575459
286,0.29036869350268996,0.28171683162668326
287,0.29173494646962495,0.28888383669671447
288,0.2915588134558226,0.28583163045957044
289,0.29133623742980896,0.29029425756291266
290,0.29294692397451666,0.28625569087117064
291,0.29446587970463917,0.29165573190936983
292,0.29383610277843053,0.2891529268205214
293,0.29491472062322976,0.2872815484064726
294,0.2954638359055603,0.293325913116783
295,0.2942644084294478,0.2839553810819222
296,0.29491899655259446,0.28542021100635173
297,0.2945834047454085,0.2898901611300667
298,0.2936280655612747,0.2847828318796212
299,0.294055405804355,0.283719254248237
300,0.29508012552276625,0.286486382708739
301,0.2957632635430015,0.28649847275922674
302,0.294351450043072,0.28980798894858223
303,0.2949842277457945,0.28771040333013465
304,0.29421272110924707,0.2851759124507966
305,0.29635075429637875,0.288329760729058
306,0.2954796905561482,0.2886853294215933
307,0.2952147957513197,0.28734270257864747
308,0.2954426416403967,0.28992825226868835
309,0.29575940658203403,0.29912118142393673
310,0.2955555330404193,0.2835264670611975
311,0.294049589627022,0.28456369264765863
312,0.2947097067848695,0.28823740412960763
313,0.2943266377306347,0.2832245615470342
314,0.29255081743622324,0.28260059321158704
315,0.29467590577942165,0.2829132531947076
316,0.2938132084148516,0.2904094444453378
317,0.2935401476722798,0.2901486764810768
318,0.2961765026824297,0.2826572082096836
319,0.2958610200101705,0.2964693406009133
320,0.2955321661585135,0.2938843536744346
321,0.29750198471226436,0.28879389945124573
322,0.2969382927835799,0.297713546204741
323,0.29655623641774786,0.287751166840346
324,0.2988813635084131,0.2960869309772637
325,0.2978297730652784,0.29256447046294215
326,0.2958430375000112,0.2892345188839689
327,0.29755093811677874,0.28904006831402324
328,0.2959191639235823,0.2874677294724759
329,0.2972831979537125,0.28175627136269144
330,0.29665487055615297,0.28418487683844973
331,0.29680570585427996,0.2914042813402796
332,0.29558203030553604,0.2841347120611627
333,0.2955214814353791,0.29050742449889994
334,0.29458690019513817,0.2804319031313001
335,0.29337624998523104,0.28999727433857064
336,0.2918853819954863,0.29008991938969614
337,0.2924044210496571,0.27889047720184773
338,0.2920546785796328,0.28431224466482025
339,0.2912993174765089,0.28214631545669355
340,0.28986470991248986,0.2826036897647313
341,0.2893691543963931,0.28345165718935994
342,0.28699358242502016,0.2840583064840368
343,0.2747010278871195,0.26367033679651614
344,0.2734996272300223,0.26220314711066445
345,0.2739399692432894,0.2632490841117412
346,0.2731772526752672,0.26308575748720503
347,0.273463224480637,0.25994425402940624
348,0.2732564911687727,0.25802606305550096
349,0.273393198603196,0.2720302607794651
350,0.2736673362738042,0.26716259592012576
351,0.27341926174821424,0.2659531147351423
352,0.27321073774985066,0.26127161994419346
353,0.27243937250134276,0.262584981426222
354,0.27341874131114124,0.2601965403808198
355,0.2721338134476717,0.26465712470778197
356,0.2724910310392765,0.2613255982223025
357,0.27435166750243417,0.2716860453336102
358,0.2751579352850624,0.2673583928275089
359,0.276718242978267,0.2731858458421333
360,0.27762738650469326,0.2711673289392406
361,0.2780974153116095,0.27696683620981155
362,0.27962989468661376,0.288330053483096
363,0.27925459137432473,0.2736539475843371
364,0.2783954268018659,0.2748591796421753
365,0.2770254321342664,0.27305638745415045
366,0.2772396608435506,0.2676709545088897
367,0.2754806976219575,0.26756506105650757
368,0.2753884349528363,0.2704342110845391
369,0.2744073592144265,0.2626117511145583
370,0.2738426130792921,0.26746413274838104
371,0.27358868268368436,0.27077926028238886
372,0.2738734228645352,0.2657585057754006
373,0.2732549555677238,0.2619381864213015
374,0.27462086642237066,0.26692487718801816
375,0.2744075504658793,0.26716476514488335
376,0.27523236089438985,0.2747237022485756
377,0.27586567743694046,0.27043741196998233
378,0.2770646985253398,0.267102318438977
379,0.2765735574394727,0.2643329154787659
380,0.2771735081286598,0.2710718294033072
381,0.27561266798439554,0.28158990584392424
382,0.2781069588909348,0.27317460031163276
383,0.27728981314133033,0.2732526657911016
384,0.2787035994464345,0.2771652935847749
385,0.2781588754551806,0.2782598087580728
386,0.2789099434908148,0.2674313866429859
387,0.2774815625124115,0.271031517919156
388,0.278676895855712,0.2670881500571894
389,0.2792723852994921,0.2732167906593909
390,0.2799986325401225,0.27331651431800674
391,0.2806400325987414,0.2758797451019867
392,0.28017947879478966,0.2778443615076896
393,0.28040974717840755,0.270861786828714
394,0.2812288867129241,0.2733452445060764
395,0.28059115766691534,0.268462153959835
396,0.2819823691065164,0.2847841816371955
397,0.2816783901963165,0.27597606793614005
398,0.28344501486365753,0.27249136796736273
399,0.2842088298226376,0.27599584479836653
400,0.2843040365746634,0.2731451815038025
401,0.2825258346833736,0.28238273087499205
402,0.2816170275127821,0.26841731898831045
403,0.2806966995314849,0.27672964703089226
404,0.2811999558698568,0.2754830544374865
405,0.2804611765319486,0.27304436533507154
406,0.27961459958119045,0.274660384120829
407,0.27840235429682475,0.2721394140089032
408,0.28042178568217735,0.27041115462538295
409,0.27994734912609653,0.2775984540497106
410,0.2798843870969941,0.276794540185998
411,0.27956048658101246,0.2826500078791636
412,0.2801959289489888,0.2673957893037255
413,0.27989861870212873,0.2682574456504758
414,0.2801466944148008,0.27413835837554856
415,0.2817378518484038,0.27645147026842043
416,0.2817657059304613,0.28330660514104494
417,0.28176202350635354,0.278805094092045
418,0.2819462356517752,0.27515857319278825
419,0.28163276035323725,0.2759567911631676
420,0.2830747381640111,0.27371778205605124
421,0.2838492126489659,0.27634925221826423
422,0.2837559092727253,0.2787014053105728
423,0.2838971779716788,0.27358260910296384
424,0.28482589808652836,0.27341173589229584
425,0.2860967122895227,0.28952146594058376
426,0.28573644378955504,0.2799747615980116
427,0.28612414958645954,0.28121423838540777
428,0.2861164825811111,0.27594644524948636
429,0.2872317801412341,0.2785362139017913
430,0.2883510792596613,0.2834964421277885
431,0.2880175531542807,0.2864565960488857
432,0.2878085860998942,0.28606287876426545
433,0.28954532272439654,0.2755786515258718
434,0.2905894699599668,0.28342324873585095
435,0.2902246802699289,0.300860296587391
436,0.29015117838346455,0.27616858802620997
437,0.2901449209814362,0.28325840876727015
438,0.2906394319428359,0.2869550226813685
439,0.28998160470214435,0.2917342070801318
440,0.29195826476793274,0.28883591716065216
441,0.2911396050054708,0.2790995981764813
442,0.29070759482914393,0.28700396643357845
443,0.29060172733423517,0.28832029252156727
444,0.2912476013263194,0.29327841279522154
445,0.29242084430063886,0.28711859823868513
446,0.2932238844666985,0.2815677431160516
447,0.2927494601751443,0.2833590591620935
448,0.2932913773614851,0.28563776509556843
449,0.2946070228771175,0.29369138665829647
450,0.29468341784967816,0.28391950941868943
451,0.2942896844614879,0.28210089552093115
452,0.2934436518445408,0.2904271688508678
453,0.29378136563554014,0.281141445173641
454,0.2953787079875807,0.28333545213343164
455,0.29530751080609396,0.2836237980743201
456,0.29545254846684355,0.2943399973086777
457,0.29526084212301446,0.2903061539829019
458,0.29661439691451763,0.28650850725918403
459,0.2973592336519992,0.287305454618546
460,0.29505277373153177,0.2914490258655022
461,0.29670095858309536,0.29466919667432684
462,0.2959688352681905,0.2932195751674757
463,0.2969830101601976,0.2949581785552016
464,0.2964936556806079,0.28895520188657614
465,0.29765542109815285,0.28451686064257237
466,0.2975839070432944,0.2919391476808287
467,0.29791963816858275,0.2907108674664277
468,0.2968341531135064,0.28850339935595487
469,0.29775347205712566,0.29752273283542313
470,0.29739609721591703,0.2840536382874143
471,0.2954758837807169,0.2958475602345068
472,0.29579620477292323,0.28699908878681435
473,0.295600079423528,0.29341638209079207
474,0.2980827756756969,0.27752525767270664
475,0.29748998903889384,0.2794102373663623
476,0.29762743681883985,0.29104638726896903
477,0.2983410029744415,0.30160228621640633
478,0.2996185124636269,0.2826374078657409
479,0.2986732935122817,0.2889315382383359
480,0.29894969969677676,0.28573774736728114
481,0.2992584109187031,0.292293076967671
482,0.2983552250709889,0.2954993179099693
483,0.3004444588819821,0.30322077481222653
484,0.3001571290845199,0.29390540088180206
485,0.3007533769902465,0.3012082047778615
486,0.29976919545136615,0.28549454636140653
487,0.3002080655365204,0.2998890011705041
488,0.30112521423159644,0.2895349340765629
489,0.3009786136967359,0.28861138819197957
490,0.3000641064263516,0.29927244748609005
491,0.3012478830601522,0.297155527109454
492,0.30292415843189385,0.2943909622408564
493,0.30435347527241685,0.29173147145414
494,0.3026523387269844,0.2886068513382767
495,0.30286259758319733,0.2977939454743462
496,0.30218391298794384,0.29078391097661255
497,0.3014323566857579,0.2869314629786979
498,0.303954690670948,0.30051305123876
499,0.3053567780195187,0.2944136496032048
500,0.30452508667858247,0.29231630190783947
