epoch,loss,val_loss
0,1.153606515798309,0.9696059971926952
1,0.9549207917636066,0.940925820900576
2,0.9286660679680906,0.9198401790755799
3,0.919959899088781,0.918719584537732
4,0.9200673417342577,0.9205894270565871
5,0.7957341371236848,0.2045214107170979
6,0.1520862827260939,0.1344566933164148
7,0.13800933144038158,0.13726167834612382
8,0.13785085880799328,0.13428163330243645
9,0.13855952824696338,0.1327692711694107
10,0.1327877871578841,0.12993001579537394
11,0.12448454400400719,0.12674619212734534
12,0.12271030506997513,0.12411820127750352
13,0.12288805488362801,0.12237689168542164
14,0.12313857515923399,0.12095336246229436
15,0.10905843606595997,0.08630178697159498
16,0.09642034734758116,0.0966246762741221
17,0.09502696789341797,0.08670593134073928
18,0.09515429112770922,0.0923814099925568
19,0.09483763396895056,0.08753661288058767
20,0.09570855061539275,0.1038499306781642
21,0.09522557835146081,0.09671990444697894
22,0.09546347765969314,0.09156566701182871
23,0.09661625458406295,0.09308508158165173
24,0.09561909715517508,0.08659930728430296
25,0.09421003005915493,0.09070415803913362
26,0.09499718799733753,0.09336845701241629
27,0.09440552337084702,0.08957090977479652
28,0.09573809825796618,0.0895912072712681
29,0.09400005574771364,0.0926010850862285
30,0.09439198951348006,0.09553504549117951
31,0.0946109531860384,0.09054302512415037
32,0.09378200752423514,0.08668344032807943
33,0.09471506492687379,0.09060224347475188
34,0.09469820702488753,0.0872762563841573
35,0.09384447429254592,0.0868321736701987
36,0.09417975902426137,0.09138374219120564
37,0.09534734252204982,0.08874579893677387
38,0.09406659403164164,0.08685900771874097
39,0.09430717775602643,0.0894594015515827
40,0.09479320380058262,0.09359944973137933
41,0.09401215365032753,0.08829359495702645
42,0.09418284270563443,0.10525310106593617
43,0.09396501058478467,0.09018284035280093
44,0.09337523879648878,0.09224794683592744
45,0.09428146661365863,0.08659453726307899
46,0.09428688054017013,0.08970945195535868
47,0.09377296467284091,0.09310428088187978
48,0.09414857571379388,0.08855504896688152
49,0.09295885662158267,0.08647700187063566
50,0.0943332589100942,0.09166445883424516
51,0.09460779413390007,0.09911433936059717
52,0.09394682670911376,0.0911505042068473
53,0.09381961745558212,0.08783833756861606
54,0.0930313300386107,0.09231877043565308
55,0.09314443841516924,0.09331307282243816
56,0.09263551025520905,0.0899221834281742
57,0.09394947963478185,0.09005453213384648
58,0.09427935346137818,0.08653561436757748
59,0.09280023668065751,0.08796246334100678
60,0.09288109420799465,0.08838675007381191
61,0.09348426333623375,0.09126073177616865
62,0.09442871420370569,0.08719112805037216
63,0.09327985164079311,0.0922707878143828
64,0.09286729347190445,0.09965624987764854
65,0.09313475107065766,0.09340425776521655
66,0.09351054982567807,0.08547031881842107
67,0.09324935545102418,0.09200760452658398
68,0.09303137961867526,0.09108467470772945
69,0.09417068179520824,0.08883692218415251
70,0.09343538058099983,0.08526676577203948
71,0.09260241876395824,0.0891168112024387
72,0.09265030364843728,0.09190153337211408
73,0.09279470177914641,0.0861002335812827
74,0.09345953337985387,0.08789041781585002
75,0.09427987241608987,0.0856809106452235
76,0.09319528927497142,0.08976152884288233
77,0.09365329215283677,0.09511105963372643
78,0.09404010300616249,0.09047429159054017
79,0.0927885617282364,0.08996031807383578
80,0.09276814260083834,0.09050681536287578
81,0.09364109549871247,0.08567162261126202
82,0.09302404465629541,0.08967177239937794
83,0.09328581884002285,0.08608341792300767
84,0.09216910057229172,0.09037174790227501
85,0.09266352988451457,0.08594618716548345
86,0.09358391746747388,0.08768496310696404
87,0.09258467385215793,0.08817131918857278
88,0.09370152268400662,0.09625489711278062
89,0.09204007975989767,0.08679983769720971
90,0.09269317295596159,0.08837800566031502
91,0.09305072218191633,0.10405914464305303
92,0.09448739974867638,0.08912987661429372
93,0.09271599874914503,0.08707499270239015
94,0.09289339122722585,0.08668583484074978
95,0.09267282449872233,0.08801408477024827
96,0.0938502501478617,0.08879468344085505
97,0.09435161060875086,nan
