epoch,loss,val_loss
0,0.5599763642019696,0.5581964201927185
1,0.5581460763613383,0.5580694050391515
2,0.5579491757684284,0.5576967861652374
3,0.5578572402530246,0.5577016293207805
4,0.5577651269170973,0.5576853317419688
5,0.5577399422989952,0.557616828918457
6,0.5577028193208906,0.5575247738361359
7,0.5576739997069041,0.5575045390923818
8,0.5576514016522301,0.5575435701608658
9,0.5576204121112823,0.5576605441172918
10,0.5576299668418037,0.5579483534097671
11,0.557607471704483,0.5578609113693237
12,0.5575961031251484,0.5575097506046295
13,0.557579713013437,0.5575068548520407
14,0.5575742141803106,0.5574515117406845
15,0.5575602889325884,0.5576118669907252
16,0.5575510668092304,0.5574414505561193
17,0.5575498591131635,0.5576667400201162
18,0.557539872818523,0.5574296698172887
19,0.5575377081102795,0.5574253598451614
20,0.557542561729749,0.5577251304785411
21,0.5575240448448393,0.5574483410517375
22,0.5575223798354467,0.5578295391003291
23,0.5575217422909207,0.5575319439570109
24,0.5575174043840833,0.5574111280838648
25,0.5575123375124401,0.5574591146707535
26,0.5575104806158278,0.5576258662144343
27,0.5575149204333624,0.5574403212865193
28,0.5575046076244778,0.5574049577315648
29,0.5575009793837865,0.5574618151982625
30,0.5575002429352867,0.5575579477945963
31,0.5575015501578648,0.5579528287649155
32,0.5575025625361336,0.5574724214076996
33,0.5574952922927009,0.5574656960169474
34,0.5574905259741677,0.5573873917261759
35,0.5574897284375296,0.5577299766540528
36,0.5574851301511129,0.557491037050883
37,0.5574850517643822,0.5574390088319778
38,0.5574852586984634,0.5581629480520884
39,0.5574818208879895,0.5573698991139729
40,0.5574829803307851,0.557415067911148
41,0.5574827360974418,0.5574236710866293
42,0.5574809474415249,0.5574147011041641
43,0.5574751176966561,0.5574061674276988
44,0.55748117963473,0.5574300287167231
45,0.5574831125868691,0.5576815048058827
46,0.5574778629011578,0.5575240766207377
47,0.5574637720452414,0.5575093758503596
48,0.5574762068986893,0.557433289249738
49,0.557483619650205,0.557468636949857
50,0.5574713470406002,0.5573869346777598
51,0.5574608410729303,0.557419864654541
52,0.5574736309448878,0.5576506551901499
53,0.5574682452546226,0.5573848381837209
54,0.5574645159376992,0.5574707154830297
55,0.5574671988222334,0.557428583820661
56,0.5574675306611591,0.5574534555276235
57,0.5574602369467417,0.557506055355072
58,0.5574713528023826,0.5573662083943685
59,0.5574638098478317,0.5575983911752701
60,0.5574676637252172,0.5573661421537399
61,0.5574640391270319,0.5574841750065486
62,0.557469663368331,0.5573937226533889
63,0.5574584022627936,0.5575113142728806
64,0.5574607427650028,0.5573702145814896
65,0.5574590480460061,0.557685364206632
66,0.5574644947184457,0.557395504673322
67,0.5574627944893307,0.5574424417813619
68,0.5574595521820916,0.5573666960398356
69,0.5574632238282098,0.5574358011881511
70,0.5574585204521815,0.5573856881856918
71,0.5574512775739034,0.557372917731603
72,0.557458877907859,0.557608442902565
73,0.5574593229558733,0.5574754285812378
74,0.5574576314820183,0.5575653363068899
75,0.5574575739436679,0.5576998887856801
76,0.5574635955757565,0.5574254096746445
77,0.5574698374933666,0.5574862418174744
78,0.557456802950965,0.5574681843519211
79,0.5574600854449802,0.5573838220834733
80,0.557453012280994,0.5575799445708592
