epoch,loss,val_loss
0,0.4496895428366131,0.4475167172551155
1,0.44771725849310556,0.44866448758045835
2,0.4475103671616978,0.44736394453048706
3,0.35316914546489714,0.33658881558974585
4,0.33677143346601063,0.3368658336400986
5,0.33671770579947363,0.33643829530477526
6,0.3366594540675481,0.3364430014292399
7,0.3365899654626846,0.33644989717006685
8,0.3365744099087185,0.33650904230276746
9,0.336553526699543,0.3363549851377805
10,0.33652881719668704,0.3370016938050588
11,0.336511624581284,0.33635068172216415
12,0.3365065190328492,0.3365917831659317
13,0.3364816635714637,0.3373979825178782
14,0.33647249444325766,0.33639963177839916
15,0.33646249557203717,0.33642676152785617
16,0.3364546386003494,0.3363598443468412
17,0.3364472427897983,0.3363183776338895
18,0.33643536848492095,0.33628306768337884
19,0.33642706604136363,0.3362985107501348
20,0.3364065132869615,0.3362937749028206
21,0.3364023544390996,0.3369969680110613
22,0.3364046225680245,0.33631929047902426
23,0.3363950782020887,0.33631762649615604
24,0.3364006145861414,0.33627776145935057
25,0.3363893416788843,0.3364729956785838
26,0.33638749267657597,0.33626206205288567
27,0.33638628327846526,0.33625121277570724
28,0.3363806139164501,0.33638885035117466
29,0.336384437945154,0.337074644168218
30,0.3363802331023746,0.33664969114462534
31,0.3363761789533827,0.3362622010111809
32,0.33635377436876296,0.33618128987153373
33,0.3363603839211994,0.3363362803260485
34,0.33635207932525213,0.3363055187861125
35,0.3363522635764546,0.3375909994840622
36,0.3363301670418845,0.33622075444459915
37,0.3363320122559865,0.3368041931390762
38,0.3363336444629563,0.3363170950611432
39,0.3363154263827536,0.33653104265530903
40,0.3363155556122462,0.33644213342666623
41,0.3362905753453573,0.3369998485048612
42,0.3362783840431107,0.3361713006695112
43,0.33623495111862817,0.336100547571977
44,0.3362342275977135,0.33607576121886573
45,0.33622321794430415,0.33608959913253783
46,0.3362233557038837,0.3360773593982061
47,0.33620280353890525,0.33614056307077406
48,0.3362357815636529,0.3361124931573868
49,0.3362107723289066,0.33616704839468003
50,0.3362312467959192,0.336310411910216
51,0.33623006717363996,0.3367023734052976
52,0.33621418615844517,0.33621675594647726
53,0.3362196905612946,0.336099285642306
54,0.336228739394082,0.33616376741727194
55,0.33622570959064696,0.3361741053263346
56,0.3362266914513376,0.33698369026184083
57,0.3362102520068487,0.3370344108740489
58,0.3362285056379106,0.33617258073886236
59,0.33621121065484155,0.33605724388360975
60,0.336214213695791,0.3361247347394625
61,0.33621088743872113,0.3361073892712593
62,0.33622245743539597,0.33633217531442644
63,0.33620761596494253,0.3365801437298457
64,0.33620883635017607,0.3361791649858157
65,0.3361980463994874,0.33679027783870696
66,0.33621341713931824,0.3362879044016202
67,0.3362233961224556,0.3362449900706609
68,0.336216191901101,0.3364470364848773
69,0.3362042840388086,0.33604875089724856
70,0.3362115900648965,0.3360608719786008
71,0.3362154266370667,0.3360840748151143
72,0.33621415944894156,0.33624410086870193
73,0.33620009579923416,0.3360666848818461
74,0.33620961211125056,0.33619037119547523
75,0.33619911293851007,0.3360816187858581
76,0.3362097218169106,0.33663502291838326
77,0.33619622716638775,0.33658449856440226
78,0.33620443923605814,0.33612420938412346
79,0.3362111626068751,0.3361045306921005
80,0.33620315531227324,0.3360583950479825
81,0.3362037859161695,0.3363461217681567
82,0.33619599170154996,0.3364052310387293
83,0.3361987082031038,0.33604685844977694
84,0.3361987851195865,0.33607809255520504
85,0.3362093675865067,0.3362494851549466
86,0.33620072727070915,0.3360603821873665
87,0.33620595769087475,0.33609118227163953
88,0.33620781611071693,0.33606252799431485
89,0.3361977860927582,0.33620863358179726
90,0.33620228255457346,0.33631393913427987
91,0.33619671729538175,0.33602360502878825
92,0.336201771914959,0.3360715028047562
93,0.336210701002015,0.33618860560655595
94,0.33621257295211154,0.33617921568950015
95,0.3362046816017893,0.33610493795077007
96,0.33620323407649993,0.33609656367699303
97,0.33622727724578644,0.3362449631492297
98,0.33620309967464873,0.33605384717384973
99,0.33621000063419343,0.33615080575148265
100,0.33620333438449435,0.3361545877059301
101,0.3361952968041102,0.33606163555383683
102,0.3367971097297139,0.33627669435739516
103,0.3362574137581719,0.33610092449188234
104,0.3362136063112153,0.33614308285713196
105,0.33622405648231507,0.3360809484322866
106,0.33622783213191565,0.3362700816194216
107,0.3362123133209017,0.3364129932920138
108,0.33622291034460067,0.33619593785206475
109,0.3362109462155236,0.33618270595868427
110,0.3362241481542587,0.33608082570632297
111,0.33621533117691677,0.3360846799810727
