epoch,loss,val_loss
0,0.5357370255969829,0.4810536432246899
1,0.46392654499308983,0.43166998323636235
2,0.43364872688575207,0.43431263881684895
3,0.43280613670547646,0.42967704218862895
4,0.4326008828140622,0.43350185747564274
5,0.42997540133871776,0.4259007261810705
6,0.4295950861001988,0.427749981579506
7,0.4296716967041345,0.43427272879390916
8,0.43141413815886237,0.437672208816369
9,0.43243458203738744,0.43615175347355256
10,0.43222747363740677,0.4293308678141282
11,0.42975064510818095,0.4294482644070287
12,0.4278021070053331,0.42418114208923735
13,0.4303685384358856,0.43785598620301036
14,0.43013598058250446,0.43311784804979186
15,0.42743930375700095,0.42003000099196824
16,0.4249435307337247,0.41856653351466633
17,0.42633151103726763,0.42355517427900025
18,0.4278300502020612,0.4311431940502977
19,0.42831614612339974,0.4278624142125092
20,0.4271159474972823,0.4306383368114292
21,0.4238941610527573,0.42331851991036995
22,0.42285839186085045,0.4249433251724723
23,0.42382598313405284,0.4236860228861045
24,0.42383219143025297,0.42457064691347896
25,0.425901228482958,0.42680101416890254
26,0.4258386013124159,0.41916065204462577
27,0.4236903660792747,0.42028554415954195
28,0.4238707618273383,0.4202749650843822
29,0.422445452027172,0.4149585339419743
30,0.42170403008942037,0.4152049731164083
31,0.42118404244928004,0.4168193052913344
32,0.4195574854282115,0.4173910737472729
33,0.4184125991011735,0.409287663924433
34,0.41636233103332565,0.4213324274024824
35,0.4168122836692129,0.41225584543824484
36,0.41648096859073336,0.4130189597413294
37,0.41721094882278276,0.41051044755608496
38,0.4153039205589707,0.41581092292664984
39,0.41635068053240964,0.4143079347177337
40,0.41640547933198624,0.4192679712227081
41,0.41681133314454144,0.41333955910664116
42,0.4155544445717974,0.41946255358272905
43,0.41705098853195255,0.4127868241830657
44,0.41628882725588123,0.41074090031038335
45,0.4159627411010458,0.4157230756143584
46,0.4161540699706639,0.41656933414288294
47,0.41523454640749646,0.4155124321954577
48,0.41557005808962355,0.42136401713909605
49,0.41639619149428736,0.4142851428055512
50,0.41571657500379655,0.41446219497063447
51,0.41463613613926953,0.41491692148856
52,0.4151097139160188,0.4109474200595228
53,0.41581485747956964,0.415176020341488
54,0.4153571931885375,0.4114863686656333
55,0.41567968255620275,0.41294940786446777
56,0.4153675882099532,0.4103770016512055
57,0.4156833136315533,0.41596169872488903
58,0.4155782231027551,0.4164915370776802
59,0.4148107914327143,0.410724381726637
60,0.4135679729086003,0.4120108606799869
61,0.4140002226428665,0.4161007078991416
62,0.4140506145522726,0.4137668054904381
63,0.41285540830430456,0.4091991180824441
64,0.41398252483555753,0.4093845745507818
65,0.4141505025953556,0.41820451170085216
66,0.4136833740626458,0.4078167533594133
67,0.4135327153653503,0.4175164178195081
68,0.4122910874070312,0.4128236511279583
69,0.41327498866330153,0.41314264873325196
70,0.4126915856301069,0.41234803352042704
71,0.4134318948484021,0.40890831809070954
72,0.41302995319314917,0.4059911130988685
73,0.41339532315158384,0.41230321740195314
74,0.4130387263502284,0.4125668988514024
75,0.41290093843845294,0.40861913312864034
76,0.4147591436381718,0.4124198486818498
77,0.4149718048264257,0.4114722544984516
78,0.41638455100303845,0.4167514243265138
79,0.4152516353311684,0.430293989490902
80,0.4167493563398922,0.41655356163236057
81,0.4170253401498398,0.4135070910854061
82,0.41725459641175233,0.4130320703702928
83,0.4167261782577269,0.41339698893117016
84,0.41629905175504156,0.4095627340183738
85,0.41650864973461466,0.41552967442213185
86,0.41679918795847914,0.4138753117581064
87,0.41777778664429344,0.416417709618976
88,0.4174975823936126,0.41432701748556366
89,0.4175972856098027,0.41612248259255874
90,0.41899135984402835,0.41650227751561714
91,0.41980188731864704,0.4165694330247166
92,0.41935241366740317,0.41675314312046946
93,0.41978099820516507,0.41683296843553497
94,0.41936041184479567,0.4212186533265837
95,0.4186743150194518,0.4212803060410957
96,0.41660047058251687,0.4112376029280657
97,0.41345587038726594,0.4107540928292642
98,0.41303873783927425,0.40885285957016215
99,0.41482942661731315,0.40853033999747024
100,0.4141523617806675,0.41434665037574364
101,0.41415390010782965,0.4100830903743595
102,0.4128341756051211,0.406469736728645
103,0.4124903517832653,0.41164007173837536
104,0.41226857913743026,0.41180291218382503
105,0.4125661048009168,0.4124124103557358
106,0.4118277180233032,0.4043212257210839
107,0.41216580035258904,0.4080768528259197
108,0.4124290507444866,0.408211373282175
109,0.4127121651955277,0.41147331575600965
110,0.41254460835475937,0.4093083107461798
111,0.4120084345221424,0.40536184020382743
112,0.4118140940073493,0.4086133121767377
113,0.4114338104800285,0.40873616409321095
114,0.4118689464940559,0.40927819635746254
115,0.4114557781082998,0.4104520297591897
116,0.4109768450284023,0.4054920260295187
117,0.4110989708772557,0.4098329293660197
118,0.41155180336237907,0.41259926980526007
119,0.41261764022233105,0.407999523678932
120,0.41385634134921007,0.4109002136642722
121,0.41395971226730377,0.4079254556504673
122,0.41279583484578647,0.407984191532166
123,0.4121863308002512,0.40867200996560576
124,0.41220888713772913,0.40869730365344015
125,0.4124884711111709,0.4157209847385286
126,0.41293489763601193,0.409643277368793
127,0.4127193282397868,0.4070707752225076
128,0.4127329884766578,0.4061950179782227
129,0.41245314550457046,0.4060037636408841
130,0.41072674043136564,0.41215921826026153
131,0.4128459237808223,0.41180151394007175
132,0.41300273032260953,0.4080305995974034
133,0.411911248969879,0.40847166089245873
134,0.41232033219453906,0.4094333978851733
135,0.41124343200384667,0.4080581492461137
136,0.41214138436451064,0.41054602862854656
137,0.4123183615666757,0.40953801602536066
138,0.41140113187561617,0.40467222606565345
139,0.4101971646157907,0.4102566860259691
140,0.4092822927203152,0.40194093381014667
141,0.4093298846430736,0.4058689210391683
142,0.4087785894127251,0.40491376646823835
143,0.41015056225421237,0.406060462281265
144,0.41069851560388404,0.41379081605898105
145,0.4132245165333927,0.40874538565204094
146,0.4126553991444117,0.40634819891814383
147,0.41227731874601853,0.40892923076464116
148,0.41286147170490606,0.4103211673506855
149,0.4140084894229356,0.4118733119162136
150,0.41397868997579196,0.4093746087556918
151,0.41344677146861225,0.40967657635198407
152,0.41281169365414433,0.4103696302775919
153,0.41342713077179044,0.4125935846194927
