epoch,loss,val_loss
0,0.8901547402143478,0.8895396341085434
1,0.889455953306622,0.8893559189240138
2,0.8893910407622655,0.8893885850906372
3,0.8893542220460045,0.889312075972557
4,0.8893286069764031,0.889513325770696
5,0.8893086942699221,0.889419302503268
6,0.8892999582423105,0.8892744629383087
7,0.8892877266142103,0.8892594490845999
8,0.8892846946981218,0.8892774164676667
9,0.8892782618734572,0.8892720482349395
10,0.889279245879915,0.8892619503339132
11,0.8892733100122876,0.8892796585559845
12,0.8892704845666886,0.8892870392799378
13,0.8892684419552486,0.8892837652365366
14,0.889267892466651,0.8892644863526027
15,0.8892666542397605,0.8892463069756825
16,0.8892650473912557,0.8892468671401341
17,0.88926471555233,0.8892322207291921
18,0.8892642381456163,0.8892398949066798
19,0.889263571884897,0.8892494188944499
20,0.8892626977231768,0.8892569183111191
21,0.8892638109789954,0.88925763742129
22,0.8892621260351605,0.8892316579818725
23,0.8892604162163205,0.8892587908506393
24,0.8892600650257535,0.8893471217552821
25,0.8892610693640179,0.8892427639166514
26,0.8892614356014463,0.889232630332311
27,0.8892591081990137,0.8892377005418142
28,0.8892588442696465,0.8893662465413411
29,0.8892556606796053,0.8892588524023691
30,0.889258596777916,0.8892356086174648
31,0.8892567052311368,0.8892383231321971
32,0.889257040699323,0.8892793460289637
33,0.8892566388580534,0.8893420881827673
34,0.8892573812935087,0.8892469804684321
35,0.8892543326351378,0.8892742097775141
36,0.8892560325331158,0.8892357247273127
37,0.889256335457166,0.889290237903595
38,0.8892529484960768,0.8892944158315659
39,0.8892571238544252,0.8892414008378983
40,0.8892541930410597,0.8892280043760935
41,0.8892545112371445,0.889231241106987
42,0.8892556226783329,0.8893438858588537
43,0.8892521251704958,0.8892286825180054
44,0.8892534326579836,0.889303194642067
45,0.8892545114093356,0.8892316711743673
46,0.8892519254551994,0.8892365885178248
47,0.8892521799405416,0.889274222056071
48,0.8892521282831828,0.8892244350115458
49,0.8892521962457233,0.8892675657669703
50,0.8892534812821282,0.8892465618451436
51,0.8892524320814345,0.8892285721302032
52,0.8892516722414229,0.8893300465742747
53,0.8892516682942708,0.8892256087462107
54,0.8892508632077111,0.8892631897926331
55,0.8892504002518125,0.8892247836192448
56,0.889251327170266,0.8893385657072067
57,0.8892511693106757,0.8892704124450683
58,0.8892500707043541,0.8892627695004145
59,0.889249499519666,0.8892803520758946
60,0.8892503324349721,0.8892230839729309
61,0.8892520234982173,0.8892225138346355
62,0.8892501619259516,0.8892779764731725
63,0.8892510101397832,0.8893133297363917
64,0.8892511630455653,0.8892872038682302
65,0.8892491065131294,0.8892368252674738
66,0.8892488309409883,0.8892404472033183
67,0.8892503147787518,0.8892322198549907
68,0.889249683353636,0.8892416816949844
69,0.8892498570945527,0.8892282597223917
70,0.8892490596638786,0.8892252916495005
71,0.8892492968771193,0.8893067581256231
72,0.8892482229206297,0.8892255790233612
73,0.8892484468221664,0.8892238097985585
74,0.8892489129304886,0.8892405349810918
75,0.8892489406267802,0.8892277705669404
76,0.8892514913611942,0.8892343331972759
77,0.8892490018473731,0.8892251565853755
78,0.88925021329191,0.889272652943929
79,0.8892485180960761,0.8892218042214711
80,0.8892487777339088,0.8892376751502354
81,0.8892493210633596,0.8892317591110865
82,0.8892478875848983,0.8892579264640809
83,0.8892480418549643,0.8892283498048782
84,0.8892508786254459,0.889223100622495
85,0.8892490805652407,0.8893124085664749
86,0.889251009689437,0.8893174785375595
87,0.8892476316028171,0.889264911810557
88,0.8892483838531706,0.8892320556243261
89,0.8892479965951707,0.8892285933891932
90,0.8892489198313819,0.8892309969266255
91,0.8892480722533332,0.8892735515832901
92,0.8892465025848812,0.8892228167454401
93,0.8892476117081113,0.8892428997755051
94,0.8892503870328268,0.8892286624113719
95,0.8892479495075014,0.8892352624734243
96,0.8892477800978554,0.8892282685836156
97,0.8892480300135083,0.8893114457130432
98,0.8892498041391372,0.889228306611379
99,0.8892483546733856,0.8892263969580333
