epoch,loss,val_loss
0,0.7798632145722707,0.7789188321431478
1,0.7789802947309282,0.7788077178398768
2,0.7788208439217673,0.7787547232309977
3,0.7787487742238575,0.7789531119267146
4,0.7787126012643178,0.7788779580195745
5,0.7786827274296019,0.7788526295026144
6,0.77866927699248,0.7786080780824025
7,0.7786561965412564,0.7789030965566636
8,0.778644022597207,0.7786021006902059
9,0.7786349768638611,0.7785599992275238
10,0.7786233597331577,0.7786032751401265
11,0.7786202134026421,0.7785551371574402
12,0.7786115974055396,0.7785373173554738
13,0.7786074662473467,0.7785858259995778
14,0.7786059817605548,0.7786378684043884
15,0.7786017065842946,0.7785363917350769
16,0.7786059293746949,0.7785732146104177
17,0.7785909700923496,0.7785631271998088
18,0.7785916085773044,0.7789041196505229
19,0.7785868601401646,0.7785439470211665
20,0.778591036717097,0.7785452528397242
21,0.7785829453733232,0.7785221105416615
22,0.7785824001895056,0.7786071383953095
23,0.778571342587471,0.7785434672037761
24,0.7785761487616433,0.7785571163495382
25,0.7785748942957984,0.7785814811786016
26,0.7785697429842419,0.7788911137978236
27,0.7785699880917867,0.778577744881312
28,0.7785711673498154,0.7785887316068013
29,0.7785607745117611,0.7785234303077062
30,0.7785596660905414,0.7784964084625244
31,0.7785550004641215,0.7786594551404317
32,0.7785568863683276,0.778652796626091
33,0.7785522562530306,0.7786255321502685
34,0.7785553491512934,0.7785256725947062
35,0.7785530258682039,0.7785917993783951
36,0.7785526973538929,0.7785120493968328
37,0.7785504012240304,0.7785635143121084
38,0.7785526141325633,0.7785278188784918
39,0.7785449916919073,0.7791592237154643
40,0.7785407492319742,0.778501412987709
41,0.778542418744829,0.7785977303981781
42,0.7785436179373,0.7785057122707367
43,0.7785397228399913,0.7785103995402654
44,0.7785409928560257,0.7785816615025203
45,0.7785448496739069,0.7785023763179779
46,0.7785438324610392,0.7784766964515051
47,0.778537815451622,0.7787108522256215
48,0.7785303578509225,0.7785791741212209
49,0.7785309444798364,0.7785056900978088
50,0.7785333314736684,0.7785026259819666
51,0.7785324546893437,0.7786742122968038
52,0.7785338813861211,0.7784900092283885
53,0.7785297859509785,0.7785148158470789
54,0.7785366759035323,0.7785628848075866
55,0.7785264531506433,0.7785606789191564
56,0.778531596104304,0.7785092262029648
57,0.7785262550645404,0.7784895720879237
58,0.778529769566324,0.7785306347608566
59,0.7785313529703353,0.7789215856393178
60,0.7785218470229043,0.7786506649255752
61,0.7785249281856749,0.7785038948456446
62,0.7785218741761314,0.7784913816054662
63,0.7785248510175281,0.7785268346468608
64,0.7785258427460988,0.7786982179482778
65,0.7785275585783853,0.7785071129004161
66,0.7785229455629985,0.7784645366271337
67,0.7785230471558041,0.7785254079898198
68,0.7785159573819902,0.7785022634665172
69,0.7785178579092026,0.7784906119505565
70,0.7785205885701709,0.7785472622712453
71,0.7785158086352878,0.7785453817844391
72,0.7785193233622445,0.7784564325412114
73,0.7785157843695747,0.7785832779010137
74,0.7785177048179839,0.7784561074574788
75,0.7785175034205118,0.7784658824205398
76,0.7785143814484279,0.7784824085235595
77,0.778516701804267,0.7785330491860708
78,0.7785118775367736,0.7784945360819499
79,0.7785163414478302,0.7784598683913548
80,0.7785129138231277,0.7784694109757742
81,0.7785142325295342,0.7784744550784429
82,0.7785113437308205,0.7784688201347987
83,0.7785124302970039,0.7784713022708892
84,0.7785140047073364,0.7785403116544087
85,0.7789087144798703,0.7786148071686427
86,0.7785011152293947,0.7785773134231567
87,0.7785044823884963,0.7784882111946742
88,0.7785108112361696,0.7784826775789261
89,0.778512868920962,0.7785636746486028
90,0.7785083336035411,0.7784680107831955
91,0.7785126209126578,0.7784995302359263
92,0.778517729335361,0.7786061283747355
93,0.7785120351049635,0.778610552072525
94,0.778507692443,0.7784938268264134
