epoch,loss,val_loss
0,0.28991715995470685,0.2868376470804214
1,0.28738922673463824,0.2870264843304952
2,0.28711179072989357,0.28664708256721494
3,0.28705294504430556,0.2866525863806407
4,0.2869396244486173,0.28659647570053737
5,0.2869715342190531,0.2867758114139239
6,0.2868930180999968,0.286582673450311
7,0.2868766890896691,0.2866161427895228
8,0.2868801529539956,0.28654832565784455
9,0.286831411394808,0.2866362095673879
10,0.28683026107152304,0.28656151342391967
11,0.28684439182281496,0.2865409253835678
12,0.28679315498140123,0.2865644383033117
13,0.28679433262348175,0.28656275087594985
14,0.28679451126522487,0.2900988362034162
15,0.28676688900258807,0.2865345179835955
16,0.2867877799669902,0.28652729856967923
17,0.2867803754342927,0.28656074865659076
18,0.28672169323099983,0.28655191681782405
19,0.2867900896535979,0.2865712057352066
20,0.2867611547774739,0.28669013625383377
21,0.2867259788579411,0.28661431912581126
22,0.28675090209643045,0.2865342021584511
23,0.286787297738923,0.28655661863088605
24,0.2867463389370177,0.2865844694773356
25,0.28674120678504306,0.28652737514177956
26,0.28674637619654336,0.2865259021917979
27,0.2867348599831263,0.28659499702850977
28,0.2867407705783844,0.28658166619141895
29,0.28673083459006415,0.2865746777057648
30,0.28673047171698673,0.2865181186795235
31,0.2867396647002962,0.28651457140843073
32,0.2867236446009742,0.28661108841498695
33,0.2867296645840009,0.28654061528046926
34,0.2867288441194428,0.28655063605308534
35,0.28672599130868914,0.2865555606881777
36,0.2867465449505382,0.28654291743040083
37,0.286693552116553,0.2865636155605316
38,0.2867313772506184,0.28652687633037566
39,0.28671220222446653,0.2865597934126854
40,0.2867144933872753,0.2865291775862376
41,0.28671806338098316,0.28651291884978614
42,0.2867099330027898,0.2865287677447001
43,0.28672406379381815,0.28656867678960163
44,0.28671318193276724,0.2865213315288226
45,0.2866926855842272,0.2865209000706673
46,0.2867207043965658,0.2865180845657984
47,0.2867245185441441,0.28651557316382725
48,0.28671130443281595,0.28654884111881257
49,0.2867343754967054,0.28657979279756546
50,0.28668136913908854,0.2867033611138662
51,0.2867176456252734,0.2867328664859136
52,0.28670790264341567,0.28650994956493375
53,0.2867079006499714,0.28651301578680677
54,0.28671901869773864,0.2865398126045863
55,0.286714078479343,0.28655218185981113
56,0.2867007442580329,0.286596624871095
57,0.28672095654408136,0.28653898018598556
58,0.28673135518365434,0.2865596230427424
59,0.2866983138455285,0.28653256807724636
60,0.286715833471881,0.286520680586497
61,0.2867026302814484,0.2865319298505783
62,0.2867176074253188,0.286510191321373
63,0.28669099707073636,0.28651164666811624
64,0.28670883633030786,0.2865043773452441
65,0.2867094730403688,0.2865123690565427
66,0.2867240556014909,0.2865658624768257
67,0.2866819933785333,0.2866912016669909
68,0.2867182398107317,0.2865154393315315
69,0.2867154528299967,0.2865066909790039
70,0.28669596449534096,0.28651095342636107
71,0.2867179834180408,0.2865467372139295
72,0.2867186364730199,0.2865938430229823
73,0.28666802713606093,0.28666961699724197
74,0.2867064849999216,0.28656465538342796
75,0.28672124758693907,0.28652788764238357
76,0.28671671946843463,0.2865046165386836
77,0.28671678974893355,0.28659968680143355
78,0.2867119590110249,0.2865330722530683
79,0.2867127273016506,0.2865251341660818
80,0.28669611940119,0.28650608720382054
81,0.2867041293117735,0.28651679851611456
82,0.28670681274599497,0.28651145068804423
83,0.2867147036790848,0.2865505223075549
84,0.28669594122303854,0.2865559675693512
