epoch,loss,val_loss
0,0.7082889386481709,0.8924631917476654
1,0.9452431651883655,0.9999999994834264
2,0.9786618612474866,1.0000000003973644
3,1.0000000002119276,1.0000000000794729
4,1.0,1.0000000000794729
5,1.0,1.0000000000794729
6,1.0,1.0000000000794729
7,1.0,1.0000000000794729
8,1.0,1.0000000000794729
9,1.0,1.0000000000794729
10,1.0,1.0000000000794729
11,1.0,1.0000000000794729
12,1.0,1.0000000000794729
13,1.0,1.0000000000794729
14,1.0,1.0000000000794729
15,1.0,1.0000000000794729
16,1.0,1.0000000000794729
17,1.0,1.0000000000794729
18,1.0,1.0000000000794729
19,1.0,1.0000000000794729
20,1.0,1.0000000000794729
