epoch,loss,val_loss
0,0.3360602847735087,0.33390889199574786
1,0.333930833015177,0.3338917134801547
2,0.33383496156666015,0.3336521546244621
3,0.3337759868899981,0.33370494218667346
4,0.33373571702506805,0.3340138053099314
5,0.33370261867841083,0.33383094799518587
6,0.33368093466096455,0.33363243089119593
7,0.3336587645411491,0.33363989915450415
8,0.3336344499786695,0.33362776750326156
9,0.33361387089888256,0.33355048328638076
10,0.33360534553395377,0.33355202406644824
11,0.33359899761279427,0.3338740695118904
12,0.3336014126274321,0.3335616211891174
13,0.33358985539277397,0.33355489641427993
14,0.3335905541446474,0.33374149320522944
15,0.33359545453389483,0.3335382659633954
16,0.3335840217206213,0.3335464779337247
17,0.33358288150363496,0.3335980111757914
18,0.3335822183423572,0.33359368658065797
19,0.3335725158320533,0.33406219639380774
20,0.3335767194430033,0.3335298512975375
21,0.33357385673125584,0.3335938624938329
22,0.3335706588360998,0.3335523643096288
23,0.33357041698031953,0.33354059926668805
24,0.3335705735286077,0.33355250946680703
25,0.33358047634363175,0.3336808149218559
26,0.3335718469950888,0.3335221922794978
27,0.33356655267212126,0.33352355257670085
28,0.3335777552194065,0.3335363374153773
29,0.3335788044399685,0.33356960940361025
30,0.3335713752441936,0.3335274454553922
31,0.3335696559217241,0.33351470520099
32,0.33357097531027263,0.33352229112386705
33,0.3335680228339301,0.3335283624132474
34,0.33356740321053396,0.3335410229762395
35,0.33356406313180925,0.3335280052026113
36,0.33357014341486824,0.33352806196610135
37,0.3335719242758221,0.3335155445933342
38,0.33357123010026085,0.3335410121679306
39,0.3335763884120517,0.3335969791809718
40,0.3335805331998401,0.3335451417366664
41,0.33356793325477174,0.33351633489131927
42,0.3335688412586848,0.33354307583967846
43,0.3335782701108191,0.33354190387328464
44,0.33357064798143177,0.33351075834035876
45,0.3335708153181606,0.3335827223658562
46,0.333562941537963,0.333568238457044
47,0.33356123893128503,0.33353132834037147
48,0.333566741168499,0.3336412011583646
49,0.33356397800975374,0.33360007162888844
50,0.3335637572341495,0.3335459829370181
51,0.3335647861825095,0.3335934415062269
52,0.3335660720732477,0.3335565040508906
53,0.3335620710319943,0.33360075249274573
54,0.333565617620945,0.33356758805116016
55,0.33355686047342087,0.3335516610542933
56,0.3335613314708074,0.33351267900069553
57,0.333564830230342,0.33387118605772653
58,0.33356448193391164,0.3335309246579806
59,0.33356593855222066,0.3335560346841812
60,0.33356220573186873,0.3335439155300458
61,0.33356447876824274,0.33369285267591475
62,0.33356274999512564,0.3335338203112284
63,0.33357058901919256,0.333515459895134
64,0.33357083094782297,0.33353430596987405
