epoch,loss,val_loss
0,0.44757080580128566,0.4447671690583229
1,0.44493245964580114,0.44484331701199215
2,0.4448260801302062,0.4447497534950574
3,0.4447732873227861,0.4451258711020152
4,0.33629338915480506,0.3337279858589172
5,0.3336613411837154,0.33364148902893065
6,0.3336422980427742,0.33356361693143843
7,0.33362771891885334,0.333784494916598
8,0.3336184768809213,0.3335346052249273
9,0.33361149142848123,0.33440141985813776
10,0.3336071910129653,0.33355059333642323
11,0.33360434106985726,0.33364369652668635
12,0.3335991387102339,0.33363467061519625
13,0.3335893742442131,0.33351911743481955
14,0.33358312837282816,0.33360158401727674
15,0.3335833726723989,0.33353179204463956
16,0.3335870839887195,0.3336441013813019
17,0.3335786174999343,0.3335457667509715
18,0.33357749903202055,0.33374259793758393
19,0.3335783276491695,0.3335864421923955
20,0.33357449181874593,0.33356919384002687
21,0.33357345799605054,0.33353561514616015
22,0.3335631980895996,0.333562868197759
23,0.33356604832410813,0.3335171986818314
24,0.3335640308128463,0.33353248504797617
25,0.33356264246172374,0.33351368725299835
26,0.33356171784798305,0.3334999801516533
27,0.3335576255122821,0.3335589751203855
28,0.33356154073609245,0.33357417754332225
29,0.3335583764049742,0.33351960388819374
30,0.3335548723141352,0.33354908633232117
31,0.3335579078992208,0.3336445643901825
32,0.3335601170261701,0.33354425013065336
33,0.3335560242732366,0.3335323787132899
34,0.33355601857768163,0.3335271921157837
35,0.33355860265096027,0.3338694550792376
36,0.3335558944476975,0.33356144205729166
37,0.33355623531341555,0.33351826842625937
38,0.3335559428003099,0.3337250770727793
39,0.3335550612211227,0.33350073754787446
40,0.3335519320964813,0.3335221986571948
41,0.333548766805066,0.33350795731941857
42,0.3335512965387768,0.333571232577165
43,0.3335511574877633,0.33353638513882955
44,0.33354874383740957,0.33368187787135445
45,0.33355544465780257,0.3335112497210503
46,0.33355208108822504,0.33358495755990347
