epoch,loss,val_loss
0,0.4464537984397676,0.44735036593675614
1,0.4449934775630633,0.4448254157503446
2,0.44486464479234483,0.4448401243487994
3,0.4448171111543973,0.44470917866627374
4,0.44478941355811225,0.44468239972988766
5,0.4447641219364272,0.44515435429414113
6,0.4447392479115062,0.44492258646090826
7,0.4447163953251309,0.444664542277654
8,0.4447012784745958,0.4446519325375557
9,0.4447023922271199,0.44479628761609397
10,0.44469463468260234,0.4446535122791926
11,0.44468335355652705,0.44465114651123683
12,0.4446799715624915,0.4448376138806343
13,0.4446758502589332,0.4446343226035436
14,0.44466928535699846,0.4446101327141126
15,0.44466624824868306,0.44465461148818336
16,0.4446589742104212,0.4446368952592214
17,0.44465882898701564,0.4447185609936714
18,0.44465461816390356,0.44460798511902494
19,0.4446549520889918,0.44461648440361023
20,0.44464997769064374,0.44468891431887947
21,0.4446565176778369,0.4446677310268084
22,0.44465269333124163,0.44464930858214696
23,0.44465247897307075,0.44466899329423903
24,0.4446471751862102,0.4446287648677826
25,0.4446484778523445,0.4447159421245257
26,0.44464689715703326,0.44460548742612205
27,0.44464672555526097,0.4446206110715866
28,0.44464761897590427,0.4446340293685595
29,0.44464638274245794,0.4447613424261411
30,0.4446472614804904,0.4445987463593483
31,0.44464277701245414,0.4446575673818588
32,0.4446442056828075,0.44461331220467887
33,0.4446454066435496,0.44461522094408673
34,0.44464309500985677,0.4448328463037809
35,0.4446404352519247,0.44459863885243733
36,0.44464330403672325,0.444730521996816
37,0.44464354062080386,0.44461669647693636
38,0.44464307329389785,0.4446000049312909
39,0.4446409747666783,0.44460946434736254
40,0.44464353075292373,0.4446041243275007
41,0.4446421643826697,0.4446361631949743
42,0.4446407547791799,0.44467369065682094
43,0.4446415731045935,0.4446097659468651
44,0.4446417980061637,0.4446038149793943
45,0.44463994904359183,0.4445975811680158
46,0.44464582038587996,0.44459735918045046
47,0.44463919778664907,0.44462555275360743
48,0.44463958083258737,0.444643898109595
49,0.4446383598446846,0.4446065052549044
50,0.4446394865380393,0.44466364697615307
51,0.44463780577977496,0.44461299912134805
52,0.44463998167382346,0.4446607997218768
53,0.4446402577029334,0.44459828845659893
54,0.4446387024521828,0.44469299095869064
55,0.4446401089363628,0.44462744136651355
56,0.44463874836762746,0.4446101860404015
57,0.44463883129755655,0.4445976647933324
58,0.4446383565598064,0.44461368177334465
59,0.44463740953471925,0.444616190135479
60,0.444637415614393,0.4446525823275248
61,0.4446387357844247,0.44459954981009164
62,0.4446383990645409,0.4446973397930463
63,0.44463511398765776,0.4446107868154844
64,0.4446378540992737,0.44476395805676777
65,0.4446381997002496,0.4446266251206398
66,0.44463939720392226,0.44459826455513635
