epoch,loss,val_loss
0,0.667961433728536,0.6668995614051819
1,0.6669877347018983,0.667053645769755
2,0.6669226970805062,0.6668299349546433
3,0.6668741404215495,0.6668079809347789
4,0.6668529462284511,0.6668114201227824
5,0.6668376698096593,0.6668101850748062
6,0.6668340928951899,0.666840239405632
7,0.6668223043282827,0.6667914135058721
8,0.666818689915869,0.6668062408765157
9,0.666814052886433,0.6667941105763118
10,0.6668083005613751,0.6667761283318202
11,0.6668002877897686,0.6667839002609253
12,0.6667973040077422,0.6667846053044001
13,0.6667923535241022,0.6668290994962056
14,0.6667916016446219,0.6668866633574168
15,0.666788466029697,0.6667867358525594
16,0.666788855711619,0.666803213318189
17,0.6667862828307681,0.6667660051981608
18,0.6667859317991469,0.6668207554817199
19,0.6667841072479884,0.6667550790309906
20,0.6667851900127199,0.6668267511526743
21,0.6667828802400165,0.6667566193342209
22,0.6667817002534866,0.6667716212670008
23,0.6667814999818802,0.6667594641844432
24,0.6667822598218918,0.6667662851810455
25,0.6667830607493719,0.6668042813142141
26,0.6667798296610514,0.6667739082972208
27,0.6667811441024144,0.6667721749544143
28,0.6667805658049054,0.6667573548555374
29,0.666780632575353,0.6667653270959855
30,0.6667796240117815,0.6667584913174311
31,0.6667790153688855,0.6668484218915304
32,0.6667802839544085,0.6667562027374904
33,0.666778223408593,0.666752416173617
34,0.6667784666087893,0.666913136402766
35,0.6667779956261317,0.6668332642714182
36,0.6667780575089984,0.666757873694102
37,0.6667770128382576,0.6667689294020335
38,0.666777034772767,0.6667704025904337
39,0.6667762963904275,0.6667500133514405
40,0.66677555097474,0.6667861275672913
41,0.6667764222754372,0.6667521127462387
42,0.6667765963872274,0.6667704789638519
43,0.6667740005122291,0.6668486954371134
44,0.6667760221825706,0.6667800855636596
45,0.6667772647937139,0.6667977010011673
46,0.6667745021979014,0.6667542310555776
47,0.6667753970225652,0.666778722524643
48,0.6667762985759311,0.6667681644757588
49,0.6667766465743383,0.6670220144987107
50,0.6667745900816388,0.6667916624148686
51,0.6667742481099235,0.6667630333503087
52,0.6667763429482778,0.6668313752412796
53,0.666774311847157,0.6667629758119583
54,0.6667734432220459,0.6668090991179149
55,0.6667743419408798,0.6667968963384628
56,0.6667749208874173,0.6667685319582621
57,0.6667748728328281,0.66678604110082
58,0.6667751089202033,0.6667556250890097
59,0.666774605207973,0.6667526576916377
