epoch,loss,val_loss
0,0.7784947557846705,0.7784032824436824
1,0.7779874156713485,0.777915789326032
2,0.7779570961925718,0.7778917889197667
3,0.7779341772662268,0.7779606461524964
4,0.7779226001633538,0.777903069972992
5,0.7779133477740817,0.7778905662695567
6,0.7779036946164237,0.7778759796619416
7,0.7779001462194655,0.7778904400666555
8,0.7778970475859113,0.7779323483308156
9,0.7778957409991158,0.7778914680878322
10,0.7778950638771057,0.7778874737819036
11,0.7778933257129457,0.7778797661463419
12,0.7778917285866207,0.7778720824321111
13,0.7778889043331146,0.7778713138500849
14,0.7778873828781976,0.7779044388135274
15,0.7778864270183775,0.7778802094459534
16,0.7778856634828779,0.7778706455230713
17,0.7778841729693943,0.7778655522267024
18,0.7778835371335348,0.7778838553826014
19,0.7778826636075974,0.7778937995831172
20,0.7778819591734144,0.7778680347998937
21,0.7778825743595759,0.7778678428729375
22,0.7778822322686513,0.7778746633132299
23,0.7778810230758455,0.7778691956599554
24,0.777881175994873,0.7779155666033427
25,0.7778815704451667,0.7778652441104253
26,0.7778794785473082,0.7778976170619328
27,0.7778801297744116,0.777864980896314
28,0.7778802798986435,0.7778653784592946
29,0.7778794790771273,0.7778783371845881
30,0.7778791500329971,0.7778766400019328
31,0.7778795156081517,0.7778702994982402
32,0.7778804534276327,0.7778647136688233
33,0.7778783146407869,0.7778848785161973
34,0.7778785451783075,0.7778656013409296
35,0.7778783379528258,0.7779114876588186
36,0.77787611565325,0.7778682887156805
37,0.7778766632609897,0.7778745177586873
38,0.77787405122651,0.7779105083147685
39,0.7778757096396552,0.7778642036517461
40,0.7778746886783175,0.7778615399996439
41,0.7778749037848579,0.7778642552296321
42,0.7778753775888019,0.7778696996768316
43,0.7778740383651521,0.7779116550683975
44,0.7778756455315484,0.7780223370393117
45,0.7778743689060211,0.7778666301568349
46,0.7778749285141627,0.7778613359133403
47,0.7778753774960836,0.7778629327615102
48,0.7778751998345057,0.7778588004112243
49,0.7778740462064743,0.7778794575532277
50,0.7778743417660395,0.7778859896659851
51,0.7778753619194031,0.7778610539038976
52,0.777873397787412,0.7778696949879328
53,0.7778738148212433,0.7778767216205597
54,0.7778733901315266,0.7779474482138952
55,0.7778746374183231,0.7778605596621831
56,0.7778744674126307,0.7778754462401072
57,0.7778730076683892,0.7778576355775197
58,0.7778726712597741,0.7778748680750529
59,0.7778715692493651,0.7778630362351735
60,0.7778731503751543,0.7778607294162114
61,0.7778713130950927,0.7778576282262802
62,0.7778715583483378,0.7778616758584976
63,0.7778715475532744,0.7779011524518331
64,0.7778721956941816,0.7778629798889161
65,0.777870879676607,0.7779376850525538
66,0.7778724298212263,0.7778598808050156
67,0.7778718913661109,0.7778824101289114
68,0.7778703002929688,0.7778931366999944
69,0.7778713552951813,0.7779095790783565
70,0.7778722575373119,0.7778577825228373
71,0.7778721098502477,0.7778630302349726
72,0.7778716090520224,0.7778912305434544
73,0.7778706426620483,0.777871890425682
74,0.7778720251321792,0.7778636113802592
75,0.7778707039621141,0.7778545880317688
76,0.7778716809484694,0.7778544909159343
77,0.7778707555267546,0.7779341495037079
78,0.7778712171845966,0.7778559331099192
79,0.7778721155722936,0.7778608141342799
80,0.7778718456692166,0.7778564342260361
81,0.7778706658548779,0.7778564095894496
82,0.7778708726300133,0.7778640408913294
83,0.7778712270524767,0.7778703079620997
84,0.7778700377013948,0.7778895326455434
85,0.7778715935150782,0.7778635346889495
86,0.7778705239825778,0.777857231815656
87,0.7778719840976926,0.7778601452112198
88,0.7778709817594952,0.7778542515834173
89,0.7778703731033537,0.7778611924250921
90,0.7778717774682575,0.7778780054648717
91,0.7778703087965647,0.7778830121358236
92,0.7778704683913125,0.7778583901723226
93,0.7778708743519254,0.7778592909574509
94,0.7778712369336023,0.777881722331047
95,0.7778697289625803,0.7778531421820323
96,0.7778703572485182,0.7778757190704346
97,0.7778704611592823,0.7778717753887177
98,0.7778705780638588,0.7778689286311468
99,0.7778705392281214,0.7778704837163289
100,0.7778684850533804,0.7778754694461822
101,0.7778716079923842,0.7779191063245138
102,0.777872000363138,0.7778624365329743
103,0.7778713247776031,0.7778689382473628
104,0.7778691710763508,0.7778618542750676
105,0.7778700308932198,0.7778851569096248
106,0.7778699292871687,0.7778571794430414
107,0.7778703578445646,0.7778583192825317
108,0.777870108352767,0.7778661558628083
109,0.7778708347611957,0.7778563513755798
110,0.7778700626823637,0.7778535917599996
111,0.7778699807061089,0.7778667792081833
112,0.7778712668286429,0.777883196036021
113,0.7778711843490601,0.7778678259452184
114,0.777870039317343,0.7778792107899983
115,0.7778699082136155,0.7778552476962407
