epoch,loss,val_loss
0,0.7785330178340276,0.7779430336554846
1,0.7779781891240014,0.7778981961806615
2,0.777963017794821,0.7779491566419602
3,0.7779279121955236,0.7779542458852132
4,0.7779160017967224,0.7779283789396286
5,0.7779081564744313,0.7778660935958227
6,0.7779017702738444,0.7778827532529831
7,0.7778931493494246,0.7778662907282511
8,0.7778850667874019,0.7779487703243891
9,0.7778762799898783,0.777929671605428
10,0.7778692901531855,0.7778501170873642
11,0.7778723936478297,0.7778760430018107
12,0.7778686496416728,0.7778532886107763
13,0.777871949646208,0.7778598928848902
14,0.7778626863956452,0.7778565394083659
15,0.7778603057861329,0.7778491765260697
16,0.777857982383834,0.7778667020797729
17,0.7778579287926356,0.7779204601844152
18,0.7778565363354153,0.7778460137049357
19,0.7778560287422605,0.7778374470472336
20,0.7778551385800043,0.7778766923745474
21,0.7778555322753059,0.7778440316518148
22,0.7778541863494449,0.7778407824039459
23,0.7778545605076684,0.777845094482104
24,0.7778529405196508,0.777836272319158
25,0.7778531281550726,0.7778405688603719
26,0.7778546271456612,0.777856867313385
27,0.7778529600699743,0.7778346220254898
28,0.777851816031668,0.7778414728244146
29,0.7778511961036259,0.7779082178274791
30,0.7778522282441457,0.7778361750046412
31,0.7778499989906947,0.777837373137474
32,0.7778503957854377,0.7778381008704504
33,0.7778510489066441,0.77787382431825
34,0.7778490507470237,0.7778949543635051
35,0.7778505256970724,0.7778359750906626
36,0.7778498510784573,0.7778474442164103
37,0.77785094985697,0.7778384046157201
38,0.7778499678903156,0.7778653291861216
39,0.7778496069378323,0.7778579700390498
40,0.7778486981656816,0.7778588964144388
41,0.7778495404322943,0.7778538170655569
42,0.7778487417962816,0.777893409450849
43,0.7778497164381875,0.7778402021328609
44,0.7778486774365108,0.7778319836854934
45,0.7778498162163628,0.7778890348275502
46,0.77784912873639,0.77784028728803
47,0.7778487876123852,0.7778395565350851
48,0.7778489779631297,0.7778415460189183
49,0.7778492166201274,0.7778381678660711
50,0.7778496022754245,0.7778433848222097
51,0.7778490969207552,0.7778358131249745
52,0.7778492529922062,0.7778503926595052
53,0.777848824010955,0.7778331214586893
54,0.7778501221338908,0.7778400215307871
55,0.7778493381473753,0.7778670239051183
56,0.7778489077753491,0.77791104443868
57,0.7778482636478212,0.7778411253293356
58,0.7778477710882823,0.777834751367569
59,0.7778489724265204,0.7778554558753967
60,0.7778493152724372,0.7778496937354406
61,0.7778505383067661,0.7778328336874644
62,0.7778491279549069,0.7779187765518825
63,0.7778490925100114,0.777831594745318
64,0.7778492544227176,0.7778452501296997
65,0.7778472002479765,0.7778398927847544
66,0.7778494558996625,0.7778487976789474
67,0.777848310775227,0.7778368426958719
68,0.7778486206796434,0.7778378410736719
69,0.7778488007916344,0.7778392584721248
70,0.7778483585119248,0.7778471227089564
71,0.7778480433358087,0.7778492108980815
72,0.7778492458793852,0.7778327825864156
73,0.7778479910691579,0.7778392986456553
74,0.7778493426508374,0.777838641444842
75,0.7778481494718128,0.777832709590594
76,0.7778484029240078,0.7778320957422257
77,0.7778493991560406,0.7778714977502823
78,0.777848238574134,0.7778407247066498
79,0.7778475608030955,0.7778545412222544
80,0.777848215593232,0.7778358257214228
81,0.7778480297989315,0.7778368794123331
82,0.7778483759694629,0.7778347379366557
83,0.7778478638331096,0.7778323865334192
