epoch,loss,val_loss
0,0.6145142969653739,0.5866692112600136
1,0.5871198564600811,0.5866148376116788
2,0.5835795227864726,0.5697919945840612
3,0.5340972264663423,0.5116268598201887
4,0.5075932124598299,0.5043884116222679
5,0.5053743939575336,0.5013458607453983
6,0.4989632842920607,0.49567817619247156
7,0.4812231804725167,0.3960575104146495
8,0.39238118278302603,0.4114573516694879
9,0.4041028110932311,0.4232052269498217
10,0.43376982787115465,0.45367222212236874
11,0.4526091394923609,0.45280790053434905
12,0.4543322791830839,0.4549321310846958
13,0.4561901741666351,0.45107336106671614
14,0.4545537740755692,0.4424823389871277
15,0.41640129828567596,0.4087086641633791
16,0.3851336537002085,0.38705356983469447
17,0.38229796326189064,0.37863323256820564
18,0.38054747812694506,0.3767130906661158
19,0.38222172370760604,0.3727409902715335
20,0.37874843291133,0.37940998265439674
21,0.3768608625933492,0.3661657434987132
22,0.37198909041020656,0.3739289960190231
23,0.3735389966812966,0.37097641535629033
24,0.37195045570787,0.36937684159112577
25,0.37272597677570235,0.367384177223996
26,0.3712793138382242,0.37638503859319633
27,0.3734128948948305,0.3644533220192135
28,0.3706384976331094,0.3663805298996668
29,0.3701753403374059,0.37153903256560955
30,0.37010499401938163,0.36259630436058077
31,0.3687912250419346,0.36857094038625315
32,0.3651457630676494,0.3609619049985333
33,0.3591913098426129,0.35680256603891447
34,0.3565274460421647,0.35231042621296205
35,0.3547355839259344,0.34583070001656313
36,0.35444281241290565,0.3458488526038783
37,0.35357629667051893,0.35232082756186345
38,0.3537383815161794,0.35238378945154963
39,0.3519760116851263,0.335452774507866
40,0.3520429970217858,0.3520096151304748
41,0.3504207411630331,0.3477844660444561
42,0.34996516606490835,0.3437597056471615
43,0.34964428995970825,0.3416464723471404
44,0.34968007570080417,0.36235648903630174
45,0.3481749521793605,0.3406224710517846
46,0.3502913751990629,0.34068458825228953
47,0.3478536765583999,0.34914367112413425
48,0.34543004833621155,0.3373672592137175
49,0.34469690212638404,0.33514881588440065
50,0.34448743021612266,0.3435632499706813
51,0.3457128510678454,0.34580894057478057
52,0.34406815635098564,0.3429142651960121
53,0.3439293610419723,0.34126104282733394
54,0.3433307798697149,0.3318772316945827
55,0.34417297059388235,0.33299863094347626
56,0.3439236485046611,0.3334744145787062
57,0.34396954328179646,0.34068838936569046
58,0.3431601764036237,0.32987972690337863
59,0.34336625961803074,0.337012893502923
60,0.34295530339257063,0.34095188218795086
61,0.343610920232711,0.325271611110234
62,0.34287742232446006,0.34289848516844
63,0.35402278457764536,0.3549367395824083
64,0.35793005621986834,0.34841882967407495
65,0.35894999234937874,0.34988313981022956
66,0.36151098966407624,0.35940751065979715
67,0.3618423789500999,0.35314659661910247
68,0.36326760920980056,0.36296413088366936
69,0.3635700949437147,0.3793845010644908
70,0.366137197081617,0.36296748438214055
71,0.36765611690698,0.3743508904809789
72,0.3683215018221624,0.6714757793044425
73,0.37074743651503844,0.36699578158756824
74,0.3697834063688214,0.3676250459987365
75,0.37095798667761876,0.3616120294159443
76,0.37100355076589425,0.37422838190756286
77,0.3706437817113317,0.3675755793644177
78,0.3711271063746024,0.3682997044227226
79,0.3719075778133875,0.37030497848359145
80,0.3718095780898324,0.3582073535894052
81,0.37057947717589124,0.36697238724790543
82,0.3697294171353738,0.3649051692170625
83,0.3716191213497455,0.37340235685973466
84,0.3716300517272911,0.36730426675598504
85,0.37150417268276215,0.36792973981866584
86,0.3722982392538252,0.3717825584844758
87,0.37130084751938897,0.3686333526128303
88,0.37312180955138946,0.3703090132297971
89,0.37332446438918787,0.369981780418611
90,0.374076451679723,0.387876467983218
91,0.3742093492546876,0.3689599986590705
92,0.3729984808125622,0.3725203766343271
93,0.37354316454443387,0.36770093880914034
94,0.3743928660742276,0.3735985243987573
95,0.374179724052107,0.37516566562343207
96,0.37449771484391414,0.36693603491647786
97,0.37458739413606157,0.36696485823378366
98,0.37523942139503763,0.374308016275064
99,0.37537537787178216,0.3775169246339837
100,0.3759967705862726,0.36612480815986453
101,0.37518797926992487,0.37836102364223756
102,0.3770003237301488,0.38437748740866046
103,0.37626364564685655,0.37693368624790063
104,0.3758611960278405,0.3627953279434136
105,0.3753947846000914,0.37294066007893356
106,0.376543891224697,0.37218611199780394
107,0.37580972326527223,0.36893410143190924
108,0.37526295240446506,0.37822856778839403
109,0.37635288840298464,0.3688782952901124
110,0.37660721041041434,0.36799842875756
111,0.3764921006104582,0.3747133395822669
112,0.37660477628366196,0.3754441419802153
113,0.3766955976800216,0.3764654779134489
114,0.3759236473789971,0.3793898800332084
115,0.3768912834988488,0.3758620467740931
116,0.37606431039168037,0.37445527941157736
117,0.3755491400022713,0.3746815151976843
118,0.3757076316518341,0.373745200528619
119,0.37541036922231114,0.3702787572498352
120,0.37553870519272703,0.3664645604601935
121,0.3750539848907553,0.3680888657297241
122,0.3747927321373128,0.3708867539937962
123,0.3751448860900511,0.3726615195630144
124,0.37551131362529444,0.3726376331587294
125,0.37520207635300745,0.374258305735445
126,0.37428428046554446,0.38204878503388734
127,0.37452373637544145,0.3641972434250011
128,0.37464974809876433,0.3678494503318248
129,0.3738116621851826,0.37097145901012496
130,0.37345290108859014,0.36561985419034376
131,0.37318870791489833,0.3694643466963772
132,0.3731438818576338,0.3654389616588413
133,0.37301696877512003,0.3659512051845699
134,0.3720787630212889,0.37113054305774257
135,0.3719203886960009,0.36730105214165365
136,0.3723517111342272,0.3690977632661032
137,0.3731307758151101,0.37025026161305225
138,0.37283993512988567,0.3642504087136416
139,0.3712410496605979,0.369043744611044
140,0.3713600839301049,0.370387057294134
141,0.371032369456547,0.3604399114968036
142,0.37136819405112864,0.3588587042043969
143,0.37182950298245954,0.3643645502790047
144,0.37114305584262713,0.37215717060722575
145,0.3716050191604203,0.38021495181762005
146,0.3703053854912925,0.36817904898333337
147,0.3712475019946301,0.370575134239831
148,0.3707517257588114,0.3676175400675165
149,0.3715507326792296,0.36381320663805616
150,0.37126814559090127,0.3655200103193594
151,0.3705500319445009,0.3634619746668399
152,0.3712206240579355,0.3612572454574721
153,0.37144624756230077,0.3709760642061365
154,0.37057506706449295,0.3666518274740001
155,0.37034095803482997,0.3699455214097842
156,0.3723718983779629,0.3721051085604368
157,0.37269634557209363,0.3636214386275988
158,0.37135547435312294,0.3695381340077517
159,0.3722261380108955,0.36336965258297454
160,0.3704194447176279,0.3672672133569493
161,0.37195963460841686,0.36278977337544854
162,0.3698289195736281,0.3562616030326822
163,0.3695164332755381,0.36025790424242504
164,0.37140080836222017,0.3587751976378256
165,0.37057701492901324,0.37294569645388187
166,0.3706564265336868,0.3621709496870528
167,0.3702578709376536,0.3633470984609361
168,0.37095644776586345,0.35890342148937837
169,0.37082730251564994,0.3696320468056811
170,0.3704451945684164,0.3717040864800595
171,0.37029343523723396,0.36871706530608883
172,0.36932111177757515,0.3665561822499092
173,0.37047071670226045,0.36425391774978083
174,0.3701887021573474,0.37351531056205334
175,0.37046622234978993,0.37117609722480865
176,0.37123255608223077,0.35879644635529995
177,0.3708474315625367,0.3676633729213442
178,0.370633320953008,0.3651640198623274
179,0.3712047097848071,0.36480176431902617
180,0.3697198502319731,0.36874083479728914
181,0.3707848995494499,0.3680335530061018
182,0.3691521636169371,0.36107974333291315
183,0.36986918638857774,0.37012495911421084
184,0.3711185820633359,0.36181548883155024
185,0.37002278292914026,0.3671354048636901
186,0.3710070199208607,0.36508946503842643
187,0.3703290596544695,0.36649880673666846
188,0.370289884203429,0.3754991315673834
189,0.37026639872068784,0.3637919702234059
190,0.3698473637871402,0.3611653276748611
191,0.37057314581685874,0.3685542222018756
192,0.36971778838371067,0.3577715062988742
193,0.3694618045448589,0.3598277357324583
194,0.3695838817054506,0.3631606082411578
195,0.37108450422915007,0.36358164870826
196,0.3698844422904657,0.35863834489000973
197,0.36969005239544345,0.3588604246177813
198,0.3704968760546157,0.36677579682045414
199,0.37063125877069225,0.3624293145762163
200,0.3695967853236332,0.3604597642183884
201,0.36976575411205964,0.3669498704452391
202,0.37105852779481197,0.3652543542303888
203,0.3704164035087399,0.3649221320801988
204,0.3711590813554889,0.36040873645479277
205,0.37107793736257394,0.36371554887497803
206,0.3693701601009354,0.3629763496908248
207,0.3710106441242586,0.3565772125272372
208,0.3701024290869196,0.36360860076360557
209,0.37032464598779014,0.3653029890342737
210,0.37118858501040713,0.36439924165666926
211,0.37061174032543065,0.3676247500783529
212,0.3684811026359005,0.3589371617548077
213,0.3696720923086087,0.3558641977408797
214,0.36920142594912797,0.360790553270852
215,0.36958807877438654,0.3705212334646796
216,0.3691613078833199,0.37373231205143587
217,0.3688018315190597,0.3661165222682705
218,0.3693083898962928,0.35750891312968897
219,0.36812541332599924,0.3613076551552237
220,0.36871477460460345,0.3639560827905341
221,0.37085625730914246,0.3615876583674045
222,0.3693820853129304,0.36339104613055084
223,0.3679260037320437,0.36481700725218963
224,0.36962083305379123,0.3663908361856858
225,0.367965250610828,0.36304311324983524
226,0.36808856737146,0.36372336061234795
227,0.36827345734075895,0.3566595025161177
228,0.3678058843382651,0.36248880779462817
229,0.36845683544468555,0.35943601504632927
230,0.3687548817898198,0.36043301425324353
231,0.36890794749590183,0.3560971377926538
232,0.3686883188396382,0.3668365395852249
233,0.3686564996945944,0.3579861423104929
234,0.3688948959756413,0.36280567108956374
235,0.36902400493335497,0.3734071157564502
236,0.36982442073529964,0.3661479008507168
237,0.3698900053270155,0.36704970044231183
238,0.37135193850681053,0.3623143723604646
239,0.36975940262631857,0.35458853166468823
240,0.3696364859183184,0.360836188385183
241,0.37024639124532427,0.36330344564819955
242,0.37061571038132,0.36448480811238965
243,0.37044852084403423,0.36838576448998217
244,0.36997068882752077,0.3731704555868812
245,0.3714344139047581,0.36518098432072177
246,0.37023693552200465,0.3751109230353981
247,0.3704134942031651,0.3607199162075603
248,0.3702783005131637,0.36442237144935835
249,0.3697755485892391,0.37261919557613177
250,0.36850298681051086,0.3621370713109421
251,0.37111161665929804,0.3654264130199816
252,0.36949585919813505,0.35833713656407684
253,0.36888517828298817,0.36126166811728033
254,0.36722283949367135,0.3571556587337191
255,0.3675338790429125,0.3633968911321784
256,0.36859340530285556,0.36355857578894035
257,0.3690691267947754,0.3613011819119388
258,0.3685602084028902,0.3611753087940974
259,0.36852158541627844,0.3539571786497244
260,0.3675315473869956,0.3594062411968822
261,0.36900906554692453,0.36365764383271953
262,0.3679843939142861,0.3616084932362463
263,0.3682477901323592,0.3626556057371169
264,0.36822615957575094,0.3574399025287458
265,0.36831068890012675,0.360995246594453
266,0.3678094135035125,0.35879031198351535
267,0.3676840196594035,0.3620352509393019
268,0.3672504255874716,0.35495853564261615
269,0.36764836716976423,0.3723248984885235
270,0.36929652156879467,0.3576558666169305
271,0.367885690209291,0.35829614319167097
272,0.367613178405693,0.35707536136726975
273,0.36832311479829616,0.3680547006663905
274,0.3679097569924149,0.35505634780734513
275,0.3674724382505692,0.35933224481001
276,0.36769061007673404,0.35455378935961634
277,0.36772315538196776,0.3574909878666577
278,0.36782809742409484,0.36787126843559964
279,0.36827644740370774,0.36765660175151776
280,0.3678869448297972,0.3631367655856186
281,0.36777459966649617,0.3647324394038897
282,0.3675613609836806,0.36403066512055254
283,0.36742284740086456,0.35906956975090726
284,0.36739699066496545,0.3577282078751489
285,0.3681312097822599,0.3546768413117912
286,0.3683346507070158,0.35969555213600274
287,0.3675136611617213,0.35657187457599004
288,0.36759980399910214,0.36462068134754144
289,0.3671461295327537,0.3578314053654574
290,0.36800335240278176,0.3605599844252686
291,0.36747649259525267,0.358112831354528
292,0.36765551818810627,0.35548790368430516
293,0.36739628699371774,0.35781779353539345
294,0.36650580780996717,0.3596914818590478
295,0.36769922205311856,0.3665617718893826
296,0.3674842494072391,0.35818446028164896
297,0.3667934864783306,0.3593155988714894
298,0.36634378198435824,0.35817623085252465
299,0.3677149467152343,0.3593989770681222
300,0.36679215929668557,0.355691813736163
301,0.36779633907674314,0.3712633126456856
302,0.3676096332058895,0.37448930795948776
303,0.3672806024432087,0.3583725347136059
304,0.3664622952978166,0.3553397876164436
305,0.3670726019420845,0.3574953183398823
306,0.36623007885879094,0.3620590046229444
307,0.3674725565889342,0.3649184225732876
308,0.3660262816423793,0.3648972216410455
309,0.36823624669551086,0.3557335537135456
310,0.3663124438521383,0.3634388086182841
311,0.3674904986011018,0.36060395143134555
312,0.36728084033684694,0.3629604904320988
313,0.36774428797254954,0.36432210725202663
314,0.36772922261225116,0.36780235031128705
315,0.36737359033001243,0.3554114479169745
316,0.3672607189373936,0.374040785062052
317,0.36595513501627336,0.3643862559170812
318,0.3668002265753796,0.36201648089040706
319,0.36762849863669317,0.36532045566059185
320,0.3674029711726382,0.35914995971484004
321,0.36649524576192477,0.3641484552346297
322,0.3668512691250794,0.36000666106897744
323,0.3669092158874194,0.361759505712783
324,0.3672747343921776,0.3718638035792794
325,0.3680129768468553,0.35746366136072133
326,0.36701925139459635,0.3553412914856217
327,0.3663310292628023,0.3578690586057216
328,0.36667461748167074,0.36318059295826777
329,0.3658810360513753,0.3546037669841197
330,0.36627452890332746,0.363889765323707
331,0.366857975160627,0.36310727987362906
332,0.36686843542980135,0.35783371633856836
333,0.3677021880284417,0.3618455234090197
334,0.3659680034276292,0.35526095087800874
335,0.3659674575130304,0.3555989377109964
336,0.3654841875987019,0.35906713258320977
337,0.3660722516053576,0.3663871173005905
338,0.365274771153211,0.3570214999901601
339,0.3672719664627118,0.3568012714869398
340,0.3671771955785988,0.3598059554556377
341,0.36719653495938614,0.3596495974382925
342,0.3673415078913526,0.35830013621945933
343,0.36656492300707405,0.35795469285991266
344,0.36655268948778713,0.35767749498166984
345,0.36728214378878055,0.35850080963758946
346,0.3675935557238859,0.3527886161258911
347,0.36651155638923827,0.3734066500860989
348,0.36699773818612386,0.3534771094260328
349,0.3672937078176259,0.3619619560551083
350,0.36618421648482113,0.35878871749884117
351,0.3670115254944663,0.35840373738258713
352,0.3669067415907633,0.35869810415397113
353,0.36790679868838616,0.3560908737940606
354,0.36558132897242246,0.360224592037928
355,0.3663810359849464,0.3538524909224437
356,0.3682206057733875,0.3651336768199444
357,0.367132574307909,0.3617350529435197
358,0.3668193277881277,0.3546040296699589
359,0.3659104163451993,0.3560286935808595
360,0.36680507921189476,0.35651215988257406
361,0.3677907863600527,0.35365593464801875
362,0.36737078555924496,0.35612023384321634
363,0.36706241046647436,0.365482472783651
364,0.3666616397871792,0.361527142733553
365,0.36880333362530476,0.35923728651373926
366,0.36704129297987187,0.3604778365352148
367,0.3672669443180315,0.36024860913252693
368,0.3667407945287619,0.35915786093168883
369,0.36783072413254775,0.36313155080763576
370,0.3674755369166167,0.3669548816827865
371,0.3677543781345801,0.3640435936725536
372,0.36726130578544636,0.354863057703094
373,0.3669986729625705,0.36194843592821635
374,0.3666001332340668,0.3598960949363306
375,0.36683843401167465,0.35937315075743614
376,0.36902412556237085,0.3594519150566494
377,0.36755835931238123,0.3626825796184942
378,0.3670706660915509,0.36230705945547864
379,0.36705424422450406,0.36365611958774435
380,0.36692171781849536,0.3578465392168034
381,0.3672589847953726,0.35449778489822886
382,0.3670678289892007,0.35581352327861926
383,0.3679430450054051,0.35605641165015567
384,0.36792127482646747,0.3570699648023715
385,0.3671296341024083,0.3650938497504275
386,0.36760770475224935,0.35923445386704833
387,0.3671965326448743,0.35678586400048284
388,0.3659068772776591,0.36090643059791633
389,0.3672347204555408,0.362758842117885
390,0.36678520354440064,0.3596098891913359
391,0.3655180538459431,0.36754507621612764
392,0.36678958862566585,0.35962606070975606
393,0.36786630489618133,0.3599093642209665
394,0.3669492869710235,0.35933585118106587
395,0.36629322286936833,0.356776329190965
396,0.367098299012459,0.36686063298633786
397,0.36651827868602105,0.35895854203273686
398,0.3679047709612774,0.36246565006075115
399,0.36705286059978964,0.35465593779850857
400,0.3676834317972605,0.3579120714540706
401,0.3666585383532618,0.3588828967048787
402,0.36747609816187377,0.36878145408166296
403,0.3665287927258387,0.356492726037102
404,0.3680598303806887,0.35292119892360907
405,0.36640596830004973,0.3692871774973564
406,0.3663355481920479,0.3571758086567281
407,0.3673092109666432,0.35509500248298737
408,0.3663539477259374,0.3741668779146159
409,0.3666604491498014,0.35282552365548997
410,0.36669453883094727,0.3532759875953439
411,0.36651900271065624,0.3607886402904746
412,0.3663395955931959,0.353028064347435
413,0.36532663375592594,0.3610913992073124
414,0.3656060329382662,0.36571607895237784
415,0.365656058104922,0.35602364130167097
416,0.3663650748250578,0.36055461519729387
417,0.3656087079412752,0.3599220878548092
418,0.36570750866487944,0.36955387915718
419,0.3658797691186205,0.3598076712766123
420,0.36583847037737993,0.36192294418666776
421,0.36644333793078543,0.36237570058497004
422,0.3661134468855335,0.3513616656299925
423,0.3660299664764427,0.35229763217022625
424,0.3641010476432866,0.3516428767667973
425,0.3647352941065812,0.3608965933177883
426,0.3650400711714124,0.35535023322167286
427,0.3651330469845771,0.34784774316681755
428,0.3660154670739384,0.3537188627230667
429,0.3640886841534232,0.35747039417184084
430,0.364505681755831,0.36337074448882517
431,0.3652529555072395,0.35727944909704473
432,0.36459835149270237,0.36425192585246696
433,0.36510225650880507,0.3641513668949393
434,0.365716519262239,0.35653161026072133
435,0.3651102029914566,0.36350181111454094
436,0.3644981067881191,0.35569082525621465
437,0.3655170922497924,0.3552255641369924
438,0.3654819466501737,0.35471391192027835
439,0.36455390960860956,0.35917024042484536
440,0.36428808854569233,0.35163667442734803
441,0.3657584910014804,0.3733277436638884
442,0.3662947368822258,0.3530115280949963
443,0.36497419690780397,0.3610444214657275
444,0.3667900705571362,0.35962558266406897
445,0.3659569591379242,0.35409867289775965
446,0.36650756639752796,0.35625481801311465
447,0.3648961260139322,0.36039730017009247
448,0.3645357103635064,0.35451432160990853
449,0.3654077163307642,0.3589470480045263
450,0.3654196910780845,0.3615436532926675
451,0.36591556092039695,0.358194208203151
452,0.36549230997232174,0.35486300863682113
453,0.3650200875092736,0.35095576022276526
454,0.36531087709628074,0.35765204075285795
455,0.3644105465150624,0.35665776936483884
456,0.36347819692951094,0.359444788796865
457,0.36417301377360584,0.36160999944997047
458,0.36480206914478724,0.3486973943018082
459,0.3633505753677687,0.35264164393062236
460,0.36433242678976324,0.3572346094847692
461,0.3634546476068069,0.3477126539526968
462,0.3627236117545465,0.35545834901365725
463,0.3630798627153409,0.3525605548810688
464,0.36293157063024917,0.3557473865352021
465,0.3629601121760064,0.35489980945331917
466,0.36449800719252773,0.35484613136170073
467,0.36276021037844297,0.3535856556718367
468,0.36199158180752594,0.3654360317014043
469,0.36384637244612433,0.35594678292502646
470,0.3636320475175726,0.3487487243184788
471,0.3628931552577343,0.35542871240475077
472,0.36258963874285466,0.35517129669417624
473,0.3627301930212039,0.361640917365375
474,0.3633981262735599,0.3528120135110467
475,0.36343496200368347,0.35103695521196115
476,0.3631730966085048,0.3505637621309152
477,0.36192080268772053,0.35318384611403564
478,0.36186443682047154,0.35691000391870426
479,0.3606149367063498,0.3558782785526641
480,0.3619743636529669,0.3479066664913468
481,0.3626168093101992,0.3546274766289695
482,0.3625507487761106,0.3504647731249253
483,0.3628825335453948,0.351037540091602
484,0.36238753815905583,0.35140941900541794
485,0.3614122513368475,0.3514840796964495
486,0.3605315602832646,0.34779518057153364
487,0.35978305991217074,0.35144178981425217
488,0.3604204871828218,0.34359400587070305
489,0.36034762716178803,0.35123963452216966
490,0.35930873954696974,0.3602105555549832
491,0.35986766016321053,0.34967835920667223
492,0.3594911361069943,0.3456558909294379
493,0.35864996163247587,0.36444559956795786
494,0.35868150653172914,0.34417653721904523
495,0.3582886062663875,0.35251469911353334
496,0.3592756706132614,0.34880188293603986
497,0.3590956283889836,0.3521495541710246
498,0.3590957938288573,0.3555757123478428
499,0.3581430135463313,0.34887827158167606
500,0.35812286198664134,0.3533730287911538
