epoch,loss,val_loss
0,0.5114220225806232,0.46536138102666014
1,0.46597079308725914,0.4610109807317661
2,0.46464929473791433,0.4594523452784313
3,0.46438409607586045,0.4626045955793701
4,0.4653806569840643,0.46119822674134064
5,0.46498999200027596,0.4602942528612519
6,0.46579955901213893,0.4637263625352632
7,0.4673812999736795,0.469529396232704
8,0.46923776807262,0.4694773106921135
9,0.46900726174764196,0.462355388970464
10,0.46735596747470914,0.463350729181432
11,0.4687615610342965,0.4658957593149029
12,0.46649056212533657,0.4639208023855576
13,0.4669434302945057,0.4611174411292204
14,0.46547814489031336,0.4629948380654746
15,0.464390787818701,0.4636420723585607
16,0.464683412014245,0.46011350912382615
17,0.4647285261208578,0.4653536720867575
18,0.46453378617381746,0.4554907748202241
19,0.46315762207353467,0.46103192088764466
20,0.4618585155643016,0.45755282849290946
21,0.36288761289669474,0.2475917424405385
22,0.24876466383926385,0.2497811226683328
23,0.2485051643941477,0.24809618796987062
24,0.24619010721949983,0.2360004033388786
25,0.24631615323696832,0.23951503039856606
26,0.2486040388779033,0.2398246273168779
27,0.24733043347505496,0.24521398365449248
28,0.2469884340969728,0.2400429190679575
29,0.25052017630864565,0.24976377543258357
30,0.2514332600051255,0.23245123675318144
31,0.25408999564601864,0.2437747157475664
32,0.25754326808037425,0.2609393454163614
33,0.2559515757082079,0.2388251710136248
34,0.2561518718377412,0.24990397516489996
35,0.25443403506942325,0.2440592511485286
36,0.25316878177935453,0.24975108458612957
37,0.2536024405025214,0.2518816785607411
38,0.2545389186701267,0.25316826332079523
39,0.2557100624538022,0.24138619580939835
40,0.2544993967104187,0.23881698207021823
41,0.25446149127616036,0.23319742542790478
42,0.2554651484477988,0.257035192226068
43,0.25466246882660853,0.24659236220209366
44,0.2565755627399163,0.2601918767403512
45,0.2548372505950012,0.2427389933897631
46,0.25672324626349374,0.2534097150052744
47,0.25590312553105876,0.24470770873872613
48,0.2576238723506061,0.24488091716559457
49,0.25630250090570617,0.24580920148649935
50,0.25603627359824144,0.24241213725286098
51,0.2544976259358794,0.24467101807963626
52,0.2555427348391832,0.24432423000208073
53,0.2555652165157591,0.24586689788833055
54,0.2542367793375058,0.23949218850162873
55,0.25529447375081654,0.24593020932082713
56,0.25527061206445967,0.24864324140577712
57,0.2546110146755787,0.24319822164154206
58,0.25536355998417776,0.24124291846158538
59,0.2561693116604948,0.24472005438098846
60,0.2571183316129222,0.2560122150139217
61,0.25855244929381044,0.2555507344389387
62,0.25887088036780553,0.24652948503028255
63,0.25765278618678367,0.2463429564034562
64,0.260210907231387,0.24939069467304398
65,0.25875816056378087,0.25185150476074375
66,0.25970681568829895,0.24797018077783436
67,0.2616804656956652,0.2601271521387696
68,0.26154417079911413,0.2448958122599734
69,0.2617646020660408,0.2592439493413679
70,0.26233168073994717,0.2523903336862385
71,0.2612644707660278,0.25571827948190096
72,0.2615035941438068,0.2479295624361131
73,0.26313585047129157,0.26468628811720224
74,0.2630692478105295,0.25238614942083876
75,0.2614767143042017,0.2560461356160318
76,0.26137891627722876,0.2660686370447604
77,0.2644607428016903,0.24653228487749942
78,0.26260030929377975,0.2566309289195532
79,0.2632096603309946,0.24951704830197136
80,0.2620176689280234,0.2530545465412511
81,0.26280330813484637,0.24958981681140766
82,0.26315364326902924,0.25249627036769895
83,0.2637789484868057,0.26967721697719527
84,0.2639209788033159,0.25953926602854344
85,0.263689654220859,0.2530229500731316
86,0.2632685354094299,0.2488303942740302
87,0.2643248383298791,0.2520408870626637
88,0.2641400253479246,0.25248380476685917
89,0.26304247786847945,0.2609633211913577
90,0.2644588505272106,0.26490096242710137
91,0.263186564360312,0.25327088065681086
92,0.26426726915508963,0.2516186296432268
93,0.26340543683931483,0.2482210138853449
94,0.26373324153707733,0.26363230093600587
95,0.2634218173851673,0.2548963323489303
96,0.2639782274838349,0.24784699463061172
97,0.2640309609156594,0.2580292367611295
98,0.26226562013427573,0.2520893734108599
99,0.26312032019834314,0.25644236070686305
100,0.26330343224078395,0.2503357782706147
101,0.2636389239751596,0.2628078356880728
102,0.2626548179740711,0.26381268232021504
103,0.2635709688699751,0.24726880361708992
104,0.26279347345197174,0.2607230879940449
105,0.2638430806746284,0.2576002865812204
106,0.2630863833644564,0.25521657628589595
107,0.2625758575500728,0.2556227392547999
108,0.26354147264774175,0.2606004324756013
109,0.26115058769909644,0.2593095200581949
110,0.26275519828041427,0.2632079326275008
111,0.26219083850769354,0.24662843116975275
112,0.2609731866310748,0.24723811945534294
113,0.2615389326890055,0.2511413180770085
114,0.2611306790915654,0.24735683293383198
115,0.2611926646173907,0.2581030710238513
116,0.26121024403264753,0.24947325526362787
117,0.26140816620677065,0.24444483154108151
118,0.26120273606050864,0.24329337830574457
119,0.2618644179476558,0.25509452643379
120,0.26108186567922514,0.25696034815286295
121,0.26038969742407125,0.2630681441817357
122,0.2608693044086854,0.25042346321705
123,0.25993954291860993,0.24880605763230784
124,0.2601710368302748,0.2485121460533297
125,0.25946929322494516,0.2579153515247436
126,0.25793293604047135,0.2577153214186261
127,0.2586187007691595,0.24007264927742641
128,0.25755324818975356,0.24988093517799254
129,0.25643413887322664,0.2456829642751598
