epoch,loss,val_loss
0,0.5575249938567479,0.5460910581747691
1,0.5499459346003003,0.6382446622053782
2,0.6369514163864983,0.6366969084739685
3,0.6368639935917324,0.6366625312169393
4,0.636752194126447,0.636568638920784
5,0.6367230350706312,0.6364990110397339
6,0.6365763941473431,0.6364904705683391
7,0.6366136065986422,0.6367430055538813
8,0.6365751169257694,0.6364975885550181
9,0.636753901110755,0.6366829088131587
10,0.6366074572934045,0.6365512102842331
11,0.6365830369525486,0.6365479435523351
12,0.6365827675130632,0.636504797856013
13,0.6365274376339383,0.6368501654068629
14,0.6366806547376844,0.6365528486172358
15,0.636554831372367,0.6364936297734578
16,0.6364948801994323,0.6364654724597931
17,0.6365931259393692,0.636466980377833
18,0.6364814218812519,0.636580028573672
19,0.6365469948450724,0.6365346400737762
20,0.6366563709312015,0.6364927707910538
