epoch,loss,val_loss
0,0.45758934873342516,0.45484982554117837
1,0.4552990195883645,0.45477280735969544
2,0.4027468653122584,0.3639280364314715
3,0.37588015751043957,0.36573523859182994
4,0.3642027022971047,0.363937228679657
5,0.36421238899230957,0.36384329926967623
6,0.295339838663737,0.2733713181018829
7,0.2732993583944109,0.27303353452682494
8,0.2754954722126325,0.2731349995533625
9,0.27443787076738146,0.2730276338855426
10,0.27317524529165693,0.2730788285732269
11,0.27309239965014986,0.27639739950497944
12,0.2735610968735483,0.2729336440761884
13,0.2730149117973116,0.2730182932019234
14,0.27304195380210877,0.2729659768342972
15,0.273007256242964,0.27335571668545405
16,0.27309990279542073,0.2729445982972781
17,0.27297441285848617,0.2729446097811063
18,0.27310977084769145,0.27296600993474324
19,0.27297771428028744,0.27302391674121224
20,0.27320429788695444,0.2731921319166819
21,0.2730105688373248,0.2729569001396497
22,0.2732572911845313,0.27295558871825537
23,0.2876067160699103,0.27310730439424513
24,0.2733488938278622,0.2729805292685827
25,0.27343304417530695,0.2731152431368828
26,0.2730950297051006,0.2729713358283043
27,0.27312701947159235,0.27297610261042915
28,0.2730692893531587,0.27331307595968246
29,0.2730435947312249,0.2729419251084328
30,0.273204363849428,0.2730775153040886
31,0.2731766308148702,0.2729339361786842
32,0.2730255554848247,0.27305226496855417
