epoch,loss,val_loss
0,0.7289010724491544,0.7277523573637009
1,0.7277757688363393,0.7274364982843399
2,0.7275829210016462,0.7282555165688197
3,0.7275152841938867,0.7273554110129674
4,0.7275024600956175,0.7274010376135508
5,0.7274744256469938,0.7274714818398158
6,0.7275049593846004,0.7273821022907893
7,0.7274599947399564,0.7273542599280676
8,0.7309075911045074,0.7273943868875503
9,0.7274670980771383,0.7286544589598973
10,0.7276460536983278,0.7274617844422658
11,0.7274818249278598,0.7273621114889781
12,0.7273922772539987,0.7274388602972031
13,0.7275144567754533,0.7305706017414729
14,0.7277153583102756,0.7274592484235763
15,0.7274665843910642,0.7273704941272736
16,0.7261844563351737,0.6382106756766637
17,0.6364403131405513,0.5475967659155527
18,0.5457401986519496,0.5455961253643036
19,0.5457255195776621,0.5456395916938782
20,0.5457263440820906,0.5455934190352758
21,0.5456548215283288,0.545639706770579
22,0.5456251239909066,0.5456444628636042
23,0.5456174221966001,0.5457722365061443
24,0.5456590142647425,0.545650199731191
25,0.5458305892017152,0.5457639601627986
26,0.5457298740280999,0.5455882927179336
27,0.5457715797026952,0.5456786401669185
28,0.545641768640942,0.5456759496132533
29,0.5456677740812301,0.5456132570107778
30,0.5457139130036036,0.5456014091968536
31,0.5456167268620598,0.5455779106616974
32,0.5456244993077384,0.5456558647553126
33,0.5456365540027618,0.5455944392283758
34,0.5456328410837386,0.5455898092190424
35,0.5456367463138369,0.5456023664871852
36,0.5456963758071264,0.5456500352621079
37,0.5456148370504379,0.545594312230746
38,0.5456029937399758,0.5456203016440073
39,0.5457709321578343,0.5456496493021648
40,0.5456275228394403,0.5456546283562979
41,0.5456616384453243,0.545599488099416
42,0.5456621522241168,0.5456660957336426
43,0.5460620690584183,0.545614045937856
44,0.546528953048918,0.5458052625258764
45,0.5457171563042534,0.5456568518479665
46,0.5456848000950284,0.5456057484149933
47,0.5456338728004032,0.5455954758326212
48,0.5456272013452318,0.5456160606145859
49,0.545647319290373,0.5456580696503321
50,0.5456364874972237,0.5456147715250651
51,0.5457189654244317,0.5455820645093918
