epoch,loss,val_loss
0,0.54770262907611,0.5459252469539643
1,0.5469646763006846,0.545742440978686
2,0.5459675817489624,0.5457539588610332
3,0.5472156262132857,0.5456929704348247
4,0.5476865230798721,0.5469504082600276
5,0.5462445640166601,0.5458344914913178
6,0.5472599884536531,0.545921150803566
7,0.5457654347022375,0.5456424754063288
8,0.5457806016339196,0.5455900751749675
9,0.5457087111605539,0.5467206225792567
10,0.5460338660346137,0.5458514433701833
11,0.5457824035750495,0.5608736727635065
12,0.5456782472133637,0.5456606467167536
13,0.5457058122290506,0.5456062132517496
14,0.54564511666033,0.5456147119204203
15,0.5457081475125419,0.5455931340853373
16,0.5456518585681915,0.5455849676529566
17,0.5456224716239505,0.5456003055175146
18,0.5458113066355388,0.545729519367218
19,0.5457690917915768,0.545644118587176
20,0.5457286261320115,0.5457340954939525
21,0.5457033667961756,0.5456010184685389
22,0.5457164387702942,0.5455864764849345
23,0.5456383423672782,0.5455910608768463
24,0.5455977842410406,0.5455948076248169
25,0.545622119002872,0.5564009474515915
26,0.5483479385640886,0.545674529671669
27,0.5457104333109326,0.5456449981133144
28,0.5456729247702493,0.5455974122683207
29,0.5456387092934715,0.5456588970820109
30,0.545662382417255,0.5456816088358561
31,0.5457058672375149,0.5456074263652165
32,0.5457387918631236,0.5456014357010524
33,0.5456183086633682,0.5455724035898845
34,0.5456502865552902,0.5455957921346029
35,0.5456102969116635,0.545632977326711
36,0.5456358005338245,0.5457023324171703
37,0.5461154177851147,0.5457084892590841
38,0.5456970206896464,0.5455898559490839
39,0.5456448882155949,0.5455800720453262
40,0.5455969246758355,0.5456264450550079
41,0.5456151192718082,0.5456844408512116
42,0.5457222487661574,0.5456153970956802
43,0.5456847723590003,0.545572833498319
44,0.5456295288933648,0.5458258221944173
45,0.5455894622272915,0.5456043872833252
46,0.5456047692298889,0.5456088793675105
47,0.5456556538475884,0.5455752388238907
48,0.5456058865388235,0.5457444234689077
49,0.5456593925290637,0.5455967832406362
50,0.5456067269775603,0.5456122417449951
51,0.5455935919682184,0.5456176427602768
52,0.5455990494092305,0.5455759017864863
53,0.5455974311298795,0.5455665928522746
54,0.5456262814601263,0.5455515486001968
55,0.5456305169794294,0.5458500556151072
56,0.4717695951594247,0.4548662405411402
57,0.45477524292469024,0.4547012031475703
58,0.45471779902113807,0.4546958218415578
59,0.4547332872947057,0.454680945456028
60,0.45485163917806415,0.45468986133734385
61,0.4547121289239989,0.4546693723400434
62,0.4546894511050648,0.45467916681369147
63,0.4562552007900344,0.45485206242402393
64,0.45486626894606486,0.454713317433993
65,0.4547783815662066,0.4546975156267484
66,0.4547320084306929,0.4547245707710584
67,0.4547591795987553,0.4546695672671
68,0.4547239134245449,0.4547280914584796
69,0.4546911919845475,0.4546776670217514
70,0.45472007231579886,0.4546812760829926
71,0.4546908508406745,0.45467630968491235
72,0.4546827830672264,0.45466135934988655
73,0.4546991663177808,0.4546917699376742
74,0.45485030164983536,0.45468922120332717
75,0.45468417845831977,0.45468910864988965
76,0.45472306595246,0.45472034204006195
77,0.45473925785223646,0.4547889609138171
78,0.4546773893104659,0.45469143116474153
79,0.45469002408451503,0.4546785456140836
80,0.4546752801934878,0.4546719350218773
81,0.4546798587573899,0.4546827547550201
82,0.45483845725986694,0.45487469553947446
83,0.4548722712662485,0.45481085805098215
84,0.4548168877429432,0.45469352769851684
85,0.4546924634642071,0.45472871432701745
86,0.45468831458356646,0.4547168932755788
87,0.4546872170103921,0.45472596236069995
88,0.4546800274252892,0.45492547128597893
89,0.454907235191928,0.45472044734160105
90,0.4547078255414963,0.4546745604475339
91,0.45470272311899396,0.4546886608799299
92,0.45476169154379104,0.4547013678948085
