epoch,loss,val_loss
0,0.546132096542035,0.43557990327272006
1,0.3911425657540536,0.36342194201447375
2,0.3638562305186919,0.35875540512515003
3,0.3526461626394832,0.3495076182815764
4,0.3564534850830169,0.3537465276291771
5,0.3582309500051079,0.37029043536116607
6,0.3602799251496649,0.3539205880930824
7,0.3625301412039036,0.3586152743635773
8,0.36519365653908664,0.36424874946390434
9,0.36815639035261755,0.36041377065438907
10,0.3689861714756422,0.36169439400731307
11,0.3693354016093849,0.36435531982540215
12,0.3696393487427691,0.3711912794293955
13,0.37037926676084365,0.363975453502457
14,0.3725568024311856,0.3671343409957097
15,0.3734028299538205,0.3739742510993599
16,0.3742808488199862,0.3700622729141347
17,0.3745895276566426,0.3712610890975544
18,0.3743214370776788,0.3703737479467655
19,0.37491604862354394,0.3709683169800386
20,0.37507083302764915,0.3774663749402457
21,0.3743539679291441,0.3664027545888155
22,0.3730049025270345,0.3670823210057261
23,0.3729092213358757,0.3654094868961235
24,0.374574797620193,0.36746736273278285
25,0.37370331196473827,0.36700886379193215
26,0.3746384456455469,0.3675205395145331
27,0.37467021933548733,0.37129049104640666
28,0.37422283383919963,0.3715212795179449
29,0.3749475986290398,0.3705292338292384
30,0.3755551099216489,0.37536360501082855
31,0.37543227102419585,0.3676885207155712
32,0.37465029920311904,0.37268422128268597
33,0.3751968034536386,0.3656216130228615
34,0.37370222681064047,0.3694040972893545
35,0.37412426976846447,0.36998794182518685
36,0.37308014114443255,0.3698917760514478
37,0.37373528902749237,0.36788774029761917
38,0.373503692644992,0.3667921425362283
39,0.37374465775380045,0.36561680631674315
40,0.37223435869758087,0.3691374898826989
41,0.3726920468972815,0.36354141626189806
42,0.37162795312720553,0.36736225482417817
43,0.37251949459433653,0.3622823437465852
44,0.37107821451939993,0.36459233122972196
45,0.3705492657635382,0.3718313474483057
46,0.3703559995282164,0.3688710240793731
47,0.369643251212527,0.3668152239152501
48,0.3711939405104081,0.3692957651827844
49,0.3694888522462238,0.36383547696125573
50,0.3685694139501493,0.3639903989078935
51,0.3703655870892316,0.3688073093366159
52,0.3706564071705286,0.3676848388114598
53,0.3704515924815944,0.36652635982968607
54,0.37017715269561,0.37087970818577987
55,0.37096094221377773,0.3630703581075599
56,0.36975159854579676,0.36788073891512474
57,0.3708164368728526,0.36307234020370444
58,0.36975252969537953,0.36395077407360077
59,0.36968824158223557,0.366257236568017
60,0.3691172518486305,0.36411591541303046
61,0.36955141484904425,0.36620952976929494
62,0.3685656552783865,0.36384600636587816
63,0.36834151789343195,0.361147557876986
64,0.36782175984332044,0.36856372648395375
65,0.3668766601609172,0.3636842881240984
66,0.36654895249369435,0.362109920102121
67,0.36695027694380505,0.35969627295097295
68,0.3668532420137675,0.358928444019586
69,0.3663720170899426,0.3587543865528323
70,0.3664411591638843,0.3626140071213584
71,0.3658171036333633,0.3614458165948022
72,0.3670890196632919,0.36282377517861464
73,0.36647327581914163,0.3595395692460245
74,0.36616984257896584,0.3632215918899066
75,0.36637438213925444,0.3589165319128918
76,0.3656379621717527,0.35888564025882
77,0.36579760776652254,0.36032650579259534
78,0.3653038005002314,0.35916631338273425
79,0.3656127740971273,0.360867473330811
80,0.3658267742781948,0.3633803880901136
81,0.36685445718616366,0.3604587356636221
82,0.36467234249278196,0.35914915299763644
83,0.3650659834854215,0.35794771456032
84,0.3646103006431921,0.3604597126262902
85,0.36445107121912357,0.35839410593909937
86,0.3648234478968253,0.3573544646000727
87,0.36489736404511525,0.35912525693720565
88,0.3656105803216907,0.35747317890036134
89,0.3662493138717975,0.3584371585843047
90,0.36614776587634207,0.35947402568484166
91,0.3660057782947874,0.3627865571537737
92,0.36701216675144277,0.3613208991211793
93,0.366010467990863,0.36323087863678477
94,0.3669494795646545,0.36188363474215907
95,0.3661214365326375,0.36425398118546215
96,0.36780249328614234,0.36290901618959065
97,0.3665338595441764,0.36410702426599856
98,0.36839522575859646,0.359996633215929
99,0.3663499137823633,0.3594759330697303
100,0.3664140299654561,0.3616748768821153
101,0.367671797491962,0.36078642516578974
102,0.3678864728960636,0.36376719854753964
103,0.36707753129154325,0.3662525519112311
104,0.3680472347596056,0.36239541218663657
105,0.36731561222035375,0.35930313890239424
106,0.3679249447951611,0.3616171357284594
107,0.36606328461984333,0.35953874977884115
108,0.36789594575154294,0.35947657462937604
109,0.36728871418677683,0.36449595530489454
110,0.3678997958345925,0.36303637671644673
111,0.3678390237154533,0.3659493383941666
112,0.36846645828411045,0.36301127358944746
113,0.3680090596608585,0.36070706133956554
114,0.36787198828138096,0.36218929392287913
115,0.3691926564666345,0.36221658443882515
116,0.36867124127377693,0.36259935709246754
117,0.3681351265387596,0.3604020924705465
118,0.3684745194901935,0.3616930004647372
119,0.3691338416609504,0.36248467778009025
120,0.368398997983377,0.36342848654887777
121,0.369902418095699,0.36348243914574796
122,0.36860196719511307,0.3628439779626772
123,0.3691798592503783,0.36327404116143663
124,0.3692520898077085,0.3620833885423168
125,0.36933833271789973,0.3693176995107824
126,0.36892372507563204,0.3646584055284514
127,0.369179676833441,0.362810380315742
128,0.36863373036834124,0.36312680229218336
129,0.36945557911053384,0.36484755897125576
130,0.36976677300430855,0.36234109583465623
131,0.3687675623916644,0.3615070188060004
132,0.36906211304845954,0.363255040948215
133,0.36896796204788,0.36409185585072634
134,0.368741934864019,0.3607128235207084
135,0.3691545502842666,0.36442408138479726
136,0.3692447688039825,0.3623043472266062
137,0.3697681657319741,0.36812195893670135
138,0.37010765019013847,0.3674611141791889
139,0.36980239501755363,0.3654492725493554
140,0.3708923906505442,0.3649177003926798
141,0.36837347060609,0.3589939656097137
142,0.36849853039098035,0.36485093950451825
143,0.36856531468723375,0.36255621280451666
144,0.3681212753427325,0.36355443675877697
145,0.36815654487014293,0.3610341621552264
146,0.36891126735889024,0.36674511722694636
147,0.3690146003500092,0.36193740323173834
148,0.36841618820273275,0.3628914483248076
149,0.36896677999447786,0.36393995602393864
150,0.36892531402975776,0.36159087264334777
151,0.36889127192733956,0.3620173488316841
152,0.368191312601845,0.36645810532067136
153,0.3690984210400604,0.3684568206227512
154,0.3694134133877613,0.36226201371651595
155,0.3688959563083893,0.36414932456571497
156,0.3694414645910645,0.363576236214951
157,0.36910382351630017,0.36472135048664783
158,0.3696004989399635,0.3640168475142747
159,0.3699832267588,0.3667369042821561
160,0.36948419575265545,0.3652857862418972
161,0.3693633448896263,0.3672471713918259
162,0.37037081552372636,0.3636540983473491
163,0.37013914180789786,0.36684240612283725
164,0.3702246054911537,0.36815228278764556
165,0.37093104655929715,0.3634211800732655
166,0.3707255140436087,0.36169877736576184
167,0.3693558939570804,0.36390336240971854
168,0.37010792762136535,0.36325090806946364
169,0.3700303910456723,0.3659064123061065
170,0.369862111850535,0.3627195714188125
171,0.37080212442683064,0.36447977661989805
172,0.3713289066027698,0.36869018959351313
173,0.37187058560914094,0.36312131176416407
174,0.3704591702768285,0.3645442706945942
175,0.3714626123658937,0.36559439086130935
176,0.37118321570684853,0.3636099504244975
177,0.3716074408198281,0.36566165106526644
178,0.37205436628899446,0.3661997332649316
179,0.3718855560983153,0.36707882233876477
180,0.3724856228411818,0.36743736192161053
181,0.37187272400928556,0.36843060370344316
182,0.3733549239195949,0.3660937686664538
183,0.3735518907252744,0.3661249664529783
184,0.3728230330374262,0.36742888567463133
185,0.3711173337480848,0.3669466973801309
186,0.37284777367754496,0.36777444594726266
187,0.371455719582647,0.36961795735291514
188,0.37103818635567365,0.36447333200666254
189,0.37203738553295906,0.3662111885356207
190,0.37254667393057894,0.3692159336196245
191,0.3733330240265859,0.3684631946820702
192,0.3740315685172478,0.3730390751062132
193,0.3755086974693452,0.3694601889702719
194,0.3747607444266112,0.37145685846256415
195,0.3753515536530768,0.3697519779737075
196,0.3743969380879421,0.3686523412725158
197,0.3751800905904167,0.3681126260240196
198,0.3736237218324617,0.3737951418609998
199,0.3744948136152698,0.37011880532136704
200,0.3746693273357528,0.36866551911985596
201,0.37541358535579916,0.37386495539645115
202,0.37448551636442745,0.37264142856787397
203,0.3746413120491396,0.3709835374345648
204,0.37490880051500997,0.369983790854758
205,0.37582362550582954,0.3712944166987095
206,0.3750105530465002,0.36978254660009274
207,0.3767940136339304,0.37102925806439996
208,0.3765243989369982,0.37322382451263947
209,0.3754845642036586,0.37680728054346346
210,0.3776976560310329,0.37637985690473447
211,0.38022815464161414,0.37953131671901263
212,0.3811899628266513,0.3771637819060831
213,0.3871208754262989,0.3832798200294629
214,0.39098732717472423,0.38707352424189995
215,0.39552161714928546,0.38990603944487623
216,0.3785361589325534,0.3729034021847246
217,0.37565618546439516,0.3704310030784437
218,0.37436097492877723,0.3699417667522338
219,0.3741937942677636,0.3666436821464011
220,0.3733906742987679,0.3672100453360334
221,0.3728903679906415,0.36410519552008463
222,0.3734922272692307,0.36894769998024074
223,0.3724006518685789,0.37176794630670973
224,0.3735940707825106,0.3662793873072831
225,0.37381115707280255,0.3682848906381674
226,0.37323137712750654,0.367843027919265
227,0.37291285823329723,0.3654792873915481
228,0.37235321241726965,0.3679483208415572
229,0.3713134900451279,0.3677312956650085
230,0.37273738706250303,0.3662800232230988
231,0.3734945696148517,0.36780500224665325
232,0.3727157210425628,0.3681234872544189
233,0.37289828351371473,0.3683501847589876
234,0.37331881008451706,0.3684205581817024
235,0.373441001228851,0.3732648850792516
236,0.37445722069379517,0.37140568117977446
237,0.37351765453195074,0.3672929978767064
238,0.37313801714117,0.36446400748117125
239,0.3753328728344175,0.37203492816395617
240,0.3752008503835329,0.3707588187872832
241,0.37347133716551945,0.3698106878236939
242,0.3747602891120269,0.36980192235158116
243,0.37600766329334867,0.3750795654813545
244,0.3754610979647709,0.3687179854316433
245,0.3757623458285633,0.37294846139878446
246,0.37626121891103237,0.37241231256737906
247,0.37771304757643737,0.3723037535836807
248,0.3775025225871558,0.37552269078664247
249,0.37785530982731436,0.3720726958519061
250,0.3771643529387356,0.37403570208622977
251,0.37697936580766195,0.3765272337517309
252,0.3776939400524688,0.37346320552789186
253,0.3781841305599774,0.3755989624466823
254,0.3786162195191849,0.3733517710068123
255,0.3783280955995914,0.3775842695558158
256,0.3776658156020246,0.3721257114159026
257,0.3801836740371702,0.37725564711768744
258,0.38131735841926334,0.3779318377508541
259,0.3814026742064065,0.3800797345840341
260,0.38301477373672355,0.37906512330435005
261,0.38344269700413997,0.37883232668078437
262,0.3828459467658336,0.3763127952258179
263,0.3804004155129218,0.37545328680954615
264,0.37857241035581496,0.3743855075703727
265,0.3783147422860774,0.3725008069985491
266,0.37653104839227597,0.37770708607447795
267,0.37597089909834325,0.3705483933507381
268,0.375443871142723,0.3677773017372818
269,0.3751102233047577,0.37648362920763817
270,0.37488483736594264,0.3711176865098927
271,0.3744906625562042,0.36788457408486974
272,0.37445009221808256,0.36530166546552045
273,0.37280388698995925,0.3668103406729973
274,0.37438295080697087,0.37404023833566824
275,0.37169900118970606,0.3637174157258078
276,0.3725348468407619,0.3666084712705086
277,0.3734851963967204,0.3718415560126788
278,0.37545151310004266,0.3664749673441572
279,0.3728277582564862,0.37125463047746904
280,0.37481634672567116,0.36401687424693374
281,0.3727166300909437,0.3681716092069847
282,0.37159683717619046,0.36312695056659267
283,0.37200984537148113,0.36720921282882335
284,0.37257616580415476,0.3677437178554906
285,0.37158484469422154,0.36320231371504064
286,0.3723523741344913,0.36957685036670845
287,0.37306174075751425,0.3793424653963451
288,0.37291520373452847,0.36732066970768734
289,0.37248290806793993,0.3696514117891771
290,0.3710566951369075,0.3644419164190617
291,0.3708508490704841,0.3706629894438161
292,0.3708013056921329,0.3670600693784684
293,0.37099605078717246,0.3643661006644598
294,0.37112528079146856,0.366787314789622
295,0.3722859288843944,0.3771834725760292
296,0.37261466878213534,0.36578562199489334
297,0.3731558181888299,0.367858745151676
298,0.3723736377932531,0.3657893858856045
299,0.3715167753547549,0.3663577058527011
300,0.3729331053322177,0.3708761222146917
301,0.37219052019121174,0.3648227026016849
302,0.3716587208336692,0.37175179478944265
303,0.37204952322071894,0.3655041700828781
304,0.3719031367782023,0.36575327281872627
305,0.3720606248124873,0.3674587915921153
306,0.37244456316276586,0.3663156385694397
307,0.371583171761494,0.3700872444685938
308,0.37243029370223935,0.37125395464394406
309,0.37185154712085633,0.36484314139935414
310,0.3723314162477958,0.37151723596156366
311,0.3723472842784096,0.3652540922334111
312,0.37081273389850455,0.3705772478480892
313,0.3722401555296514,0.3716989796720475
314,0.3720906185533544,0.3680912693365744
315,0.3714959496099821,0.36385639594370817
316,0.3722802000619871,0.36459538695876037
317,0.3718697074189293,0.37466113036082993
318,0.37325182029779097,0.366176308059441
319,0.371657927117174,0.366113356720212
320,0.37279535849706186,0.37148584255046796
321,0.3722203571477635,0.37133232159094415
322,0.37195471436787453,0.3710742138767281
323,0.3722003175913572,0.36484144224399295
324,0.37246033915574306,0.3695533900534536
325,0.3719871306987263,0.3666972378865549
326,0.3725085949974121,0.36625039419166844
327,0.37366099579273176,0.3755009989983071
328,0.3729924271591574,0.3708405395107161
329,0.3723216744973432,0.36354274889461796
330,0.37188037573169763,0.36626909186176815
331,0.3722894737501446,0.37181828942660483
332,0.37306091604564934,0.36791292629344424
333,0.37180153337762867,0.36523567150979147
334,0.37265262402611987,0.3674185215242491
335,0.37407972346290386,0.37027167019472795
336,0.3730080517603933,0.3721546921561814
337,0.3731873827495033,0.3672090296883556
338,0.37226620982822367,0.3671215081229407
339,0.3723873840726978,0.36800319402322285
340,0.3724070770369233,0.36701817715061646
341,0.37226889277692793,0.3634352987240894
342,0.3734005598352851,0.3664066618835646
343,0.37393745317088783,0.37634600545464736
344,0.3763411704471724,0.36964393112829613
345,0.3745287743279989,0.36765395185856536
346,0.3742135534282204,0.36757151651991543
347,0.3756370777912957,0.36870236652514266
348,0.3770464636665807,0.3718409163141676
349,0.37846185022396883,0.3767494890304087
350,0.37742055608951347,0.37103527873778674
351,0.3752587164779775,0.3751871549106669
352,0.3774153616270416,0.3681067942678687
353,0.37798618816370194,0.3763253205279848
354,0.3783579705308398,0.3751724626557767
355,0.37739546477699204,0.3796396580708288
356,0.3774515480351887,0.36967566791870493
357,0.37516955804643487,0.36707293222275383
358,0.37787708813090437,0.37315546923648607
359,0.38064239449721515,0.3786154182722969
360,0.37728399992752687,0.3687907147847436
361,0.37843570112585545,0.38002142119194954
362,0.3771362142969934,0.372794050720293
363,0.3761609193441675,0.37528009450445304
364,0.3777127497619968,0.3727221646423951
365,0.3792266258067661,0.37466139976608975
366,0.3801775331481444,0.3809774145786103
367,0.3798960329438325,0.3764740870986058
368,0.3811868843231037,0.38035279505154224
369,0.3803149758158826,0.37244000522131276
370,0.379742148383748,0.3794047908142922
371,0.37945930237432207,0.371576839639516
372,0.37856639188537605,0.3739697937064314
373,0.37939986393893593,0.37775703147960116
374,0.37765140897088095,0.37445657565549245
375,0.3798653352573168,0.38358119342835667
376,0.38005324396445717,0.37435661070199877
377,0.3810242549109879,0.3752948795622766
378,0.37855770603550065,0.37238351099150796
379,0.37514739489560134,0.36930609536141956
380,0.37834986179375096,0.38125237963930536
381,0.38100330282846767,0.376962527536031
382,0.3794158431973526,0.373839978028968
383,0.37452617237527813,0.3646671193359542
384,0.37974790554102944,0.3784724540664042
385,0.38136656010289305,0.38085421332477654
386,0.37936909196732804,0.3771862779583084
387,0.3808659941578408,0.3750195812134847
388,0.3794854713187779,0.37420412389273
389,0.3793658359860591,0.383581769292372
390,0.37922405180117913,0.37563529974401044
391,0.3042928603670901,0.2740283263220307
392,0.27821816285077433,0.2807309971359428
393,0.2745883593781649,0.27416171331112693
394,0.27439973684097885,0.2657149485029153
395,0.27346265131087183,0.26149265284424184
396,0.27302083926047205,0.27643018413489173
397,0.27100302345806165,0.26797926833208074
398,0.2735490313379931,0.28208521576500095
399,0.2729769778893507,0.264638194468383
400,0.26928920801684225,0.2597115774067166
401,0.27147499766585537,0.259607075055682
402,0.2708422325259213,0.2707314249626621
403,0.27129745044058756,0.2662922850683851
404,0.27022898357042413,0.26562521502750247
405,0.27046369383927343,0.26593611909065995
406,0.27154748519961597,0.27819573899786937
407,0.2710504496963717,0.2640781384278678
408,0.27014405116605894,0.26624325188503745
409,0.26865961158676466,0.2577197633423848
410,0.2685437324442703,0.2572322134457269
411,0.271331960861806,0.2592789495585899
412,0.26963609298340696,0.2652453921028297
413,0.2680860622088798,0.2707216993929019
414,0.2673308921454428,0.2569641400391458
415,0.2686458296590657,0.27554898556784124
416,0.2676015962854779,0.2578840388071218
417,0.2696187185814039,0.26671987720021173
418,0.26765690045692236,0.2655633676129439
419,0.26884334416593236,0.2591991611882525
420,0.26714861632479103,0.2648946120791192
421,0.26606530143474466,0.25513378562766753
422,0.2666738262926463,0.25801071036374384
423,0.2671390066327478,0.25975790524376374
424,0.2670940982671477,0.266110715083929
425,0.2670384302818842,0.26159687030271894
426,0.26789202234499737,0.2600154481943023
427,0.26641040585571235,0.2569790205586662
428,0.266344810225326,0.26637415928707214
429,0.2669754926923564,0.26113107157546334
430,0.265051818978462,0.2627993570482064
431,0.26577720448100345,0.25336019476665683
432,0.2669802557131211,0.25993325653133215
433,0.2661613065591328,0.2664728170836349
434,0.2664638300470298,0.26656470766226065
435,0.26565080936297214,0.2589806594552785
436,0.2657794310891027,0.2585484712578761
437,0.2647390927824142,0.2619713755915151
438,0.2637820979528087,0.27446742088738635
439,0.2639949323834659,0.2625911052233788
440,0.265303819104015,0.2615918802265123
441,0.26508338965648554,0.26916915112434125
442,0.2637536480927391,0.26483886498000114
443,0.26595259113035935,0.25893858664904007
444,0.26415584945053555,0.2680350038232788
445,0.2645669656576778,0.2706424384789552
446,0.2653279003916119,0.26040740871903184
447,0.2649931067390572,0.25383038949961595
448,0.2646332083820247,0.26309209080097257
449,0.26322987420652944,0.26132291554800396
450,0.26233969381551825,0.2584471706926388
451,0.2595030092555967,0.26630221079469985
452,0.25903239703660397,0.25102934058202736
453,0.25411218567322597,0.24233248353076967
454,0.25536184032873405,0.24853708964847301
455,0.2563621532843054,0.2502420937275364
456,0.2562166582897389,0.2635148317890736
457,0.2608029958818129,0.2693774929604004
458,0.2538035335131079,0.2126067275572674
459,0.19518349272571056,0.1833094585828924
460,0.19862162908188719,0.23274505067698276
461,0.23071724651537961,0.221486996052619
462,0.23309516404465355,0.2121657910428198
463,0.22190390585111178,0.21902914855263625
464,0.22413318850893416,0.2108715975057373
465,0.2210133079233601,0.21833228711446706
466,0.25887114016877544,0.27114689017178467
467,0.2821329076937717,0.27175215372493955
468,0.28535138454446324,0.27393218065821245
469,0.28458223573034336,0.29509998647690977
470,0.2858408542843558,0.272555039372274
471,0.2815844280819734,0.29225150213576095
472,0.30626561658515083,0.33690552311947164
473,0.36264831291808425,0.37497120678714885
474,0.3657534182000103,0.3492499997677691
475,0.3660894692588368,0.3629047631830678
476,0.3677724240253791,0.35236815758961926
477,0.37213739362046466,0.3915723057921495
478,0.3642317152040018,0.3125667485732522
479,0.33707219073541456,0.34877202238673033
480,0.36288753140559665,0.32218327946713177
481,0.30065493867863075,0.3718307467973629
482,0.2868241064393635,0.13692113781606194
483,0.2513719186264339,0.31923317968458637
484,0.27188164775995755,0.29108185378497725
485,0.2638525015341224,0.3320774477812109
486,0.3259043132869886,0.4157485487445621
487,0.34374027180853034,0.3343832666977382
488,0.3484627789764809,0.31391893048066
489,0.33544591548826524,0.31124061404063463
490,0.33876896599491085,0.3413588357039418
491,0.331433114669531,0.3476886443026358
492,0.33127972714489606,0.311115638678478
493,0.33343795749595206,0.3443483303739883
494,0.3297600162873944,0.29802579830936177
495,0.33124185067782697,0.3664555922090185
496,0.3301868708289748,0.30709891583217613
497,0.328882784510346,0.3212316025831017
498,0.32536958626883805,0.300034065932543
499,0.3232733034569803,0.32578658181433745
500,0.32408691062819395,0.3010160077033929
501,0.31948436871827174,0.3218515671469386
502,0.31438590536077465,0.31822019879496977
503,0.31082565159058934,0.3134511292995908
504,0.3054567608323166,0.28823421246523984
505,0.30662758832124826,0.2783899495116792
506,0.3068433082442555,0.32462594252674926
507,0.3058708746901887,0.2772898773110599
508,0.30260838267562673,0.3152621943996094
509,0.3042682926114604,0.30339691208468544
510,0.3046805668321011,0.29483810613431877
511,0.30142322891921974,0.2915833396512323
512,0.3019342551483595,0.3100384551025655
513,0.2993585397008422,0.3045509788845964
514,0.2992799699789672,0.2848908539139345
515,0.3031915778501498,0.3219177741904812
516,0.3054869969079407,0.298879349693378
517,0.3032666648103534,0.30818740173944686
518,0.30025830532046105,0.30492456483338193
519,0.30319310588131343,0.2759292812327592
520,0.3022311794921291,0.2973053915318878
521,0.3011213286434583,0.3285644264938574
522,0.28786997245050505,0.2840714040488029
523,0.30450227019713344,0.2868794604519568
524,0.3069195112346219,0.31389225128696685
525,0.3045431134746588,0.3256640930487098
526,0.3107167088730131,0.33454523231329614
527,0.3123006247717729,0.32096245701198933
528,0.3128524871857716,0.326265583544462
529,0.3068183261701305,0.26742488970649214
530,0.3068993607635876,0.31016080325585693
531,0.32207673873373566,0.32116672553768605
532,0.326733339885123,0.35169845278052325
533,0.3233021397480638,0.3269136704667641
534,0.3256445190100502,0.2996494549493527
535,0.3351197438515884,0.3755259057635325
536,0.32479857229549375,0.2988175371448779
537,0.31183267288727223,0.29027488685098973
538,0.32215999415199503,0.304528416520391
539,0.32131157704204727,0.32425160095736155
540,0.32691196167619346,0.31542442574649926
541,0.3144677700855142,0.26585815743590796
542,0.32743411586046506,0.3495668472672321
543,0.3269966645143908,0.3217961794582693
544,0.31153596752734064,0.46758783077526556
545,0.37954031981175856,0.3696743023535728
546,0.4166544008913567,0.41915688215961133
547,0.4329479926044317,0.4324303308059216
548,0.42088736048500663,0.39304314895751313
549,0.4078026714625122,0.41155741789770245
550,0.41554732524079263,0.40922201025418314
551,0.4138828242261759,0.4114510547143119
552,0.41434561990326746,0.4181174652081433
553,0.41704517716856554,0.4193949706773882
554,0.41792785684713085,0.413946937700161
555,0.41417905699023255,0.40971417095442664
556,0.3967804565333766,0.38594320908321755
557,0.3871195819661367,0.3863097981210656
558,0.3858677560897519,0.3813621143765887
559,0.38505468621337,0.38037988806969736
560,0.3855128421830692,0.38480088853149613
561,0.38415878119351293,0.3780721387578913
562,0.3840320444195341,0.3805345178786469
563,0.3833665358330652,0.37754602412431104
564,0.3843680106526952,0.3772331942703699
565,0.3839608446014128,0.37966208854827665
566,0.38389129391472465,0.38074789894178257
567,0.3841981617771119,0.3777991595397804
568,0.382828112784102,0.3758526511508473
569,0.3837378548146535,0.3791333890889393
570,0.38390300573827363,0.379386952819132
571,0.38510287434363766,0.37829783865811856
572,0.38393801529470495,0.3797721657343058
573,0.3835620312117118,0.3810337469743116
574,0.38356429996420804,0.38237935750588886
575,0.38336476242189127,0.38136132227049935
576,0.3842230210061356,0.38685003413674507
577,0.3844852133619012,0.38073512946843907
578,0.38381327253828246,0.3856182222021177
579,0.38393925776998933,0.3787950656685709
580,0.3834628721980976,0.3799699336918794
581,0.38401745330151604,0.3784763262654743
582,0.3839423142379527,0.3821591300420034
