epoch,loss,val_loss
0,0.924412256889873,0.9198579593499502
1,0.9196912431584464,0.919451133608818
2,0.9195151781638463,0.9177604036331177
3,0.9072411878903707,0.9023749794165293
4,0.8993123519817988,0.8979397264719009
5,0.897949450466368,0.8992393335501353
6,0.8977703040308422,0.8967435703674952
7,0.8976536645094554,0.8978858825763066
8,0.8975170354180866,0.8994126290082931
9,0.8973905978732639,0.8966279869476954
10,0.8973835521671507,0.8989472723801931
11,0.8972956480979919,0.8978284662564595
12,0.8971561903688643,0.896511819044749
13,0.8971649593777127,0.8987951804002126
14,0.8969966698090236,0.8989456055561701
15,0.8970149888859855,0.8968335210084916
16,0.8969997798071967,0.8967699023485184
17,0.8969281793832778,0.8982167646884919
18,0.8969049701293309,0.8972906597455342
19,0.8968306194411384,0.8999083450635275
20,0.8968101890749401,0.8967522626717885
21,0.8968020326561398,0.899699892838796
22,0.8967308251460393,0.8964033530553182
23,0.8967563851674398,0.896432800134023
24,0.8967203649944729,0.8967359727223714
25,0.8967326245440377,0.8974180179039637
26,0.8966707279682159,0.8979294782479604
27,0.8966142881711324,0.8963159105380376
28,0.8965927072498533,0.8962634423971176
29,0.8965551818079419,0.8965476757685343
30,0.8965490789943271,0.8962408281167348
31,0.8965831655263901,0.8960125513474146
32,0.8965358009205924,0.8962903177340825
33,0.8965355903175142,0.8972659106651942
34,0.8965238581498464,0.896111390153567
35,0.8964973699914085,0.8959425267775853
36,0.8964910807742013,0.8964643828074137
37,0.8965738269488017,0.8965518572330475
38,0.896514805091752,0.8964614184300105
39,0.896458280271954,0.8964988863070806
40,0.8964549029138353,0.8964014471769333
41,0.8964345149199168,0.8969797639449437
42,0.8964189138412476,0.8971132256984711
43,0.8964257898595598,0.8969293953975042
44,0.8963882323768404,0.8975387300252915
45,0.8964790458016926,0.8964716633955637
46,0.8964040040704939,0.8959874382813772
47,0.8964187048011356,0.8960516655842463
48,0.8964241618712743,0.8966783986091614
49,0.896377911011378,0.8961362372239431
50,0.8963864437076781,0.8963245448271433
51,0.8963237104018529,0.8971452719767888
52,0.8963474197917515,0.8979605763355891
53,0.8963207835886213,0.8966544743378957
54,0.8963739230102963,0.895984325448672
55,0.8963602142466439,0.896515124241511
