epoch,loss,val_loss
0,0.7869925404257244,0.7586284307638804
1,0.7589842478169335,0.7587768199841182
2,0.7523270697461234,0.724379294594129
3,0.703745709657669,0.691844575047493
4,0.6942171907292471,0.6949430901209513
5,0.6937706725597381,0.6925931094090144
6,0.6930120831065708,0.689521311879158
7,0.6923562648561266,0.6999762904644012
8,0.692518959124883,0.6907724618117015
9,0.691757177538342,0.6893145370086035
10,0.6916060932477315,0.6965252030690511
11,0.6912333842251036,0.6889322134653727
12,0.691122964726554,0.6922621032794316
13,0.6912687360048294,0.6956906792720159
14,0.6910149139298333,0.6905862283309301
15,0.6911528066529168,0.6895138343175252
16,0.6906722992128796,0.6885372013250987
17,0.6909440814256668,0.6907270879745483
18,0.6903841943078571,0.6889265914360683
19,0.6904618264436722,0.6894700010220209
20,0.6902303303877513,0.691137200276057
21,0.6901688633759816,0.6905074721972148
22,0.6902389697763655,0.6928315653800964
23,0.690217817902565,0.6884877088864645
24,0.6899186018572914,0.6890487835804622
25,0.6901037329832713,0.6904648288885752
26,0.6900039679076937,0.6923625737826029
27,0.6896988925006654,0.6927226465145747
28,0.6897173800203535,0.6890989712079366
29,0.689814956108729,0.6885391633907954
30,0.6897952643367979,0.6888503399292628
31,0.6896823698282242,0.6890655334790547
32,0.6894989949199889,0.6913540917634964
33,0.6895636781056722,0.6908555498123169
34,0.6894766734970941,0.6881531109809875
35,0.6893063780201806,0.6886215188105901
36,0.6893714836835861,0.688406105319659
37,0.6895187287330627,0.6884795608917872
38,0.6893733486996757,0.6910332247813543
39,0.6894145883586672,0.6888901521364847
40,0.6893714972469541,0.6879531776507696
41,0.6893984238306682,0.6881150177319845
42,0.6893122881386016,0.6889643250306448
43,0.6892466443512175,0.6879664362271627
44,0.6892215378549363,0.6887880304654439
45,0.689111639685101,0.6907674833536148
46,0.6891549677583907,0.6887630130052567
47,0.6891794528961181,0.6913361877997716
48,0.6891488128900528,0.6892072404623032
49,0.6891791568862067,0.6953582265377045
50,0.6891967986822128,0.6884185252189636
51,0.6891876156065199,0.6900084391832352
52,0.6891820534865062,0.6938820945819218
53,0.6892006687720617,0.6898440990050634
54,0.6889434045685662,0.6929207002719243
55,0.6890422415335973,0.688857781569163
56,0.6890540466308593,0.6889363331794739
57,0.6888674399190479,0.6895064106782277
58,0.6889180575741662,0.6879908277591069
59,0.6891290509038501,0.6911825334628423
60,0.6888725203408135,0.6878562341133754
61,0.6889508230421278,0.6879674542744955
62,0.6889537891017066,0.6886853009859721
63,0.6889369747903612,0.6895683699051539
64,0.6889472772677739,0.6916395120223363
65,0.6888518789079454,0.687747940381368
66,0.6888255064487457,0.689052953561147
67,0.6887914992305968,0.6943547018766403
68,0.6887856136163075,0.6907382701635361
69,0.6887066777282291,0.688388884862264
70,0.6887966906759474,0.6885297708908716
71,0.688782020966212,0.6885641527175903
72,0.6888282696273592,0.68929649690787
73,0.6887737127012676,0.6884197775920232
74,0.6886769167847103,0.6878362230459849
75,0.6887593414783478,0.6881024309396744
76,0.6886652249627643,0.6907606137593587
77,0.6887028210560481,0.6878486706415812
78,0.6888044671085146,0.6889141645431519
79,0.6886323736243778,0.6895026443004608
80,0.6886840624014536,0.6888702020645142
81,0.6886004116270277,0.6883058094978333
82,0.688714746594429,0.6894572554429372
83,0.6886330749326282,0.6904626772403717
84,0.6886450878646638,0.6890848221778869
85,0.6885593442387051,0.6880450440247854
