epoch,loss,val_loss
0,7.075866821929991,0.8048535344068141
1,0.8040097350601575,0.8042196951330226
2,0.8043173639942035,0.8049276425975839
3,0.8027537746442784,0.7993077175675553
4,0.8022292346405469,0.8032401156124395
5,0.804746545428376,0.8050670274242983
