epoch,loss,val_loss
0,0.6660212749381176,0.624591386037828
1,0.5833529724752168,0.5518831193978866
2,0.5319171982278244,0.5196057837471572
3,0.5260684911349566,0.5158626198381886
4,0.5047850840038257,0.4874042148814391
5,0.49222641907709896,0.49136765275848465
6,0.4718197841134617,0.46728636069406077
7,0.46797624701638524,0.45973684390385944
8,0.46721144658837727,0.4671030343545711
9,0.46739765250081533,0.4613532070115825
10,0.4664731580224201,0.4631080668047977
11,0.4673683976797794,0.46842277296558205
