epoch,loss,val_loss
0,0.78620355936765,0.7785063402302553
1,0.7784706550695063,0.7785486959708932
2,0.7783727873800654,0.7795741298746722
3,0.7784149907953715,0.7787961548269844
4,0.7783247016194802,0.778163208864777
5,0.7783100880962845,0.7781156828766025
6,0.7783239526264798,0.778091846571783
7,0.7781352902118949,0.7780578713833038
8,0.7782070512785296,0.7783019691843703
9,0.7782907967355028,0.7781930247883727
10,0.7781243506462846,0.7780762354761036
11,0.7781727031511335,0.7781544114554628
12,0.7781679269961523,0.7781812574581253
13,0.7781791197945608,0.7782554074357364
14,0.7781637977207594,0.7780862482725901
15,0.7782495005204443,0.7780848885271412
16,0.7781182490005154,0.7781060445880554
17,0.7781247684823335,0.7783072395089777
18,0.778149699813714,0.7780732604657572
19,0.7781815477495515,0.7781671889624479
20,0.7781255960490239,0.7780540818019054
21,0.7781162127142641,0.7781520082036927
22,0.77813568678988,0.7780033109982514
23,0.7781040245755134,0.7780561978164746
24,0.7781226490995564,0.778077545398296
25,0.7780919034052759,0.7781243478949367
26,0.778080208310818,0.7780345997273381
27,0.77806085259255,0.7780255779422507
28,0.7781374127540327,0.7780747736663945
29,0.7780932305300258,0.7780594050740728
30,0.7780970553457102,0.7780307753259638
31,0.7780800045127245,0.7783757244399089
32,0.778082764334925,0.7780182897923147
33,0.7780825319112192,0.7780263468079445
34,0.7780660594473491,0.778043275597935
35,0.7781062884148658,0.7780220159713285
36,0.7780616446352916,0.7780200272031262
37,0.7780759717422803,0.7780267609492741
38,0.7780877241505244,0.7781059963324707
39,0.7780861805791975,0.7780303494270963
40,0.7780719015728793,0.778032329021107
41,0.7780855007388462,0.7781955470838333
42,0.7780577228086455,0.778040545928211
