epoch,loss,val_loss
0,0.23649276998323343,0.22335696853346546
1,0.223973836804943,0.3516798426179908
2,0.22507615581182708,0.22271037364878563
3,0.2227347006904697,0.22305595408612192
4,0.22275318708756559,0.22276882920728566
5,0.22272384459573333,0.2246995000210044
6,0.2229569662269419,0.22247405555367278
7,0.2226716149615567,0.2223677355700137
8,0.22285676071295493,0.22257308705616727
9,0.22264024764521761,0.22235256682324947
10,0.22343409348322565,0.22244420619560698
11,0.22243700721792092,0.22283194131909648
12,0.22253607094194688,0.2225297179134643
13,0.22259846851302026,0.22272365062311755
14,0.22265057324315557,0.22291045581008978
15,0.22253495229384188,0.22256868711837677
16,0.2225723944172543,0.2223236290938182
17,0.22253033256290464,0.22243477002800113
18,0.22248128031147937,0.22232668829771104
19,0.222496590142587,0.22233458405480036
20,0.22247539042959186,0.22244011124850463
21,0.22245118938299788,0.22248671133038755
22,0.22244522818646906,0.22235536849568635
23,0.22242140584863182,0.22238783520340474
24,0.22245194345227687,0.2223680134823615
25,0.1265487310566144,0.11129756444966862
26,0.11142583409457137,0.11124009975088407
27,0.11129340994562642,0.1112261472965117
28,0.11132185725082647,0.11129756852505283
29,0.1113276924810631,0.11123109770368611
30,0.11131667065172014,0.1112280776163341
31,0.11129637910108947,0.11120768886626688
32,0.11129128588934671,0.11127014075260133
33,0.11133063394335148,0.1112362553214472
34,0.11129574053689943,0.11121115084756732
35,0.1113055106418767,0.11124469404969001
36,0.11127550693620941,0.11136944338131341
37,0.11132579537073553,0.11127783195955289
38,0.11130206784589108,0.11121975475130379
39,0.11128476872229437,0.11133808030060753
40,0.1112633041308083,0.11131865574355701
41,0.11133472047659529,0.11119000686223054
42,0.11126054075710934,0.11129842082699994
43,0.1112701589399179,0.11121662859939771
44,0.11126951160134868,0.11129512790200723
45,0.11128957333676748,0.11127466746276851
46,0.11126785884278043,0.11142926615378132
47,0.11132537938419171,0.11126959568353165
48,0.11121999144121401,0.11120542071178638
49,0.11126733449023583,0.111289682953115
50,0.11126102759202652,0.11124636443041637
51,0.11127397653344517,0.11119895492349303
52,0.11123719293109097,0.11124463535568646
53,0.11127802601197635,0.11126196498392445
54,0.11123188525074047,0.1111998061652314
55,0.11125413474678261,0.11153711968505757
56,0.1112426610208516,0.11136467922012343
57,0.11125958138786471,0.1112517556978026
58,0.11124165870607003,0.11126977284957597
59,0.1112341430720938,0.11117805256251015
60,0.11127211130529154,0.11117785403081083
61,0.11125126107830076,0.11130809023258931
62,0.11123357495036636,0.11190968045895679
63,0.11125160484590464,0.11118487523745253
64,0.11123911714690501,0.11152581973797179
65,0.11124429291101724,0.11123064959143465
66,0.11124339796863744,0.11123592916761586
67,0.1112924934248531,0.11121065936205675
68,0.11120474672401934,0.11119705547149619
69,0.11125683294427015,0.11122222925205598
70,0.1112248228454456,0.11131216522367751
71,0.11126174163320819,0.11119515807770734
72,0.11123183557643819,0.11167276458611898
73,0.1112467738366419,0.11118988921612019
74,0.11123883777492849,0.11135139811481586
75,0.11127881635591336,0.11123501546091923
76,0.11122432749787345,0.1114477348260927
77,0.11122327022841978,0.11118977855468097
78,0.11126008020491512,0.11119783256480231
79,0.11123718561940245,0.11124835808215927
80,0.11123904429262647,0.11119421022725923
