epoch,loss,val_loss
0,0.5619824150173527,0.5567782543484452
1,0.5565756249849095,0.5558026146880262
2,0.5559119271128543,0.5559009348738361
3,0.5560315978615452,0.5557276031796897
4,0.5559724638671418,0.5557729925349458
5,0.5558688697492584,0.5564833190983705
6,0.5559813311427163,0.5558994517781252
7,0.5557980907802842,0.5561108388513628
8,0.5558087874187949,0.5556619468686593
9,0.5558271982158905,0.5557697632211546
10,0.5557728259220137,0.5557085937347351
11,0.5558454766507754,0.5556724995591751
12,0.5557152546911702,0.5557026342020766
13,0.5557711321361016,0.5556943768992435
14,0.5557497359393465,0.5556506650827774
15,0.555720315334044,0.5556784293053946
16,0.555731067719988,0.5562912759189602
17,0.5557130747469766,0.5556285495464958
18,0.5556891196321938,0.5557064522348303
19,0.5557543395478606,0.555914513318063
20,0.555705280137581,0.5559291272990169
21,0.5557027416096871,0.5556330792665439
22,0.5556914305973276,0.5556222574497798
23,0.5556921280762906,0.5557196275826605
24,0.5556839060520214,0.5556444676821599
25,0.5556946351845724,0.555669440450582
26,0.5556759614561222,0.5557361878262762
27,0.5556980908322228,0.5556549105768751
28,0.5556749722000198,0.5557949893172585
29,0.5556677218710938,0.5556388800829083
30,0.5556805467852385,0.5556284947068341
31,0.5556793088576036,0.55564560349531
32,0.5556672681207289,0.5556279253760585
33,0.555667471786286,0.5557646968157598
34,0.5556657496430939,0.555612279331521
35,0.5556619918453424,0.5557504284866835
36,0.5556614877535697,0.5557487148716768
37,0.5556708409474089,0.5559341834014592
38,0.5556647846315129,0.5557397210930481
39,0.5556705559825114,0.5556567253471797
40,0.5556531954735568,0.5556926520494653
41,0.5556591068277716,0.5556255097096122
42,0.5556565223366589,0.55565475647732
43,0.5556555089955757,0.5556194774527219
44,0.5556617603335999,0.5556548058637232
45,0.5556651861979881,0.5556399303804941
46,0.5556419578442189,0.5556218012608819
47,0.5556574868865605,0.5556123043635659
48,0.5556505786790055,0.5556309412080158
49,0.5556423324836318,0.5556806317547283
50,0.5556620497049238,0.555619632971183
51,0.5556441839379973,0.5557651913362999
52,0.5556459133579342,0.5556628932366682
53,0.555660483835264,0.5557826558572401
54,0.5556333642908723,0.5559313562628345
