epoch,loss,val_loss
0,0.5637779552647912,0.5580163063111833
1,0.5564206813448379,0.5557191113020307
2,0.5560359493620508,0.5560570301309025
3,0.5558818951000282,0.5576173673516418
4,0.5559455795081615,0.5557750152279374
5,0.5559561315294855,0.5557824935195586
6,0.5558530226422894,0.5557400847565621
7,0.5558290033583069,0.5565055574759177
8,0.5558025007997116,0.5558133781496299
9,0.5558305971334503,0.5556857575424019
10,0.5558422269460181,0.5556938140700227
11,0.5557727821980105,0.5561288554644284
12,0.5557584738712747,0.555875107267437
13,0.5557940110451636,0.555650056107342
14,0.5558002062658461,0.5556824806317234
15,0.5557256688369564,0.5557437520146603
16,0.5557372315478838,0.5557017550415077
17,0.555758621751278,0.5556324118194709
18,0.5556988659537996,0.5557434342220507
19,0.555707117584848,0.5556287435977872
20,0.5556791726297106,0.5556103467178887
21,0.5557330891203728,0.5556915199530021
22,0.555679052530947,0.5557489567633992
23,0.5557069516711113,0.5556284968457821
24,0.5556579199079443,0.5556494612786121
25,0.5556762318421165,0.555609516022493
26,0.5556694639879199,0.5556348914319911
27,0.5556884013564802,0.5556022458335692
28,0.5556562068656249,0.5556785273263924
29,0.5556718466150136,0.5556773625739113
30,0.5556673676062842,0.555608572937028
31,0.555666375698702,0.5558767561845616
32,0.555664287889902,0.5557275925802494
33,0.5556742712972876,0.5556061838697764
34,0.5556435814407449,0.5556112148872296
35,0.5556559282145812,0.5556476597549607
36,0.555643345461866,0.5556014371100402
37,0.5556539375010514,0.5556077129740469
38,0.5556694388920448,0.5556540906397525
39,0.5556507984638089,0.5556318900432271
40,0.5556301271404058,0.5557256288777492
41,0.5556559245663257,0.5556081543597304
42,0.5556709970218685,0.555617791718161
43,0.5556469235802108,0.5558416000435843
44,0.5556452387779867,0.5556011978549419
45,0.5556360475065458,0.5556205055348974
46,0.5556496339629634,0.5556561102725659
47,0.5556343160732915,0.5556233366231635
48,0.5556388356900411,0.555609891937308
49,0.5556361251844564,0.5556328858294057
50,0.5556375283467215,0.5556271952535738
51,0.555647833002487,0.5556073115083332
52,0.5556294703372326,0.5556264156493863
53,0.5556342880703892,0.5556534666916811
54,0.5556363932112266,0.5558135981436075
55,0.5556304410301527,0.5559353897151822
56,0.5556465953699317,0.555731895105901
57,0.5556289289595546,0.5556676398375716
58,0.5556371592756986,0.5556784384329846
59,0.5556361235805793,0.555649235121923
60,0.5556289309954618,0.5556731015989128
61,0.5556726623982615,0.5556446701409995
62,0.5556118066461049,0.5555968772752985
63,0.5556243723180945,0.5556219752992443
64,0.5556351356290389,0.5556104783796675
65,0.5556303022157254,0.5555951313219394
66,0.5556246736761401,0.5556137719571982
67,0.5556303705456872,0.5556302412743466
68,0.5556169587565606,0.5556222025042297
69,0.5556238830198282,0.5556034221808426
70,0.5556324181770853,0.5556019310587823
71,0.5556160490829727,0.5556058234040956
72,0.5556331765906686,0.5557056645301715
73,0.5556298825322168,0.5556258105071151
74,0.5556207687382019,0.5557516574605487
75,0.5556281251898538,0.5556112797121783
76,0.5556190186655244,0.5556407823277146
77,0.5556198186246054,0.5556074811946776
78,0.5556264811749567,0.5556080608072279
79,0.5556178451555773,0.555637171772916
80,0.5556244695700816,0.5558865188726376
81,0.5556155072069068,0.5556409219205433
82,0.5556250516207256,0.5556462322189533
83,0.555614208331945,0.555594488493946
84,0.5556177753728081,0.5556131800933468
85,0.5556194284518693,0.5556023029074785
86,0.555616596636142,0.5558309050177274
87,0.5556176650116675,0.5557177285462761
88,0.5556130331404684,0.5556627464645983
89,0.5556175942180039,0.5556150550083276
90,0.5556218537864244,0.5556442038291597
91,0.555618771506098,0.5555970882687524
92,0.555621683315192,0.555609859503656
93,0.5556214998505791,0.5556103418470171
94,0.5556167757027999,0.5556436152372634
95,0.5556134476043173,0.555630404829746
96,0.5556236066701222,0.555611096895658
97,0.5556218938819383,0.555592463767895
98,0.5556188191113142,0.5556167116764914
99,0.5556175775213053,0.5555985097691144
100,0.5556184468466557,0.5556011200586503
101,0.5556172363515303,0.5556453395999543
102,0.5556565455928758,0.5556210123173274
103,0.55560223931774,0.5557363776949714
104,0.5556098417527362,0.5556818174413687
105,0.5556171741688226,0.5556437254142625
106,0.5556172381318902,0.5556122932452718
107,0.5556122989954082,0.5556025174164311
108,0.5556193881671658,0.5555974018893545
109,0.5556119171314893,0.5555925411406324
110,0.5556110114210024,0.5556167503046214
111,0.5556137440646082,0.5556051667470622
112,0.5556144108369502,0.5557599767611069
113,0.5556238823816659,0.5556078229286803
114,0.5556143156745211,0.5556024297936853
115,0.5556117964736278,0.555593364000278
116,0.5556132601751914,0.5556233547830438
117,0.5556127389518659,0.5556834030265727
