epoch,loss,val_loss
0,0.8894118228091134,0.8893050390879313
1,0.8350021526283689,0.7778017506202062
2,0.7778200553920533,0.7778216765324275
3,0.7778141585588455,0.7778054233789444
4,0.7778100072277917,0.7778047553698222
5,0.7778068933354484,0.7778094945351283
6,0.777804344534874,0.7778243523836136
7,0.7778024506833818,0.7777941493193309
8,0.7778022998306486,0.7777922828992208
9,0.7778014700942569,0.7778394514322281
10,0.7778006028731664,0.7778073832988739
11,0.7778001698917812,0.7777950161298116
12,0.7777995952500237,0.7777944587469101
13,0.777798974527253,0.777790916522344
14,0.7777989887528949,0.7777930665016174
15,0.7777985690434773,0.7777911831935247
16,0.7777982551256816,0.777815144499143
17,0.7777985239161386,0.7777933710813523
18,0.7777987627983093,0.7777934583822886
19,0.7777977188030879,0.777792821764946
20,0.7777983175516129,0.7777927983601888
21,0.7777976112498177,0.7777960715293885
22,0.7777973289489746,0.7778023870388667
23,0.7777971199883355,0.7777981307903925
24,0.7777968568934335,0.7777912318706512
25,0.7777965499030219,0.7777931937376659
26,0.7777966692447662,0.777792981505394
27,0.7777965279950035,0.7777926744620005
28,0.7777963076962365,0.7778027753035227
29,0.7777964076201122,0.7777929317156473
30,0.7777961968448427,0.7777920208374659
31,0.7777961010932922,0.777793792406718
32,0.7777963213655684,0.777792076309522
33,0.7777958773507012,0.7778128220240275
