epoch,loss,val_loss
0,0.4462887378864818,0.44468254961570103
1,0.44463640518983205,0.4445962741573652
2,0.44458143807119793,0.4444935867190361
3,0.4445614342821969,0.44448889591296514
4,0.4445480967495177,0.4445197038451831
5,0.44453880157735615,0.44448677770296735
6,0.44453154715564513,0.4446283430457115
7,0.4445269342660904,0.44448626589775087
8,0.4445185630718867,0.4445130569338799
9,0.44451635113689636,0.44448645947376886
10,0.4445126189192136,0.4444993613958359
11,0.4445110851261351,0.4444866232474645
12,0.44451018842723633,0.44448563196261726
13,0.444506717827585,0.4444915274977684
14,0.4445068006051911,0.44449980411926904
15,0.4445064262019263,0.44447968087593714
16,0.4445058669381671,0.4444833003083865
17,0.44450274907218085,0.4445235920349757
18,0.4445019033882353,0.44449699972073237
19,0.4445012218952179,0.4445303303599358
20,0.444498733692699,0.4444893223643303
21,0.44449870470497344,0.4446156634291013
22,0.44449536633491515,0.44449543410539627
23,0.444494984222783,0.444484513481458
24,0.4444944442709287,0.4445069556236267
25,0.444494698577457,0.4444840078949928
26,0.4444931025836203,0.44448545744021734
27,0.4444918190638224,0.44448188483715056
28,0.44449297083086436,0.44448153660694756
29,0.44449219297038184,0.4444779526392619
30,0.44449193971686896,0.4444925048748652
31,0.44449202897151313,0.4444796487092972
32,0.444492309861713,0.444480004409949
33,0.4444930058055454,0.44451631065209707
34,0.44449139118856856,0.4444852320154508
35,0.4444929696122805,0.44447944808006284
36,0.4444912945561939,0.44447783718506495
37,0.44449123928281997,0.4444795407851537
38,0.4444918279449145,0.44447688800096513
39,0.44449114959107505,0.4444919501543045
40,0.44449122913678485,0.44448238505919774
41,0.4444906461503771,0.44448996863762535
42,0.44449182636870277,0.4445060086051623
43,0.4444897212452359,0.4444859213232994
44,0.4444892470969094,0.44449820220470426
45,0.4444890194336573,0.444512825191021
46,0.44448783470524683,0.4444941413005193
47,0.44448913751045865,0.44450665762027103
48,0.4444888230032391,0.44449744089444476
49,0.44448847362067967,0.44448516056934995
50,0.4444886379175716,0.4444819605549177
51,0.44448830136325623,0.4444912007053693
52,0.4444880856540468,0.4444934893449147
53,0.4444886705478032,0.4444803498784701
54,0.44448831204573314,0.4444847707351049
55,0.44448794531822206,0.4444772990743319
56,0.44448811406559413,0.4444869969089826
57,0.4444887037674586,0.4444797403216362
58,0.4444879455367724,0.44447715556621553
