epoch,loss,val_loss
0,0.3662563577161895,0.36222886029879253
1,0.3631635209189521,0.3617163548668226
2,0.362710506008731,0.3643073045412699
3,0.3625450690587362,0.3630070742368698
4,0.3624684698449241,0.36236217856407166
5,0.3624993104669783,0.36177120836575827
6,0.3623470621903737,0.3662039145429929
7,0.3623104987806744,0.3621146655678749
8,0.36237901716762116,0.36186201590299605
9,0.3623813728292783,0.36172830702861153
10,0.3622928295797772,0.3632712467312813
11,0.3622741403977076,0.3621463665366173
12,0.3622362359695964,0.36170523617664974
13,0.3622892290353775,0.3628651888370514
14,0.3622534895737966,0.36179711524645486
15,0.3622355067663723,0.3635475707054138
16,0.3621472164326244,0.36235005458196007
17,0.36223049973779253,0.36206174647808076
18,0.36220508217811587,0.3616576781868935
19,0.3622169199254778,0.3621939164598783
20,0.3622568166388406,0.3618205078045527
21,0.36223306761185325,0.3615810426870982
22,0.36219691042105356,0.36188539695739746
23,0.3621875742408964,0.36166031831502915
24,0.36218353879451753,0.36168000545104345
25,0.3621534590654903,0.3615224698781967
26,0.36213251550330056,0.36246086742480593
27,0.3621253510316213,0.3636167778571447
28,0.36215750594933827,0.36155058560768766
29,0.3622019634048144,0.3621221164663633
30,0.362147314230601,0.36191823055346806
31,0.3621303211847941,0.36446307653188703
32,0.36213557890388703,0.36369113916158674
33,0.3621730707685153,0.3615528295238813
34,0.36215228978792824,0.36243990353743233
35,0.3621319070657094,0.3615381206472715
36,0.3621337114042706,0.3620335471630096
37,0.36210494996441733,0.3623293385108312
38,0.36216129026148053,0.36185413976510367
39,0.362069067325857,0.36234041061004
40,0.36220179655154544,0.361509435792764
41,0.36213408162196475,0.36154590791463853
42,0.3621283883717325,0.36171755798657734
43,0.3620866404175758,0.3623289709687233
44,0.3621256304714415,0.3618276632428169
45,0.36218510170115364,0.3616879351933797
46,0.3621416090130806,0.361694386502107
47,0.3621545855138037,0.3623605295817057
48,0.36214994710683823,0.3616463035941124
49,0.362134102165699,0.36155155990521115
50,0.36211171987321644,0.3630830241044362
51,0.36215994291835363,0.36259432329734165
52,0.3621076493793064,0.3615227470993996
53,0.36217258897754884,0.3654051942229271
54,0.36211849915319017,0.362263592004776
55,0.3620903869469961,0.36186542914311093
56,0.36219779822561476,0.3621688611706098
57,0.3621507863402367,0.3632352631688118
58,0.36216164224677616,0.3619288846651713
59,0.3621167920827866,0.36204702804485955
60,0.36209164829386603,0.36268148465951283
