epoch,loss,val_loss
0,0.5328850417876606,0.4758212137099976
1,0.45309336741955925,0.40561064012236925
2,0.3241477544776065,0.26619089529471035
3,0.27117469882984147,0.2819521962984773
4,0.2693583517790222,0.26481112073327767
5,0.2584208118960821,0.22930154934725427
6,0.22972645955405932,0.21965569283610362
7,0.23079859227132646,0.21669725404542173
8,0.2333208701426653,0.22068683437315045
9,0.24004964433985648,0.23335768748148275
10,0.2384055245825522,0.233491128920662
11,0.23710584483868022,0.22941289275249535
12,0.2376530538443372,0.22693700971994799
13,0.23942295221878376,0.23409170526261394
14,0.23916145853644652,0.2512631623431652
15,0.24429897202862252,0.23487947500166032
16,0.24101792736876781,0.22530129068511248
17,0.24307828376904952,0.2352166054116146
18,0.24747000569753128,0.2379942897886579
19,0.24985298118907676,0.23202902572589684
20,0.2510984299494494,0.2476802998131998
21,0.25229943161316626,0.229520781099467
22,0.25049220036259656,0.24263327702256574
23,0.25038458638006356,0.23966438888374425
24,0.25208738078173404,0.23423738908184355
25,0.25230914824229067,0.25477946514959116
26,0.2525365177830823,0.246624481365167
27,0.25079652600341756,0.2566108546133764
28,0.2538841294823028,0.24325109036211526
29,0.2542155547250661,0.2406780821371944
30,0.25271097269299314,0.23123856447490068
31,0.2526572406780329,0.23575508452205085
32,0.25346559182488376,0.23978293191379887
33,0.25547661609667766,0.2479236790559004
34,0.2568225534223348,0.24257594658666082
35,0.2570599479724368,0.24845539242758372
36,0.2562439743396666,0.2364492273133104
37,0.2577987853333437,0.2513551828352221
38,0.2568356417578092,0.2524643207311442
39,0.257799721962447,0.24169346146820658
40,0.25863970224734406,0.25240028403176035
41,0.25843649602932134,0.24449537291052592
42,0.2583570973776418,0.2516082435164192
43,0.2570321907957109,0.24202184208566596
44,0.2584384715111612,0.24369936968599046
45,0.2589475526440915,0.24610213288521335
46,0.2588589740611857,0.26774317596545816
47,0.25938843805298245,0.24798428236073927
48,0.2593826875626612,0.24468206340813128
49,0.258518660579511,0.2474603791263222
50,0.25854524791383626,0.2516071221305332
51,0.25673189239321853,0.2468128334186918
52,0.2553128712087703,0.2577288344961127
53,0.25539225453047826,0.25706092434646394
54,0.25612837606839994,0.2505143683494878
55,0.25526746626880814,0.24646405848632577
56,0.26077306362912717,0.2522260892339456
57,0.2627458081816693,0.2642377210867715
58,0.26350097647078224,0.2524610453100776
59,0.2636745419922016,0.251666819522394
60,0.26539213828545966,0.25646067446578463
61,0.26640662970803053,0.2575831974620601
62,0.26685063579052,0.25359207909222
63,0.26407031857257457,0.2542709342800169
64,0.2652839515730441,0.25549888094532835
65,0.2655021191167412,0.26024441294013373
66,0.26513236463308143,0.263273777424019
67,0.26690556920117897,0.261994694724926
68,0.26650548111096467,0.26713724156816643
69,0.2685761168110761,0.26208256666078844
70,0.2651785284245043,0.2716762817272918
71,0.2665902783247016,0.26306436033867997
72,0.26677345497597704,0.26650316084146314
73,0.2667436646721918,0.2563748887395332
74,0.26526649018152537,0.2594023683500177
75,0.26598759212916034,0.2596022614881385
76,0.2654828381397837,0.25427581002934296
77,0.2677863318023445,0.2566103682380637
78,0.268980725057167,0.2502051549063203
79,0.27133226238613983,0.2610015351304692
80,0.27342864885914336,0.2649094458043152
81,0.27328119997521766,0.26704296994228105
82,0.2752478316688328,0.2669518552220705
83,0.274937062675385,0.27720325680680413
84,0.2768606190725291,0.26145814766117975
85,0.27763692822030406,0.2692288886446979
86,0.27765185496122907,0.2693931496369152
87,0.27881442209323054,0.2660289670339982
88,0.2782361140068201,0.2727882230644068
89,0.27728340419219266,0.2692621704529098
90,0.27688556579019813,0.2704361580612157
91,0.2770053709356143,0.2742169540913536
92,0.27999746705964507,0.27409016568545946
93,0.2777765602599993,0.27133971671467233
94,0.2774762727683492,0.2751329468170676
95,0.2774077543466211,0.26850595963264695
96,0.2775990370270922,0.2685375303594541
97,0.2774268251052387,0.27213178399800314
98,0.27448516356335173,0.26519370313084023
99,0.2756103650211907,0.2676247107930887
100,0.27420539211192957,0.27472238477845784
101,0.2734970778143473,0.2678984482996842
102,0.2734958616127785,0.2702909585708883
103,0.2731069328961708,0.26971219276572744
104,0.2729038260847354,0.26730491098636894
105,0.27412533382479426,0.26318532887084706
106,0.27307597685941787,0.27062136970972017
107,0.27199650420654686,0.2721557199437504
108,0.271617006513474,0.2641141703256774
109,0.27154769919377914,0.26247456767423566
110,0.2722794813372725,0.2682442833046887
111,0.27271574363410234,0.267174331087622
112,0.27231981821483275,0.2639556657096581
113,0.27216008932089253,0.2676611001696658
114,0.2717751072024365,0.27717886324133945
115,0.2710629717158757,0.2637473406783219
116,0.27023516719242174,0.2598682448750137
117,0.27227802283400826,0.26639298197314226
118,0.27175061337405637,0.26320518973123963
119,0.271440796268215,0.26084805300551883
120,0.2728988812159863,0.27013810382363546
121,0.2720047124474645,0.2681841869921598
122,0.27282104445852157,0.2690767693467844
123,0.27108920973648937,0.27281935186064327
124,0.27182258732861087,0.26431702817154384
125,0.272569259043506,0.26497130746340886
126,0.2725709912171371,0.2635571710947657
127,0.27162313408297983,0.26402775349349794
128,0.27150658933188226,0.2788782680161656
129,0.2729385909940794,0.26898444819704415
130,0.2719462181655147,0.267614614909431
131,0.2710145632568881,0.26724144363600905
132,0.2726671199778096,0.27392463242574855
133,0.2720004122594087,0.26169673319914816
134,0.2719363345385646,0.2646500755457212
135,0.2722780449415664,0.26940870333254197
136,0.27207681369914904,0.26793732493527783
137,0.2711049298123776,0.2685950520641708
138,0.2725297022375653,0.26006026948260436
139,0.2714124510971476,0.2700730440483944
140,0.2707162140835103,0.26473438887964956
141,0.2700691300925972,0.2720906697419467
142,0.271438178404582,0.2727245423345935
143,0.2721368195258266,0.26470388567344166
144,0.27096617191458205,0.26415534471562274
145,0.27183293683423126,0.26795905808482284
146,0.2714277214104895,0.2579309415798443
147,0.27119233363347467,0.26222464157637404
148,0.27194297395878847,0.2613498479269016
149,0.2723998656030372,0.26556597848811675
150,0.27201937326043246,0.2710569983358541
151,0.2721912260714481,0.2675543219533226
152,0.2720760039324097,0.26489930072447965
153,0.27337426262245856,0.2741380003416924
154,0.27224651554362667,0.2609925917052056
155,0.27341174453997213,0.2652690542807425
156,0.2733104246304475,0.2699128965881742
157,0.2733609469698297,0.27020324472611407
158,0.2721371826329391,0.2811878179012553
159,0.27179092152727596,0.2797200631676646
160,0.27230278984438794,0.27005541315206694
161,0.27224035627788584,0.25999109483461447
162,0.2731865764760094,0.2671523572966727
163,0.27362568515072244,0.2715300343924841
164,0.27239186552574307,0.2623304545926408
165,0.27326023908589575,0.26625690622741816
166,0.27294008854886803,0.26596694975362206
167,0.2725698230959338,0.26806628061921556
168,0.2722977527337585,0.2663172376772129
169,0.27292044579291896,0.2673527875822552
170,0.27185746345469514,0.26357924233719227
171,0.2727605694894501,0.2656057227782217
172,0.27243909021194795,0.27426795036941415
173,0.2729016536240764,0.268957857774672
174,0.2719724661261915,0.26911617620262274
175,0.2727345727818857,0.2687973071245481
176,0.2726733996737585,0.2664126644077128
177,0.27464177419575186,0.266508747506725
178,0.2726426133148962,0.25797958650876895
179,0.2731389517156626,0.2748500914463587
180,0.273713828794819,0.27140640467993365
181,0.27253865820469614,0.2755378205990735
182,0.2728445322738944,0.2638808543181551
183,0.2727996541632356,0.2726327170747984
184,0.27151864765287875,0.2738107632089997
185,0.2724814103494922,0.27180354071350293
186,0.2735107669250952,0.2598732532293851
187,0.27280377787199145,0.2682373769516633
188,0.27374776061490286,0.2618014137271642
189,0.27303432558270857,0.265556772992944
190,0.2737246846004451,0.2587214647288763
191,0.2729176960045771,0.2693240932808585
192,0.27209676805731775,0.25682722651873785
193,0.2726989129214264,0.26132003716013047
194,0.27218295514083307,0.26338852844373767
195,0.27071018433041993,0.26101273327665997
196,0.2723302656202484,0.26750617739527643
197,0.271832689428501,0.26520510932876074
198,0.2725250836577919,0.2675274195356828
199,0.271823116224542,0.2618212277082919
200,0.27331866908797636,0.26692424696923805
201,0.27253477641051527,0.26640762720365835
202,0.27144120275069006,0.2680586659141479
203,0.27181796067290837,0.26857940318693585
204,0.27189077744238094,0.27040539096214683
205,0.2721281298856846,0.2586833830884619
206,0.27179764552439434,0.2672368840335765
207,0.27185477725536134,0.2598236876744968
208,0.2716604596752819,0.26330887996124863
209,0.2733928090769896,0.2732224731273132
210,0.27239759315808804,0.2766495402652444
211,0.27376186166950267,0.2689052896769666
212,0.2726120995424634,0.27462681117684423
213,0.27250277753070673,0.2610522299275778
214,0.27313386832924486,0.2636113062136363
215,0.27314058140956526,0.2659825896101856
216,0.27188068777799224,0.26255754765414213
217,0.2723634421861143,0.27005287640284814
218,0.27191266356755217,0.26352599645423064
219,0.27353503929672957,0.25882621075378787
220,0.27356822647565276,0.25974401823394205
221,0.27222418658834374,0.26531050358358665
222,0.27217652634393685,0.26177850311538226
223,0.27275314915189736,0.2697336076631636
224,0.2720252522628466,0.2595612809897034
225,0.2733688178263027,0.26821889046758957
226,0.2737892634279246,0.26451850514903064
227,0.27333271550498517,0.26590861787030146
228,0.2736974211691095,0.27584730585024125
229,0.27303934265240776,0.27367602881476366
230,0.273969706984685,0.259827851978643
231,0.2710020162647577,0.26542182347862947
232,0.27295666107004113,0.2767338012040085
233,0.2735706300353356,0.26514245316844903
234,0.2727970786029391,0.2681908619596719
235,0.2737673974270634,0.26286602184917385
236,0.2716928215371333,0.2666619758767788
237,0.27318631885625383,0.2599027544354113
238,0.2731784062086345,0.2677084723253747
239,0.2727737544621114,0.2625063676460578
240,0.2728306981656763,0.2644890181385069
241,0.2738835959256791,0.2726243750354673
242,0.2734226109467441,0.2597361105746327
243,0.2748755841887445,0.26609657223806105
244,0.2736246610859887,0.27699189511404887
245,0.27413566079404617,0.26608633888031236
246,0.2739695727253418,0.2748031558699747
247,0.273608746103865,0.26629588125536735
248,0.2727680965352783,0.2635536623829072
249,0.27345357114057556,0.2686936720888165
250,0.2760248967497755,0.26918792464691726
251,0.2765581958132873,0.2676510385575027
252,0.27407292208725886,0.27680751710730267
253,0.27458887366201284,0.2705535935598184
254,0.2752065704666453,0.26163101465615496
255,0.2736537510947548,0.25943871797448365
256,0.27466568440723,0.2686236910257362
257,0.27519188684334667,0.2674010461041941
258,0.27307833372045764,0.266170197052568
259,0.2750340838143103,0.26814994371210205
260,0.2749919802141037,0.2597594900613896
261,0.27345498684022446,0.2750974118403779
262,0.2752172048333928,0.2575143492871038
263,0.27361868739390166,0.2684897371606744
264,0.27773128091383703,0.27571295875682544
265,0.2755631182988961,0.26399711818796684
266,0.27573891920889976,0.2693579794505307
267,0.2758337582329766,0.2674584263596087
268,0.27687398415746733,0.2631308713600028
269,0.27515971293742897,0.27010579000285223
270,0.2777302722267205,0.2691308541521842
271,0.27667081369151125,0.26968042551295063
272,0.27642667376332813,0.268950219030162
273,0.2754197547868859,0.2656519631278167
274,0.27562779935596465,0.2735339864300477
275,0.2770128641828454,0.2774889568644616
276,0.2769678128327874,0.27875967598986984
277,0.27599090248417796,0.27675927312193466
278,0.2766004927950702,0.27114855576286
279,0.2765691644079584,0.266989912564301
280,0.2774057758571528,0.27443586609781306
281,0.2768869619075057,0.26900069209752164
282,0.2761095880949907,0.2687507994361251
283,0.2764805260476925,0.26261618614620175
284,0.27443265698725083,0.2656000593843287
285,0.27418589352560846,0.2632070189752067
286,0.2736448718668174,0.2677414838192307
287,0.2732668614251722,0.26147068664137546
288,0.27444289221490126,0.26308943714649546
289,0.27438023121213073,0.2653712555236862
290,0.27435498857955565,0.26568441305841717
291,0.2739517219263396,0.26909961279161165
292,0.27409693003772834,0.261053083833504
293,0.27442033426295653,0.26539011871193746
294,0.27537721119743647,0.2745947674704802
295,0.2731175615097121,0.2649998574178804
296,0.2728884290519664,0.2713855239426704
297,0.27217900371856446,0.26131337108391894
298,0.27262045169095817,0.26034024150802476
299,0.2739088583907349,0.26996902192354016
300,0.2726898525806544,0.26100959509446475
301,0.2740197784180264,0.2630319110666943
302,0.2735376250174501,0.27030236652119477
303,0.27255434395193007,0.27189447032765507
304,0.2737130922831887,0.25872412045216503
305,0.27315855031605246,0.27037147250858556
306,0.27405066798321254,0.26777799548647396
307,0.2747571215236025,0.2683566815639539
308,0.27565753653490666,0.2672311992935054
309,0.2768151047918722,0.26989451523549746
310,0.2756366055015084,0.2731302759735812
311,0.2744720611247799,0.2634372976509341
312,0.274760944380177,0.26881404640924866
313,0.2757623164678554,0.2770215587274428
314,0.27508845849098157,0.26878955416916483
315,0.2755308471066203,0.26983853279603404
316,0.27654545446880147,0.2836685360019002
317,0.27573328150762355,0.26884350763970505
318,0.2743990134706886,0.26022357641239285
319,0.27570289714659435,0.26478831694647376
320,0.2763885903141672,0.26890240748425404
321,0.27776557252370865,0.2690592880383569
322,0.27856607283714957,0.27180559599173754
323,0.2770978544505952,0.269864786677974
324,0.27719842235175823,0.26881944619254416
325,0.27864958067163287,0.27059825612695176
326,0.2781238643218764,0.26415189238590053
327,0.27829393460977375,0.2768136372035568
328,0.27697523611245584,0.27060856407283324
329,0.2778977297550197,0.27409138130031424
330,0.27625506555886387,0.2660660189888848
331,0.27480739813676175,0.270920628142244
332,0.2759472701094038,0.26998800522667643
333,0.2748587716409533,0.2657961063763243
334,0.2756371104674374,0.277939695350373
335,0.2760395116562085,0.26125874604968075
336,0.27562214937999097,0.2774080407247829
337,0.2762646026593699,0.2712923187788961
338,0.27988573687849383,0.26683126852186817
339,0.27592943529550024,0.2583867622085133
340,0.2735657595056329,0.2638849039409889
341,0.2727221066979386,0.2678847248359468
342,0.2834950578477171,0.2775822164815716
343,0.27492389536732964,0.26254159994217574
344,0.2770985738872338,0.26867691595063214
345,0.2771545930398549,0.267612173541757
346,0.2764124462989976,0.26559446478040555
347,0.2766305486039578,0.2621560038406264
348,0.2760595254879966,0.27498300807534376
349,0.2763147904134864,0.273754939719176
350,0.2759589083987079,0.266098702974741
351,0.2785146114566057,0.27048533083466725
352,0.27886558248461196,0.2739962211794616
353,0.27824306128312837,0.2645838109286827
354,0.2769623760470479,0.26684424840942933
355,0.2780539925209433,0.2681181763417154
356,0.2762647713843486,0.26208087729015217
357,0.27838149815083124,0.2723588273576045
358,0.2777056701773172,0.26574537433219314
359,0.27563863463229316,0.2618721016721643
360,0.27803111425954563,0.2638100999236201
361,0.27778956909283553,0.2717886376940743
362,0.27696993924993024,0.27045366110393354
363,0.2759446326038725,0.2773944291197228
364,0.27605402114079725,0.2686988472021181
365,0.2751604348039932,0.27397949546693157
366,0.27666063503705435,0.26370567499697445
367,0.27664202273630506,0.2680031193013067
368,0.27716311325224563,0.27451528340648645
369,0.2774958978775594,0.26407494705873114
370,0.27597959748179696,0.26309237473342206
371,0.27501029237139996,0.26387415118309676
372,0.27665270622566546,0.2650517429553719
373,0.2759638670846808,0.26562476142852814
374,0.27503059388731693,0.26395746075269644
375,0.27483130590640287,0.2716125858846196
376,0.27484793851463246,0.2599106564259284
377,0.27347865455346904,0.26936489050794793
378,0.27389999284899585,0.26388956372344596
379,0.2739359390952414,0.26409494602830746
380,0.27485044041483236,0.26846820875802374
381,0.2738037096570245,0.27230228163778264
382,0.2739959070198446,0.26477344648143675
383,0.27507248409479546,0.26327770128669753
384,0.2750192978125301,0.2647874461282589
385,0.2750164708561844,0.2635033959794816
386,0.2753204317401639,0.2623683537026513
387,0.27551757769404556,0.2737641861896018
388,0.2756190294985005,0.2666384259028612
389,0.27489334246594843,0.2678652184161974
390,0.2735682639727394,0.2617987001633776
391,0.27386704572051357,0.2677496923714429
392,0.2745656200366722,0.2650697323616415
393,0.27378830709141033,0.2628974322855896
394,0.27340832330602155,0.27582271647622664
395,0.2756297775297809,0.25961953570923657
396,0.2745075700558919,0.2615473116817866
397,0.27456758722817776,0.2656367003047382
398,0.2746032628414633,0.2677175688197882
399,0.27367317225102133,0.26221599230497206
400,0.2747772945512494,0.2756842468771863
401,0.27618546573092323,0.2720865767916639
402,0.2759793036394744,0.26301750242004457
403,0.2761889391606279,0.2631489837625973
404,0.27374606208502056,0.26851524706656477
405,0.27312351700713594,0.2707353484094284
406,0.2737936849157206,0.2712242495924258
407,0.2738900038299801,0.27009566048279277
408,0.27458644113976133,0.26446496614717363
409,0.27403279923968654,0.2676104580382239
410,0.2740112553647668,0.26351147160910204
411,0.2731407530826154,0.26374708260714586
412,0.2735863485865646,0.26766994307383646
413,0.2744984877564543,0.27242441396592826
414,0.27409589395439216,0.2732379584210824
415,0.2735961168337402,0.2630597391322361
416,0.2737103531257712,0.2683890505084487
417,0.273236779292091,0.267822601683232
418,0.2728043125449515,0.25872900831530016
419,0.27314889483409915,0.26488523652164037
420,0.2726333105354477,0.2717789381554302
421,0.27250247097296487,0.2722464782357122
422,0.273205344947122,0.27397827634730487
423,0.27620120926035774,0.26670659441080447
424,0.2759267438670619,0.26484878016628427
425,0.2739042706495757,0.27683347989323576
426,0.2759143708707046,0.269483638837663
427,0.275428026330938,0.2735482917800134
428,0.27543524195321745,0.2628139039382468
429,0.2763254964809052,0.26166683323710754
430,0.2756315223116288,0.26578397663117587
431,0.2748619451594772,0.2635821673869146
432,0.2730412699466796,0.26253970715363567
433,0.2764969407666406,0.27075406900756266
434,0.2768253497094464,0.2805147844336592
435,0.2781201582863558,0.2675158251856102
436,0.27960432415528835,0.267362008060916
437,0.2788238023206008,0.28563325048292726
438,0.27800972487548176,0.26365284604074074
439,0.2785792306518193,0.266054781584544
440,0.2772817112308898,0.26199224606544463
441,0.27455242402809893,0.2749759213676957
442,0.2756031039271423,0.26730175777364173
443,0.2772984003527559,0.27336002981559254
444,0.2764311355533455,0.2806514040776473
445,0.2755933828550658,0.259728542654742
446,0.2779371006001862,0.2715151407583172
447,0.2793479329056972,0.27800555864750354
448,0.27659937034812954,0.2746644050071064
449,0.27353861417582664,0.2703509009557158
450,0.2758924153497179,0.26286887007617726
451,0.2753700674485436,0.26894221401346324
452,0.2747538676984209,0.2641873746263576
453,0.27444366615810556,0.2608630837727082
454,0.27357454979710344,0.26602702436714354
455,0.2755040237955529,0.267383774729253
456,0.2762081675666223,0.27125697411837874
457,0.2761027649176016,0.2634034458233224
458,0.27693736788442286,0.27366994556565877
459,0.27950984200866197,0.27062197475331734
460,0.27640876807659553,0.2628426144300903
461,0.2765008557995827,0.27133165553929584
462,0.27890727886979244,0.26752326641622826
463,0.2782114264812115,0.27662058514502447
464,0.27575930649285124,0.26383088402091376
465,0.28450753620798164,0.26394252219158737
466,0.27511109321189825,0.25881616734762125
467,0.27530223309255236,0.26495250378571444
468,0.27575250383284833,0.27093213469660365
469,0.2760291475412562,0.26688151263823734
470,0.2754354804134864,0.25972137089168923
471,0.27446722185059036,0.276423072582074
472,0.2768349603747578,0.26420001471569526
473,0.27442856073427163,0.2679530242435934
474,0.27309079412266696,0.27268120029025317
475,0.2748964319555022,0.26302676353288995
476,0.27643447346705424,0.2595013380873928
477,0.2759381799127082,0.2670971222674649
478,0.27654105219409336,0.2651272301092426
479,0.2749762806139118,0.28157208909316617
480,0.27469595490718823,0.26396479913354765
481,0.2782327884928786,0.2759927707035521
482,0.27866370266051793,0.26690944937523087
483,0.2785307867564172,0.2669712929694598
484,0.2769960764703228,0.26035547596362035
485,0.27388829397235653,0.264459463043672
486,0.27242571914153135,0.26712772615941943
487,0.27196325716688385,0.267951064711494
488,0.27295162740776197,0.2586226239388819
489,0.27193722299201123,0.2591907696382399
490,0.2727210834550915,0.27176595930283526
491,0.2744149884326662,0.27388285439176263
492,0.27354292703761185,0.259132912569189
493,0.2721120098130785,0.2587892666353235
494,0.2730013641605465,0.27229038058488314
495,0.2726557748995239,0.26816373264921306
496,0.2716684067706696,0.26652180841567485
497,0.27340979900934714,0.2586330643839599
498,0.2724558271521287,0.26891256231394167
499,0.27380041700663516,0.2654606787562841
500,0.2723275268082615,0.2725150341722282
