epoch,loss,val_loss
0,0.7519718121952481,0.7507488593657812
1,0.7506862541569603,0.750404279311498
2,0.7504192994303174,0.7502923972209294
3,0.7503674669133292,0.750263628522555
4,0.7503307489289178,0.7503777132034302
5,0.7503168787426419,0.7502314585049947
6,0.7503033757077323,0.7503518087863922
7,0.7502881039513482,0.7505245788494745
8,0.7502786412371529,0.7502637344996135
9,0.7502700636121962,0.7502798762718836
10,0.7502689671251509,0.7502127801974614
11,0.7502597862879435,0.7501936393181483
12,0.7502495798004998,0.7503601881663005
13,0.7502453360690011,0.7502164250612259
14,0.7502436115079456,0.7502677737474441
15,0.7502379644314449,0.7502240519920985
16,0.7502366535928514,0.7502058273951212
17,0.7502360171609455,0.7502080634832382
18,0.75023459162977,0.7501915264129638
19,0.7502280036343468,0.7501900080045064
20,0.7502300473186705,0.7501862022082011
21,0.7502299530506134,0.75024580570062
22,0.7502251276572546,0.7502728242476782
23,0.7502296370797688,0.7501995932658513
24,0.7502249505917231,0.7502824810743332
25,0.7502253057161967,0.7502416975895564
26,0.7502218750185436,0.7501851243575414
27,0.7502229574388928,0.7503228961229325
28,0.7502229324181875,0.7502822919289271
29,0.7502186491886774,0.7502169039646784
30,0.7502197328143649,0.7502010721762975
31,0.7502182956006792,0.7502002351284027
32,0.7502181769741906,0.7502234343687694
33,0.7502155860132641,0.750233157157898
34,0.7502195395363702,0.750327450354894
35,0.7502172566122479,0.7501920506556828
36,0.7502168995539348,0.7501891679763794
37,0.7502149828407499,0.7501822265783946
38,0.7502158271604115,0.7502522606054942
39,0.7502140990628137,0.7502551368077596
40,0.7502137286133236,0.7501838321685791
41,0.7502119475470649,0.750189760128657
42,0.7502118170658747,0.7501792932748794
43,0.7502120884259542,0.7501869758764903
44,0.7502118191454146,0.7502405435641607
45,0.7502100635766983,0.750184293627739
46,0.7502106154097451,0.7501896506547928
47,0.7502081635395685,0.7503748953739802
48,0.7502090818219714,0.7503079970677694
49,0.7502079385254118,0.750205712000529
50,0.7502093670898013,0.7501815667549769
51,0.7502070810265011,0.7502058121363322
52,0.7502068238390817,0.7502085474332174
53,0.7502073258956273,0.7501924492915472
54,0.7502079304191801,0.7501926548480987
55,0.7502054986953736,0.7502260526418686
56,0.7502052431768841,0.7501949745814006
57,0.7502039105097453,0.750187554081281
58,0.750206470714675,0.7502076545556386
59,0.750204648812612,0.7501769514878591
60,0.7502039147085614,0.7502284733057022
61,0.7502057555913925,0.7501919200817744
62,0.7502070577674442,0.750199703892072
63,0.7502045618163214,0.750190269947052
64,0.7502040994962057,0.7502209328810374
65,0.7502048052284452,0.750180543144544
66,0.7502050478723314,0.7501805053154628
67,0.7502053622802098,0.7501941335995992
68,0.7502043618361155,0.7501829164822896
69,0.7502036683294508,0.7501814936796825
70,0.7502042635414335,0.7501856002807618
71,0.7502035324441062,0.7502128984928131
72,0.7502033488750458,0.7501941035985946
73,0.7502021933529112,0.7502027951081593
74,0.7502045716444651,0.750209664662679
75,0.7502027156882816,0.7501984301805497
76,0.7502025749286015,0.7502214021682739
77,0.7502030525207519,0.7502220561106999
78,0.7502035787635379,0.750278358022372
79,0.7502030076318317,0.7501939791440964
