epoch,loss,val_loss
0,0.3704837490320206,0.36843857073783876
1,0.3686362571583854,0.36876851876576744
2,0.36861545083257885,0.3684405815998713
3,0.3685074086520407,0.36845039133230845
4,0.36849872754679786,0.36844716761509577
5,0.36848802806271447,0.36852059870958326
6,0.3684794449739986,0.3684503784577052
7,0.36847244095802306,0.36851173321406044
8,0.3684765501353476,0.36843517911434176
9,0.36846646234724256,0.36844618890682856
10,0.36846247025993134,0.3684396496017774
11,0.36846139991283416,0.368438182413578
12,0.36845887684159806,0.3684337246020635
13,0.36845886750353707,0.36844961263736087
14,0.3684560498595238,0.3688246763745944
15,0.3684535702731874,0.3685020903746287
16,0.36845260490311516,0.3684461854696274
17,0.368451548020045,0.36843639429410296
18,0.36844935237036813,0.3684359245498975
19,0.36844807791047623,0.36843074349562327
20,0.36844736924436355,0.3684689386288325
21,0.3684461118380229,0.368438119272391
22,0.36844468049208323,0.3684500921765963
23,0.36844483788808186,0.36844334401686984
24,0.36844363327821095,0.3684616781274478
25,0.3684438273906708,0.3684424856702487
26,0.3684430267545912,0.36846182628472646
27,0.36844346386194227,0.3684387395381927
28,0.3684416193299823,0.36844320871432623
29,0.3684424690935347,0.3684365755319595
30,0.3684418665435579,0.3684327953457832
31,0.3684420558081733,0.3684301508665085
32,0.3684417113595539,0.3684326824148496
33,0.3684414431916343,0.36843401861190794
34,0.368441579454475,0.36843027569850284
35,0.3684418151047495,0.36845038119951884
36,0.3684402147332827,0.3684312941034635
37,0.36844055045313306,0.368431871175766
38,0.3684400502112177,0.36843268475929897
39,0.3684395123587714,0.3684673855304718
40,0.36843869733810425,0.36846002568801245
41,0.36843846450249357,0.3684372697075208
42,0.3684391538037194,0.36843020127216974
43,0.36843866066800224,0.3684350697994232
44,0.3684383860097991,0.36843543668588
45,0.3684381544391314,0.36843628762165703
46,0.36843790808651183,0.36843749731779096
47,0.36843821982542674,0.3684514542222023
48,0.3684376007715861,0.36843195362885794
49,0.3684378096461296,0.3684367280602455
50,0.36843826816479364,0.368430986225605
51,0.368437430606948,0.368432389497757
