epoch,loss,val_loss
0,0.6689965144395829,0.6681404190063477
1,0.6679433595869276,0.6679070374965668
2,0.6678777843581306,0.6682201906840006
3,0.6678070344924927,0.6677894057830175
4,0.668198854777548,0.6677561619679133
5,0.6678117476171918,0.6676732170581817
6,0.6677373827298482,0.6677176009813944
7,0.6677190351751116,0.6676491353114447
8,0.6676822104983859,0.6678323918581008
9,0.6676670767863592,0.6675740666786829
10,0.6676361073520448,0.6675880290667215
11,0.6676380967034234,0.6675807337760925
12,0.6676334588527679,0.667575609366099
13,0.6676272452407414,0.6677390822172165
14,0.6676182542377048,0.6675981001059215
15,0.667616321351793,0.667696871360143
16,0.6676107379462984,0.6675546669562658
17,0.6676168332497279,0.6676026716629664
18,0.6676068649821811,0.6676362956762314
19,0.6676071566475762,0.6675879795948665
20,0.6676566454437044,0.8136482025782267
21,0.6707568413813909,0.6676099012295406
22,0.6676981463299857,0.6675916619698207
23,0.6676589629252752,0.6679446242252985
24,0.6677552503744761,0.6675760624408722
25,0.6676288848188189,0.6675579263369242
26,0.6676204040712781,0.6675872571468353
27,0.6676135332319472,0.6676994850635528
28,0.6676065556075838,0.6677139514287312
29,0.6676021862559849,0.6675486096541087
30,0.6677165642976761,0.667555359840393
31,0.6676554292837779,0.6677841814359029
32,0.667816358950403,0.6676255300839742
33,0.667649466170205,0.6675796912113825
34,0.6676166721052593,0.6675309321482976
35,0.6676039967139562,0.6679129583438238
36,0.6676741834481558,0.6675793702205022
37,0.6676166597472297,0.667799576719602
38,0.6676200937297609,0.667868637919426
39,0.6676449589729309,0.6680714479287465
40,0.6676451314025456,0.6841358876228333
41,0.6676884355015225,0.6675471235116323
42,0.6676033767196867,0.6675457256237666
43,0.6678187264733845,0.6677773669163386
44,0.6676279594898223,0.6677186661163966
45,0.6676150068971846,0.6676907564004262
46,0.667605029715432,0.6675300027132034
47,0.6676009944809808,0.6690243920485178
48,0.6678725628058115,0.6675665446917216
49,0.6676007401545843,0.6688540651400884
50,0.6678873386647967,0.6675790599981943
51,0.6676023253864712,0.6675312725702921
52,0.667621485763126,0.6676870001554489
53,0.6675946892367469,0.6675294531981151
54,0.6675966312355466,0.6676843775113424
55,0.6676221004856957,0.6675499227841695
56,0.6675826520787345,0.6676382910807928
57,0.6675884954929352,0.6675982820192973
58,0.6675888355043199,0.6676794271071752
59,0.6675852966838413,0.6675275297562281
60,0.6677173420985539,0.6675936812559764
61,0.6675936370690664,0.6676099890470505
62,0.6675871356328329,0.6675670837958654
63,0.6675885960128572,0.6675240162611008
64,0.6675851678848267,0.6675563647349676
65,0.8145620484617021,0.8337992966969808
66,0.8338288092215856,0.8337923917770386
67,0.8338146036201053,0.8338855621814728
68,0.8337993136114544,0.8337625365257263
69,0.8337929650147756,0.8337653499444325
70,0.8337927496433258,0.8337743314107259
71,0.8337917933993869,0.8337742693424225
72,0.8337907222906749,0.8337702003717422
73,0.8337918684217664,0.8337638813257218
74,0.83379242752658,0.8337946123679479
75,0.8337933932675256,0.833873243411382
76,0.833792098124822,0.8338657836914063
77,0.8337937460740408,0.8337691399256388
78,0.8337929565376706,0.8337949046293894
79,0.8337928485870362,0.8339223296642303
80,0.83378931400511,0.8337761138677597
81,0.833794803182284,0.833776341398557
82,0.8337917413844003,0.8337739626169205
83,0.8337915561464098,0.8338127315839131
