epoch,loss,val_loss
0,0.669468277864986,0.6678021581172943
1,0.6679386256138483,0.6680588755607605
2,0.6678107628954781,0.6680920031865438
3,0.667744957168897,0.6676096873283386
4,0.6677197988695569,0.6675860864718756
5,0.6676989422241847,0.6677599079211552
6,0.6676693570084042,0.6676380439201991
7,0.6676614699761073,0.6677102553447087
8,0.6676570223304961,0.6676139938433965
9,0.6676409064796236,0.6676697967847188
10,0.6676268169085184,0.6675522512197495
11,0.6676307824850083,0.667606116215388
12,0.6676276859309939,0.6677395428419113
13,0.6676537267499499,0.6675708613395691
14,0.6676156030363507,0.667553702155749
15,0.6676206253899468,0.6676630622545878
16,0.6676176939540439,0.6675527336597442
17,0.6676100430356132,0.6675770921707154
18,0.6676180108785629,0.667574696580569
19,0.6676088025305006,0.6679922788937886
20,0.6676140391959084,0.6677551411787669
21,0.6676081104411019,0.667645807147026
22,0.6676051409641902,0.6676686140298843
23,0.667603840748469,0.667531499505043
24,0.6676001741753684,0.6676572465896606
25,0.6675982765356699,0.6675210746924083
26,0.6675936719444063,0.6675487055778503
27,0.6675974892377854,0.6677619188626607
28,0.6676003206835853,0.6675999718109766
29,0.6675911771191491,0.6675329767862955
30,0.6675912204583486,0.6675713603893916
31,0.667592487136523,0.6676341814597447
32,0.6675922590759066,0.6675467352072398
33,0.6675898778173659,0.6675162297089895
34,0.6675919333034092,0.6675581664244334
35,0.667589955356386,0.6675326889355977
36,0.667586045079761,0.6675142315626145
37,0.6675924319558674,0.7066654194196065
38,0.8263345252275467,0.8338260787725449
39,0.8338724511994255,0.8337897715965906
40,0.8338510380983353,0.8337854875326156
41,0.8338331959247589,0.8339143939812979
42,0.8338268403609593,0.8337722006638845
43,0.8338217071294785,0.8339714351495107
44,0.8338183466593424,0.8337736281553905
45,0.8338169906404284,0.833832745552063
46,0.8338159093194538,0.8338616949319839
47,0.8338320431841745,0.8337740027109782
48,0.8338086817132102,0.8339013188282649
49,0.8338093519740635,0.8337891529798508
50,0.8338054032193289,0.8338939661582311
51,0.8338059726423688,0.8337649444739024
52,0.833803486360444,0.8337683397531509
53,0.8338110326396094,0.8337750610907873
54,0.8338001957072152,0.8338109593391418
55,0.8338041383425395,0.8338062443733215
56,0.8338001310163075,0.8337898507118225
