epoch,loss,val_loss
0,0.503349313431316,0.5020568140347799
1,0.5019441126452552,0.5019582098722458
2,0.5017425456576877,0.5024169194698334
3,0.5018073908620411,0.5016381392081578
4,0.5016515104903115,0.5019355358282725
5,0.501531327618493,0.5016630394856135
6,0.5080397281911638,0.5026723877986272
7,0.5016871641874313,0.5014698840777079
8,0.5015590368641747,0.501445522348086
9,0.5014896012014813,0.5014022184610367
10,0.5014670137431887,0.5013716933727265
11,0.5014515128268136,0.5023381516138713
12,0.501434247997072,0.5013166972001394
13,0.5014199001259274,0.5013122243881225
14,0.5014183724191453,0.5041767907937368
15,0.5014869500001271,0.5013070800304413
16,0.5013968721230825,0.5013472471634547
17,0.501782425403595,0.5014679972330729
18,0.5014393554528555,0.5013402796983719
19,0.5014264340135787,0.5019252210855484
20,0.5014150171279907,0.5013524000644684
21,0.5014071847332848,0.5013190958897272
22,0.5014864451487859,0.5013242704868317
23,0.5015061098602083,0.5013258063793182
24,0.5013942965269089,0.5018806704282761
25,0.5013898528152042,0.5013719768126805
26,0.5013950983683269,0.5013157689968745
27,0.5013913944429822,0.5013470008770625
28,0.501382309211625,0.501313441157341
29,0.5013820022477044,0.5016204852263133
30,0.5013822496467166,0.5013836954832077
31,0.5013827919032838,0.5013082328637442
32,0.5013720393578212,0.5014451429843902
33,0.5014064828157425,0.5013217579126358
34,0.5013775899012883,0.5012849734624227
35,0.5013676015403535,0.5012993156115214
36,0.5013735831313663,0.5013291564385096
37,0.5013653910424974,0.5013028745651245
38,0.5013769126865599,0.5013361097574234
39,0.5013615244891908,0.5014072635968526
40,0.5013690289921231,0.5017649242083232
41,0.5013706022368537,0.5012987710634867
42,0.5013701836533017,0.5012772804896036
43,0.5013699298037423,0.5013190435568492
44,0.5013665160735448,0.5017154380083084
45,0.5013619576560127,0.5012838433186213
46,0.5013627131647533,0.5013088063001633
47,0.5013603029648462,0.501290689031283
48,0.5013634099430508,0.5013036857843399
49,0.5013715534077751,0.5014514402945837
50,0.5013599852985806,0.5013031310240428
51,0.5013667789167828,0.5012633909781774
52,0.5013645825253593,0.5013332401116689
53,0.5013623485167821,0.5014105449120204
54,0.5013602086173163,0.5013317046562831
55,0.5013644178443485,0.5015220974683762
56,0.5013581737677256,0.5012886977990468
57,0.5013557359377543,0.5013335987726847
58,0.5013516439596812,0.5012700805266698
59,0.501358935157458,0.5013112176259359
60,0.5013532135221693,0.5013943147261938
61,0.5013599093755087,0.5013213794628779
62,0.5013481879101859,0.5012891013224919
63,0.5013554569482803,0.501274425069491
64,0.5013572645849652,0.5013027802705765
65,0.501355870604515,0.5012769224246343
66,0.5013523288170496,0.5013056712945302
67,0.5013576818439696,0.5012906181812287
68,0.501352840423584,0.5013025768597921
69,0.5013573002815247,0.5013395229578018
70,0.5013558177683088,0.5012742697795232
71,0.5013531670437918,0.5012668875058492
