epoch,loss,val_loss
0,0.6437837532799754,0.5329591288183727
1,0.519214359973315,0.5160325246667437
2,0.50239541784251,0.47804729489417747
3,0.4697433209734215,0.46233116843211197
4,0.4587103270883079,0.452069668777571
5,0.45041200917085905,0.447508816736458
6,0.44791263937234305,0.44368207478851973
7,0.4460416617180654,0.44327617191920315
8,0.4452507273018885,0.44136421228944045
9,0.44435539556513604,0.4429484866348013
10,0.44435842691945304,0.44000939320280413
11,0.4439169957673101,0.44034490762739187
12,0.44398328793153846,0.4410319918070203
13,0.44375697216145793,0.43945949626761727
14,0.44401214311750914,0.43994478669866544
15,0.44314235031270716,0.4404252730098471
16,0.4433968555006244,0.43974756715941604
17,0.4433174226954997,0.44014053202603565
18,0.44312801938041674,0.4400273255961558
19,0.44328979985584155,0.44028679532242904
20,0.44331615948505265,0.4403326700396975
21,0.44298262913242353,0.43931322376223375
22,0.44318452788840496,0.4409267341616863
23,0.44333871522600693,0.44005123563926585
24,0.4432158673687684,0.4395029872341651
25,0.44336182081861625,0.4394409696889523
26,0.44345772101747405,0.4401660373997901
27,0.4435448504334168,0.43986467931295736
28,0.443158463693505,0.4402612098473799
29,0.44321157649052056,0.43939232635285347
30,0.44374351698556264,0.4395052481258389
31,0.4438961970629551,0.4409893830907316
32,0.4434691236628066,0.44070123637583036
33,0.4438656466521675,0.43994532386558577
34,0.4436491873142145,0.44146706800777935
35,0.4438970810752377,0.44113796231520436
36,0.444015447011559,0.44097829957561385
37,0.4437451050627986,0.4402008187161745
38,0.4440551944810739,0.4403999567225225
39,0.44381902323330374,0.4413055680384021
40,0.44389926097553384,0.44023286766959513
41,0.443952399220249,0.4400186899563015
42,0.4441319950539365,0.4427695149874552
43,0.4440392437961409,0.43992354861624533
44,0.44372715842160726,0.44013163708422304
45,0.4443890836665495,0.44209233989874136
46,0.44427657208507587,0.44164323042972436
47,0.44424486923828616,0.44032504291720054
48,0.44414471413155765,0.4428662422799716
49,0.4445662301621311,0.4405815286406249
50,0.44420059670726236,0.44062980250527195
51,0.4441196964419871,0.4405952529605578
52,0.4444707772128576,0.4409918168020364
53,0.44453695588249315,0.44019605600050765
54,0.44393086519310054,0.44093387772760445
55,0.4443906896394954,0.4411811166822862
56,0.4443803333921181,0.44350967649899165
57,0.44433776572573364,0.4414670771684283
58,0.44449105765745106,0.44101498031268155
59,0.4443520917307386,0.4415736635187633
60,0.4451802863274888,0.4403773448328032
61,0.44431056578556377,0.4411711179185281
62,0.4445243700205373,0.4409210797450645
63,0.4445750798174054,0.4409937497714817
64,0.44442386623379515,0.4404515669487012
65,0.4445435188239436,0.44101953487133266
66,0.4442789247624868,0.44132264781462305
67,0.44483297215021544,0.4433898741118036
68,0.44461707294798547,0.44077547458933314
69,0.44463834081820436,0.4408257075759906
70,0.4448229150236655,0.44214476680040166
71,0.44511958628630427,0.44073033980596193
72,0.4450201085560602,0.44090905263476127
73,0.4451079306672152,0.44169694750848476
74,0.44487324872429224,0.4408544133517767
75,0.44496090568190483,0.44111354833971844
76,0.4451829811112226,0.442026808700809
77,0.44479485218815085,0.440833492556531
78,0.44473350039713855,0.44377681267329183
79,0.4447842204064918,0.44339866478174367
80,0.4448642584803202,0.44183687886279094
81,0.445127479893098,0.4406179508008516
82,0.4445525970074346,0.44160911658384505
83,0.4448050657589976,0.442036552730848
84,0.44504434552738625,0.44126599403483446
85,0.4452647962767759,0.44215409794863125
86,0.4453957629046314,0.44150123125831964
87,0.4450233674245037,0.4408072710327278
88,0.4448114931344795,0.4413864806669085
89,0.44528027920364094,0.4426863071450545
90,0.4447742768341871,0.44160558637427977
91,0.44490701297791696,0.44085130267092976
92,0.44487450098256476,0.441202125458435
93,0.44470547513068437,0.44134250101961936
94,0.44495962924056287,0.44128273793670675
95,0.4449059837837044,0.44115321385309353
96,0.4448437299773252,0.44159661686623475
97,0.4449682659488186,0.44103708817334264
98,0.445337570935273,0.4412808686083927
99,0.4450475453280563,0.44180463502200173
100,0.44481497300301104,0.4412788030149873
101,0.4445369203058217,0.4407841788736283
102,0.445124332192805,0.4410137931505839
103,0.44483155303234284,0.4423197581336833
104,0.44510410127160643,0.4428088684586713
105,0.44519481351606555,0.440951812247967
106,0.44494505740815493,0.44129380578929006
107,0.444942031828187,0.4413673681450973
108,0.44490198455780766,0.4409424756130163
109,0.4447255769283701,0.44123904023920724
110,0.4448085479897628,0.4409926126908212
111,0.4447527206282887,0.4410175261512967
112,0.44491362368898263,0.440960952859532
113,0.4447016999471464,0.44120159457586494
114,0.44478231805672735,0.44071485523953247
115,0.44461781902013536,0.4446091124756203
116,0.444950779847759,0.44233109261190995
117,0.4449649150129124,0.4411191718905125
118,0.444999090712771,0.4419028600685401
119,0.4447555219630798,0.44127471067029483
120,0.44505069015310517,0.44089332179431495
121,0.44479130295584735,0.44118919869505674
122,0.44462807925106335,0.4410770944918643
123,0.44471116083636103,0.44129994975679404
124,0.4447764891376488,0.44148207544700363
125,0.4447473345445193,0.4413584254663936
126,0.4445205253658531,0.4416081798289331
127,0.444567817129833,0.4408235594642327
128,0.4443325667237166,0.4407056521711945
129,0.44456575436292406,0.44072231553670166
130,0.44449262492794145,0.44109326567189633
131,0.4444526784700618,0.4426292050735601
132,0.4446908427988462,0.44076017166479564
133,0.4444920629429951,0.44089946793717094
134,0.4446354522120008,0.44071674317919135
135,0.4445002505166517,0.44066075063389876
136,0.44460446867730924,0.44166423666796256
137,0.44453191739306436,0.44069181287182313
138,0.44495980188644246,0.4424970938438143
139,0.44523180307771226,0.4405179043320844
140,0.4447858850057837,0.4409200690765257
141,0.44433404001786864,0.442253940538575
142,0.4444176051929724,0.44098886455932673
143,0.44414020292132833,0.4412072988563887
144,0.44468596982087394,0.44184642836802
145,0.4445944070410404,0.4417665580231681
146,0.4445650854093538,0.44087971296140266
147,0.444888796624515,0.4402478515666767
148,0.4447347174843757,0.4416697417829255
149,0.4446785956310978,0.4404230349835398
150,0.44472937470822455,0.44176597635821413
151,0.44472857173964725,0.44071768090092645
152,0.4442898862904983,0.4418751075561706
153,0.4445158731493595,0.4409233774968694
154,0.44473929226016695,0.440743467281818
155,0.44472585648322127,0.44209446069774644
156,0.4446961514777045,0.4426198449448077
157,0.44468541185649707,0.44084686067465934
158,0.4449631761822155,0.44224729147850744
159,0.44457475566644494,0.4408625427388797
160,0.44446806796939015,0.44140872992544955
161,0.4444016059748739,0.44070217226060154
162,0.44424137288184046,0.44131584691498593
163,0.44461207652540563,0.4410067031708367
164,0.44451436833489694,0.4412482628132015
165,0.4445737026828685,0.4412841265363995
166,0.44437867552161314,0.44107803610506235
167,0.44432100485428705,0.44058496864559393
168,0.4446330882006402,0.44095483533464014
169,0.44461105693522407,0.44101284409284786
170,0.4443246511290606,0.44110675964622315
171,0.4442992163620728,0.44048158948922295
172,0.4442859403222346,0.4400795752549694
173,0.44422574831639605,0.4405879266892423
174,0.44430332625504015,0.4404110823427867
175,0.44433084512062315,0.44093035716209966
176,0.44410353184366724,0.44049034859238845
177,0.4443667198272587,0.44188871312605493
178,0.4441704005957413,0.44132185074148
179,0.44437430349228574,0.44078872477921255
180,0.44431809286435575,0.44056179097099024
181,0.44430116365393035,0.4414719663687286
182,0.44459563410215325,0.440907314069273
183,0.4444365583008246,0.44246629508935814
184,0.4444047868538132,0.4408096560644891
185,0.44420013636994876,0.4409273234645429
186,0.4442389192010423,0.44121284216086454
187,0.44419172088846004,0.441124438780261
188,0.4438891030006928,0.44055532732342473
189,0.4441160427583896,0.44029758787213163
190,0.4439732887870889,0.440084092059178
191,0.4440245371851757,0.44099176350591246
192,0.4442672528702321,0.44079463825608695
193,0.444096960312276,0.4412431434364891
194,0.44416689394329717,0.4408844274567668
195,0.4444520680354632,0.4404052117445173
196,0.4439532781978719,0.4402507491597101
197,0.44409259303127696,0.44099258999464863
198,0.44389781955960655,0.44099655007793953
199,0.44417908071898954,0.4407008523295202
200,0.4439796597672234,0.44089414833139234
201,0.4441143664791643,0.4409012107808514
202,0.4442465939313722,0.4409871589141654
203,0.44391797206180394,0.4415940480897413
204,0.44413199177305634,0.4411681681653879
205,0.4442583157168664,0.44049762408132004
206,0.44384815289174395,0.4403078807193094
207,0.4439870438354315,0.4408254165864049
208,0.4438807372096255,0.44031372373894956
209,0.4443447864871678,0.4405634912986245
210,0.4439964893343355,0.44102615843144066
211,0.44448609621501906,0.4404363835960119
212,0.44438552923255964,0.44056388948472264
213,0.4441778434096001,0.4402609587875886
214,0.4436346785462886,0.44026596274979213
215,0.44429659830321305,0.440172183373452
216,0.44406424881554873,0.44167047323294994
217,0.44382326759463603,0.4403855382235961
218,0.4437745071178059,0.4406173123108693
219,0.44421796540053393,0.44419919661361806
220,0.4441881668004539,0.44254483788939675
221,0.44397844112902474,0.44008175814818873
222,0.4441174103246869,0.44010401371525054
223,0.44367635190439186,0.44086702241708087
224,0.44397820588395154,0.4425854032008704
225,0.4438288133558605,0.44037579153479356
226,0.4440409452605954,0.4415076181401301
227,0.4438175784649135,0.440549322046696
228,0.44381594731866886,0.4403872080237906
229,0.4436922175847024,0.44060466955177974
230,0.4439666930845587,0.4402016551873593
231,0.44400882246114426,0.4399863073038842
232,0.44364500636334797,0.4405367448140428
233,0.4438444559601806,0.4402155952055282
234,0.4438912102444063,0.4399170357332129
235,0.4439747996025796,0.4411910996384864
236,0.44384024294020175,0.44044971084169326
237,0.44357352299963215,0.4402766225546816
238,0.44368554153043427,0.44061336455457306
239,0.4436522815063345,0.4411145483490324
240,0.4436192809700298,0.4406624441937712
241,0.4433835322519032,0.4406056782866723
242,0.44437413690708655,0.4398674286678373
243,0.44370027653592603,0.44188217467055124
244,0.4435111583830167,0.44019474162865924
245,0.44374457119797783,0.4414659579498248
246,0.44390760389588374,0.4408637871369055
247,0.44387155854768806,0.4400598404858041
248,0.44408719690204906,0.4399368188677043
249,0.4436331973660937,0.44241665024536947
250,0.4439973189078683,0.4403348322670729
251,0.4434525928705382,0.44135412167748683
252,0.4441103756881123,0.44039168567166326
253,0.44332064999591075,0.44038931710006546
254,0.44393280927566076,0.44023403503598957
255,0.4438127342751734,0.4398910344275438
256,0.44355290763086086,0.4411031680192197
257,0.4437016564144718,0.43960601238825414
258,0.4436847644629146,0.43989074104507087
259,0.44359104751681594,0.439868150884701
260,0.4434787640102011,0.44012057626527784
261,0.44370636250898304,0.4397621765092245
262,0.443613939363065,0.4394945898436959
263,0.4434218764233532,0.44031425370303773
264,0.44384064422167235,0.43995311387360625
265,0.4439228410430676,0.4404409766583934
266,0.4438877316643659,0.4403513085039669
267,0.4438512966549807,0.4428271370405892
268,0.44393539994215375,0.4400061179444931
269,0.4438862464397406,0.43989980090273556
270,0.4440902420360628,0.4406161923188073
271,0.44347783902867305,0.4409597860007197
272,0.4439124038951506,0.4406762661628383
273,0.44356471270298936,0.44005128330364524
274,0.44377794625570144,0.44070660033461917
275,0.44353584444121996,0.4398002418578396
276,0.44399510653282376,0.44126910599672203
277,0.44346930882375274,0.4405923099993499
278,0.4433922972962606,0.4398732832651842
279,0.4434735333327774,0.44048768533310656
280,0.4435065978044887,0.44017256154631174
281,0.4437621477916777,0.43979381502206405
282,0.443910142545513,0.43984124550274106
283,0.4437054339841044,0.44113829118008546
284,0.4438665159303155,0.4403037665485852
285,0.44389401033842824,0.44006632071438595
286,0.44398132909098276,0.44032045309367646
287,0.4436686282113994,0.4404565109437013
288,0.44364763265423435,0.4398375744995603
289,0.44345946095770505,0.44049046113059853
290,0.44380880908979425,0.44022242409469436
291,0.44345025921030173,0.44090107392704014
292,0.4438680565481285,0.4403396016296486
293,0.44378856378044484,0.4400657923213854
294,0.4435674297847778,0.43989899094667456
295,0.4437780128158122,0.440625021879207
296,0.4433984115206785,0.440358017241191
297,0.44364294915603963,0.4407669902089545
298,0.44367970164725073,0.4394914350998856
299,0.4438730861374242,0.4401660445542811
300,0.4437004819428854,0.44100732464473225
301,0.443580746781931,0.44014966862528476
302,0.4434229007499327,0.4396012407536441
303,0.4437075710659317,0.4402239704799188
304,0.443679788787428,0.4406665612407941
305,0.44374054169253985,0.4403439249967233
306,0.44347859303458775,0.44044997229483296
307,0.44361003873059995,0.43993772185631913
308,0.4433748035477676,0.44106398379038914
309,0.4435906009114772,0.44061234685239614
310,0.4433452712716438,0.4398923627458156
311,0.443250709898573,0.4401867563707115
312,0.4435891594001061,0.4395984414623505
313,0.4434787325972648,0.440522810113401
314,0.4435957688942635,0.44042565679028084
315,0.4431736773734478,0.4404572023672489
316,0.443493539650885,0.43980262077444465
317,0.44328272141056885,0.44072061922138334
318,0.4433861841336549,0.44062502388536495
319,0.4433184027242317,0.43967032210186835
320,0.44289877031257957,0.44002418607980953
321,0.4436433883883459,0.4397903029162615
322,0.44316335393487216,0.43964121299165104
323,0.4429808490342193,0.43987240838695135
324,0.44328782153282287,0.43999927929041355
325,0.4434110123553784,0.4392456299680476
326,0.4432199125627788,0.4396395617544603
327,0.44315447422673554,0.44033789124705397
328,0.44346271378932905,0.44029277335891664
329,0.44321050117309807,0.44025097106978456
330,0.44341761441685085,0.44058273671027226
331,0.44348009018968637,0.4395417186997329
332,0.443462397035262,0.4405588297609962
333,0.44336823550007454,0.4393672973328457
334,0.443462885158648,0.4401972862104043
335,0.4431239664077377,0.4400833623494352
336,0.443413250190053,0.4407049484448228
337,0.44354145089276226,0.440338722038153
338,0.4434313354991358,0.43971426447812656
339,0.44347848985985433,0.4406758257749114
340,0.4438384045258439,0.43992901148103836
341,0.4431665214994032,0.4401051742655421
342,0.4436836289204627,0.44083663009088986
343,0.44337033418963867,0.44030719529006507
344,0.44368371678839885,0.44019847126966166
345,0.4436308497591339,0.4410671167806794
346,0.44371632407244155,0.4410264780389905
347,0.4435395927692624,0.44041748807764786
348,0.4438225368650748,0.4406861341879412
349,0.44380024120843914,0.43997289836165004
350,0.44310041987676446,0.4400942829306882
351,0.44344573985155916,0.4416033716967506
352,0.44339608983863726,0.43954668176531886
353,0.44370971636785517,0.4399324442348341
354,0.44333363476517296,0.44053108899552745
355,0.4434950335728254,0.44139441635100124
356,0.4435143338455211,0.44086042167399825
357,0.4432635788706611,0.43949136573032743
358,0.4434070695844815,0.4398468721957102
359,0.44343132954582964,0.43960212849062436
360,0.4437141504952963,0.4401677640491835
361,0.4432321153849578,0.4413068088108412
362,0.44365654536206023,0.44037450877806084
363,0.4431197912789422,0.44011894554890757
364,0.44373874837537114,0.4403866773587557
365,0.44367461229821414,0.44009646277841474
366,0.4437561871363126,0.4402894529016252
367,0.44365987444133925,0.4415810132597098
368,0.4436359798984589,0.44023486763988195
369,0.44391660633279956,0.440143663179362
370,0.443916257831743,0.44065831000980865
371,0.44352178672869935,0.43984268640756413
372,0.44372553718958596,0.44121413386071107
373,0.44351351851697346,0.44007538335166707
374,0.44399680095829896,0.4398493015079699
375,0.44386642286069306,0.44194032272379863
376,0.44350499189119513,0.4405341825636054
377,0.44370939634483847,0.4396975856192791
378,0.44354345869598055,0.4400113503911683
379,0.4436669510493191,0.4399553580392403
380,0.4436235102273828,0.43964594943389984
381,0.4433268088045074,0.44128513094475863
382,0.44364373263022344,0.4403807119393097
383,0.4434935835311659,0.44024753543969003
384,0.44336858592193734,0.4410970701933487
385,0.44367584754363165,0.4404468771314969
386,0.4436393007099199,0.4401060637428039
387,0.4435809164809837,0.43989699578633273
388,0.4436490261931721,0.4407916773361398
389,0.44396781855769113,0.4400419149568965
390,0.44382243168602187,0.4404169859338948
391,0.44352742629923564,0.44049459016622805
392,0.44387953676539865,0.440290594888913
393,0.44389894876697716,0.4403595215696101
394,0.4436814067385691,0.4398845786112455
395,0.44379291778282703,0.4406767021275495
396,0.443871115867475,0.43986888869158736
397,0.44353263058645237,0.4402297846398891
398,0.44357403196555506,0.44024190782823897
399,0.4438958943868466,0.4400163502443736
400,0.44386672624069945,0.4403010361192677
401,0.443745749570829,0.44029259186204817
402,0.4437437341678992,0.4399119522498085
403,0.4438213147073865,0.4405489884443817
404,0.4439150747344244,0.4408038913575209
405,0.44409260652464233,0.440723492184598
406,0.4437609753721327,0.44077156852728355
407,0.4441211958042233,0.4410645764046148
408,0.44355528480153356,0.4422377277126374
409,0.4436995783169046,0.4398896280141352
410,0.44373613974158527,0.4400597889057911
411,0.44420799263436095,0.4398737093199585
412,0.4441158366952542,0.43980606807892825
413,0.443814752923192,0.4403280650370506
414,0.44387514213975476,0.44043306695767176
415,0.4440479626695665,0.4399820111045389
416,0.4437667199546953,0.44047143741149003
417,0.44377008340566804,0.44029970678583163
418,0.4440443799245634,0.44081272998188725
419,0.4438021031854819,0.44049460800411444
420,0.44394834227472235,0.4412044256756389
421,0.44387610857967763,0.44019960963136284
422,0.4437486868772247,0.43964722116884913
423,0.44358924847302006,0.44008975667578365
424,0.4436240192290971,0.4407705754307548
425,0.4439548764995234,0.4402204010656764
426,0.44389325175121175,0.4407757395713772
427,0.4436488591188235,0.44134537311269323
428,0.4439402505027666,0.44149528014785566
429,0.44399864864263466,0.44013480055361187
430,0.4436997678086126,0.4401148637667576
431,0.443794530007341,0.4407272822278743
432,0.4439220594061767,0.44092582264085756
433,0.44362747800455177,0.43991129193379447
434,0.4436703775409129,0.440703687562463
435,0.44420453512353647,0.441109701519755
436,0.4439279113749297,0.4406294902214072
437,0.4441044342766007,0.44060516932681626
438,0.4437999394509771,0.4412460644991535
439,0.44399328673000427,0.43967515858613854
440,0.4440593249779687,0.44055364923272206
441,0.44392131127005485,0.44004341031803124
442,0.4438906787656802,0.4428282561383398
443,0.44344884438739957,0.43992994581889255
444,0.44363274932909813,0.43991067381960924
445,0.44399122510842076,0.4407504063646482
446,0.44347633116000934,0.44017623078504037
447,0.4439373373197879,0.44031173462125217
448,0.44365372355457683,0.4399113666692209
449,0.44350795716262037,0.43994026890346316
450,0.444020108915597,0.43989552403985244
451,0.44432938203895633,0.4400378829661367
452,0.44358206623262936,0.4401702693053986
453,0.443930215793576,0.4395437051344962
454,0.4438841916781793,0.44080164373549424
455,0.4441821202576113,0.44114510624368114
456,0.4440690923371823,0.44018026446774056
457,0.44396776213848277,0.4414497037196875
458,0.44373954818237293,0.43963646040345633
459,0.44405375982972506,0.43985944493263596
460,0.4441839910632043,0.44080320991642186
461,0.4444616054467338,0.44054499043745426
462,0.4441619269651256,0.4399324051268393
463,0.4439613940216619,0.441088215616401
464,0.4443920139816878,0.4413600409552999
465,0.44390518237964166,0.44271514813105267
466,0.4443772987927123,0.44050929917132864
467,0.4442901491068954,0.440574860993383
468,0.44430869500383174,0.4411719201883454
469,0.4440918456944969,0.4399425646491101
470,0.4443798180911138,0.44136833569332534
471,0.4439804398173614,0.44091014855292787
472,0.44390366264015696,0.4409494750256086
473,0.4443521554752576,0.440859939688507
474,0.4441230029130192,0.4404574137147809
475,0.4443425148773232,0.4405162527323349
476,0.44388668950172877,0.4413025617744511
477,0.44447284083876065,0.4406806311758185
478,0.44420160079975907,0.44038947278275686
479,0.444033221543742,0.4397694206247461
480,0.4439556621927753,0.4413321376426957
481,0.4443167492663794,0.44106720140187217
482,0.44412858200798616,0.4408048908350822
483,0.444336689573178,0.44034467048985343
484,0.4442508498771941,0.4409134922864857
485,0.4440698505426236,0.44198572838683486
486,0.444289626922008,0.441003195536591
487,0.44443032444955066,0.44099251518671045
488,0.4439436986958914,0.4408569861889272
489,0.44410474329972094,0.44008015317348376
490,0.4443567030137782,0.44150098379994446
491,0.4443830111391359,0.4405266707347644
492,0.44429286840775184,0.4402232184849033
493,0.44428880084410394,0.44081409561953117
494,0.44430150479388486,0.44046898591063993
495,0.44426910644822165,0.4412315734401527
496,0.4442633123064728,0.4412540804053938
497,0.4440550302342475,0.4403907706219301
498,0.44438940303339014,0.44067638645980384
499,0.444475583022265,0.4410372795559774
500,0.44420999474674344,0.4409848059567609
