epoch,loss,val_loss
0,0.6945833053986231,0.666705581108729
1,0.6671322235266368,0.6666877132256825
2,0.6667205676635106,0.6667198628584544
3,0.6668924300405714,0.6667274514834086
4,0.7905748696459665,0.888901116212209
5,0.8890154014693367,0.8888945171833038
6,0.8889018296665615,0.8889142045180003
7,0.888903258840243,0.8888989485502243
8,0.8889170000420676,0.8888932554721832
9,0.8889020642571979,0.888896389166514
10,0.888902281191614,0.8889211586713791
11,0.8889213846259647,0.8888985771338145
12,0.8889009413719178,0.8888973666826884
13,0.888898737973637,0.8888927797079086
14,0.8889103549586402,0.8889007442394893
15,0.8889167047606574,0.888895054380099
16,0.8888980099889967,0.8888962093989055
17,0.8889022079308828,0.8889005156755447
18,0.8889000329176585,0.8888946282863617
19,0.8888974526060952,0.8888964610497156
20,0.8889139941533406,0.888901381055514
21,0.8888967394166523,0.8888935641050338
