epoch,loss,val_loss
0,0.75394644510746,0.666730077902476
1,0.6667701850202349,0.6667167615890502
2,0.6667156543996599,0.6667969422340393
3,0.6677040029499266,0.6671837293704351
4,0.6667484199470944,0.6668570928176244
5,0.6668820352024503,0.6666957217057546
6,0.6695023590193855,0.6666915252208709
7,0.6668583942386839,0.6666806623140971
8,0.6667866851356294,0.6666961498657862
9,0.6669045071469413,0.6666957943836848
10,0.6666978104644351,0.6667028995752334
11,0.6667040683825811,0.6666954707304636
12,0.6667007587088479,0.6667004429499308
13,0.6666986215114593,0.6666979455550511
14,0.6666975991858376,0.6667453285853068
15,0.6666969723436568,0.6667066686948141
16,0.6666968262063132,0.6667383138338725
17,0.6666963906420602,0.6667106870015462
18,0.6666968732012643,0.6666941856145858
19,0.6666959023740556,0.6667089334726334
20,0.6666997064352036,0.666706479549408
21,0.6666954087416331,0.6666997513771057
22,0.6666945887936486,0.66669376039505
23,0.6666942311525345,0.6667178917725881
24,0.6666936346557405,0.6666938705841701
25,0.6666931048631668,0.6666994558175405
26,0.6666950090063943,0.6666939551432928
27,0.6666929256386227,0.6666967554092407
