epoch,loss,val_loss
0,0.4480942461490631,0.44450632854302724
1,0.4445339017974006,0.4445217352112134
2,0.44530735617876055,0.44450278200705845
3,0.4445149738921059,0.44453694687287015
4,0.4445120160910818,0.4444937845269839
5,0.44450421435303156,0.4445000818769137
6,0.4445018585390515,0.44449738975365954
7,0.4444998444252544,0.4445444196065267
8,0.4444980165892177,0.44453197028239566
9,0.444497585064835,0.44449414481719335
10,0.44449706669648487,0.4444952411254247
11,0.44449551269743176,0.44455092765887577
12,0.4502972128722403,0.44448037642240523
13,0.4444857686161995,0.4445435072183609
14,0.44451499249537785,0.44456018261114755
15,0.44451524375544654,0.4445089311401049
16,0.44450616081555683,0.4446285040974617
17,0.4445089499817954,0.4444687479535739
18,0.44452137408653897,0.44455469195048014
19,0.4445108420848846,0.44450733592112857
20,0.44451062381929823,0.44450850892066956
21,0.4445069720612632,0.4444925757845243
22,0.4445064069363806,0.4444895336031914
23,0.4445076444943746,0.44456521077950795
24,0.4445026307900747,0.4445646398663521
25,0.44450212710433534,0.4444933508833249
26,0.4444994299544228,0.44449239804347357
27,0.44449844787518183,0.4444922629594803
28,0.44449598295821086,0.44455435025691986
29,0.4444968072904481,0.44448970969518026
30,0.4444950293832355,0.4444915917714437
31,0.44449435854620406,0.444503334860007
32,0.4444944747818841,0.44449376267194746
33,0.4444939928518401,0.44449406063556673
34,0.4444937225845125,0.4444911475578944
35,0.44449297248654895,0.44452490337689715
36,0.4444931532740593,0.4445269470413526
37,0.4444930168390274,0.4444938855369886
