epoch,loss,val_loss
0,0.33970446732971404,0.33656281246741615
1,0.3363624880976147,0.3359495609402657
2,0.3359920942518446,0.3360728326042493
3,0.33582720950576994,0.3356104221145312
4,0.33572591101460986,0.3356988223393758
5,0.3356635481980112,0.33586429158846537
6,0.33561647232373554,0.3356268736521403
7,0.3355840497745408,0.3358238190213839
8,0.33556666768259474,0.3354761926730474
9,0.3355541755689515,0.335425752778848
10,0.33552999948130713,0.33548193738857907
11,0.33550321339898637,0.3353521274725596
12,0.33548952202664484,0.3355390264987946
13,0.3354892311559783,0.33540246152877806
14,0.335478801118003,0.33539620771010714
15,0.3354638538426823,0.33532486180464427
16,0.33544998304049173,0.33568088950713476
17,0.33545540228154924,0.33538812412818275
18,0.3354394181701872,0.3353806283076604
19,0.3354376054273711,0.3352806311051051
20,0.33542753156026206,0.3357484570344289
21,0.3354260282648934,0.33568297173579537
22,0.3354097431898117,0.3353595618605614
23,0.33539288285043506,0.3352487330039342
24,0.3353895001411438,0.3356016503969828
25,0.3353919831779268,0.33527110383907954
26,0.3353752952218056,0.33526279183228813
27,0.33537800648477345,0.3353481961886088
28,0.33536318624019623,0.3357693047324816
29,0.33534822420279187,0.3352841408451398
30,0.33535526606109406,0.33553379968802133
31,0.33535091986258825,0.335220474421978
32,0.3353381432029936,0.3353608153263728
33,0.33532840387688745,0.3352760601043701
34,0.3353238368431727,0.3352819359302521
35,0.33532435633738833,0.33531840312480926
36,0.33531686079502104,0.3352388029495875
37,0.3353148219982783,0.33524666404724124
38,0.3353112082812521,0.3352113313476245
39,0.33531312858396106,0.3351828741828601
40,0.33529679662651485,0.33568517021338146
41,0.33529542393154566,0.33520880875984826
42,0.3353026312457191,0.3351609605352084
43,0.3352965731223424,0.33521191225449243
44,0.3352959916260507,0.3351826692223549
45,0.3353013644417127,0.3353160708944003
46,0.33528932054837546,0.33534455370903016
47,0.3352957018878725,0.3353937999010086
48,0.33529637787739436,0.33526343872149783
49,0.3352853836086061,0.3353883560101191
50,0.33528967498408424,0.3352931075493495
51,0.33529117863708074,0.3352485213081042
52,0.33528431511587564,0.3354447773694992
53,0.3352909555302726,0.3361429780522982
54,0.3352763681809107,0.3351973007718722
55,0.3352905612455474,0.3351772889296214
56,0.33527456396155886,0.33532166393597923
57,0.3352838124169244,0.33521683420737586
58,0.3352730883095,0.33518924486637114
59,0.3352663977013694,0.335278961678346
60,0.3352854787707329,0.33520947500069936
61,0.33527729039059745,0.3351924111445745
62,0.33527344773875345,0.33519118640820184
