epoch,loss,val_loss
0,0.6697619405984878,0.6681516383488973
1,0.6681692603031795,0.6679556929270426
2,0.6679882950650321,0.6682511090437572
3,0.6679060310257806,0.6678413180907568
4,0.6678589893314574,0.6677336312929789
5,0.6678149714999728,0.6677231152455012
6,0.6677886867258284,0.6676977761189142
7,0.6677782394886017,0.6677113282283147
8,0.6677611835135354,0.6676839720805486
9,0.6677469125191371,0.6677909425099691
10,0.6677328189876345,0.6677355212767919
11,0.6677270869546467,0.6676846685012182
12,0.6677202627923754,0.6676410641272863
13,0.6677111366987228,0.6677320205767949
14,0.6677043693463007,0.6676711691617966
15,0.6676917922099431,0.6677670885324478
16,0.6676941661967172,0.6677237789233526
17,0.6676857018205855,0.6679261386791865
18,0.6676781771580378,0.6676558496554693
19,0.6676786158217324,0.6676775670846303
20,0.6676679123904969,0.6676509106953938
21,0.6676720462375217,0.6676630481084188
22,0.6676702418857151,0.667711525162061
23,0.6676650604406993,0.6675903856356938
24,0.6676585273477766,0.6676569244861603
25,0.6676540761523777,0.6675935862461726
26,0.6676658455265893,0.6676272149085999
27,0.667648570590549,0.6676404728889466
28,0.6676469002564748,0.6675969585180282
29,0.6676407640510135,0.6677257417440414
30,0.6676451625029246,0.6676101018190383
31,0.6676428459220463,0.6676050148804983
32,0.6676453592777252,0.6676277028719584
33,0.6676376397609711,0.6675644081830978
34,0.667641185786989,0.6675993854204814
35,0.6676397742297915,0.6677259703874588
36,0.6676352591249678,0.6675781817833583
37,0.6676367744604746,0.6676037576993307
38,0.6676325556702084,0.6675800615151724
39,0.6676295132637023,0.6675951490799586
40,0.66764154320293,0.6675881998538971
41,0.6676309464242723,0.6675751735369364
42,0.6676280359427135,0.6676940404971441
43,0.6676321353382535,0.6675864298343659
44,0.66762981625398,0.6676816354195277
45,0.6676318644550111,0.6675541767676672
46,0.6676263832118776,0.6675895209312439
47,0.6676258097489675,0.6676295147736867
48,0.6676222247282664,0.667649043639501
49,0.6676274050871531,0.6675964939594269
50,0.6676168570121129,0.6675859196980795
51,0.6676232211192449,0.6676814989646276
52,0.6676179121865167,0.6676382290522257
53,0.6676219940053092,0.6680287315448126
54,0.6676179610623254,0.6676143118143082
55,0.6676251843108071,0.6675792746543884
56,0.6676136809852388,0.6675600130955378
57,0.6676211705340279,0.6675639289220174
58,0.6676090468433168,0.6675511051019033
59,0.6676154480245379,0.6676286473671595
60,0.6676122457318836,0.6675580168565114
61,0.6676165782213211,0.6675564719835917
62,0.6676179582675298,0.6675725475947062
63,0.6676096742550532,0.6678899128437042
64,0.6676181751754549,0.6675565380652746
65,0.667612300462193,0.6675764059623083
66,0.6676122353606754,0.6676475090583166
67,0.6676102882756128,0.6677038904428482
68,0.6676143816179699,0.6675580152670543
69,0.6676123798025979,0.6676191989978154
70,0.6676099019845326,0.6675862980683644
71,0.6676098989910549,0.6678793859481812
72,0.6676040400134192,0.6676634871562322
73,0.6676127855645285,0.6675324720144272
74,0.6676147418816885,0.6675553478399913
75,0.6676093188391792,0.6675924998919169
76,0.6676044915914535,0.6676816172599792
77,0.6676091002490785,0.6676066060066224
78,0.6676067399713728,0.667658626794815
79,0.6676060962677002,0.667614449540774
80,0.6676028098132876,0.6675913086732228
81,0.6676065912776523,0.6675541181564331
82,0.6675992838939031,0.6675421958764394
83,0.6676010639799965,0.6675600837866466
84,0.6676066498226589,0.6675524981419245
85,0.6676023723019494,0.6675368676582972
86,0.6676087529394362,0.6675526044766108
87,0.6676033773422241,0.6680572017828623
88,0.667596177538236,0.6677836106220881
89,0.6675952240361108,0.6675674259265264
90,0.6676038877301746,0.6676880853970846
91,0.6676016556289461,0.6676822173198064
92,0.6676014369328817,0.6675600752830505
93,0.6676013580693139,0.6675910337368647
