epoch,loss,val_loss
0,0.7799065435859892,0.7799304290612539
1,0.778801752726237,0.7786065735022227
2,0.7786632015042835,0.7786002266804377
3,0.7786061524947484,0.7785252421696981
4,0.7785790150562922,0.7785022253592809
5,0.7785633864270316,0.7785139371951421
6,0.7785473031732771,0.7785018225113551
7,0.7785367811785804,0.778474571108818
8,0.7785288446611828,0.7784786308606466
9,0.7785236167112987,0.7785401936372122
10,0.7785163060691621,0.7784620939095815
11,0.7785132742722829,0.7784728258053462
12,0.7785024719370736,0.7785230313539505
13,0.778499648253123,0.77843577114741
14,0.7784975363545947,0.7785032046238581
15,0.778495167043474,0.7784666619300842
16,0.7784923048681683,0.7785003140370051
17,0.7784875060717265,0.7786160373687744
18,0.7784852172136307,0.7784372233549753
19,0.7784775867859522,0.7784560686747233
20,0.7784782242377599,0.7784483499924342
21,0.7784733258618249,0.7784569528102875
22,0.7784756915569305,0.778444435040156
23,0.7784719902144538,0.7785121701955795
24,0.7784729905260934,0.7784380579789479
25,0.7784708459509744,0.77846069308122
26,0.7784655193222894,0.7784938032627106
27,0.778464391403728,0.7785239456892014
28,0.778467022617658,0.77844238225619
29,0.7784639601442549,0.7784338930050532
30,0.7784613577789731,0.7784740078051885
31,0.7784628927177853,0.7787291644414266
32,0.7784615409109328,0.7784571677446366
33,0.7784570758077833,0.778460356036822
34,0.77845843662156,0.7784132479031881
35,0.7784572061432733,0.778424020965894
36,0.7784519267214669,0.7784139102697373
37,0.7784518071677949,0.7784164940913518
38,0.7784534927341673,0.7784087113539377
39,0.7784501775900523,0.7784584456682205
40,0.77845181508859,0.7784097887277603
41,0.7784514074060652,0.7784558382431666
42,0.778449041194386,0.7784630043109259
43,0.7784480879174338,0.7785513898531596
44,0.7784492315186394,0.7784251653353373
45,0.7784442534314262,0.7784140051205953
46,0.778446960899565,0.7784278791348139
47,0.7784464259545009,0.7784648566643397
48,0.7784470882283316,0.7784155850807826
49,0.7784448974000083,0.7784116139014562
50,0.7784449633757273,0.7784233067830404
51,0.7784434847036997,0.7783908023834228
52,0.7784437105258306,0.7783995730082194
53,0.7784449894693163,0.778419214963913
54,0.7784499511056476,0.7784427038431168
55,0.7784438090324401,0.7784544630050659
56,0.7784409919050005,0.7784461919466654
57,0.7784428519010543,0.7784195522467295
58,0.7784450763861338,0.7785405088265737
59,0.7784439971844356,0.7784723174174627
60,0.7784391179084778,0.7784259975353877
61,0.7784414228200912,0.7784288450082143
62,0.7784423086378309,0.7784289480050405
63,0.7784378061559465,0.7785754605929057
64,0.7784426971276601,0.7785141050418218
65,0.7784410283962886,0.7784132227102916
66,0.778443466676606,0.778501211365064
67,0.7784376717408498,0.7784897549549739
68,0.7784402108324898,0.7784091377258301
69,0.7784394043551551,0.7784015992879868
70,0.7784421004189386,0.7783879071076711
71,0.7784362445804808,0.778406052629153
72,0.7784385182062785,0.7784316010077794
73,0.7784391989840401,0.7784030190706253
74,0.7784395832353168,0.7784346071879069
75,0.7784373221000036,0.7784692877928416
76,0.7784400003618664,0.7785110918283462
77,0.7784381238354577,0.7784453677733739
78,0.7784406283431583,0.7783987533648808
79,0.7784386408196555,0.7784209264119466
80,0.7784399759769439,0.7785716793139775
81,0.7784391729169422,0.7784533836841583
82,0.7784366280105379,0.7784000276724498
83,0.778439124862353,0.7784059207836787
84,0.7784397224055396,0.7784527057409286
85,0.7784353797170851,0.7784161180257797
86,0.7784389257563485,0.7784341598351796
87,0.7784407128228081,0.7785462421576183
88,0.7784373321533203,0.7784548979997635
89,0.7784355440139771,0.7784055258830388
90,0.7784363453520668,0.7785223269462586
