epoch,loss,val_loss
0,0.5130866414623513,0.4633039653978015
1,0.46634317065974634,0.4630175423351421
2,0.46464747553161856,0.46621238104908425
3,0.46472138932364,0.4662472593378267
4,0.4658372209514018,0.46023387572481106
5,0.4659691824494981,0.4634019717731228
6,0.4663603416650748,0.46236997332789503
7,0.4663118800346712,0.4634787370205312
8,0.46687986864577874,0.4638694618788562
9,0.46787162728792575,0.4750230403712196
10,0.4719879374063139,0.4693886188114937
11,0.47461003211854075,0.4649263601765242
12,0.45464525560887936,0.4455830058912291
13,0.4498026380307966,0.4501898703252215
14,0.4482858647481263,0.44935422582251217
15,0.4466464862143927,0.4461227171757505
16,0.44637523855181865,0.44232940584396985
17,0.4445113887707647,0.43896331991592463
18,0.4437837112870953,0.44193018923324
19,0.44421731779058043,0.4412880580984086
20,0.4435375258744097,0.4377483753585661
21,0.44347952834790566,0.44229385222928463
22,0.44473192022980645,0.44087517360604495
23,0.4441045133994998,0.44666521873594006
24,0.44496651462691605,0.43986142505887843
25,0.4449118428630195,0.4434659873337061
26,0.4459360081425087,0.44081125891218315
27,0.4461240397514201,0.4467846550597278
28,0.4473425848208207,0.44823022990427847
29,0.4479600471243847,0.44504221896765583
30,0.4482329779142757,0.44502016505572434
31,0.4491045668399076,0.4525301296683897
32,0.44977092086743886,0.44714250350907286
33,0.45260023675841077,0.452286439486277
34,0.4552915758424229,0.4538811032161032
35,0.45619658215509784,0.4510603009300897
36,0.4572692522175127,0.46110726062688806
37,0.45963228829771735,0.4618161408425538
38,0.4640527242799107,0.4164504032500469
39,0.3342238601156957,0.24241182021947769
40,0.23376986606895112,0.24034144945098246
41,0.21662714686677206,0.19272180517949616
42,0.20637138119881587,0.194932608539654
43,0.1974473846994275,0.17670818195290808
44,0.19343490488797402,0.18338308972212133
45,0.19057755460373585,0.17277092434048943
46,0.18394014845975787,0.1767523166665389
47,0.1833736763848029,0.1675527311879643
48,0.18321690198371085,0.17634277599233006
49,0.18474828971443985,0.17866636100863406
50,0.1854138896346474,0.1734642945622779
51,0.1914178714442482,0.2002012410593149
52,0.19527902213738765,0.19193063090220758
53,0.19613330335534507,0.18982474258152915
54,0.20531361216635968,0.19794240022276052
55,0.20970120489764346,0.19148405116211564
56,0.2120234736855074,0.27244829791934144
57,0.25753385305786436,0.19529704657736002
58,0.2059116261579496,0.20282063581841028
59,0.18302786288211784,0.1413232158485797
60,0.1635647140640178,0.15666776230832183
61,0.15618983026835515,0.12749125001180103
62,0.14703377566820053,0.14121870585964255
63,0.15057624976715153,0.13331280745390656
64,0.1623285354358898,0.17669589174586586
65,0.16328534082150917,0.15839759433235662
66,0.16102757310872082,0.13683634013880197
67,0.15401053033452974,0.11287234523556432
68,0.1523323171616221,0.12247143045901672
69,0.15409300446784716,0.13009841086921514
70,0.15431251363743773,0.1606982005072723
71,0.15476948723757716,0.12591340838775147
72,0.1480698655154392,0.15574051202890454
73,0.14725133096031232,0.1699261015518255
74,0.1444443980689713,0.12490042775796857
75,0.1439246275873066,0.14069203814281647
76,0.1458947678969754,0.14568144655865764
77,0.14752554397484224,0.11610861297844874
78,0.15014797591979356,0.1589523379880533
79,0.1613567565307558,0.15713759945571085
80,0.1550338581425128,0.12159284451993035
81,0.14940092514594905,0.12777183319699542
82,0.1487444965295595,0.11363187002657103
83,0.14528887392915754,0.1225729470790061
84,0.14544798807502748,0.12287231880358729
85,0.14040197437708143,0.1497141458668171
86,0.14245671634558585,0.13618979835089687
87,0.14227330676310534,0.136949057573723
88,0.14875734027764434,0.12779071960305163
89,0.14049957916916037,0.1407162596721622
90,0.14579204390581557,0.14289538879536653
91,0.16961437849114663,0.13951337226913504
92,0.1364412124576666,0.11433817984631461
93,0.1416025814399708,0.09673878894960213
94,0.14176159056784918,0.1937060576575806
95,0.14573685424603683,0.18702255460129263
96,0.1612659413531554,0.11141418826381849
97,0.1613749730243408,0.11539939228998193
98,0.15566076125033956,0.541244058181673
99,0.21087770657934504,0.5348780723673874
100,0.22476439331893067,0.20589599804914974
101,0.21751438752950145,0.14270027572801222
102,0.20872828909893146,0.17130430421013224
103,0.20769653778323371,0.1124517096437677
104,0.1694633595502262,0.11681712400062434
105,0.17684472798167752,0.11700042848386903
106,0.17233535795031882,0.1268329377386595
107,0.19392042315965466,0.13929887402980964
108,0.21179988661749635,0.1615448076903385
109,0.1987088725054331,0.22650020971398768
110,0.2397747536192091,0.3602669377783306
111,0.34239270084137147,0.40471605989184695
112,0.21622190334266717,0.2847487735173031
113,0.3204336210643892,0.23489477533155212
114,0.4220072609470118,0.38745429771079926
115,0.38973474935639657,0.39093607548089504
116,0.3888325222594152,0.38237316931831283
117,0.3884383136387154,0.383317650935559
118,0.3902667304031175,0.3805091219371833
119,0.39051941538257917,0.38477136258757993
120,0.3903501021613876,0.38878576567476586
121,0.39080933973586873,0.38489831617858866
122,0.389996753777381,0.38612315892593124
123,0.3906525742110488,0.38689142709714264
124,0.39019743846453503,0.3860418033715872
125,0.38899256036079244,0.382793261525308
126,0.3874846474231005,0.37950473842539634
127,0.38738114470906787,0.38374096309858324
128,0.38639031112003175,0.37763427796154997
129,0.3867233125351256,0.3898186022589483
130,0.38796255439877797,0.3778148567106119
131,0.3861444065626189,0.3791905879394271
132,0.3879416444427591,0.38448468264002
133,0.33752233892965544,0.1991260464802469
134,0.22281612443317883,0.22151843556909181
135,0.2209576724575843,0.20752995518630632
136,0.20899341263181215,0.19782898517662398
137,0.18392690316474944,0.17123568555927818
138,0.17754173315793062,0.16927479336828308
139,0.17608983203876105,0.16300108655380796
140,0.17173658312560083,0.15934477908429534
141,0.1699641092722897,0.16166769780236728
142,0.16914250323469873,0.16388745665163504
143,0.16912409596389727,0.1603769816258818
144,0.17141519877627145,0.15905307759043655
145,0.17187281112798794,0.1730845105280648
146,0.20613675366481654,0.1511840861523335
147,0.15387236344232094,0.15672478443563032
148,0.1501367466928388,0.136548103823569
149,0.15013907147083785,0.14965222298567216
150,0.15433363666276248,0.13549427034911932
151,0.1532677476576942,0.14860896767394288
152,0.15706366396324933,0.14656051815112045
153,0.15654389905609828,0.15344001364872306
154,0.14811389571468864,0.130268492106732
155,0.14184947524837152,0.13571881922830534
156,0.14534237478867926,0.15258313779509947
157,0.18124611292771095,0.18705232736306374
158,0.15490381957126484,0.16377665907362082
159,0.16806702778411445,0.15362241350579628
160,0.17649175001202438,0.17488269177956592
161,0.17688724919079876,0.1666370100807776
162,0.18402545828762962,0.1695100164157244
163,0.17979491419129795,0.17722007911425727
164,0.17652932390737666,0.19322287555351939
165,0.18929173043959613,0.16750261796651966
166,0.1876045418045729,0.18161018713644048
167,0.18368297398352834,0.16342897699890538
168,0.1854524546391588,0.17727728356023387
169,0.19657741731004394,0.13822761805243156
170,0.1602706278027822,0.15778398340974314
171,0.1789478468980858,0.19103757751877484
172,0.20112138124610826,0.1798924808809647
173,0.1974543663289091,0.20440003767742534
174,0.23191914191429286,0.24249293824955398
175,0.25098680114273647,0.22703953823323958
176,0.24571112373931778,0.2377269417651765
177,0.24167777624747772,0.23295581645339075
178,0.23983839098766768,0.23381025284311197
179,0.2339645600955996,0.2202280056810147
180,0.23145523593366576,0.22306897520825616
181,0.22951964634337169,0.21580355687539748
182,0.22819701551174143,0.21173866765100785
183,0.22455295021410843,0.20175662506235778
184,0.22282969121865218,0.22755735178401773
185,0.2222810099132544,0.21461927197082006
186,0.22226996200265076,0.21243609860237303
187,0.2157316734974054,0.20482920181528882
188,0.21575352696894262,0.1962671375139303
189,0.2122440066358583,0.20732260916596587
190,0.21141337235872035,0.1990523474398224
191,0.2104024724234,0.19557830058068448
192,0.21374498759869864,0.20122937097940036
193,0.20916317199305404,0.19569105081507954
194,0.2046523136947993,0.20519152850468567
195,0.20012821705700207,0.1843540859555966
196,0.19494803215237597,0.1877866556682146
197,0.18833452954089003,0.19226572398528372
198,0.1834057229306337,0.18104938559675254
199,0.17602735248396548,0.15997457026299286
200,0.16933111913854165,0.1508489210771915
201,0.16298928698770898,0.14558058622423847
202,0.15701796511431232,0.14715248778982076
203,0.15702090586563222,0.13668374881595494
204,0.1528046384537287,0.12571456270037099
205,0.1453560040570241,0.1255813282517911
206,0.14628056673895273,0.1372620825446532
207,0.14373304966607506,0.1224449426298304
208,0.13774898984104847,0.110140090453267
209,0.1332435691453296,0.11213544235298137
210,0.1332695395995179,0.1291504551423147
211,0.13170122715821259,0.1054306714663347
212,0.1260044302573626,0.10411415208019285
213,0.11956642094173367,0.11557948809881473
214,0.11706483162480225,0.10121065971576772
215,0.11560128600276214,0.1036358899274495
216,0.1127484755320631,0.09029995104402232
217,0.1110273215373914,0.10664348662600513
218,0.11157134076575931,0.10462098933653627
219,0.1118942092331626,0.08575578903460639
220,0.11017646871095567,0.080488162183196
221,0.11092106187887626,0.08878805966321182
222,0.11194667323314256,0.0993783690174324
223,0.11281886662813642,0.09537460573398283
224,0.108512787647945,0.10347259169125693
225,0.10906314285542126,0.09431008320220195
226,0.11067695688423489,0.08924702388164191
227,0.11155357316518136,0.10551458328889814
228,0.11339441036061347,0.11270066375473313
229,0.11633473646948583,0.10252317014571041
230,0.11833392646464946,0.11670801546258455
231,0.1222944021362176,0.10267644568323026
232,0.12444688890388815,0.10626196781504184
233,0.12418447718549194,0.10848509328136188
234,0.12531496976928008,0.10959805740347164
235,0.12622920092377213,0.10591666291060722
236,0.12570140005243693,0.10646153842034808
237,0.1265977391655489,0.1065793080679885
238,0.1272770025050812,0.10113345378132149
239,0.12760170125622478,0.10359935620792107
240,0.12936075947421183,0.11188918633110041
241,0.13005470578745904,0.11899521497938562
242,0.13478133393476924,0.117709531038637
243,0.13131601239641827,0.11246036268039535
244,0.1369720519251161,0.1292819466867876
245,0.13868315978418644,0.11000861095178446
246,0.13886433044333665,0.1227905769550694
247,0.14164704632005087,0.13312599639992162
248,0.1413712285345702,0.12288518695331452
249,0.1419720140437158,0.11824980986645235
250,0.14185158232505843,0.135848939974716
251,0.14253304110134574,0.12351936204638407
252,0.1421730242389216,0.11681129585193215
253,0.14306554391837006,0.12612958953980982
254,0.14093250306166583,0.11665335897014863
255,0.14220826457544647,0.11740101461162049
256,0.1410725922305122,0.11821586736579881
257,0.13804675207985603,0.11096869105743569
258,0.1393357057532995,0.1219681770225801
259,0.13709676609314184,0.12019445460111458
260,0.14205930468509254,0.12105429032326519
261,0.13998450704807755,0.12508485894665328
262,0.13879201752696638,0.11723371958911467
263,0.14026114113742202,0.13992701106480437
264,0.14102063954974098,0.12755868374237855
265,0.14014096306361037,0.12466569532491478
266,0.14014406019062686,0.12654794885535986
267,0.1433782436406975,0.11407651358857353
268,0.14030737003939356,0.12250932075826501
269,0.14242217152284756,0.11372189817154012
270,0.14345289975571765,0.14760559627488679
271,0.14229941816390562,0.13173399736918961
272,0.14364059852530137,0.12910435016403715
273,0.14521013614568737,0.1319187126165469
274,0.145583526057611,0.12955855552200757
275,0.1484474153239265,0.1318693543872694
276,0.1485745452427931,0.12719342456971933
277,0.14970933341736598,0.13371322471391642
278,0.15053846199122117,0.14186352316142095
279,0.15147470439776026,0.13635180390833454
280,0.15291591420817413,0.15571491851713826
281,0.15552153785804732,0.1454024472049553
282,0.15318089154205197,0.13186111885507418
283,0.15182210876642943,0.12185662029505936
284,0.1510460437763873,0.13694668205912675
285,0.150842379650371,0.1387316652023009
286,0.14984944082492346,0.13639549458428119
287,0.14851213852651984,0.11902623651405707
288,0.14737505221767747,0.1265226631196456
289,0.14572512740500457,0.12807655917587846
290,0.14546639949763365,0.11979046919581761
291,0.14071095525753124,0.12260989852050215
292,0.14336460018105465,0.13131530909207614
293,0.14333663242246458,0.12561322904561267
294,0.14405903244037643,0.14124175385305385
295,0.1440312158080747,0.12170620783498784
296,0.14538283287297735,0.1401434908383084
297,0.14440840301368596,0.128886662248374
298,0.14546689461525963,0.13481288263083277
299,0.14303119508348244,0.13686154655272267
300,0.1461897465505535,0.13180061931278486
301,0.14886942139272694,0.12660140686178245
302,0.14821543650712082,0.11610171331783087
303,0.1462169334775596,0.10915978757448537
304,0.14227762099525468,0.1286780664097557
305,0.14464271637656576,0.14521329901925162
306,0.1459259438075668,0.13756179279026132
307,0.14421651955004974,0.11640441301675318
308,0.14149100433071676,0.13643185755076295
309,0.1454738968248077,0.1423541042479382
310,0.15020830178554292,0.1331735415639475
311,0.1489294285567595,0.12862186658967345
312,0.1489995792418647,0.1399469532719107
313,0.1500262295077141,0.12471089997334105
314,0.14732996044789343,0.13205472622837172
315,0.14574080548160454,0.12548627491680858
316,0.147844562913963,0.12788455026331513
317,0.13910007736294436,0.12108766471261623
318,0.13819821266303833,0.13123746692457533
319,0.1405772613294369,0.12421460259352288
320,0.13952974447483918,0.1285275043761063
321,0.137300878754251,0.11830108901614207
322,0.13841654171792864,0.12682604842909156
323,0.13835886563118502,0.11037365503651479
324,0.1358491013719856,0.11299155908126901
325,0.13890026268766248,0.1287539719399261
326,0.13780759494182013,0.13062260458842584
327,0.13949843196927594,0.1105370904407362
328,0.13937474989456783,0.11855942432656098
329,0.13697804151187906,0.11389209220105811
330,0.13891572655857898,0.12379217830041706
331,0.13828247030071014,0.12754011012776925
332,0.13872703715407247,0.11727968660777696
333,0.13332230284261265,0.11559909852244268
334,0.13462868379093437,0.10594890224358365
335,0.13497827126621437,0.11361054583042497
336,0.13723283452843074,0.11963010879062774
337,0.13382529393673612,0.12627406195349936
338,0.13118431295713393,0.11524921426638683
339,0.1292343818790632,0.11397590241655527
340,0.1319087867686947,0.11848155093671632
341,0.1343808858435425,0.12365937078279493
342,0.13206564244613636,0.12867238573180112
343,0.13654997766471272,0.11928128832399797
344,0.13495951806239073,0.11295408292674283
345,0.13337207320120165,0.11484939748208309
346,0.13449378570227075,0.11596101867480677
347,0.13545921184808565,0.11654392279388454
348,0.1339814580851693,0.1219188919274283
349,0.13259537704736352,0.13749928763385527
350,0.1357607629308231,0.1191869497492559
351,0.13435458179542406,0.12024614085584565
352,0.1352713556887151,0.1105375916297515
353,0.14036513425356106,0.1262359013788505
354,0.13915208736665732,0.12327071430353449
355,0.14107712368675476,0.12829391961646872
356,0.13886288149928072,0.12215201094420287
357,0.13501025126983013,0.12162848795248257
358,0.13771031468844203,0.1291981386224719
359,0.13773834221273829,0.14989008087988123
360,0.13967862050589608,0.1251991698631695
361,0.1363367844220874,0.13509159938213985
362,0.13698593154251337,0.12565916877569266
363,0.13316396615498538,0.106457915891261
364,0.12927435578001414,0.10054123808916081
365,0.12811741701143087,0.11565171751372716
366,0.13033309148205482,0.12460048939044749
367,0.13436953989181927,0.11628918584801758
368,0.13558378129648724,0.12262158431203406
369,0.1379525781697851,0.11164702261765605
370,0.1389658368879361,0.13040462146541112
371,0.1382986327455796,0.11147672216508414
372,0.13438737169325685,0.12373427858172832
373,0.13441488623106068,0.12322951384970354
374,0.13144296045311457,0.10484476318614616
375,0.12787887800314887,0.11679899528175472
376,0.12828263846502674,0.12066136397246123
377,0.13263316789240814,0.10976272430467296
378,0.1297040697041037,0.11322306253058294
379,0.1303955367456874,0.10816149172484149
380,0.13022178400448076,0.11630059603453649
381,0.13354062994687055,0.11454700465281611
382,0.13704164813550784,0.11331670339138451
383,0.1357355920241488,0.1250067160669518
384,0.13815032541036032,0.1131419482469462
385,0.1353594618077704,0.11240957775859453
386,0.1365064118591378,0.12256891879843003
387,0.13746287115365624,0.12786410536257503
388,0.1364583564046815,0.13838159106822875
389,0.1354924654774517,0.11658825057000526
390,0.1369289321253737,0.12207605637797281
391,0.13877225522879508,0.13396907070861633
392,0.1390738700351732,0.11535440315851234
393,0.13946201132119798,0.12515866326202923
394,0.14179031342697487,0.125193684284076
395,0.140151012885728,0.12314683793525046
396,0.13429034774522003,0.1331672106491098
397,0.1346534722096162,0.12655259592689738
398,0.1356248440171739,0.11195092630744077
399,0.13560273039271775,0.1268286785505114
400,0.13457670497646132,0.11984954021466233
401,0.13712684600781783,0.12082287869797619
402,0.13682607611756117,0.11755054503292546
403,0.1350300530936596,0.1147759499304776
404,0.13524795668400985,0.130458320742541
405,0.13842503899772515,0.12436541706468647
406,0.1431292988735738,0.13106744720722155
407,0.141548087783128,0.1283005497509739
408,0.1417750236992124,0.11061729079252902
409,0.1419182167208796,0.12151786998603176
410,0.13785554271480674,0.11897915291138422
411,0.13635717441228698,0.12491304966993479
412,0.13826272284106506,0.13313704865643963
413,0.13901708126247073,0.14027616851158675
414,0.13745818402263238,0.13542852619026893
415,0.13862297714078683,0.1374841718439735
416,0.13735908573512748,0.11779276184308654
417,0.13853723788149266,0.12239243554832098
418,0.14140111235700387,0.12018905396951667
419,0.1359175839114657,0.11484513833623346
420,0.13709204392530042,0.10878877254733205
421,0.1352036370753383,0.128385327992068
422,0.1353306811455014,0.1224104247908716
423,0.13455091420116666,0.10632016926109548
424,0.13409713245003677,0.12037275032429606
425,0.13471123194389098,0.14300584170094177
426,0.13714399654045403,0.11903857540668555
427,0.13526744617699527,0.11472746595704063
428,0.1340171743521364,0.12046957439580586
429,0.13652194443765023,0.1317626408150983
430,0.13692895255034404,0.12735394723199772
431,0.1371748112798262,0.1246144576217233
432,0.13777097070617997,0.11759623865818263
433,0.13611906912741517,0.12471582201541388
434,0.1366150657846939,0.11433408306632116
435,0.13583030924201012,0.11784417159849322
436,0.1358198928232905,0.11422732409576236
437,0.13936616299305563,0.12815996683040287
438,0.13936851950909634,0.1256426047996013
439,0.1373403369962835,0.11853035602232159
440,0.13586362527371693,0.1256962876044824
441,0.13490513213473954,0.1197284824741341
442,0.13482154844354113,0.11028091802238355
443,0.13284128768335254,0.10752868979250814
444,0.13360082932872425,0.11578324496963599
445,0.1370029087044937,0.12886587535812907
446,0.1377102791386141,0.11219236907901942
447,0.13539638608884963,0.11221732689854776
448,0.13593061399564826,0.126545211718707
449,0.13488307696662014,0.12344189326596859
450,0.1321740436275975,0.13038475653768455
451,0.13221568011457296,0.11759079781882857
452,0.13176995745186715,0.13352343745813655
453,0.13063762308932764,0.10854245114403822
454,0.1335951662551555,0.12120794371338463
455,0.13733676037161324,0.12395311667850514
456,0.13750660992723354,0.11127986671329028
457,0.13441243701225952,0.11676378282268939
458,0.1323940732521568,0.1120484439778502
459,0.13025786329189046,0.10712702497416943
460,0.1263998712840273,0.10034779151063186
461,0.12760151488731822,0.11528915839401185
462,0.1331250539140476,0.12355982633692794
463,0.13394592622454593,0.1228300754618374
464,0.1355631742193949,0.11174411069230152
465,0.13516523733472613,0.11854133039519542
466,0.13388775391660757,0.10445564188250467
467,0.13225830794633436,0.12874161606142412
468,0.13018902789673106,0.12324912625531888
469,0.12980201243578768,0.11092464779318588
470,0.13019383737177634,0.11218595541620874
471,0.1332157162264932,0.11709060680668043
472,0.1322848927393687,0.11857856534548339
473,0.1310059042860738,0.10999123671145722
474,0.12796236192874663,0.11535394261232354
475,0.12792779826480832,0.10980282648974865
476,0.12514484187571692,0.11302506797988533
477,0.12707299019416587,0.11916960695485032
478,0.12604198192326044,0.11778136565133217
479,0.12489989167265743,0.11080096091014625
480,0.12496626351455195,0.11181462773658933
481,0.12707317948305577,0.10980197709939002
482,0.13051644014455588,0.11493149929093038
483,0.1288306463369615,0.11296716485918777
484,0.1297659559236516,0.11277129860641699
485,0.13322038284605078,0.11012289158256675
486,0.1324888008495299,0.1182724556614496
487,0.13444650467869948,0.11039419828129317
488,0.13240888426669414,0.10421840457392241
489,0.13561434398671451,0.12623141307175303
490,0.14100428636941173,0.13408728781407767
491,0.13837478054259375,0.12722963898383013
492,0.13703304919316542,0.12588456905139528
493,0.13949166748037425,0.12182296017322324
494,0.13724434207841527,0.11041542919109434
495,0.1379573620599303,0.12070040653149287
496,0.14067387219676503,0.11629274466346166
497,0.14279505498021292,0.1304736145306001
498,0.1403316524359968,0.13527161406242838
499,0.13878220474844077,0.12197253002278319
500,0.13512158942065114,0.12056572451909577
