epoch,loss,val_loss
0,0.4878701513144705,0.563230957865715
1,0.5631486525005764,0.5619658789237341
2,0.5630745072629717,0.5618232099215189
3,0.5618900288740794,0.5619763400554657
4,0.5612760397460725,0.5609792401790619
5,0.5610895792510774,0.560804332057635
6,0.5615406180885103,0.5617667787869771
7,0.561262640953064,0.5607376249631246
8,0.5609512009223302,0.5606977920532227
9,0.5610252463155323,0.5608452520767848
10,0.5608574124972026,0.5607382738987605
11,0.561246175924937,0.5606240535179774
12,0.5611445782052146,0.5605609578688939
13,0.5607781551943885,0.5605203180710475
14,0.5610289011531406,0.5607870270808538
15,0.5608251731660631,0.5606438887914021
16,0.5607687972784042,0.5606326175530751
17,0.5636376940541797,0.5606957100629807
18,0.5608119860092798,0.5605209158261617
19,0.5608000880347358,0.5605085746844609
20,0.5607977483007643,0.5606629156668981
21,0.5607502966456943,0.5608707896073659
22,0.5607587617768182,0.5604946793317794
23,0.5607064934439129,0.5606823143561681
24,0.5611542304886712,0.5612434225479762
25,0.5607005287011464,0.5605702796777089
26,0.5608708199527529,0.5605809097290039
27,0.5609708130492105,0.5605375591516495
28,0.5606977827416526,0.5604252050717672
29,0.5614311349127028,0.5607799248298009
30,0.5607125064531963,0.5607337907950083
31,0.5606723071866565,0.5607366314729054
32,0.5606638665331735,0.5607123434543609
33,0.5613380278481378,0.5605059472719828
34,0.560642820821868,0.5612922118902206
35,0.5606744520664215,0.5605817572275797
36,0.5606786762211058,0.560497964421908
37,0.5607152616845237,0.5607391499280929
38,0.5606332262224621,0.5607002474864324
39,0.5606366886562771,0.5604801468451818
40,0.5606377351416482,0.5606574604511261
41,0.5606435306999419,0.5604868931770325
42,0.5606269977225198,0.5604930134216944
43,0.5606215202675925,0.5605532364845276
44,0.5606370000044505,0.560480191429456
45,0.5606157097816468,0.5604728928009669
46,0.5606083736949496,0.5626281934579214
47,0.633836364865303,0.670483870267868
48,0.6705960548056497,0.6703440212806066
