epoch,loss,val_loss
0,0.5520297880835003,0.45570189046859744
1,0.4538759646283256,0.45200929496685666
2,0.4524083063469993,0.45945779532194136
3,0.4523835965461201,0.45138091071446734
4,0.4514654687841733,0.4625653772354126
5,0.5353586066762607,0.5609930476347605
6,0.5612453292475806,0.5609153254032135
7,0.5611232100857628,0.5608887843688329
8,0.5615059958696366,0.5821005013386409
9,0.6025470227665372,0.6707659883499145
10,0.6710020574993557,0.6711601698795955
11,0.6706930635770162,0.6704934576352437
12,0.6772945029073292,0.6728612995545069
13,0.6712073927587933,0.6707826822996139
14,0.6709055936601427,0.670521562298139
15,0.6707155174281862,0.670678059498469
16,0.6706511635250515,0.6704416887760163
17,0.7401205687920253,1.0
18,1.0,1.0
19,1.0,1.0
20,1.0,1.0
21,1.0,1.0
22,1.0,1.0
23,1.0,1.0
