epoch,loss,val_loss
0,0.47139954293436476,0.4567846056421598
1,0.4551609536541833,0.45731601025660834
2,0.4534683557020293,0.4523329445123673
3,0.4526541471415096,0.453062998175621
4,0.45230623830689326,0.45199939932425814
5,0.45225702008273866,0.45253358749548594
6,0.4520246555606524,0.4513399181365967
7,0.45173635155624814,0.45151239484548567
8,0.45167530426051883,0.4514615036646525
9,0.451950479792224,0.45103734825054803
10,0.452013667470879,0.4519091891249021
11,0.45217047125763365,0.4517453586657842
12,0.45148062152995005,0.4510850219130516
13,0.4512741439011362,0.45128431961933774
14,0.45135046566857234,0.45089082805315656
15,0.4512850869099299,0.4508211491703987
16,0.45114232899745305,0.45083193031946817
17,0.4510996366408136,0.4510836217800776
18,0.45117279908392166,0.4509054828286171
19,0.4510827792286873,0.45086049717664717
20,0.4510852722062005,0.4520401368935903
21,0.4510508935186598,0.4508218354185422
22,0.4511778648694356,0.45161756016810733
23,0.4510271119210455,0.4506343309879303
24,0.4510638357334667,0.45135291520754495
25,0.4510254156390826,0.45094023476044337
26,0.4510008665588167,0.4507247453133265
27,0.45099752685758804,0.450679748972257
28,0.4509701610803604,0.4507213226358096
29,0.45115671628051335,0.4506656611561775
30,0.4509854911433326,0.45073091046015423
31,0.4509659488797188,0.45077705216407776
32,0.4510173577401373,0.4526012473702431
33,0.4509732988145616,0.4507330728967984
34,0.450968800134129,0.4507126107017199
35,0.45104228748877845,0.4507786266009013
36,0.4510072373549143,0.4518512388070424
37,0.45094518903891245,0.4509898841381073
38,0.45094949918985366,0.4508402898510297
39,0.4509673712849617,0.45126969275871914
40,0.450945459637377,0.4516856277187665
41,0.4510013142824173,0.4508560502330462
42,0.45093003492222894,0.4506002492904663
43,0.4509572086930275,0.45078645288944247
44,0.45093635765711465,0.4507053359746933
45,0.4509893208477232,0.4509155922929446
46,0.4509488016631868,0.45161189462741214
47,0.4509520750310686,0.4506444006562233
48,0.4509229045510292,0.4506451636751493
49,0.45093622699711056,0.451615453183651
50,0.45094296332862643,0.45081556554635366
51,0.45093003223339717,0.4505922506451607
52,0.4509107013079855,0.4513011142810186
53,0.45111162331369187,0.4690684204896291
54,0.4511354268458154,0.4505683709184329
55,0.45103168584240805,0.4507391890883446
56,0.4509668565061357,0.45144214673837024
57,0.4509802029000388,0.450827426413695
58,0.4510790297455258,0.4511235500772794
59,0.45092893281910157,0.4507562680244446
60,0.45096008612712224,0.4506076129476229
61,0.45093728562196095,0.45094737615187963
62,0.45093553892771404,0.45066267083088557
63,0.45114074658022985,0.45063727839787804
64,0.45099535212251873,0.4510847157041232
65,0.45097625752952364,0.4509904387195905
66,0.4509702860183186,0.4506205555995305
67,0.4509096304840512,0.4506327069401741
68,0.45110888925525877,0.45180028611421585
69,0.4509213056431876,0.4506043706734975
70,0.4508992694152726,0.45087355734904605
71,0.45093866721789044,0.45061928683519364
72,0.4508877731230524,0.4505866306026777
73,0.4509139768017663,0.45093126825491586
74,0.45095189010434683,0.4506163810888926
