epoch,loss,val_loss
0,0.5574106341467964,0.5558997083107631
1,0.5560082243151135,0.5558766583998997
2,0.5559265803893407,0.5558188168605168
3,0.5558877833684286,0.5557919212977092
4,0.8109798280795415,0.8890090686877569
5,0.889012538658248,0.8889657696088155
6,0.8889814385837979,0.888962665438652
7,0.8889674200084474,0.8889681223233541
8,0.8889614652660158,0.8889641941785812
9,0.8889642714791828,0.8889448989629746
10,0.8889562256733576,0.889181541522344
11,0.893072961529096,0.8891804742415746
12,0.8890781612263785,0.8889958864847819
13,0.8889969559510549,0.8890282958745956
14,0.8889779021872415,0.8889555974006653
15,0.8889651816818449,0.8890885289907455
16,0.8889605337911182,0.8889500298500062
17,0.8889571002324422,0.8889470156828563
18,0.8889533073107402,0.8889493725299835
19,0.8889563810295529,0.8889407123327255
20,0.8889481522639593,0.888940725962321
21,0.8889528817335764,0.8889308998982112
22,0.8889479735162523,0.8889335965315501
23,0.888946917573611,0.8889403217236201
