epoch,loss,val_loss
0,0.2284617092543178,0.22536448309818904
1,0.22553794383009274,0.22495302962263425
2,0.22514186863104502,0.22580984937151274
3,0.2249196215669314,0.22460953570405642
4,0.2291403416891893,0.22481586003303528
5,0.22482481699519688,0.22473637239138286
6,0.22545807994405428,0.224821584602197
7,0.22466968266500367,0.2245695980588595
8,0.22466399035188886,0.22455085613330206
9,0.22989745932155184,0.23335201515754064
10,0.22514054617616866,0.22515961666901907
11,0.2247022662560145,0.22458359644810358
12,0.22460531611243884,0.22437680804729462
13,0.22455878834260834,0.2243657500545184
14,0.22454762134618228,0.22466460062066715
15,0.22454511504703098,0.22432035595178604
16,0.22449943516651788,0.22445807936787604
17,0.22450879602299798,0.22436047195394834
18,0.22467675738864476,0.2243520556986332
19,0.22555133828189639,0.22436619062225024
20,0.22447978600528506,0.22452747025092443
21,0.22445420964227783,0.22463622161746025
22,0.2244577678375774,0.22558712393045424
23,0.22446359794338544,0.22439690697193146
24,0.22443276043070687,0.22428423057993252
25,0.22441869154572486,0.22435510472456613
26,0.22443429476353857,0.22423164994517963
27,0.22440126041240163,0.22423043324549993
28,0.22441415159569847,0.2243225642244021
29,0.22439162156979242,0.22426257623235385
30,0.22440418754352465,0.22427703260382018
31,0.2243888159427378,0.2245588636895021
32,0.2244013234840499,0.22438797111312547
33,0.22440168251925044,0.22426772251725197
34,0.22440845646791988,0.22426022921999295
35,0.22438415306806564,0.22486450012524922
36,0.2243809202545219,0.22450380179286003
37,0.22436727389030986,0.2253686329027017
38,0.22437130332986513,0.22424314948916435
39,0.22438078684608143,0.2243746841053168
40,0.22440685323874154,0.22429192343354226
41,0.2243946042921808,0.22435710259278616
42,0.2244034541282389,0.22429314044117926
43,0.22438914099004534,0.22425549534956615
44,0.22440076147847707,0.22462774497270585
45,0.2243824649552504,0.22423401173949242
46,0.22438172187076674,0.2242693674862385
47,0.22437851174672443,0.2243593772550424
