epoch,loss,val_loss
0,0.559183030737771,0.557182235121727
1,0.5574799927737978,0.5578913592497508
2,0.5573213577535417,0.5577878691752751
3,0.48945198184914057,0.44639719601472216
4,0.44649056735303666,0.4462067503929138
5,0.4464175471266111,0.4466179347435633
6,0.44635504917965996,0.44635797969500224
7,0.44631838448842365,0.4463529355327288
8,0.44628522214624616,0.44621695746978124
9,0.44623583179712295,0.44697795659303663
10,0.4462172873285082,0.4461079138914744
11,0.446183965338601,0.44617659296592077
12,0.34403701341814463,0.3352310499548912
13,0.33539604701598486,0.3360540854136149
14,0.335391206463178,0.3353295714656512
15,0.3353531188766162,0.33541529764731726
16,0.33536283461252847,0.3352144395709038
17,0.33536154978805116,0.3357492264509201
18,0.3353291668626997,0.3355886049071948
19,0.3353397659063339,0.33523977037270863
20,0.3353249563905928,0.335208282272021
21,0.3353052079412672,0.3351931012868881
22,0.33531015897459454,0.33519959735870364
23,0.33529913034703995,0.3351854128241539
24,0.33530113514264426,0.33517207485437395
25,0.33529249468776917,0.3351839834054311
26,0.3352981677982542,0.33529181625445686
27,0.3352839224802123,0.335142184873422
28,0.3352888147102462,0.3355209499200185
29,0.33529995005660584,0.3351612516840299
30,0.33530276821057003,0.335575633029143
31,0.3352967301805814,0.3351812941034635
32,0.33529302551349005,0.3358385709921519
33,0.33528095559941395,0.3351730226476987
34,0.3352787019279268,0.33575585649410883
35,0.33527267033523983,0.3351435151696205
36,0.33527345083819493,0.3352486135363579
37,0.3352648633453581,0.33529223549366
38,0.335257712509897,0.33515202784538267
39,0.3352626391583019,0.3363246968984604
40,0.5445405264165666,0.4461306699315707
41,0.446133999519878,0.4460781541864077
42,0.4460765859749582,0.4459773730436961
43,0.4460562718907992,0.44603578531742094
44,0.4460427371925778,0.44592691856622696
45,0.44604287723037933,0.4459444702863693
46,0.4489347950087653,0.44610011422634127
47,0.446215502527025,0.44657582743962604
