epoch,loss,val_loss
0,0.5595737456480662,0.5577166250546773
1,0.5575229682392544,0.5574046690861384
2,0.5573150370121002,0.5570786990722021
3,0.5571826495064629,0.5570269043048223
4,0.5571037123733097,0.5570124944448471
5,0.557044419447581,0.5568716175158819
6,0.5569758691125446,0.5571124315261841
7,0.5569604118797514,0.5568921563625335
8,0.5574006545411216,0.5570873296260834
9,0.5570519598590004,0.5568811783393224
10,0.5569380578332477,0.5568548678954442
11,0.5568908124367397,0.5567609090407689
12,0.5568448475864198,0.5567756558656692
13,0.5568221944702996,0.556867439587911
14,0.5567987226645151,0.5566936594645182
15,0.556780183699396,0.5569337831735611
16,0.5567816733121872,0.5567743165493011
17,0.5567719749212265,0.5566789108117421
18,0.5567537497546938,0.556719296892484
19,0.5567428394820955,0.5568480752309164
20,0.5567460774315728,0.5566976623535156
21,0.5567368195586735,0.556861966808637
22,0.5570024020142026,0.5567379340330759
23,0.5567710877921846,0.5570753183762233
24,0.5567248995966382,0.5567036985953648
25,0.5567133380969366,0.5566549309492111
26,0.5567123946746191,0.5566516777674357
27,0.5567022843095991,0.5569178757270177
28,0.5566904619402355,0.5569085104862849
29,0.5604345444838206,0.5570987513860066
30,0.5567376769118839,0.5567065222263337
31,0.556711151626375,0.5567052474816641
32,0.5566856597661972,0.5570109352668127
33,0.556686984843678,0.5566232222318649
34,0.5566775531636344,0.5566031101942063
35,0.5566749509308073,0.5566052691141764
36,0.5566817436350716,0.5566990250746409
37,0.5567442282305823,0.5567007457812627
38,0.5566923905478584,0.556592075586319
39,0.5566810706324048,0.5568297989368439
40,0.5566733999517229,0.5566059494415919
41,0.5566699364980062,0.5565840985377629
42,0.5566723296642303,0.5566533634662628
43,0.5566722000704871,0.5566091360648473
44,0.5566691593461567,0.5566026602983475
45,0.5566731787919998,0.556751917163531
46,0.5566663194762336,0.5567490864197413
47,0.5566869035694334,0.5566259403626124
48,0.5579334251218372,0.5569114108085632
49,0.5567199539343516,0.5566019849379857
50,0.5567279599772559,0.5566936037143071
51,0.557817216542032,0.5572185692389806
52,0.5567771435446209,0.5568720457951227
53,0.556714019815127,0.557060707728068
54,0.55668746456835,0.5571302462816239
55,0.556689272456699,0.5566915583610534
56,0.5566731479697757,0.556886883020401
57,0.556680111196306,0.5566691298484803
58,0.5566685141589907,0.5566177454392115
59,0.5566666963232888,0.5566600356896718
60,0.5566565860907237,0.5565935585896175
61,0.5566543086104923,0.5570543273289998
