epoch,loss,val_loss
0,0.5030102660416743,0.44036567685091277
1,0.440237077932557,0.4401726589366028
2,0.44013892791025877,0.4400286570054792
3,0.4401749561521192,0.4410449120122165
4,0.44017579672077695,0.44022627567792594
5,0.4401243080243663,0.44001260332475717
6,0.4402896599836686,0.4400180035868933
7,0.44008183478461943,0.44085412594306905
8,0.4402214650608993,0.44087671149745217
9,0.44017476399152233,0.44003170239495915
10,0.44015269887471076,0.4411289230182821
11,0.44025184560171104,0.4400033372357262
12,0.4401530660964197,0.4400086275640771
13,0.4401456040074501,0.44061882234514205
14,0.440093544462718,0.4400504156232414
15,0.44017961568761915,0.4400104014915689
16,0.4401373183815367,0.4400309542556532
17,0.44015028471293405,0.4400150878003502
18,0.44015414383412765,0.4400050329503869
19,0.4401540293688121,0.44025643678444376
20,0.44004768235667174,0.4400006258342851
21,0.4402787439554777,0.44000060905578725
22,0.4400310801885357,0.4400115232685181
23,0.44006124078685277,0.44069003856174477
24,0.4401352850422729,0.4400029554851933
25,0.44016445816545885,0.4400002836253541
26,0.44011618767935423,0.4400246636785187
27,0.4400838574118205,0.4422881727570843
28,0.4401294849452951,0.4400009546382065
29,0.44007645663024353,0.4400002461421518
30,0.44013876824588377,0.4400053658329889
31,0.44001872226333266,0.4401282036045268
32,0.4400896793437858,0.4400050966781839
33,0.4400943080138049,0.44000851634061555
34,0.44007617372420105,0.44028936648922823
35,0.4401675219932966,0.440210265579368
36,0.44004648446087946,0.4400022142771032
37,0.4400421447624125,0.4400205879838094
38,0.4400653049112586,0.44026856347712034
39,0.44011481995352836,0.44000138525031723
40,0.4400325340005469,0.4400069580685988
41,0.4400735283699342,0.44000658467237286
42,0.44006927479577373,0.4400055183070323
43,0.44007116309650385,0.44008648235440584
44,0.4400505135730629,0.440003300807136
45,0.4400825648779826,0.4400050984189292
46,0.440057148321438,0.44000335069791363
47,0.4400749436540994,0.44004637288833776
48,0.440028670715669,0.4400036370378139
49,0.44012042227761866,0.44000119857126346
