epoch,loss,val_loss
0,0.6037982933947551,0.5605410831209897
1,0.560569018854073,0.5604028744347896
2,0.5602702999941798,0.5601276267161884
3,0.5606224389578417,0.5601011115562888
4,0.5600640041422207,0.5600525198448342
5,0.5600785926416423,0.560051988536324
6,0.5601742185182095,0.5605305445471239
7,0.5602545908749137,0.5603755205151776
8,0.5601305441720165,0.5600574599148952
9,0.5602000848924389,0.5600222921071595
10,0.5601778693874158,0.5600855680854812
11,0.5600566030514382,0.5604742671909223
12,0.5601633572151472,0.5601838588003054
13,0.5601418148461494,0.5600657302848924
14,0.5600897965104557,0.5600733516237116
15,0.560160134853864,0.5600369001624173
16,0.5601015601089016,0.5600121121776559
17,0.5600713716270301,0.5600541356376838
18,0.5601084392439445,0.5600368060096955
19,0.5600716247604001,0.5602133138122347
20,0.5600916433649487,0.5600037835752804
21,0.5600810804070229,0.5600036080522441
22,0.5601760450498566,0.5600007408032716
23,0.5600241790395897,0.5613322060541719
24,0.5600676059197675,0.5600840382498735
25,0.5600744482720691,0.5600006405388819
26,0.5601243620538251,0.5601176807962229
27,0.5600234881899043,0.5600056530468196
28,0.5600858050578016,0.5600262443614245
29,0.5601284903531863,0.5600261160036923
30,0.5600015206422366,0.5600015122584
31,0.5600948313578344,0.5600230644136013
32,0.5600261596233211,0.560331236614751
33,0.5600688536272868,0.5600004556005734
34,0.5601073407428789,0.5600348706566635
35,0.5600045879856981,0.5600101788957296
36,0.5600854931160969,0.560002112053168
37,0.5600591414672126,0.5600652533969095
38,0.5600380759692585,0.5600161863349186
39,0.5600449912432177,0.5600306246992725
40,0.5600689641872951,0.5600001736887735
41,0.5600378477332808,0.5600604039726672
42,0.5600577609707782,0.5600001876655608
43,0.560064742829801,0.5600024904175065
44,0.5600367117378778,0.5600058496620985
45,0.5600910986889622,0.5600008258202569
46,0.5600366741164697,0.5600756325210444
47,0.5600417018987158,0.5600553009840908
48,0.5600341142511558,0.5600017004876064
49,0.5600705931408965,0.5600295328453542
50,0.5600449222607529,0.5600060613087768
51,0.5600458528674956,0.5600562234774654
52,0.5600600648563379,0.5600193739699748
53,0.5600262005485683,0.5600515484454103
54,0.5600868045368813,0.5600160261101114
55,0.5600405202764486,0.5600862710162333
56,0.560060812718425,0.5600000030194943
57,0.5600369434640651,0.5600076839883708
58,0.5600352803453794,0.5600003980162097
59,0.5600755653678184,0.5600004348641036
60,0.5600068643223229,0.5601937561191697
61,0.560038786108281,0.5600537983778061
62,0.5600837237832219,0.5600000131844305
63,0.5600190346064114,0.5600303923923612
64,0.56003791539421,0.560007666250557
65,0.5600499931962196,0.5601206307623641
66,0.5600458452940801,0.5600251958482532
67,0.5600485384311779,0.5600003402031349
68,0.5600254042979463,0.5600454644134267
69,0.5600612561190379,0.5600004683067438
70,0.5600317897377806,0.5600256169815608
71,0.5600448795988724,0.5600195553632618
72,0.5600346793516445,0.560076627693713
73,0.5600372476036268,0.5600437439598526
74,0.5600422848145212,0.5600000760799734
75,0.5600408270082533,0.5600567289162129
76,0.5600440436598251,0.5600018088331205
