epoch,loss,val_loss
0,0.4892276508469958,0.4012991377563269
1,0.4008655949512146,0.40051928639691464
2,0.40049780738784074,0.40030033001130233
3,0.4005307718696345,0.4003035761392134
4,0.40033747170664763,0.4002641634985827
5,0.4003032792980119,0.40018885768036727
6,0.40036265313998076,0.40009312607718034
7,0.4002804372749795,0.40043120439742275
8,0.400212198055353,0.40023201338722875
9,0.4002504292547262,0.4004287648127293
10,0.400294139663593,0.40010021230199144
11,0.40020114174107385,0.4000431323923096
12,0.4003456267673838,0.4000440799994297
13,0.40019756971502113,0.40058893143838464
14,0.40011527058056906,0.4000772595138749
15,0.4002504342528417,0.40002605027416527
16,0.4001203993671045,0.4001479059032122
17,0.40020278693855044,0.400005592425173
18,0.40024996138876173,0.4001570554512494
19,0.40002707252623076,0.4000376378122715
20,0.40023734036784336,0.40001862041097896
21,0.4001063619480342,0.40023028706975694
22,0.40010165184261853,0.40023197647580405
23,0.4001737449862457,0.40103221145476187
24,0.4000517743988563,0.4000125052869968
25,0.40023724477253153,0.4000387281732147
26,0.4000159596061761,0.40000416812066253
27,0.4001504717529193,0.40000081798639464
28,0.40014420222277125,0.40020101857805424
29,0.40004801499006626,0.40007032587746266
30,0.37597430163211887,0.3600003427087918
31,0.3600007725700592,0.3600004800815517
32,0.36009775845078734,0.36003896868500823
33,0.36011263638768704,0.3600024038020849
34,0.36007787100017713,0.3600128185034967
35,0.3601011705329094,0.36000030560042146
36,0.360224314762524,0.3600434039452772
37,0.3600018670768681,0.3600000494503817
38,0.36007991039647913,0.36006063413477685
39,0.3600822641488298,0.36000128182819013
40,0.36009865176650596,0.36001921711484397
41,0.3600542359117624,0.36010739303834655
42,0.3600906150086215,0.36008737347599185
43,0.36010631544895644,0.36023173738684744
44,0.36007662327995077,0.36008328622502067
45,0.36003924036666435,0.36005989054427984
46,0.36023001758685635,0.3600123811062911
47,0.3600006317036812,0.36000012779662766
48,0.36007850188941964,0.36004046434737097
49,0.36006440924117344,0.36009232620139847
50,0.36006642170271597,0.3600204638252124
51,0.36006855960424955,0.360053004397179
52,0.3600589984677406,0.36000549920940417
53,0.3600820290891537,0.36000120957455284
54,0.3600878899005274,0.3600180447038062
55,0.360096328278168,0.3600215452918364
56,0.36001717190365684,0.36003584631519564
57,0.36008997206460214,0.3600002095227149
