epoch,loss,val_loss
0,0.7363700934639703,0.7200591215394093
1,0.7201595637203957,0.7201513907366077
2,0.7200339117075246,0.7200103197441353
3,0.7201413492745741,0.7200094055860085
4,0.7201163409835849,0.7200955735216565
5,0.7201759247209891,0.7203283378676905
6,0.720157198984898,0.7200404536848611
7,0.7200558318154523,0.7206569935461778
8,0.7201425976936895,0.7200057376577157
9,0.7201454243821268,0.7200654522998072
10,0.7200189631235335,0.7200016083048494
11,0.7200712166078529,0.7201002302695327
12,0.7200806197657919,0.7200035751564776
13,0.7200947918544242,0.7200040559833732
14,0.7201028618540122,0.7200951753229862
15,0.7201205620784662,0.7200109208730512
16,0.7200252177736989,0.7201037615048456
17,0.720083939022744,0.7200072246099988
18,0.7200419912289462,0.7200125895362753
19,0.7200610089142802,0.7200781769829756
20,0.7200665689958233,0.720335888179018
21,0.7200773452123232,0.7201205932542577
22,0.7202769664792326,0.7202712247504326
23,0.7200168699720761,0.720000609637984
24,0.7200071449185583,0.7200001757730936
25,0.7200143758446876,0.7200640251046431
26,0.7200341076844792,0.7200236057986128
27,0.6925105394677996,0.6800008445781219
28,0.6800074277275188,0.6800009662524085
29,0.6800082729342581,0.6800004388828111
30,0.6800083974127474,0.6800004847393796
31,0.680022939294153,0.6800004268119493
32,0.6800430483645916,0.6800670430899632
33,0.6800576377280941,0.6800307182456558
34,0.6800508615881153,0.680002266919529
35,0.6800274624954644,0.6800065943742962
36,0.6800786251283762,0.6800003614895279
37,0.680030154607525,0.6800277403513523
38,0.6800825579421231,0.6800001872371088
39,0.6800216862750772,0.6800361656603897
40,0.680037458192699,0.6800561558969035
41,0.6800413595352612,0.6800066422130273
42,0.6800778098425586,0.6800003374621599
43,0.6800311800683337,0.6800005357419471
44,0.6800465349906408,0.6800072703679674
45,0.6800337696512563,0.6800410819445
46,0.6800424374085112,0.6802610514947179
47,0.6800577863500226,0.6800002965101731
48,0.6800344294109691,0.6800002266262366
49,0.6800467256729815,0.6801268194459238
50,0.6800318725191103,0.680165078652182
51,0.680036763759619,0.6800040626317497
52,0.680048868881836,0.6800011171127682
53,0.6800634785004134,0.6800014258218813
54,0.6800227845982437,0.6800005228578905
55,0.6800562310974458,0.6800113786412972
56,0.6800386485066042,0.6800008225583288
57,0.6800330713298118,0.6800022572247211
58,0.680065600895082,0.6800002899283769
