epoch,loss,val_loss
0,0.4975783206922136,0.47520103458457136
1,0.4828433507890869,0.47333125918741065
2,0.47971856906664095,0.47606348802863535
3,0.4816099064554378,0.48196056891241795
4,0.48231316342937935,0.48269676275110207
5,0.48091016186056756,0.4801907679315321
6,0.4947358088745319,0.5145584984175674
7,0.5022763350994898,0.4938586327668041
8,0.48853594757873026,0.48874239034993033
9,0.4850226187581917,0.48016090421587687
10,0.4797571437467662,0.49851076482566314
11,0.4701660720465945,0.4506671323296701
12,0.42859249061541715,0.3849038639546214
13,0.39315195527193164,0.39311896239173966
14,0.3869529381287012,0.3757990531967794
15,0.38620434954368754,0.40045564764897607
16,0.392172849803471,0.3978759631671658
17,0.39759582073522437,0.4111843344310581
18,0.41169506888851537,0.4044488858905925
19,0.42586172045804294,0.41358029598253876
20,0.3849345420936855,0.3501782387084141
21,0.3405803101505634,0.34282780464644946
22,0.34499851432297113,0.3457818680532754
23,0.3427592898675019,0.3410721584634866
24,0.33779251403671157,0.32392152488860093
25,0.3401339908210252,0.3424126643865745
26,0.33470874257666094,0.3409631419790922
27,0.3409383847319288,0.3429772800917753
28,0.3453707017356439,0.3359127083108953
29,0.34161099554110375,0.3463995940107112
30,0.3387646711497807,0.32463840259252674
31,0.3336816696737937,0.346490917777203
32,0.3361121436731638,0.3483107242270978
33,0.334979863859731,0.3081905978632863
34,0.34248668309733615,0.3404361742933108
35,0.3419783246502865,0.35205970974057454
36,0.3541027697994768,0.3790100705594622
37,0.3350166375991151,0.29680171959398244
38,0.3274601429724712,0.30659861320029985
39,0.3211409772535245,0.31426948383873493
40,0.30731544659746657,0.3017483774666272
41,0.31313943489491225,0.2947793578289431
42,0.3032028077959155,0.30055405957275355
43,0.3107207167723639,0.30689687609962596
44,0.30938664101380364,0.31157101049040353
45,0.3218033610223483,0.29976811292010985
46,0.31106586037300604,0.30771684646606445
47,0.32326623242649677,0.3190520408428112
48,0.3116104595416827,0.2961814934561529
49,0.30822820776553034,0.30582550769884803
50,0.3081426801110765,0.33547392821079913
51,0.3066675391695421,0.3026030279230704
52,0.3043625556869064,0.2971072886305327
53,0.308021332671921,0.307622372789878
54,0.30505202345556026,0.300940058793078
55,0.30509924227662616,0.28506058756645775
56,0.3027164304883982,0.3278245485031982
57,0.30534661030344623,0.30651914125908125
58,0.3046204846224086,0.2987909787859456
59,0.302474235144971,0.31314453743670106
60,0.30669752884808305,0.3251534346536418
61,0.3083795251800501,0.3023037004789877
62,0.26125527552073247,0.2622400907873624
63,0.24114941870025677,0.23880394169303912
64,0.24238503981438325,0.21764140443790278
65,0.23931537587061416,0.2689046235173481
66,0.2466029010122542,0.24702811478021564
67,0.25242976821046337,0.25570234936712627
68,0.25198180013126714,0.2657731867063751
69,0.24694101765358134,0.23798516454342797
70,0.22943550742584004,0.20638717084953867
71,0.23470374708585112,0.22060903679618774
72,0.20736836310359744,0.18510366446925486
73,0.21482489853381537,0.26379526289903527
74,0.21413793504906234,0.2690505640761019
75,0.21541322823807751,0.22557052358416937
76,0.2145225195478114,0.19466461580841887
77,0.21643732824594714,0.18643151597094942
78,0.21122381093503953,0.18442991823078844
79,0.21932444892662634,0.273195115331219
80,0.20939949405990285,0.21307549342235121
81,0.21414927346072643,0.22719579451662297
82,0.20480414789566714,0.22989838147975522
83,0.20586122435818108,0.22301367565759875
84,0.2137457538989661,0.20551309040283056
85,0.230876922887788,0.25912307836085147
86,0.23764508697178194,0.20755714894742958
87,0.2154031811152295,0.21413088067217947
88,0.2062020169450246,0.25893283684323304
89,0.20917332649612733,0.2156111655419954
90,0.2156085179115029,0.22183295391916938
91,0.2164703429556542,0.2111899935174356
92,0.21545480393929134,0.1874785125134732
93,0.22382053579565428,0.26000367527992285
94,0.23420277447868482,0.24870265249256573
95,0.2563627045497215,0.24688635991292568
96,0.24851677426583677,0.24556232562223684
97,0.23720238365537172,0.24424532295143517
98,0.23828865040699132,0.18320972272417743
99,0.2409915421262467,0.22250558202670825
100,0.24003904636761395,0.21722722312153014
101,0.2543938451165481,0.22585040042048438
102,0.24046432067624468,0.3028190990989999
103,0.2535071453934101,0.2257136483793808
104,0.2535938180213551,0.26174204348792707
105,0.2474108126828726,0.21627500039334233
106,0.2481714122062974,0.24319246916488624
107,0.23399792671251335,0.21070931544897523
108,0.23493331062306969,0.21631297757977502
109,0.24688347816777478,0.26451812569725736
110,0.2419992070838964,0.2159082856564046
111,0.24389466739373744,0.3362186133184766
112,0.24464243741704522,0.23909995358645772
113,0.2462831600259742,0.25475467363219867
114,0.23711302328863748,0.18106606809327203
115,0.22676823913955613,0.1998513808529839
116,0.2336946752092378,0.2233196891548183
117,0.23708938828723922,0.24422545384219865
118,0.23625955588107495,0.23042206892808664
119,0.24203509556426345,0.24216044314102922
120,0.23837175003116468,0.21479422515084468
121,0.23041781876161635,0.2298627066496225
122,0.24185890157381185,0.20839138129621818
123,0.22208452691809477,0.259827382929037
124,0.23121379011029525,0.2332378282405841
125,0.22263354539059943,0.2173355419826237
126,0.2205756183466117,0.21215678166540677
127,0.22473066024559799,0.2261897601906304
128,0.23462710996047317,0.21678918417594537
129,0.2352653779119277,0.29577143052827026
130,0.24924025471039635,0.2345582595199274
131,0.23158315467753346,0.20702220281980332
132,0.23007278138990875,0.2399854824152403
133,0.23247811249535594,0.24022258339572128
134,0.23990668217428596,0.22392521193137715
135,0.2496281824498963,0.25507564497061697
136,0.2424670615501171,0.23118084305345965
137,0.2348747067481542,0.24795844747298923
138,0.24183717500075425,0.25717733814913574
139,0.22613755952390888,0.2182939544090486
140,0.24991345401402948,0.23104405314914597
141,0.2524805810448644,0.275445575926329
142,0.25280377510383284,0.28059756140687653
143,0.2535151766301442,0.24172304843802425
144,0.25639159138127265,0.23644278504842678
145,0.2505394632311417,0.2440444806172223
146,0.24923420207108185,0.24471634938189002
147,0.24402990937829494,0.2258400763449201
148,0.248616589145292,0.2508119778331469
149,0.25309916576139446,0.22443828100318938
150,0.24929726944029856,0.26659977367179527
151,0.23937228229567944,0.2459189098536823
152,0.2417497190059997,0.24616618113651184
153,0.2402945540135531,0.23488998065029618
154,0.24126130020957265,0.27163019728003146
155,0.23901541201804904,0.2587703273534195
156,0.24119335414172174,0.31638364449131323
157,0.2527319980178288,0.26884730380188615
158,0.2564706041740837,0.2613777225929262
159,0.26254533972140787,0.2575957000086391
160,0.2500269954518569,0.22565644370378368
161,0.25436805276941354,0.321460202614273
162,0.25246505917096923,0.2250327039374052
163,0.2493489694545229,0.2570725326144589
164,0.2407066074190281,0.2300108245665333
165,0.2595615987602571,0.2838613678914981
166,0.2465738095193982,0.23411032713387714
167,0.24784593433261012,0.2723292592740697
168,0.23955595405627672,0.21198178630772396
169,0.24211455774817875,0.2750566488876637
170,0.24196439622353325,0.22233742227761222
171,0.2254016820588906,0.24530091978434326
172,0.23769686737950083,0.23421346227618028
173,0.24060483567947574,0.24195330979760254
174,0.24003496548955777,0.21212181181851578
175,0.2334729387604589,0.250002952714036
176,0.24473143383275994,0.2578151603104714
177,0.24785162087341991,0.2517614043397045
178,0.242004689029019,0.2653705980462556
179,0.24371062329499793,0.2509739907505255
180,0.24449056206200961,0.23925457839209766
181,0.23433895212850922,0.22323639773055973
182,0.23467383967388908,0.2524188069531517
183,0.23218555539679395,0.2805806679253837
184,0.2279076037035168,0.2286725028177054
185,0.238054996751565,0.2163058787173405
186,0.22761954821115307,0.21576276063822386
187,0.22237063644884872,0.2665140261301062
188,0.23204913555239562,0.25057028809264725
189,0.22867310173612676,0.21351077944789587
190,0.22772169752036026,0.24906370776123085
191,0.2253042550577079,0.20538557428996543
192,0.22078078242542268,0.212256919668152
193,0.22782018629787826,0.2165438928139084
194,0.22496686389056847,0.19681883838393296
195,0.21727671597102244,0.22639753875554527
196,0.22920223761549752,0.23424634109013273
197,0.21923374891090242,0.16942736421865076
198,0.21773699844618433,0.2425507571478733
199,0.21859049897274083,0.18701944340077822
200,0.21140452878798743,0.22357570595694864
201,0.2138919449680514,0.2471212358225291
202,0.21444960805871566,0.2081567837591589
203,0.20923865564447866,0.20197738096758494
204,0.20727806568766136,0.16660040891325192
205,0.206825328049801,0.18471950970571988
206,0.20849726798297694,0.24242482147657668
207,0.2056150554453401,0.18706391957216115
208,0.21296141822759013,0.24097422262032828
209,0.20239392681132326,0.2285479476127021
210,0.2011981504060346,0.2123993133033859
211,0.21047087885839066,0.1888555435513638
212,0.19987015961837157,0.16381571296261077
213,0.20359471862654002,0.1678640883890285
214,0.19937558718520798,0.14451365440552155
215,0.20601404487514038,0.19247966215606638
216,0.2001694094977253,0.2076753593878541
217,0.2034131268425595,0.25262786346485433
218,0.2124785918166773,0.19983949521307237
219,0.22059716663664106,0.19228917162107048
220,0.24936704495675666,0.2765380147382291
221,0.2394186069754909,0.28890884421699337
222,0.23123792718776806,0.2303240014858006
223,0.2287387214451909,0.2253966669386611
224,0.22176944461462494,0.19385755253050835
225,0.20775642510267903,0.18608235665094727
226,0.21086858047114265,0.24020592132334
227,0.25040588264850927,0.24500666111586836
228,0.2527247935807924,0.25690547279584536
229,0.24265993941870567,0.21758257209142823
230,0.23691871742590415,0.2154969568670231
231,0.22224271774077245,0.23847917283055073
232,0.2213533652410973,0.19417385168415882
233,0.21798931510807323,0.23001385775650796
234,0.20912415519941321,0.21893098927423998
235,0.20534724165335763,0.2262844576138553
236,0.20074383372827184,0.17804061477008334
237,0.20060072885788946,0.1982418439394076
238,0.18743255518203836,0.215101112015636
239,0.19489669354201508,0.21415523739965195
240,0.21799703331304798,0.24713939845271934
241,0.2319290218136614,0.2245679436808955
242,0.2406157000337819,0.22779900196936687
243,0.2513523171122691,0.25780018797901133
244,0.1990924611884513,0.19803394332516028
245,0.2113053101697285,0.17146359994366994
246,0.1939767063845149,0.1952462661271161
247,0.1973679525832876,0.19771534101758076
248,0.1913868751558807,0.22571508622662576
249,0.2044005677271023,0.2020817867934172
250,0.18530826692919047,0.17813693896987431
251,0.1832521642335326,0.16221713010653768
252,0.17591146816364567,0.20329152197491707
253,0.18045808932631371,0.19330951478407815
254,0.18372687472222898,0.19782984417478727
255,0.1960765252097117,0.16770056531812153
256,0.19140656749375637,0.21026561249104922
257,0.18477562069892883,0.15174861649913896
258,0.18626916987465036,0.18484556285810974
259,0.19741694827834733,0.21735027926730027
260,0.2079291652509267,0.2189562395396314
261,0.21170408646758793,0.20648550560632956
262,0.21610595911049288,0.1815581035415815
263,0.20008654580462734,0.18079235987845033
264,0.22562024543125977,0.19654780759235174
265,0.23866561886140877,0.28377621434175765
266,0.28033239429621243,0.2904242638737229
267,0.2766526471003234,0.28135592104309665
268,0.2738748783226296,0.28632045215160407
269,0.26980505083755457,0.2870314296966438
270,0.2732621435407069,0.25220716728346193
271,0.2737898055174715,0.305091718131705
272,0.26898262229225367,0.2607020591925724
273,0.25526740441950346,0.22480594338388435
274,0.2358652621364479,0.23813404280628891
275,0.21385954606762114,0.19274589032635686
276,0.19209825533261005,0.17133827578799085
277,0.20112171674294888,0.261686237213192
278,0.2158627945473425,0.20822981996982928
279,0.20172338074355053,0.23853048612118155
280,0.2589098036146049,0.2754536795113402
281,0.2666198706703247,0.26855440067983893
282,0.28093090936768234,0.3016889244922273
283,0.28675710247028724,0.2923291229974518
284,0.2786043050279132,0.2764811506502433
285,0.27841430070927087,0.27498806616637345
286,0.2675406149774193,0.23905071403471706
287,0.2641828491317453,0.26576627453748325
288,0.25633673845313854,0.2562011700041973
289,0.2561426968265286,0.26558102998468613
290,0.24833182826506986,0.23764474908704208
291,0.24379277989280235,0.2783432597323152
292,0.2320168397670464,0.1961284157036768
293,0.20120467938142744,0.16792490482572028
294,0.20433885604739666,0.20231928791781315
295,0.197062365525813,0.19180422273237147
296,0.17709508273687907,0.17299134460098842
297,0.18260790217664835,0.19247774803967177
298,0.21156865651842305,0.2294272209871908
299,0.20664602798447787,0.18577835995882194
300,0.2247358160056144,0.24160378588860537
301,0.22472394534570872,0.2303324560155157
302,0.26042719492562016,0.2235142265213087
303,0.2584041798050352,0.2313173330855002
304,0.23737733782506926,0.22640755516382513
305,0.18903384148311003,0.16999635584984768
306,0.18126782710500675,0.1701333201811358
307,0.18391013405829357,0.19206107500260763
308,0.19673757301009684,0.22739725423990376
309,0.21974346914393506,0.20727984945607786
310,0.2013418074604795,0.21031629140069594
311,0.20837309345113839,0.195476870092549
312,0.19717138539179505,0.18596395539589655
313,0.18752211205261626,0.21690422172045573
314,0.21280950184962194,0.15303259644436817
315,0.20425151497889177,0.23857591993085564
316,0.24597519183989236,0.23354381362742171
317,0.22191827223480368,0.1992056858027165
318,0.37213882275396964,0.35408289204838794
319,0.2926576077234182,0.22435778901524786
320,0.23174687372363978,0.22850670487244537
321,0.22078244768089061,0.22638616686126417
322,0.2188290563271082,0.19189030987067815
323,0.2219060352855057,0.19664528918817387
324,0.2256411940479775,0.24028643256314672
325,0.22518996045506412,0.2392013972233875
326,0.2260120758850924,0.24616690799412647
327,0.22995906165712257,0.23528471082714836
328,0.22751050176407644,0.21487254419175958
329,0.23089287280917073,0.23914216644910904
330,0.23736831100823116,0.21577442560076038
331,0.2363273135488562,0.2609719970389681
332,0.23571574440400442,0.23644395102501303
333,0.23962432015433704,0.22007225258071927
334,0.24334098884852243,0.2567507662332261
335,0.24479048090089886,0.2399679390956789
336,0.24160755244944934,0.22242887969531377
337,0.23898511693132124,0.20932106299073544
338,0.23868910624109524,0.22173212808220732
339,0.23815679361072897,0.23668099055180003
340,0.23838076770926017,0.23576414942838075
341,0.2353131336818417,0.23580217003725645
342,0.23703950757475448,0.23571200025874428
343,0.23544342205632296,0.2264838092397696
344,0.2369180347343938,0.2121704084449731
345,0.24137309669040508,0.2571071731130572
346,0.24348964440144952,0.24148672081934952
347,0.24209497024933752,0.23990039954026926
348,0.2369133440182627,0.22778876918607482
349,0.23813553474801746,0.2429920301530193
350,0.2427983394949984,0.2311337509246155
351,0.24179291828357286,0.22968313788023792
352,0.23392722629804052,0.23436571861899005
353,0.23077769004243961,0.2295584343162283
354,0.23815106317770776,0.24653882419105863
355,0.24200761825251904,0.2355709951627767
356,0.24008531593460383,0.2589236136166332
357,0.24306099138277068,0.2306984430972097
358,0.23460046631441392,0.255917964516765
359,0.23890688781551211,0.24829299795076504
360,0.24349148573280813,0.2500240708983051
361,0.2412706365207847,0.23883843888428186
362,0.24192770285974796,0.21732108947569437
363,0.24151656601288682,0.2475710588915988
364,0.23777554088754593,0.27046894971568314
365,0.2381484310647504,0.23590520180199848
366,0.238808407932162,0.2234473404295543
367,0.23913942230902643,0.23961216422811527
368,0.24072204493851163,0.2827389910635867
369,0.24277658578011396,0.2559066885071659
370,0.23789806459978927,0.25745467630132657
371,0.24024788253277754,0.26297810486391704
372,0.23534377462106099,0.22254856573742576
373,0.23217836561634408,0.23856361085867747
374,0.2348864382808451,0.2439420699517319
375,0.2370487085526423,0.2226758276483245
376,0.2330539438775103,0.2112333071565396
377,0.22907681469085983,0.2403178143844504
378,0.22056731155173506,0.22294288964312153
379,0.21604489733735688,0.23868538993988594
380,0.2207026305415327,0.22499139001479695
381,0.2132572252467406,0.21581063031038422
382,0.21764908958259252,0.222397640105775
383,0.2145138139828288,0.19134152150695535
384,0.21859560098597486,0.21279147231085746
385,0.21317839801454658,0.2282639987591506
386,0.21676972934944902,0.20779945173837844
387,0.21465169943815426,0.2295094941170933
388,0.21241210144553022,0.23126579497224029
389,0.21177866629021372,0.20323532046289436
390,0.20901559561109237,0.20120428988388275
391,0.20486241441258818,0.1908983094534638
392,0.2090997472942305,0.2107747815676269
393,0.2129112146645665,0.2062654934418656
394,0.21093891777569432,0.2086442986568202
395,0.21186406531626936,0.19249167144056847
396,0.20880682702012973,0.2293186129855607
397,0.22857124165141934,0.2133927511569454
398,0.2110912314384245,0.19504188650135867
399,0.21338938249407816,0.19237180393784392
400,0.20522600890780754,0.21310984497377763
401,0.24832765625609313,0.25907707859709894
402,0.19914227246856384,0.19153508525840268
403,0.19096920766932568,0.18823373277837052
404,0.19625600708351792,0.17729206980241574
405,0.19424103486170474,0.18490225540750507
406,0.18818891936058613,0.19668136111672874
407,0.20078725821142487,0.18607466898115302
408,0.19653400721504174,0.19831331738928712
409,0.19377356230186596,0.1980652261558627
410,0.19437431514835815,0.16329242493307697
411,0.19029628165704524,0.1985520786346697
412,0.18997585719184365,0.17740134347384284
413,0.19125111693377683,0.21452400163239033
414,0.20559282120678118,0.37334641079446307
415,0.20734851824058542,0.1675314724155296
416,0.1912681672325413,0.2161939566273662
417,0.19580451513023925,0.1918512590150957
418,0.34541071198576445,0.35760104211480853
419,0.34985815598260317,0.3320758429998706
420,0.3340155667095207,0.34836736161923465
421,0.33050906591361956,0.31377389548468765
422,0.3294277493838218,0.31421871924439004
423,0.3288609079831691,0.3292201784985489
424,0.32772421618525366,0.3451046116305674
425,0.3267713479751391,0.32125105484655403
426,0.3249127992016492,0.3325976791753096
427,0.32641465349899856,0.30817957574143606
428,0.32565210405304684,0.3352927522309312
429,0.3292068504304099,0.32854406698776856
430,0.32928048731614534,0.31426933074229535
431,0.33053999539133644,0.33287832708931125
432,0.32888135410624564,0.31075232300155065
433,0.32408586910383713,0.32203855109910895
434,0.3261517863496959,0.32159842564048363
435,0.32653205743353303,0.3410164167121089
436,0.339290731806484,0.3237168449555
437,0.33793006407870974,0.32869559611040505
438,0.33462191458412704,0.32861841541910597
439,0.33270994550567135,0.3326450214817189
440,0.33480530498837163,0.3377385353616651
441,0.3296858355271711,0.3149718499386688
442,0.3290229794786299,0.3291618454436993
443,0.33216925595310615,0.35841655267126077
444,0.33356106401778296,0.3118263161095389
445,0.32792762201055703,0.326702361148446
446,0.33112338971528554,0.3119359206640904
447,0.32822358913665967,0.31384837598406196
448,0.32666911268301063,0.3265466716651112
449,0.3296810591025196,0.35242158703850424
450,0.3323353781902475,0.3228950004749731
451,0.3277579317625472,0.3359309493866957
452,0.3302858443356591,0.324457528164787
453,0.33790949571600337,0.3429862732869865
454,0.3306679128168868,0.3178032792059271
455,0.3306445353168597,0.3178492082344838
456,0.33079228923022985,0.3690600752443776
457,0.3279214715771526,0.3282071363606882
458,0.32717282585710217,0.33035634846002804
459,0.3285341777855917,0.31247357031918116
460,0.3231634386211896,0.3291127331500506
461,0.32909742204116,0.3035206189749208
462,0.3328949835082834,0.29851156463491557
463,0.32035509022690944,0.3467278938320528
464,0.3214608579277515,0.33202518855084856
465,0.32390744771787505,0.3622736708477852
466,0.32139792475249884,0.3114974807648763
467,0.3191655899783532,0.31915078599184193
468,0.32176823538241145,0.31415919513597973
469,0.3252924076192755,0.33609283132371337
470,0.3245704137415195,0.30872551764498274
471,0.32064360139177167,0.30907497677683154
472,0.33324569684443617,0.32671473769279197
473,0.3297614830794384,0.31956844613113156
474,0.3265022766337192,0.31478852942428837
475,0.32588555807586284,0.31823743312995023
476,0.3255249885819834,0.3177253347968823
477,0.3333107624009097,0.31202376505174195
478,0.3175092525273156,0.31567108780991615
479,0.4136292774668687,0.4783750443272927
480,0.47902314596361306,0.4737794769796432
481,0.48675799139553877,0.4818654364913049
482,0.47900922348300773,0.4786213518445896
483,0.4503843515658016,0.4062270585686234
484,0.42585459641450113,0.4189908959859769
485,0.43167934998022833,0.43713741822641067
486,0.42188854047877966,0.39641819462869
487,0.41052078481337084,0.40646186632928283
488,0.40790616156006926,0.41076316585989375
489,0.41993969937770054,0.4228888481541175
490,0.4199370768807047,0.4536527964223814
491,0.38318355966081996,0.34845464022200184
492,0.3555091516770202,0.33871034452418247
493,0.3575479176471098,0.34331008678321806
494,0.35924826552860256,0.36828571354965806
495,0.3582670225130261,0.3502051532268524
496,0.356469059355551,0.3553473036267945
497,0.35455414942734903,0.36138851098287234
498,0.3571150958108558,0.35273303508468495
499,0.355960633704145,0.352073981403241
500,0.35390229716455585,0.3466291334797286
