epoch,loss,val_loss
0,0.5595590633948644,0.5578125633796056
1,0.5570720392200682,0.5568007930517197
2,0.5566960756778717,0.5565042415459951
3,0.5565827336708704,0.5566472878058751
4,0.5565403229792912,0.5564905052582423
5,0.5565062205791473,0.5563928192059199
6,0.5564744731320275,0.5564010500907898
7,0.5564519358740913,0.5565592234929403
8,0.5564368138710658,0.5566278484265009
9,0.5564254438877105,0.5565382454395295
10,0.5564166085190243,0.5563459788958232
11,0.5564069356653425,0.5566275250514349
12,0.5563993117411932,0.5564324272871017
13,0.5563850877152549,0.5562991449038188
14,0.5563890979554919,0.5563392693599065
15,0.5563736890024609,0.5563365180889766
16,0.5563765599197812,0.5563323553005854
17,0.5563737760782241,0.5563196176290512
18,0.5563663947317335,0.5565312951008479
19,0.5563610540893342,0.5563095329205195
20,0.556361191034317,0.55635234216849
21,0.5563628077374564,0.5563681525786718
22,0.556353782137235,0.5570974600712458
23,0.5563557364145915,0.5563313983281454
24,0.5563501796987321,0.5564185505310695
25,0.5563420866065555,0.5563027588526408
26,0.5563477079735862,0.5563483850955964
27,0.5563479635053211,0.556466081182162
28,0.5563429783185323,0.5564086966514588
29,0.5563358574310938,0.5563173882961273
30,0.5563387302954992,0.5563190230528514
31,0.5563371718327205,0.556313424428304
32,0.5563379272619883,0.5565287020603815
33,0.5563389890591304,0.5562773350079855
34,0.5563339932362239,0.5562677165269851
35,0.5563280602958467,0.5564608141581218
36,0.5563277160724004,0.556266932050387
37,0.5563306076924006,0.5562729424238205
38,0.5563308432632023,0.5563250166972479
39,0.5563281819025675,0.5562821716070175
40,0.5563296303219265,0.5562745450337728
41,0.5563299828502867,0.5562806795438131
42,0.5563300755421321,0.5563571790854136
43,0.5563305850161446,0.5562745106220245
44,0.5563273692793317,0.5563331791162491
45,0.556325493282742,0.5567301416397095
46,0.5563284725877974,0.5564618228276571
47,0.5563277107609643,0.5564277119636536
48,0.5563265203899808,0.5563006174564361
49,0.5563275696436564,0.5562706863085429
50,0.556328969028261,0.5562698375384013
51,0.5563226431475745,0.5562846091190974
52,0.5563249240318934,0.5562438111702601
53,0.5563215042087767,0.5564819993575414
54,0.556324348807335,0.556911036213239
55,0.5563218506044811,0.5562682575384775
56,0.5563228828112284,0.5562967009544373
57,0.5563258862627877,0.5563082956075668
58,0.5563214397827784,0.5562854502995809
59,0.556321688744757,0.556250602165858
60,0.5563177865876092,0.5564874735673269
61,0.5563195512162314,0.5562889774640402
62,0.5563164841996299,0.5563380228281021
63,0.5563172830475701,0.5562632301251094
64,0.5563180098268721,0.5563253913720448
65,0.5563212677902646,0.5563704133033752
66,0.5563231954309675,0.5562708011070887
67,0.5563166075812446,0.5565497332413991
68,0.5563207372162077,0.5562870713472367
69,0.5563154000706143,0.5562794697682063
70,0.556323064578904,0.5562933788299561
71,0.5563140099313524,0.5562913436889648
72,0.556319293750657,0.5562882398764293
