epoch,loss,val_loss
0,0.3384358080625534,0.33601127211252846
1,0.3357720163199637,0.3363187897801399
2,0.33536585662762325,0.3350689902106921
3,0.3351542190578249,0.33491231765349705
4,0.3350314381586181,0.3350081570148468
5,0.3349566168189049,0.33480585835377374
6,0.33489763285716373,0.33490046246846517
7,0.3348550390203794,0.3349385813275973
8,0.33485126975509855,0.33528395074605943
9,0.334821080909835,0.33506056914726895
10,0.33479427587985994,0.33463028504451114
11,0.3347714749044842,0.3347186037898064
12,0.3347588543030951,0.33482642604907353
13,0.33474320479896336,0.33459169600407285
14,0.3347312033971151,0.33475286666552223
15,0.3347245241602262,0.3346034151315689
16,0.33472413866387474,0.3350037016868591
17,0.334702500058545,0.33465180520216625
18,0.3346993943982654,0.33473148129383723
19,0.3346980488167869,0.3347525411049525
20,0.33468577572372227,0.3345307108561198
21,0.334674362288581,0.3347613961497943
22,0.33466682110892404,0.3346422974268595
23,0.3346425020893415,0.3345014130671819
24,0.33464572330315906,0.33460690679152805
25,0.3346337911751535,0.3346372359991074
26,0.33462681814697054,0.33454038921991985
27,0.33462705579068924,0.3345509778261185
28,0.3346258742676841,0.3346597998142242
29,0.33461031666729185,0.33449538991848626
30,0.334624653895696,0.3347752186457316
31,0.3346211507651541,0.3346076722542445
32,0.33461613256401485,0.3345381731788317
33,0.3346125315891372,0.3351676277120908
34,0.33461615604162215,0.3345186660885811
35,0.3346143042643865,0.3345297191341718
36,0.33461399653222823,0.3345034648974737
37,0.3346004019909435,0.33455099294583
38,0.33460706284973357,0.334501078526179
39,0.33460508040587106,0.33450083527962365
40,0.33459617259105046,0.3345936576326688
41,0.33460106666882833,0.3347201538681984
42,0.33460052094194626,0.33467391395568846
43,0.3345975788566801,0.33508206925789513
44,0.3345930173463292,0.33513338206211724
45,0.3345936885012521,0.3344817289710045
46,0.33459226030773587,0.334522216796875
47,0.33459834490882023,0.3345600210428238
48,0.3345920309027036,0.33460520444313685
49,0.33458985527356466,0.33453534946839014
50,0.33458949263890586,0.3345341098308563
51,0.33458155413468676,0.3346569321155548
52,0.33459424524174797,0.3345677092075348
53,0.3345830791062779,0.3344795315861702
54,0.3345881853567229,0.33453874707221987
55,0.334575268096394,0.3353795095483462
56,0.33456690095530617,0.33454079121351243
57,0.33458512396944895,0.3349512687722842
58,0.3345654728147719,0.3348013018568357
59,0.3345737053288354,0.33486600369215014
60,0.3345767282181316,0.33447111533085505
61,0.33456733327441746,0.3345436387062073
62,0.3345675142142508,0.33447962562243144
63,0.3345698850154877,0.33455879493554436
64,0.3345599903795454,0.3344864158630371
65,0.334562688059277,0.33489013495047887
66,0.3345716345310211,0.33448591162761054
67,0.3345593366622925,0.33448608219623566
68,0.33456467605961693,0.33448460886875786
69,0.33455885479185316,0.33445126096407574
70,0.33456575828790663,0.334477899312973
71,0.3345561569664213,0.3344980454444885
72,0.3345617885986964,0.33452174894014997
73,0.3345654589202669,0.3346453060309092
74,0.33455254246791205,0.33456865266958874
75,0.3345577960809072,0.33447243803739546
76,0.3345581065416336,0.334467339972655
77,0.3345543718205558,0.3347776129245758
78,0.3345556751158502,0.3344635351498922
79,0.33455813409222496,0.33446261209249495
80,0.33455381315284305,0.3346576663653056
81,0.33455440937810477,0.33452055698633193
82,0.33454383472601573,0.334455942094326
83,0.33455096238189275,0.33445413515965144
84,0.33455055630207065,0.3345254612763723
85,0.33455324190192753,0.3347070156931877
86,0.3345499053531223,0.3345888645648956
87,0.334540006213718,0.33454574791590375
88,0.3345495310491986,0.33482066039244335
89,0.334538914932145,0.33452067025502524
