epoch,loss,val_loss
0,0.5836256027925671,1.11321971906248
1,0.4685634053128911,0.8083964999794035
2,0.4047776110998289,0.7625534649967223
3,0.3825046482283299,0.556545451167942
4,0.3520830960020306,0.40972884507604346
5,0.36430063468264784,0.517551784714063
6,0.3773335400294131,0.3546291853106299
7,0.4238157545722376,0.4393305997977885
8,0.35980178756038034,0.34367035999316575
9,0.33390045635343535,0.337611720659012
10,0.30137113651891395,0.3137468895477842
11,0.3214968905204863,0.328875846872034
12,0.31476831131094085,0.43163545914860657
13,0.4709770382623973,0.5340334100778713
14,37.09786518129307,33.10827686250672
15,5.985881083124266,7.167849646058193
16,1.478174510668582,0.9354035258293152
17,0.9274391712635521,0.924223683601202
18,0.9233310708380121,0.9221211808134419
19,0.9215227616584207,0.9208783913952435
20,0.9204761810659423,0.9200534845969474
21,0.9197703682062194,0.9194843082926994
22,0.9192462441489453,0.9190607114817745
23,0.9187365634234872,0.918493402327678
24,0.9183638867900128,0.9180884825628858
25,0.9178876283131246,0.9177391693111538
26,0.91755352597537,0.9174455501312433
27,0.917248844161747,0.9172201043413591
28,0.9170960579800793,0.9170057690420816
29,0.9169258214826659,0.916888552580693
30,0.9168264044551399,0.9167201659938161
31,0.9166805910782552,0.9166137608446816
32,0.9165731649699174,0.9165007610653721
33,0.9164226383674802,0.9163315737432287
34,0.9162875263709721,0.9161022714404172
35,0.9161399595850096,0.9159202665783638
36,0.9158892988219974,0.9157190154227175
37,0.9156984154164322,0.9155557622281156
38,0.9155331005261639,0.9153299373249675
39,0.9153100233378373,0.9152218493842339
40,0.9152040289142939,0.9150913623414298
41,0.9151662494253925,0.9151358669118363
42,0.9152002043611421,0.9152316998603732
43,0.9153060535276969,0.9152111332545909
44,0.9152104120085559,0.9149593941925108
45,0.9152131134600151,0.9152042546937632
46,0.9139024556621792,0.9131258901699569
47,0.9127503462194457,0.9124608458012573
48,0.9122379673278238,0.9120539075644442
49,0.9118792250400453,0.9117350841677466
50,0.9116106530812782,0.9114633452060611
51,0.9114043414592743,0.9113023454366729
52,0.9112421874924908,0.9111414380775865
53,0.9110869033130136,0.9110005211460498
54,0.9109564702811204,0.9108801430972048
55,0.9108310553032583,0.9107402174971825
56,0.91071013296683,0.9106335314207299
57,0.9105882794838253,0.9105231059614078
58,0.9104865158167411,0.9104327277619709
59,0.9103812779497913,0.9103176482888156
60,0.9102653356518332,0.9102054413898971
61,0.910176200190867,0.9101260188938112
62,0.91008051619755,0.9100211001643839
63,0.9099863302989268,0.9099301760510881
64,0.9099052844085093,0.9098474623620972
65,0.9098353496217352,0.9097807864810146
66,0.9097558534520818,0.9097226749556934
67,0.9096945561761931,0.9096500120421712
68,0.9096455130520769,0.909630455018938
69,0.9096048155168849,0.9095683382001034
70,0.909545404235209,0.9095195335473201
71,0.9095160794539714,0.9095383099345273
72,0.9094952016364871,0.9094826232555301
73,0.9094594355643265,0.9094282758328341
74,0.9094339301736336,0.9094072956909505
75,0.9094092439948105,0.9094517524390258
76,0.9094173589090663,0.9093819764233375
77,0.9093838446722255,0.9093827129334442
78,0.9093803096943953,0.9093517818192179
79,0.9093525698335152,0.9093486340933068
80,0.9093536091601755,0.9093421986398771
81,0.9093561881170498,0.9093376633732818
82,0.9093382708200319,0.90932003010151
83,0.9093477582837654,0.9093460676281951
84,0.9093441660479298,0.9093478021695632
85,0.9093358716157478,0.9093869030475616
86,0.9093348733552797,0.9093294783618099
87,0.9093190797670619,0.9093167890411938
88,0.9093321446828017,0.9093097203461699
89,0.9093294779616078,0.9093463781268097
90,0.9093345206553541,0.9093106220396914
91,0.9093081547519354,0.909303906352021
92,0.9093028856074716,0.9092874660972476
93,0.9093524607147757,0.9093638138715611
94,0.9092944144733309,0.909337180529454
95,0.9093025627098684,0.9093197946862657
96,0.9092969178684115,0.9092961078466371
97,0.9093035452478514,0.9092666915682859
98,0.9092935800083041,0.9092858567718387
99,0.9093161915230938,0.9092642121998838
100,0.9092972574271555,0.9092908319114714
101,0.9092866292619329,0.9093352711015894
102,0.9092856927180853,0.9092433163824007
103,0.9092837241221601,0.9092494977075
104,0.9092641411803839,0.9092329733593519
105,0.9092780084121884,0.9092493098835612
106,0.9092637680646941,0.9093058603678563
107,0.9092683604383093,0.9092285690843597
108,0.9092552896559708,0.909263846255088
109,0.9092594098857069,0.9092634472736093
110,0.9092410805187826,0.9092517430468123
111,0.9092514925585018,0.9092619800290396
112,0.9092603842104514,0.9092417860678
113,0.9092479899642975,0.9092072705889858
114,0.9092598911814802,0.9093129577100739
115,0.9092423894743281,0.9092224441295447
116,0.9092333544427016,0.9093720418538234
117,0.9092476053500739,0.9092610589293546
118,0.9093079937724616,0.9093196040900179
119,0.9092391304613099,0.9091947607753813
120,0.9092092884807136,0.9091816008553024
121,0.9092430678878244,0.9095960072306699
122,0.9092739888532894,0.9093837659488353
123,0.9093038721347418,0.9093188678109368
124,0.9092708753319237,0.909183856359748
125,0.9092265383934411,0.9091830237429271
126,0.9092051006677583,0.9091832526894503
127,0.9092101478201198,0.9091635660607685
128,0.9092225160185746,0.9092760836893274
129,0.9092125531256668,0.9091729526371919
130,0.909213364358962,0.9093553675699604
131,0.909266094288488,0.9091856223206187
132,0.9091963530994775,0.9091608718384144
133,0.9092157602779508,0.9092702461305515
134,0.9091946499084863,0.9091565008311309
135,0.9091836833578395,0.9091572701468948
136,0.9091818933411846,0.9092985112075658
137,0.9092523033224692,0.9091984886069631
138,0.909175768377274,0.9091389588145322
139,0.9091682680479185,0.909139789583147
140,0.9091823671277114,0.9091607142788495
141,0.9092056073072389,0.9091499348481497
142,0.9093035342186455,0.9092524449030558
143,0.909356670586143,0.9092762354732484
144,0.9091883756982999,0.9091886425203131
145,0.9092063523652986,0.9091310637403828
146,0.90917573669764,0.9092156880123671
147,0.909176766872406,0.9091616998347201
148,0.9091883292348366,0.9091975859893385
149,0.9092180712485877,0.9092008660930072
150,0.9091886605803422,0.9092157238213591
151,0.9091645298511024,0.9091774444709453
152,0.9091593048234624,0.9091463172158529
153,0.9091609134448795,0.9092733561992645
154,0.9092744713223825,0.9091874839261521
155,0.9092008107759821,0.9091674736303876
156,0.9091804623603821,0.9091342950976172
157,0.9092288315296173,0.9092672582744628
158,0.9091511530669656,0.909135452998701
159,0.9091812203249593,0.9091431845066159
160,0.9091525033233673,0.9091524872206902
161,0.909155680204001,0.9091334876626037
162,0.9091809368509007,0.9091785707215007
163,0.9091796473724636,0.9091211672901183
164,0.9091842718950407,0.9091465461623761
165,0.9091671508128248,0.9091511313305345
166,0.9092395920453109,0.9091211818447409
167,0.9091599710344329,0.9091311824876208
168,0.909148904516941,0.909143845240275
169,0.9091479921434807,0.9091461254644764
170,0.9091471086336872,0.9091146417366441
171,0.9091505804869133,0.9091179144474887
172,0.9091395705234347,0.90917399710463
173,0.9091494900035108,0.9092887238014576
174,0.9091592588293271,0.9091971588227176
