epoch,loss,val_loss
0,0.558677320546574,0.5571510235865911
1,0.5571285234292348,0.5569397557576498
2,0.5569165296422111,0.5567218632300694
3,0.5568052521811592,0.5566333614587784
4,0.5567301105128394,0.5566503403186798
5,0.5567013603448868,0.5565530754725139
6,0.5566631433698866,0.5565722218751907
7,0.556632757557763,0.5565753393570582
8,0.556622281604343,0.5565292003154755
9,0.5566013198693593,0.5565453246831894
10,0.5565823924144109,0.5565132639010747
11,0.5565701257785162,0.5565586568514506
12,0.5565496264961031,0.5564428526163101
13,0.5565468453963598,0.5564671905040741
14,0.5565472995837529,0.5568528741200764
15,0.5565383314026726,0.5564437733491262
16,0.5565335801972283,0.5564788440465928
17,0.5565176060862012,0.5566259128252665
18,0.5565160999165641,0.5564752359390259
19,0.5565082855489519,0.5564722862641016
20,0.5564966597292158,0.5564241816600164
21,0.5564892685413361,0.5564988197088242
22,0.5564883009592692,0.556413763721784
23,0.5564848829110464,0.5566486690044403
24,0.5564765464729733,0.5564417942762375
25,0.556475248614947,0.5564937984546026
26,0.556470061328676,0.5564447521368663
27,0.5564678712950812,0.5564251714547476
28,0.5564637602965037,0.5565669242938359
29,0.5564679494036568,0.556528167406718
30,0.5564545692470338,0.556404493689537
31,0.5564526306920582,0.5565623539686203
32,0.5564547768963708,0.5566681283712387
33,0.5564526147047678,0.5563840732177099
34,0.5564517658286624,0.5563771797815958
35,0.5564432415299946,0.5564135822455089
36,0.5564492652018865,0.556386804540952
37,0.5564446627696356,0.5564003680149714
38,0.5564415966007444,0.5564358455340067
39,0.5564403048356374,0.5565421663125356
40,0.556441564904319,0.5564091028372447
41,0.5564352363348007,0.5563848541180293
42,0.5564349230130513,0.5563918321530025
43,0.5564331050184038,0.5565445680618286
44,0.5564331367015839,0.5564033868312835
45,0.5564305586152607,0.556720261613528
46,0.5564289869864781,0.5565409260988236
47,0.5564270119799508,0.5564379178285599
48,0.5564255771107144,0.5564486155509949
49,0.5564328082005183,0.5563694771528244
50,0.5564224704901377,0.5563613636096318
51,0.5564219494528241,0.5563834725220999
52,0.5564252902534272,0.5563619714577993
53,0.5564229410886764,0.5565285621086756
54,0.5564255128436618,0.5564905420144399
55,0.5564151395294401,0.5564007819890976
56,0.55641990658972,0.5564354688326518
57,0.5564145841598511,0.5563652141094207
58,0.5564156637721591,0.5563622980117798
59,0.55641454035706,0.5563364336887996
60,0.5564138194190131,0.5563460551897684
61,0.556417831659317,0.5564149345954259
62,0.5564168720642726,0.556411505262057
63,0.5564103607071771,0.556371927579244
64,0.5564195925527149,0.5563945148785909
65,0.5564101025395923,0.5563647807836533
66,0.5564152185784446,0.556351630806923
67,0.5564076232512792,0.5565453238487243
68,0.5564089897208744,0.556598345955213
69,0.5564096672402488,0.5563674832979838
70,0.5564066718551848,0.5563652267058691
71,0.5564086668888728,0.5563641604979833
72,0.5564080563121372,0.5564625333547593
73,0.5564080168008805,0.5563612290620804
74,0.5564070331520504,0.556357773900032
75,0.5564098481999503,0.5565581970214843
76,0.5564090547429191,0.5563380595445633
77,0.5564000659783681,0.5564472489754358
78,0.556404751446512,0.5563812683025996
79,0.5564071024258932,0.5563925630251566
