epoch,loss,val_loss
0,0.6695574770768483,0.6688810540835063
1,0.6679333162307739,0.6676723576386769
2,0.6612828145556979,0.5568074586391449
3,0.5568181602160136,0.5567274760007859
4,0.5567616888682048,0.5566747599045435
5,0.556718658261829,0.5566022902727127
6,0.5566801148123212,0.5565686087210973
7,0.5566560032632616,0.5565481380621592
8,0.5566211960315705,0.5565699575742086
9,0.556605429953999,0.5565616258382797
10,0.5565925184223387,0.5566361726522445
11,0.5565795132186677,0.5564840138753255
12,0.5565680122375488,0.5565478584766388
13,0.5565619164705277,0.5565702539285023
14,0.5565619502597385,0.5565297560691833
15,0.5565484647485945,0.5565885612567266
16,0.5565415318806967,0.5565429020722708
17,0.5565412669314278,0.5566915665864944
18,0.5565337869061364,0.556466396133105
19,0.5565322382715013,0.5565625398556392
20,0.5565267642471525,0.5565895148913066
21,0.5565283930831485,0.556494776805242
22,0.5565190631548563,0.5564633943239847
23,0.5565199355151919,0.5564651477734248
24,0.5565136351320479,0.5564611950318019
25,0.5565080638594098,0.5566438734928767
26,0.556510919517941,0.5565636425018311
27,0.5565042508973016,0.5564631667931874
28,0.5565057864586512,0.5564349312782287
29,0.5565020730627908,0.5565890698830287
30,0.5564913690222634,0.5564341125488281
31,0.5565004810094833,0.557052787343661
32,0.5564988114171558,0.5566715544462204
33,0.5564964159727096,0.5565382043520609
34,0.5565019187000063,0.5564280228217443
35,0.5564938524961471,0.5564232786893845
36,0.5564904276265038,0.5564793353478114
37,0.5564950506687164,0.5564363127946854
38,0.5564884389373991,0.5566056625445683
39,0.5564880181153615,0.5566838264862697
40,0.5564893142912123,0.5564092546304067
41,0.5564863461123573,0.556507792989413
42,0.5564878905746672,0.5565684732993443
43,0.5564795333544413,0.5566039232015609
44,0.5564867187605964,0.5564726887543996
45,0.5564847356743283,0.5564055242935817
46,0.5564786562124888,0.5564248952070872
47,0.5564836116896735,0.5564071938594183
48,0.5564764130380419,0.5564031773408254
49,0.5564707524908914,0.5564355736970902
50,0.556467683116595,0.5564699245691299
51,0.5564674390554428,0.5565189488728841
52,0.5564601209296121,0.5563979643583298
53,0.5564638833999633,0.5565459339221318
54,0.5564520060486263,0.5563878329197566
55,0.5564522718323601,0.5565814309517543
56,0.5564560877614552,0.5564592482646307
57,0.556452911681599,0.556441899061203
58,0.5564512118498485,0.5563705746730169
59,0.5564521290726132,0.5564252989689509
60,0.5564536398384307,0.5564999197721481
61,0.5564492401944267,0.5563645039002101
62,0.5564515436093013,0.5563808182477951
63,0.5564482320679559,0.5564061079422633
64,0.5564450669686,0.5563661949237187
65,0.5564474103318321,0.5565899875958761
66,0.5564421938127941,0.5564312802950541
67,0.556449396636751,0.5564192065000534
68,0.5564385842614704,0.5564159127871195
69,0.5564345197810067,0.5563674920002619
70,0.5564376111957762,0.556505598783493
71,0.5564402950737212,0.5563889294465383
72,0.5564374999337727,0.5563818831443786
73,0.5564326599968804,0.5563722492853801
74,0.5564407744540109,0.5564583691755931
75,0.5564314209090339,0.5564200962781907
76,0.556438519861963,0.556352573911349
77,0.55642999361621,0.5564194707473119
78,0.5564331594705582,0.5563703233003616
79,0.5564310870832867,0.5564804147084554
80,0.5564277232090632,0.5563718063036601
81,0.556432139714559,0.5564841506083806
82,0.5564287513362037,0.5564349750677745
83,0.5564356220563252,0.5563667794863383
84,0.5564323023822573,0.5563438411951065
85,0.5564249486525853,0.5565035558541616
86,0.556436874879731,0.5564448308547337
87,0.5564251116514206,0.5563823077281316
88,0.5564228701988856,0.5563507483800252
89,0.5564272856314977,0.5563620947599411
90,0.5564289619260364,0.5563737343947093
91,0.5564262810283237,0.55644850786527
92,0.5564264694982105,0.5564166167974472
93,0.5564244275755352,0.5564073385000229
94,0.5564249779648252,0.5563801377216975
95,0.5564279336796867,0.5564145517746607
96,0.5564228609535429,0.5566968032519023
97,0.556421822309494,0.5563936348756154
98,0.556425300889545,0.5565578315655391
99,0.5564287415213055,0.5564690297842025
100,0.5564222765763601,0.556356551527977
101,0.5564193092054791,0.5563619605302811
102,0.5564227222469118,0.5563486270507176
103,0.556420668416553,0.5564917069673538
104,0.5564215978648928,0.5563746086756388
