epoch,loss,val_loss
0,0.44830440355009504,0.4469579792221387
1,0.4465026844408777,0.44632852949698765
2,0.4462296254634857,0.44591062025229133
3,0.44606984563006297,0.4458605010708173
4,0.4459647597670555,0.44652997664610544
5,0.44589245376984277,0.4459038370847702
6,0.44580582393540275,0.44596934189399084
7,0.4457516268822882,0.4455931473771731
8,0.4457029956380526,0.4456392095883687
9,0.44567613912291,0.44583179624875385
10,0.4456452055374781,0.445530102789402
11,0.4456320610443751,0.44556378505627314
12,0.44562078503105373,0.44548711703221006
13,0.4456102906134394,0.44559638488292697
14,0.4456101769142681,0.44569279621044794
15,0.44559322148561475,0.44561641387144724
16,0.445583137260543,0.4455469782948494
17,0.4455845816400316,0.4455273783604304
18,0.4455755179921786,0.44560053904851277
19,0.445571475731002,0.4458612137238185
20,0.44556185523006653,0.44545864208539326
21,0.4455674553712209,0.4456855789422989
22,0.44555824844704733,0.4455116489728292
23,0.4455556621948878,0.44554140375057855
24,0.445547934114933,0.44566933606068293
25,0.4455463569031821,0.44557211782534917
26,0.4455479206641515,0.44551273755232496
27,0.4455467554794417,0.44565848221381504
28,0.44553949158059225,0.4454667875568072
29,0.44554518388377296,0.4454368337392807
30,0.4455320378144582,0.4454544613758723
31,0.4455315138498942,0.44545527293284737
32,0.4455302795635329,0.4459377291798592
33,0.4455368666715092,0.4457578738729159
34,0.4455313222143385,0.44558198873202004
35,0.44553053193622166,0.44552403036753335
36,0.44552713716030123,0.4455171062151591
37,0.44552078401380113,0.4459612786571185
38,0.44552528050210743,0.44544580127795536
39,0.4455205447541343,0.44583366304636
40,0.4455200862950749,0.44543017707268395
41,0.44552428348196876,0.445524524529775
42,0.44552043479681014,0.4454449245731036
43,0.44551932366689045,0.44547977526982624
44,0.44551469259791904,0.4455400807460149
45,0.4455170481999715,0.44548757390181226
46,0.4455118537743886,0.44543560421466827
47,0.4455056960450278,0.4454492346048355
48,0.4455065972010295,0.44550157769521076
49,0.445514574540986,0.44549444937705995
50,0.44550913880268733,0.4457963009874026
51,0.4455075198279487,0.44539935247103374
52,0.44550877072413764,0.44570371355613075
53,0.44550524693727495,0.44550013516346615
54,0.4455077451202604,0.4455968733827273
55,0.44550457454389997,0.446087918817997
56,0.4455024720099237,0.4454326533873876
57,0.4455093555914031,0.44547786913315457
58,0.44550144827365873,0.4455141338706017
59,0.4455038298832046,0.4454980033437411
60,0.4454967599643601,0.4454131165146828
61,0.4454989021420479,0.44555160385370257
62,0.44549897244241504,0.4454901395837466
63,0.4455019345415963,0.4454027776122093
64,0.4454885503252347,0.44540329951047897
65,0.44550160111983617,0.4456242627898852
66,0.4454955340822538,0.4454368293086688
67,0.445495014667511,0.44560761280854544
68,0.4454881532523367,0.4453916879097621
69,0.4454973532425033,0.4455022570490837
70,0.44549260308345157,0.4454455850124359
71,0.44549844543801415,0.4456328498125076
72,0.4454934369987912,0.4453881126244863
73,0.44549444419145584,0.4456611779530843
74,0.4454944613311026,0.4453801404237747
75,0.4454889076881938,0.44544548728068667
76,0.44548887985944746,0.4454836508631706
77,0.4454965280426873,0.4454135932524999
78,0.445490305615796,0.445448943734169
79,0.4454884789056248,0.445396927634875
80,0.445479437523418,0.4454468962351481
81,0.44548113724920485,0.4454910549918811
82,0.44548906198475097,0.4457798717220624
83,0.44548678282234405,0.4453982794880867
84,0.445483404258887,0.44539511754115424
85,0.44547567511267133,0.4456126754482587
86,0.44546895470221837,0.445521888256073
87,0.4454837374687195,0.44540948524077734
88,0.44548056975338196,0.4454262215892474
89,0.4454796335167355,0.4454062065084775
90,0.44548585197660656,0.4454399966398875
91,0.445484609524409,0.4455100754102071
92,0.44547317753897775,0.4454002317587535
93,0.44547573420736525,0.445508339703083
94,0.44548042617903816,0.44576587835947673
