epoch,loss,val_loss
0,0.7790039569007026,0.7781381213665008
1,0.7782478132380379,0.7781611291567484
2,0.7781874273485607,0.7780868901411693
3,0.7781494429508845,0.7780840616623561
4,0.7781387665404214,0.7782582036654154
5,0.7781215045849482,0.7781390164295833
6,0.778112061964141,0.7781453509728113
7,0.7781047425667444,0.7780756445328395
8,0.7780993079609341,0.778086156686147
9,0.778089527964592,0.7780824883381525
10,0.778084353433715,0.778067889491717
11,0.7780802090830273,0.7780606701771419
12,0.7780772545602587,0.778032361070315
13,0.7780770226187176,0.7780519841512045
14,0.7780723561048508,0.77804753947258
15,0.7780749883386824,0.778032713452975
16,0.7780714554389317,0.7780547047058741
17,0.7780700564914279,0.7780319835742314
18,0.778069284995397,0.7780898532867432
19,0.778063628660308,0.7782458775838216
20,0.7780661992364459,0.7780390673875809
21,0.778062784049246,0.77804432284832
22,0.7780625644922257,0.7780926827192306
23,0.7780641572740343,0.778090533653895
24,0.7780607132646773,0.7780702490409215
25,0.7780607200993432,0.7780362777312597
26,0.7780624326599969,0.7780389590660731
27,0.778063617070516,0.7780283588171005
28,0.7780607046551175,0.7780317241748174
29,0.7780611910025279,0.7780398637453715
30,0.7780619510809581,0.7780426914691925
31,0.7780593026479086,0.7780538672208785
32,0.7780602604018317,0.7780274834235509
33,0.7780588448577457,0.7781080671151479
34,0.7780572657982509,0.7780352213780085
35,0.7780584471623103,0.7780384022394816
36,0.7780567167070177,0.7780285154183706
37,0.7780565871795019,0.7781813702980678
38,0.778058461798562,0.7780413534641266
39,0.7780579382181168,0.7780286165475845
40,0.7780561439593633,0.7781086424191793
41,0.7780563507344987,0.7780707832972209
42,0.7780562955538431,0.7780400210618973
43,0.7780562136040794,0.7780453149080276
44,0.7780554504262076,0.7780352452198664
45,0.7780581789149178,0.7781628060738246
46,0.7780548955731922,0.7780269488096238
47,0.7780565165413751,0.7780251506169638
48,0.7780561181439294,0.7780242063601812
49,0.7780579335424636,0.7780425676504771
50,0.778056489917967,0.7780310411055883
51,0.7780550344255236,0.7780279939572017
52,0.7780588041146597,0.7780642035007477
53,0.7780556599961387,0.7780286544561386
54,0.7780564012792376,0.7780243705511093
55,0.7780552360481686,0.7780266586542129
56,0.7780548287232717,0.7780433908303579
57,0.778054986304707,0.7780309132337571
58,0.7780537532435523,0.7780271023511887
59,0.7780548097160127,0.7781746209462483
60,0.7780536321136686,0.7780355829000473
61,0.7780560533603033,0.7780698117017746
62,0.778053011390898,0.778049545208613
63,0.778053242749638,0.7780214455525081
64,0.7780539736085468,0.7780396574338277
65,0.7780540170272191,0.7780365344285965
66,0.7780558164517085,0.778079603155454
67,0.7780551435550054,0.7781631384690603
68,0.7780536806848314,0.778027980128924
69,0.7780549374288983,0.7780467915932338
70,0.7780548450946808,0.7780222052733103
71,0.7780525282224019,0.7780280580917994
72,0.778053700990147,0.7780227777560552
73,0.778053594496515,0.7780846520264943
74,0.7780546740823322,0.7780311412811279
75,0.7780545930332607,0.7780338865915934
76,0.7780538810624017,0.7780306961536407
77,0.7780534295108583,0.7780239295164744
78,0.7780537889798482,0.778058264096578
79,0.7780532422992918,0.7780922995408376
80,0.7780537533495161,0.7780205378929774
81,0.7780521931515799,0.7780285900433859
82,0.7780550000005299,0.778153105576833
83,0.7780529018508063,0.7780437541802724
84,0.7780525877343284,0.7780448391040167
85,0.7780522483587266,0.7780475540558497
86,0.7780520469745,0.7780422526995341
87,0.778054663432969,0.7781154838005702
88,0.7780547839932972,0.7780765961011251
89,0.7780547280576494,0.7780202333132425
90,0.778054314242469,0.7780254693428675
91,0.7780504462586509,0.7780734194517136
92,0.7780537001424366,0.7781033733288447
93,0.7780541527006362,0.7780526866912841
94,0.7780537917481528,0.7780548641681672
95,0.7780547139512168,0.7780204365253448
96,0.778054649564955,0.7780562095244725
97,0.7780536811351776,0.7780328704118729
98,0.7780528909497791,0.7780429597298304
99,0.7780542041195764,0.7781518071889877
100,0.7780550634993447,0.7780597212314606
101,0.7780524482594596,0.778029756506284
102,0.7780544196632173,0.7780246197382609
103,0.7780543087455961,0.7780338884989421
104,0.7780532106293573,0.7780193023284276
105,0.7780517629384994,0.7780743684768677
106,0.7780525233348211,0.7780220779180527
107,0.7780538523329629,0.7780257604122162
108,0.778052235921224,0.7780191390117009
109,0.7780513963566886,0.7780631291468938
110,0.7780532063775593,0.7780326159000397
111,0.778051213701566,0.7780375926494598
112,0.778052378071679,0.77806028008461
113,0.7780531252887514,0.7780612695614497
114,0.7780500422186322,0.7780179666678111
115,0.7780533312161764,0.7780625966787338
116,0.778050721168518,0.7780328159332275
117,0.7780511598454581,0.7780259419282277
118,0.7780523973835839,0.778022910118103
119,0.7780520869758394,0.778054684360822
120,0.7780528309742609,0.7780277768373489
121,0.778054697420862,0.7780588595867157
122,0.7780519049829907,0.77809849913915
123,0.7780518608887991,0.7780294955571493
124,0.7780523988273409,0.7780779264370601
125,0.7780530147155126,0.7780177057981491
126,0.7780541642506917,0.7780348717768987
127,0.7780561438004175,0.7780440258185068
128,0.778052711698744,0.7780488313039143
129,0.7780512450536092,0.7780267921686173
130,0.7780504946973589,0.778033706108729
131,0.7780545208321678,0.7780953132708868
132,0.7780529256661733,0.778019668618838
133,0.7780494079987208,0.7780318661530813
134,0.7780529007911682,0.7780199898084005
135,0.7780516908566157,0.7780185333490371
136,0.7780549635092417,0.7780493288040161
137,0.7780503322548337,0.778028959830602
138,0.7780524343517091,0.7780655094782511
139,0.7780541798671087,0.7780277161200841
140,0.7780540953874588,0.778136833747228
141,0.7780533014668358,0.7780314731995265
142,0.7780532191594441,0.7780669263203939
143,0.7780530901749929,0.7780717997550964
144,0.7780523102680842,0.7782526833613713
145,0.7780526128477521,0.778039463241895
