epoch,loss,val_loss
0,0.4976674072068629,0.4423093900193263
1,0.32304029439906295,0.2877244878762733
2,0.2878729131958597,0.2669524778003917
3,0.279669915918735,0.2699015772231497
4,0.28063829527724926,0.27605059376743296
5,0.27716357356386245,0.2702532658249212
6,0.2787724795689384,0.2915728486174021
7,0.27884976136937345,0.28618444810528537
8,0.27733293493047917,0.26352778896508133
9,0.2768757308753516,0.27395361306603516
10,0.2764282176335207,0.3003329771955325
11,0.2779952072686821,0.2702841541434533
12,0.27654891968179074,0.28247627971236144
13,0.2760817777690551,0.2709730853419524
14,0.2778109742270364,0.2729991270291158
15,0.27771796105955965,0.2770615802580809
16,0.277489458558987,0.27277426344296457
17,0.27905296926812423,0.2865437801446938
18,0.2790209758785174,0.2849604659151083
19,0.2796453069134938,0.28667149027478667
20,0.2777609874705394,0.26654802222901597
21,0.27950205990345217,0.2912629603469459
22,0.27881212889241447,0.28268090526166234
23,0.28050765129114935,0.2662002653947035
24,0.2768778486417426,0.2604315984640678
25,0.27662592400327696,0.2655202117231157
26,0.275731073446375,0.2565316519936409
27,0.27232618423535215,0.2689416071600964
28,0.27206923137959527,0.2561169498738291
29,0.2686175110759594,0.26197366056312704
30,0.2645504106883052,0.2571528224276027
31,0.25948905455674814,0.24168464633283437
32,0.2480474164883932,0.32146463076080234
33,0.2507569093325789,0.17885382921832998
34,0.2601526418478609,0.21180673504349476
35,0.2607136682642279,0.24724491365973
36,0.24904680520510844,0.23694361861121432
37,0.25195988440652006,0.22991131886610247
38,0.2710451206760563,0.20583914041470824
39,0.26422888251115456,0.2464583437324827
40,0.2720940090638337,0.19125814594491555
41,0.21599877334600262,0.2344928253789501
42,0.25895878516907117,0.2954297850311818
43,0.27369017089553793,0.19919077574675004
44,0.22248471248522103,0.22525728759201
45,0.23690549168494152,0.21559582846443148
46,0.20354405440408005,0.21534192079900244
47,0.1990013873880152,0.19784231175761444
48,0.19261444340332495,0.17667261539487847
49,0.17423233274725364,0.1644046803919745
50,0.17139230886275908,0.17438704052159
51,0.1835867399998528,0.14878845686170017
52,0.16948413250563715,0.1484871901154808
53,0.16958130374431515,0.16670730407293116
54,0.16669683913000113,0.15141372334299683
55,0.16392597977558168,0.15064508597225265
56,0.16359351035222422,0.16648949809608088
57,0.16275172514186276,0.14432633547935655
58,0.18877975009471248,0.1753697294291692
59,0.18249856325103533,0.19107415357307023
60,0.20721934128513902,0.20055156895424037
61,0.20859184231254174,0.19559693013809604
62,0.20298128450413147,0.19911501169301393
63,0.19997872523754667,0.20124748166701897
64,0.19091434196961984,0.19696843019850546
65,0.20480231921061026,0.19146222302755106
66,0.20360758138285148,0.19097511041290086
67,0.1932987849577796,0.1861123030058079
68,0.1952074273788423,0.2074247619797327
69,0.18964321348514912,0.2030696454250223
70,0.1736329642651652,0.1660690288401578
71,0.18827766424016631,0.17202956237303757
72,0.19281309018667647,0.1719626283570701
73,0.18811356510111005,0.1893282487613828
74,0.18730816962100488,0.18528306217137527
75,0.16992306045955233,0.15718482286704816
76,0.1766608228162826,0.16087123551628787
77,0.18068550891870017,0.15461961628335913
78,0.16539002570500366,0.15538465109595612
79,0.17621980528470227,0.17709181170732338
80,0.18754474347452815,0.19000623311729617
81,0.1788272430525244,0.1767022654426262
82,0.1854447242233446,0.17071168162140146
83,0.17612092723671774,0.1601006691400732
84,0.18749024641451786,0.19195030518450198
85,0.18434052543343307,0.15903424856533196
86,0.17361086232362508,0.1625123123086185
87,0.1801104239338011,0.1827354716606867
88,0.18155984825091517,0.17794138452964203
89,0.19533082926340156,0.185028116500484
90,0.1802697100962182,0.1553014720709268
91,0.16750404993303306,0.1377480985281048
92,0.15674777112131696,0.149978283922651
93,0.15558941245043248,0.1290675908302932
94,0.1527857281524148,0.15580870492711651
95,0.15279271032473293,0.1644870398833514
96,0.1549688545529178,0.14871512123195504
97,0.1529439322537093,0.13751607069206354
98,0.14843031469049503,0.1569624600232566
99,0.14968263005630505,0.14253364432080431
100,0.14587916345227422,0.13502318029566113
101,0.1551934355188361,0.14441326894440112
102,0.15526158050943414,0.1368511647457334
103,0.15975577366337765,0.1502995597076242
104,0.1564484807230932,0.14503727652078127
105,0.17513853900307555,0.17027099260158493
106,0.16910671924439977,0.15328813494702034
107,0.16518779594997007,0.17031818264543963
108,0.17933546391139038,0.15375973007491422
109,0.1824607137706969,0.16716319280287548
110,0.1876817649726967,0.16869596636643375
111,0.18612121346237376,0.16516259760389654
112,0.18946715048831209,0.1673906756336865
113,0.18164906443489656,0.17427726324408982
114,0.20910923192508704,0.20822067784760315
115,0.2195669572660215,0.21428171526534906
116,0.20796788254196497,0.2070707780794699
117,0.20367518053043357,0.1980529566992615
118,0.19991843565833195,0.21321343530848658
119,0.19740820944523982,0.1816225185180619
120,0.18958035219994615,0.1758317755231602
121,0.18528543999664682,0.16758646798491575
122,0.17919820949160833,0.19924889628179462
123,0.1890303936598299,0.17508592835453016
124,0.1870151425840809,0.1562538139721483
125,0.1858538049247095,0.189762910557586
126,0.17591366106815773,0.1681563203424723
127,0.17400529848827753,0.1646180217972347
128,0.17250657143045942,0.17783055504646517
129,0.18072942828981756,0.17615311195815567
130,0.1805716681810882,0.19052443170537817
131,0.1881677788362396,0.14151808441241195
132,0.17638490112830965,0.1697368456620273
133,0.17994525580643844,0.17690771236254352
134,0.17879364901394534,0.1774242993592249
135,0.17865584405054083,0.13759016391231293
136,0.17110939374606643,0.13298753957775483
137,0.16218814569964612,0.16227757137960663
138,0.17951696968560604,0.17740350252278722
139,0.18880738878102185,0.19648297150398017
140,0.1870664092626354,0.16746953123725727
141,0.16813563340432267,0.18446537953803718
142,0.17937026907196993,0.17001281852704764
143,0.17642977743076266,0.15547238313271955
144,0.17058861639508732,0.1656997141104255
145,0.17603670298051033,0.17563228235434247
146,0.18477169315728117,0.1741022736390045
147,0.17256824520108602,0.1516027058091767
148,0.17196821414226526,0.1627429783017966
149,0.17707169723150443,0.15505490497370997
150,0.16316304745389712,0.15286476938514718
151,0.16608912017557315,0.13880713775886913
152,0.16523536948488654,0.15124117490583963
153,0.16645473638494268,0.15123130243335037
154,0.16962940770807602,0.1527603240464629
155,0.16852795489854197,0.1622042529593129
156,0.16175348288696512,0.1485217821339428
157,0.15895210014129754,0.16044378013554764
158,0.15434566696433186,0.14404158066393202
159,0.1620045518927616,0.1792685004360581
160,0.15817020891653336,0.13767064136769455
161,0.1700675789031198,0.16250065503232575
162,0.16263171863422288,0.12911974011473992
163,0.1644487859423252,0.15095836409977173
164,0.16988631576788818,0.19278750468924677
165,0.20171125273140456,0.1796702110999402
166,0.20594381175941234,0.19746706942330505
167,0.19095542146455202,0.17030508659133461
168,0.21192483381450988,0.2035155323034172
169,0.20667136031045638,0.21688887671494234
170,0.21217473808696882,0.21046923397037912
171,0.2109951127031214,0.20419590580009003
172,0.21640243633591336,0.2007135392468051
173,0.22387723648567215,0.19220499711266786
174,0.21896887509774168,0.20256028343097815
175,0.2172188111085048,0.2090894378909036
176,0.21219354994398198,0.20986998606917343
177,0.2050710746629225,0.1809131616706879
178,0.19263746054340497,0.17879950410451526
179,0.18889539868379232,0.20990512861484256
180,0.2232611726542966,0.23535944784886453
181,0.2634081303703489,0.29378017332383705
182,0.32001893868963655,0.31239772534235066
183,0.3252453735296587,0.3202614598127274
184,0.34467936869713667,0.35436086780833503
185,0.3373259946023874,0.30118878933828436
186,0.3354262913688361,0.35742801536608787
187,0.3624100386738491,0.33750686155811904
188,0.34413832306766434,0.3536656874278069
189,0.3548589544572097,0.3325110044019162
190,0.3456432588631101,0.33287124614936014
191,0.3607230312209591,0.3448039167118769
192,0.37257162038329317,0.3738908625577198
193,0.39242102935898293,0.38991824916389445
194,0.39188603058254556,0.373379272894461
195,0.39824928060543835,0.3623137005875967
196,0.3632852151524648,0.352073703079038
197,0.3560019122351638,0.3299009523929277
198,0.3468958440902617,0.3395620197758671
199,0.324882345916845,0.2892905451230469
200,0.29697137131535406,0.27908635962473505
201,0.2842333286260967,0.28981872646187923
202,0.29429107007859134,0.29289086347948895
203,0.294349198941711,0.2940386289010083
204,0.2943582918891628,0.2955242119614709
205,0.2879812457770992,0.30006362557024463
206,0.28471512654669484,0.2758474694889731
207,0.2810313123359596,0.30068819785591844
208,0.2896130508105692,0.24609726308471094
209,0.2706240090229112,0.2681993256955251
210,0.2738829380195078,0.3108674616757584
211,0.31032442404113836,0.300174155036125
212,0.30762312213500276,0.2623581795893543
213,0.36767228037190497,0.3971782586048603
214,0.40001948732581494,0.39153523594503564
215,0.39176509050343683,0.39603617340205455
216,0.3946240978230468,0.3941841441639439
217,0.3955492544785035,0.38711082756470977
218,0.39277883271296754,0.3932531714101004
219,0.39904342906727036,0.39238838934840364
220,0.3977477254988767,0.3844897855807395
221,0.3949864020077489,0.3810644691442921
222,0.3931592583680172,0.3869098082897824
223,0.38953054171977186,0.3784739164347003
224,0.3876640680219957,0.38813820793100806
225,0.3125768507106768,0.2727108054400844
226,0.3095802420003114,0.2640375317061518
227,0.2513560345523161,0.219399798320061
228,0.2125459673394672,0.1827395164376821
229,0.23846145483961192,0.1892667398255527
230,0.2112802682583145,0.20706106535032912
231,0.2238022014856625,0.21964092507946326
232,0.23274336933636303,0.20193474646128973
233,0.30676183807219953,0.24254030717985472
234,0.2711818681491481,0.1860235377070581
235,0.1855503195155564,0.16000094927623806
236,0.2034515915893382,0.27556776410665146
237,0.2923950958099243,0.3141291583831583
238,0.35182526794145164,0.44541370745412917
239,0.3509130181671621,0.26976540291928125
240,0.2739779623247701,0.2504639733350093
241,0.2714197513840502,0.257385068662942
242,0.2716382182627511,0.262002564670589
243,0.2680157408046665,0.25300856847059217
244,0.2595348966668089,0.2500752618737271
245,0.2353561160693749,0.23373477082376257
246,0.23407757915765215,0.2561509460331653
247,0.1938089866868203,0.1756759151175848
248,0.1852911563576747,0.1774639285804775
249,0.18777205156172821,0.17163250726456578
250,0.18538114584511142,0.18599632097180066
251,0.18503232335476422,0.154630645922259
252,0.17143659167188563,0.1497630540580645
253,0.16413949712144554,0.1405519597468005
254,0.15389171012157532,0.12456671715942902
255,0.15245153202568654,0.1509204156038148
256,0.15766562296866513,0.18347619603246765
257,0.17219683639198136,0.12617991690653085
258,0.15714469816300083,0.13165886226410026
259,0.20062218076759,0.19355768802827292
260,0.21661323243923622,0.24438913553252223
261,0.22464766528150193,0.178593353887254
262,0.21859590444352933,0.20432757389854825
263,0.2421408258885551,0.27125036323689294
264,0.1987801193236541,0.1611339909425617
265,0.16995829270423365,0.14921248001435475
266,0.15918371418089844,0.16986371235980896
267,0.15153966928191714,0.13483727113657237
268,0.1556134976005201,0.15396468600580002
269,0.1455635861504832,0.16417667310192444
270,0.15398372993994655,0.15226084510557844
271,0.1506766947605211,0.13336892250777257
272,0.14901171434965965,0.1235252874695665
273,0.16127585457731858,0.13815238403529534
274,0.17141475913534648,0.18129045108374017
275,0.1665839060836787,0.15367326660675434
276,0.17109915162559697,0.15366626517591878
277,0.16340417669619248,0.15624320543909692
278,0.16959595526930235,0.17078358122878023
279,0.1767915484873508,0.17128132989468461
280,0.17818400797376735,0.17813527588910044
281,0.18381288051128006,0.1650816688898706
282,0.17346032002301,0.179617178399004
283,0.17601811458722794,0.15993266726110586
284,0.17477963182976763,0.17022869040447816
285,0.1704366069892533,0.16875612036010065
286,0.15437740438861594,0.16676741045660248
287,0.15482827899358673,0.15313741199170683
288,0.16096569782941697,0.14659236669419554
289,0.1701320633769417,0.1779382194529098
290,0.18241999074041224,0.172667754380469
291,0.1933754414164896,0.17658124437490713
292,0.19478340603238206,0.17616169683979666
293,0.2014549552225131,0.19232903196138768
294,0.23556176770487436,0.2748552917684855
295,0.2114082525183765,0.20833515363163033
296,0.26698740323881703,0.1765319280574115
297,0.2960167411741636,0.5061751394521291
298,0.41424667223202316,0.34619801496937325
299,0.27860973553480006,0.27627745977718465
300,0.3640444424924992,0.39113924743581957
301,0.4001293852984953,0.383026863222478
302,0.2925013577859339,0.35816214880804076
303,0.2796043801524813,0.2400310317602761
304,0.24060690895116643,0.2926232259590647
305,0.27384045223792713,0.24841974956034066
306,0.2523511270459315,0.2501874574900447
307,0.24429553234763293,0.22585291432976626
308,0.22669778591256032,0.2142963663940012
309,0.2142776656833241,0.2138375243517991
310,0.23259800730393923,0.23698840758612943
311,0.25379236607407457,0.23847959895783677
312,0.2523051513086041,0.26017908558599945
313,0.24990414424812057,0.2532778595002415
314,0.2416539608513574,0.23078285851376093
315,0.22590237675164584,0.21549291975210086
316,0.21617100560207,0.20279943578047957
317,0.21352769637866628,0.20419391645277213
318,0.21357077373873243,0.19903884070343056
319,0.2166183418255028,0.1927565292720377
320,0.2117750046489905,0.21367102962920845
321,0.20993920928053708,0.1927060432073457
322,0.1874453189392821,0.16268573839153977
323,0.17064040188817045,0.1845829269311724
324,0.17830505854397224,0.16021774341831918
325,0.14870858255377095,0.12380248451392437
326,0.14166816745439562,0.14075891772060015
327,0.13891020109108967,0.1376056834414831
328,0.13862151087666627,0.13890439871357207
329,0.14589393319632168,0.1294486754409975
330,0.1470058381742387,0.13641265935633884
331,0.13636037832897027,0.13601501266693353
332,0.13535840698690105,0.10904933837305117
333,0.13551843135928612,0.13853975010179256
334,0.13668764855644053,0.11897101840616142
335,0.1414031008239075,0.14897109327017535
336,0.13967093086247448,0.13120007255119903
337,0.14198744002344896,0.14727960994643888
338,0.13928613882419394,0.16609801940577648
339,0.14416125435844435,0.14671638039970245
340,0.14767501905584354,0.1231115610495101
341,0.15547242521452273,0.14748290131006025
342,0.14330432879581176,0.11271286560622831
343,0.13954010354079086,0.12665034162253747
344,0.14653851368350446,0.15802787094462334
345,0.15628655883875056,0.14608127728938478
346,0.1563354146848019,0.16249811477711407
347,0.15576167834446944,0.1601610314901631
348,0.1590831453551809,0.12663637792324497
349,0.1576767595167204,0.14739833560085644
350,0.1540509124545215,0.15106236883299387
351,0.15492743043731555,0.1413357280623787
352,0.1526398013641922,0.15818096679806806
353,0.1564639792997566,0.15555001644225788
354,0.15764328027315574,0.1645888403384355
355,0.15576195610378435,0.15439375357616267
356,0.14946234851085347,0.16219633822506846
357,0.15482274522845318,0.13822213814738118
358,0.14684565757528795,0.14337686384633028
359,0.15189068549699647,0.14854389789234015
360,0.15249497109980847,0.13845234073015703
361,0.14846269554011912,0.13344527631152092
362,0.155142848420921,0.15127430104522907
363,0.15394763776762568,0.14796051689984832
364,0.1501070296793007,0.1177898593857244
365,0.14982035679457853,0.16058496751392748
366,0.14802851137206305,0.14856926685943897
367,0.15074131578755817,0.13051799846705825
368,0.14745369542232029,0.12575235759230619
369,0.15165084868884257,0.14862860603875874
370,0.15735393151151741,0.13287091789962022
371,0.15878623759178662,0.1528696572439804
372,0.15803903218111198,0.16128674624465097
373,0.1669867511054246,0.13457378419380506
374,0.1577187244794529,0.146312796606683
375,0.1698746243096572,0.17851533539538836
376,0.17880691323963235,0.1593444263388834
377,0.1780372613025389,0.1648843504748302
378,0.1730623409074483,0.1390291185927217
379,0.17626947960894618,0.1862072338201317
380,0.1855549771753285,0.15532392706942577
381,0.18401313056532528,0.19000806540419973
382,0.1773454418914427,0.19887949667707847
383,0.19154849148887076,0.17119212629876288
384,0.1987148800475584,0.1959886502441312
385,0.2024681371650856,0.1979595641246774
386,0.19834846586847993,0.20445350351511513
387,0.2009531679429752,0.18637947031181223
388,0.20386636772568079,0.17736019151827617
389,0.20564736797510863,0.20502807689409186
390,0.20272105709135865,0.20401704064830956
391,0.20736824393009928,0.16942991519351366
392,0.207683510607104,0.1678746272564321
393,0.20659503752918984,0.20056827160902171
394,0.20630586346547256,0.1900229229375007
395,0.2099099378105256,0.2187817082570417
396,0.21473873635713725,0.21755164472532776
397,0.2188622184378133,0.18847231481100424
398,0.21308692733796716,0.20807010839358636
399,0.208015987379633,0.2017201209638724
400,0.2082399920261412,0.19708333572332007
401,0.20847588524616079,0.22661659371678847
402,0.21016145802384095,0.22587298219366375
403,0.20908397139073182,0.21280209810774403
404,0.20374355398959595,0.21285078099899338
405,0.19863715070524246,0.20990613386917192
406,0.19393095537554844,0.18779640835132042
407,0.19640572138244003,0.19133578116392955
408,0.18470939726317473,0.19891627841090537
409,0.17918111370194903,0.15734424145359
410,0.17413029178464,0.20129361705188334
411,0.1702888252062975,0.14979858851756686
412,0.15885303003953588,0.14929980139904456
413,0.15543693433805786,0.16090031073331254
414,0.1516363193080414,0.14642128432947546
415,0.1478233433412828,0.15506697838879754
416,0.14823682269184374,0.12938412370738805
417,0.15483358334168326,0.15246641736202673
418,0.1550681732469697,0.1447797447974761
419,0.15685871198737592,0.17335754784015941
420,0.16005513208916036,0.13451802994019602
421,0.1613032670290447,0.18939236074758561
422,0.16786211338923204,0.16531736010327536
423,0.1615708706836351,0.1344641793552493
424,0.16105638200147235,0.16594275771749764
425,0.17991047684219572,0.1582225953309592
426,0.1708870489415739,0.18954717524391987
427,0.16771168073264955,0.14399527024782874
428,0.16894388318157272,0.18886382077780567
429,0.16820890466877228,0.11067060396884963
430,0.16692438182995928,0.18053972695720746
431,0.17194562392224302,0.16776878817576465
432,0.17581472125611275,0.1658040256347486
433,0.16956085284010136,0.16998067513917967
434,0.17811605186940577,0.19338818524102322
435,0.17605700436904967,0.16391025079959598
436,0.17873327264650238,0.18247992485544107
437,0.18401166688713483,0.1783191494988119
438,0.1779737854249674,0.16602671044876396
439,0.17871530864050714,0.16040563166431557
440,0.16523384540270958,0.16181688936425725
441,0.17588996445182994,0.18044907596666254
442,0.18332767110464093,0.17647781657524836
443,0.17574020511537097,0.1664370102966499
444,0.1731874264025087,0.15868004439255134
445,0.17859458346203197,0.20684686183494372
446,0.18672374503506575,0.19080847385735988
447,0.18140697344135437,0.1488963108802847
448,0.17621180087065486,0.1586292838467782
449,0.1762127055166911,0.18018621526543724
450,0.179834967074965,0.148392701574389
451,0.1698739669405765,0.14857340908011865
452,0.1783347751876657,0.2105686618778054
453,0.172296885022218,0.13590670969195223
454,0.16996512568896535,0.14946272535988303
455,0.1708166144424386,0.1653553132399832
456,0.17448170826113443,0.14515519009212702
457,0.17606341847486262,0.18457379514186825
458,0.18008389821450552,0.16854958435624764
459,0.18566586430355297,0.16988513537131958
460,0.18033520129917144,0.17393443254272045
461,0.1807140570381482,0.16876386440776753
462,0.17714144345268523,0.1609811528562436
463,0.17547927196141336,0.1531874178172318
464,0.18580187657912126,0.1844564803422029
465,0.17868158702937673,0.1760104089516116
466,0.18139973834300155,0.14578288833445296
467,0.18567596890742155,0.20517468017383214
468,0.17973075824692022,0.18096390578046817
469,0.17715571390642368,0.16713092280952116
470,0.18150891258930854,0.18641109389932004
471,0.1897984767814366,0.17114765556575995
472,0.18651522647699803,0.18533902324657564
473,0.183851612942089,0.17718469236115567
474,0.18045527646966797,0.15727934635275279
475,0.17525777956537955,0.1816607594175834
476,0.17683162592393192,0.15696383925685048
477,0.17486502662348785,0.15383656409970164
478,0.17934255341621186,0.16421278384238458
479,0.17762065905513907,0.16634103110768597
480,0.17332046789179048,0.15841436029592376
481,0.16768530252470887,0.15029770873686402
482,0.16386743194406467,0.14386621409451583
483,0.169564469941885,0.1674254907284533
484,0.18120706873872072,0.15530562264858372
485,0.17225690858007622,0.17351151457764905
486,0.1749712859270714,0.17947261130916134
487,0.1750449628186665,0.18195599778000165
488,0.17847137926541584,0.1734709909966779
489,0.17837404602582307,0.16255560160795074
490,0.1844294393350116,0.20017636806038658
491,0.17573848491709074,0.1810807256875537
492,0.1854080011616286,0.1567449731826299
493,0.1792347515412003,0.1779221249419504
494,0.19164497506103104,0.18339980522356475
495,0.1834740386880618,0.18408825765125944
496,0.1684376852686783,0.1605454795213608
497,0.18341454158755566,0.17036476499262806
498,0.1780150013418795,0.1906857995946332
499,0.1710127061419338,0.14368392381475692
500,0.17869843420288484,0.16834721532374597
