epoch,loss,val_loss
0,0.5685719211069081,0.49749281521454536
1,0.4881122405644509,0.473632690970335
2,0.46814496833100333,0.4683555518575345
3,0.46563820274855444,0.46545912116306737
4,0.4633468566797942,0.4596100294870375
5,0.4622775887708076,0.4626002462772654
6,0.46187418645577394,0.45854961603807415
7,0.4612799697608543,0.4614913238322744
8,0.4608173124474273,0.45598550804340054
9,0.4602624424535623,0.45589150025510056
10,0.46052937981507797,0.4580346866052323
11,0.4596993741128233,0.4582138877038731
12,0.4590542994922786,0.4584752979166413
13,0.4590073941205386,0.4559065880856665
14,0.45865996347798454,0.4547353481869338
15,0.4579792686993833,0.45381719913312507
16,0.4577100283986001,0.4531818553624072
17,0.4571392620034558,0.45437281190237183
18,0.45677405287973205,0.45218462155586514
19,0.456340462709065,0.4531496213348726
20,0.45532434019114704,0.45690235336041507
21,0.4558518088942437,0.452155689664324
22,0.4559478460549354,0.5784557072108872
23,0.455489573178528,0.4549926485796818
24,0.4561214852538273,0.4519449783502704
25,0.4563402761999753,0.4544653073376209
26,0.4571752695678424,0.45389403355672703
27,0.45684894767878437,0.45409532610420666
28,0.4566382760162636,0.4567190214616926
29,0.4566468741055772,0.4552610706528898
30,0.45698145881378716,0.45427744572760126
31,0.45711090941253524,0.4526130583889583
32,0.4571128316742597,0.4525702158706708
33,0.4566892144725836,0.4525622505292792
34,0.4559007921249414,0.4538872894096065
35,0.45548521550156,0.453800354923355
36,0.4552050253049768,0.4518774991246229
37,0.4547131751016009,0.4529800947516891
38,0.4551504194092235,0.45126741063469133
39,0.45465525793876527,0.45299110735033166
40,0.45466900850124986,0.45083098428962876
41,0.45570794559174105,0.45087654113962894
42,0.45494329662109206,0.45258614087336835
43,0.45454799871238544,0.4514009829758631
44,0.4538856785807064,0.45082646124941106
45,0.4543415828883123,0.45463798088168866
46,0.45383964446757297,0.44930766299306524
47,0.45343013357123535,0.4526119421675064
48,0.4533381486316029,0.44953736764381114
49,0.45301109677653395,0.44947448510613175
50,0.4533529414998903,0.44904436346291526
51,0.4523215264058094,0.45342280904838733
52,0.4528649156574634,0.4481674698630872
53,0.4523938748958685,0.4472491305384903
54,0.45247580999847026,0.4502642111669975
55,0.4528189255677766,0.44705269021032695
56,0.4521648028285337,0.4497644590442005
57,0.45209017520050127,0.44791218544154854
58,0.4523195015420142,0.44848814391548425
59,0.45196468415882607,0.4492296244879612
60,0.4517441049898215,0.4486311424677679
61,0.4512701189045528,0.4497327897622154
62,0.45097357400948757,0.44657888406674645
63,0.45056306153798314,0.44981202036021495
64,0.4510954936520399,0.4479111796071253
65,0.45140421508645134,0.4492484252334898
66,0.45134581745959357,0.44829195650824666
67,0.45087764675231623,0.44722589231658927
68,0.4512946600194355,0.44969933932618406
69,0.4515716984235735,0.4472202420814774
70,0.4507561923027802,0.44553801388346076
71,0.45111752707687164,0.44816067403927146
72,0.45130435074921893,0.4466288425964934
73,0.4505767324764887,0.44776922957450516
74,0.4506513001896841,0.4495791464391416
75,0.45033208577274036,0.4464694512924912
76,0.45038193656359793,0.44727419426744774
77,0.45104346849662574,0.44674963759679864
78,0.45019231780802754,0.44604508239180696
79,0.44976140848630136,0.44658387347826217
80,0.44930492706590885,0.44631927301510504
81,0.44989080371572265,0.45027805281091493
82,0.45072623915534865,0.4472554610545134
83,0.45057408636908614,0.4466879712742514
84,0.45006223796032446,0.4472517424836356
85,0.4496261776328755,0.4464180660218798
86,0.4497190995799531,0.4470144581814075
87,0.4495173188760053,0.446229988206042
88,0.4496294362865704,0.44525670181032323
89,0.44904586759875353,0.44543591141700745
90,0.4490098467199587,0.44451817916064174
91,0.4500754356646748,0.4444411014601745
92,0.4493648291135235,0.44614538504452794
93,0.44943097475960886,0.4451240557098621
94,0.4491834977300192,0.4470571290402517
95,0.4492811066351288,0.4463300788344548
96,0.4495100191681742,0.44659672279910934
97,0.4486086991331499,0.44464916744951494
98,0.4489783137869701,0.4449702281828151
99,0.4487983854390603,0.4486338850548861
100,0.4489589268751771,0.44466400364019576
101,0.44860946583308825,0.44372478323261233
102,0.44852519975460653,0.44487977649076915
103,0.4480153475049212,0.4442586408382688
104,0.4479856925119487,0.443714401800267
105,0.44815354315255335,0.4441381822924061
106,0.4476453692222042,0.44460574365300276
107,0.4481584425923154,0.44640601534526325
108,0.4484139924959911,0.4440251711849652
109,0.44824741146056724,0.44467108315408277
110,0.44786868209214664,0.4460289743211534
111,0.4478784698763306,0.4449367952946232
112,0.4483913398438019,0.44407958205598985
113,0.44802442354092703,0.4453415304108161
114,0.4471536288269049,0.44298186337474105
115,0.44700503028374466,0.44361275507005754
116,0.44727523065357805,0.44365279677430497
117,0.447143648651908,0.44252125830642597
118,0.4469428210734748,0.446231936644657
119,0.44780954534860495,0.44434778149400606
120,0.44756762449554294,0.4454631324183719
121,0.4469885084631922,0.4437279728787369
122,0.446628403303335,0.4436744761147928
123,0.4465900437892963,0.4434974108492564
124,0.446354170111392,0.4425297466507793
125,0.44653778322178234,0.4428680260444403
126,0.4472287865377981,0.4439658152796056
127,0.44712653329030716,0.44277744936633673
128,0.446466405025189,0.44418712836499147
129,0.4466321526812591,0.443449864470659
130,0.44666876354582125,0.44331082027323926
131,0.44680613263833036,0.4426621840866426
132,0.44675003822514114,0.4417963972298575
133,0.44736189509125307,0.44514820956159007
134,0.4467715113710842,0.4413015443623211
135,0.4458625638384739,0.44466970489939733
136,0.4461746629330518,0.44502712649633897
137,0.4463693644043157,0.4423841395130606
138,0.44614077002120267,0.44328718217329965
139,0.44636978219756135,0.44132437284458775
140,0.44584558701352944,0.4432916855144965
141,0.4464646163609049,0.442942682433109
142,0.44545137609024826,0.4432683123482598
143,0.44527289468207487,0.4417799767544863
144,0.4455950743227219,0.441142476944061
145,0.445897527164321,0.4419568911472763
146,0.44593385954777465,0.4424554385117951
147,0.44559497827048106,0.4405392251262216
148,0.44481157682674993,0.4403065198674399
149,0.4455055315509808,0.44103598877461286
150,0.44467401897029174,0.4446785593796627
151,0.44486343188940575,0.441326874886116
152,0.4450941424521568,0.44189047960856054
153,0.44486411873868603,0.440071946440532
154,0.44423947641379935,0.4396285310762255
155,0.44406896354772263,0.44192074146197274
156,0.44402622855644974,0.44296619141382215
157,0.4446351081729413,0.44179076118287475
158,0.4437504239064202,0.4397823149753796
159,0.4445810757034583,0.4413121831146373
160,0.4435261022553051,0.4401055737085103
161,0.4435752283414905,0.4399342082277702
162,0.44306440112159384,0.438545140109213
163,0.44398644533130627,0.441080339367759
164,0.44306356237352706,0.4398344019903754
165,0.44331357722954334,0.44034295053571004
166,0.4433619130531056,0.43987513494897645
167,0.4426553608466378,0.4385582857613436
168,0.44287429680768925,0.44205125690183306
169,0.4426309781565105,0.4375288851456437
170,0.4423511559792382,0.4383749510830046
171,0.4427086402049916,0.43852501368000557
172,0.44241311598578104,0.4378161889599864
173,0.4426795895501458,0.437165645424757
174,0.44241538685593634,0.4376950885402605
175,0.442505678062061,0.43946156031410577
176,0.4426977593627713,0.44034495657281186
177,0.4426422183207267,0.43709109048000316
178,0.4421311001404464,0.43804562512395445
179,0.44218162366683433,0.4376634018312889
180,0.4420543839756826,0.4374391461472538
181,0.44195519867327043,0.4387317098260216
182,0.4422136221865447,0.436881201859905
183,0.4419046717586281,0.43809772806736097
184,0.44211263601497425,0.4391549043025027
185,0.44186330949954744,0.4374867926162138
186,0.4415576363130032,0.44058783174721283
187,0.4418481467030734,0.43891135841873924
188,0.44180789809402604,0.43683884135127937
189,0.4414642668300099,0.4367550000463766
190,0.44124982148719083,0.43595842911959276
191,0.44103344147495505,0.4369219938672275
192,0.44133864838280995,0.43800756782414174
193,0.44113688969058545,0.4387524578258069
194,0.4406015343003697,0.43699314694818403
195,0.4404534129284209,0.4391191074109522
196,0.44088882541923735,0.4367485304045078
197,0.4405138452617143,0.4392981348439918
198,0.44104117669278475,0.4395858959173247
199,0.44063504172669493,0.4373242503390115
200,0.44082278936648006,0.4367858660192095
201,0.440086364626789,0.43690797024303013
202,0.4403287212642505,0.43578886468528444
203,0.4402665962354005,0.43545859571114265
204,0.44033812489912355,0.4407939699879528
205,0.4405915997832942,0.4361611719742502
206,0.4403997840071984,0.4371313514839027
207,0.43979699751011747,0.4374952086663691
208,0.43968268776770303,0.43863374782788106
209,0.4398027235288635,0.4392754686188137
210,0.43991656910428245,0.43667344339282554
211,0.43988831758833197,0.4371449128458003
212,0.4400209260879277,0.43690181924188803
213,0.4392626422753422,0.4357052081161075
214,0.4397628051195267,0.4364224000375443
215,0.4399286075364694,0.4364829037553009
216,0.4397526810272299,0.43940356122412916
217,0.4391640446441855,0.43482658351618203
218,0.4393212096131831,0.43645879638359397
219,0.43915955135352713,0.43685589018916077
220,0.4386747163042629,0.43532123692811064
221,0.4393762483823003,0.4355432248801984
222,0.43903768383521286,0.43571638608984314
223,0.438757055480066,0.4351647870142288
224,0.4386398559026092,0.4339606227037487
225,0.43932770622120176,0.43500178390079075
226,0.439162228193829,0.4346487773257547
227,0.4385300865642923,0.4352634836287394
228,0.4388917725715187,0.4367370657677198
229,0.43918871125571723,0.43570819277156203
230,0.43892558668259146,0.4364099808321285
231,0.43867217209503306,0.43409753046379956
232,0.4385857882024385,0.43580131741529154
233,0.43907186025089984,0.43448351832395243
234,0.4388476298917667,0.43430425421261537
235,0.43874122200010296,0.43727275325530734
236,0.4387136331742243,0.4345153211483797
237,0.4380732512502693,0.4360747681046924
238,0.4382703811455193,0.4368599258296778
239,0.43830008653281116,0.43536986457750454
240,0.4380511003579971,0.43371951763744
241,0.4382416871163824,0.43392592037681244
242,0.43876170242329043,0.43302002817464863
243,0.4381254334107125,0.43754427829894804
244,0.4384005351530446,0.4353588725480237
245,0.4380398392677307,0.43358075792772055
246,0.4379010945081329,0.43809963821978076
247,0.43847214891683395,0.4354902513367513
248,0.437478703317688,0.43354253730731385
249,0.4380012560215256,0.4333105524767731
250,0.43784338059284095,0.4336060897083855
251,0.43763102602968224,0.4333244951053644
252,0.4375304458759803,0.436538117572919
253,0.43814619338875105,0.43289803194496945
254,0.43799015006320396,0.4335280292805674
255,0.43735920844839704,0.433733496691092
256,0.4379498510479068,0.4353625868407092
257,0.4379662294522393,0.4330366162729766
258,0.4372308968996601,0.43496504510599526
259,0.43770635471618874,0.4324226660014939
260,0.43709170453256374,0.4320156087695537
261,0.4372859570720465,0.4330519296392037
262,0.4373650311159076,0.4340836187735478
263,0.4377464025473003,0.4352924197743022
264,0.43786506927471525,0.4331632735327019
265,0.4373888771375529,0.43250078463206326
266,0.4375615374530383,0.43272951755307115
267,0.4370717867385683,0.4323810998830772
268,0.4372210908976433,0.4337955419357869
269,0.43693964930178164,0.4343325088445674
270,0.43707058887132366,0.4320393358172195
271,0.43694136647866955,0.43430274756382076
272,0.4371364343466999,0.43316400865665416
273,0.4366711524603747,0.47910452916287644
274,0.4369342586247801,0.4320777365809423
275,0.4371658683753758,0.4314399130056278
276,0.4362288686373026,0.43166934965300735
277,0.43625817583311643,0.4321436108077143
278,0.43670759169314743,0.43317230950983576
279,0.4364606093129127,0.4328114739879784
280,0.43620898495253035,0.43178008299771115
281,0.4364467302830912,0.4337549214428842
282,0.4365143225229292,0.4341152249703249
283,0.43690373223003526,0.432869717345814
284,0.43613048988260966,0.43514579036616735
285,0.43641063129548746,0.4345250893973376
286,0.436135183402402,0.43115792248854284
287,0.4356701318100035,0.4314279752056094
288,0.4360727639175397,0.4321083949043416
289,0.4361926039712156,0.431671619826183
290,0.43599868354031907,0.4330390145985556
291,0.43612117799307654,0.4358613368755226
292,0.43619344607174537,0.43329497335504347
293,0.43623042563565545,0.4358996446550327
294,0.43594774144520465,0.43171418232832703
295,0.43594440425320374,0.43172218327297973
296,0.43609025957490843,0.4303867769067305
297,0.4361645351704643,0.4313646344662873
298,0.43542177933421106,0.4313914663696908
299,0.4360107897972469,0.43082087818723525
300,0.43581179609959175,0.4331215851111617
301,0.43527167120439897,0.43211197565458503
302,0.4355570019317494,0.4308881757951614
303,0.4360021814954481,0.43116966996943185
304,0.43544643048384934,0.43023743476214105
305,0.43564403312410516,0.4309597948606867
306,0.4357290155559277,0.43236930671979623
307,0.43539009870196266,0.43089858451608903
308,0.4360757533004515,0.4351905525359117
309,0.4354779045876739,0.43080638562965856
310,0.43546362681757267,0.43176014645256267
311,0.4355853434034688,0.43087517661673214
312,0.4348919879230525,0.4309336379931791
313,0.4352308022465297,0.4308040709826198
314,0.4349531815517798,0.4303923844082609
315,0.435085311114454,0.4336769001955727
316,0.43574619702428125,0.42993661659767446
317,0.43506242054476557,0.4314339706207424
318,0.43542891806416556,0.4318055577956847
319,0.4354898571801052,0.43086018984335184
320,0.4353445626741605,0.430733223321084
321,0.43494415079192034,0.4315608569450332
322,0.43519434036971855,0.4313291634182957
323,0.4349548934792594,0.43113640994921215
324,0.43509598699114244,0.4307984573659332
325,0.43480707354264986,0.43215096013776094
326,0.4350837906710714,0.43238772407162024
327,0.4350209252489768,0.4297499312004807
328,0.4041851619489676,0.29159168564296795
329,0.2639685132271581,0.2494984173547516
330,0.2530533164572582,0.23961017347890384
331,0.25248483520708054,0.2537761312234914
332,0.2532159934958236,0.24648456652524117
333,0.2534060647086299,0.24307472428604537
334,0.2537925313111302,0.2419886928405205
335,0.2540979973727269,0.24142466336851282
336,0.2560502453278407,0.2433236047130045
337,0.2571606675179316,0.2393875630135857
338,0.2568403842140905,0.24678153638325373
339,0.2577703894079447,0.24655677700854856
340,0.2580926483325523,0.24537332702823897
341,0.2593870025286205,0.24512570460734093
342,0.2585398395530122,0.2459106111516821
343,0.25973986492479584,0.24783147786897272
344,0.26017161082324264,0.24972257067638978
345,0.2610025256216001,0.25457104896735294
346,0.2603645962987355,0.2521551730351436
347,0.26108968481600425,0.24623736938565896
348,0.26111682921385554,0.2494631469104702
349,0.26098215566863053,0.24824169511390912
350,0.26159443239792524,0.2470582710323736
351,0.2616892570407511,0.25039160604507865
352,0.2614774962811111,0.25283446342405613
353,0.2627575824900662,0.2457941115651784
354,0.2619715681414398,0.25186259308580644
355,0.2617923954876067,0.24817298231865464
356,0.2612674948487213,0.25619003546498986
357,0.26165973231661693,0.25603552352386283
358,0.26180418797308586,0.24454998634060707
359,0.26128248821457833,0.2525019146447634
360,0.262943799509775,0.2457435100738923
361,0.2618276720718921,0.24758654487200704
362,0.26187816683390885,0.24865165361281052
363,0.261615307618371,0.24689518877237865
364,0.2627186593446758,0.24595909682310219
365,0.2622558734684681,0.2565779986656109
366,0.26125664290807266,0.2524856466011409
367,0.26193079245004586,0.25059332416392105
368,0.2613742770052987,0.2498838718306796
369,0.2622507443730596,0.2587863082143222
370,0.26197818131018297,0.2514086443287323
371,0.2623523210434078,0.24542407537995561
372,0.2611742297454392,0.2448698478265207
373,0.26248199461077193,0.24755028638284765
374,0.2624307576420786,0.24699451679489232
375,0.2611284265824086,0.2576730611212159
376,0.26292172684561643,0.24620186185218026
377,0.26171570401295746,0.25105128922505004
378,0.26157143154890655,0.24828398819870806
379,0.2615093640309033,0.26696717716143176
380,0.2613709280617815,0.2502445318378865
381,0.26246139417895326,0.24722566971040216
382,0.2616785433563926,0.24522250759002162
383,0.2626528883930012,0.24520231243177631
384,0.2624139596847556,0.2516631320517719
385,0.2615216775798053,0.2497275556284339
386,0.26233262560360904,0.24577553421621484
387,0.26225577645582426,0.2507063345825005
388,0.2622105970656614,0.24975472131543108
389,0.2619870017894847,0.24968140236942726
390,0.26204083085036256,0.2505921051087461
391,0.26186005144810276,0.2534944867565684
392,0.2629371913399002,0.2516281347591898
393,0.26163374504940906,0.2480264962178754
394,0.26276163056528595,0.2508192485242188
395,0.26213620636489887,0.24813853106359496
396,0.2621700742645107,0.2522324721985296
397,0.26371250666075463,0.25201591056532135
398,0.2613815693341321,0.2527846983556136
399,0.26237729571169144,0.24840859185363448
400,0.262050635432653,0.25449489701209954
401,0.26262414068269957,0.2574460466074344
402,0.26289330819566503,0.2513117282277476
403,0.2625988108621205,0.2456296782665686
404,0.2630456215899596,0.24943056103183503
405,0.2625193448902799,0.24790836163680918
406,0.26351049890796885,0.260992306596558
407,0.2623574933867821,0.25054624668244707
408,0.2626175679045739,0.24854606179715363
409,0.2632029628555616,0.24944159363163068
410,0.2629548051328159,0.25118930947219853
411,0.2628024696850414,0.2553342249416667
412,0.2621351457338891,0.2521009145958677
413,0.26310840502584143,0.24845163689719307
414,0.26180856083158116,0.2603656317244094
415,0.2626476383882107,0.24969988590029324
416,0.2628066971886148,0.2462409935946012
417,0.26192753453604023,0.24695299148849617
418,0.2633846288470863,0.258760314727835
419,0.26212467693442626,0.25533467809165866
420,0.2632015807400521,0.25002316139571956
421,0.2622659958726029,0.25045168108555327
422,0.2620895505190087,0.25202150361284625
423,0.26299203194385534,0.2526705108419822
424,0.2635347111891803,0.24788689334172112
425,0.2617960223753611,0.25216729476117355
426,0.2625828808288368,0.25320739818122073
427,0.2624492948595956,0.2542395269904597
428,0.2618039816057233,0.2494583969689537
429,0.26211830137299,0.24709237571760395
430,0.26261386353436045,0.25561066725973375
431,0.2619409672229933,0.24981177591591083
432,0.2641869395661106,0.24643758730925105
433,0.2626619927758117,0.25130821255678487
434,0.2634673291463867,0.24980062045706836
435,0.2633222453743577,0.24939318199469032
436,0.26318932534624234,0.25513854703812316
437,0.26289755165624656,0.2536821571289768
438,0.26287770114415543,0.24676188078481592
439,0.2623737389631898,0.2484995652917721
440,0.26359867454887487,0.2573141908848663
441,0.2621603494016431,0.2541162471822482
442,0.26283906644181887,0.25211001995464505
443,0.2629279985105256,0.25101389517797656
444,0.26364939143244415,0.2532218167405736
445,0.26288260816573333,0.25189840634083804
446,0.26328844102837734,0.2582038075142727
447,0.26399017238707617,0.2560774612286568
448,0.26263462567181467,0.24835664976542304
449,0.2637362949329438,0.2507546466004046
450,0.2635723274824522,0.26230350311993583
451,0.2622223937566324,0.24630921272997536
452,0.2631959473852924,0.2505869216679173
453,0.26305540290186175,0.2488068972094119
454,0.2633191786342568,0.25339635040396513
455,0.26338244066107647,0.2553799362779147
456,0.262549077681869,0.24875996139169415
457,0.26276985553501125,0.24820931611124908
458,0.2644848214437047,0.24960141432594693
459,0.2633448040263475,0.24944716467184452
460,0.26335725184079645,0.24975467035176788
461,0.2633414519510811,0.2565454778300005
462,0.26438675442034953,0.25321265298568035
463,0.26440575918715126,0.24873329054893561
464,0.2631577623305653,0.25153317432382294
465,0.2635267445559593,0.24639100835802877
466,0.26358021059042935,0.25635824799054246
467,0.2636452712375131,0.25148408062943384
468,0.2641166608222873,0.24766790074056855
469,0.2641332512430614,0.24820379992616148
470,0.26498273110466064,0.2543223737365138
471,0.2628378912663345,0.2482519694705949
472,0.2627187108127378,0.24975167225747213
473,0.26356458270831334,0.24629183763763524
474,0.26370774865675395,0.2517198607240957
475,0.26330836676210284,0.2508782328552863
476,0.26252068326270894,0.25100706231275033
477,0.2635967499129862,0.24915536608477482
478,0.26355940509166975,0.24843376720232008
479,0.26380550100790967,0.2548776800349198
480,0.26240407170845664,0.2518069475937547
481,0.26459213650469976,0.2631312731867966
482,0.2643455323980177,0.2487486472046675
483,0.26333033455143556,0.24766550513417954
484,0.2633595502285885,0.25614857897222865
485,0.2635128451488894,0.26234865772318083
486,0.2627909806272905,0.25628858490485246
487,0.26318415901582654,0.24990924781933124
488,0.2629210349855373,0.2526271773830044
489,0.2621872060603385,0.2487039251943381
490,0.26360635109263675,0.2517122985358559
491,0.26267592552258934,0.24969972336524304
492,0.26303707237979523,0.2547439446148598
493,0.2624997612390163,0.24696120665697963
494,0.26378857679038736,0.24924994322311947
495,0.2635297511426137,0.25072587192638657
496,0.26296330725936723,0.24754345284084528
497,0.2640837001397287,0.25436849553751345
498,0.26445367486119936,0.25025630570096113
499,0.2636890062410608,0.25773921467526983
500,0.2627465241581941,0.24965430749013767
