epoch,loss,val_loss
0,0.44877590125799177,0.44527143545945486
1,0.4002613690098127,0.33435257816314695
2,0.33461569896009236,0.3344142825603485
3,0.3344228806893031,0.33442868340015414
4,0.334351356168588,0.3340546313325564
5,0.3342951002385881,0.3347745110988617
6,0.33424718117051655,0.33420269497235616
7,0.33422698024908704,0.3339937035838763
8,0.33420434434546364,0.3340175011754036
9,0.3341836198899481,0.3340739960273107
10,0.3341627308726311,0.33403957680861157
11,0.33416762465900846,0.3340528324842453
12,0.3341427051623662,0.33416566681861876
13,0.3341201085779402,0.3340449047287305
14,0.33410071383582224,0.33431862127780915
15,0.33409732113281887,0.33397533325354256
16,0.334082365738021,0.3339920665621757
17,0.33407906566725837,0.3339960911075274
18,0.33406812501615946,0.3341159258286158
19,0.3340594035850631,0.3341846897006035
20,0.3340544622540474,0.3339148528377215
21,0.33405098332299127,0.3341110104123751
22,0.33404980801211465,0.33469045561552047
23,0.3340497798787223,0.3343822684685389
24,0.33404355284902787,0.3339994230469068
25,0.33404384495152367,0.3341730231444041
26,0.3340283370282915,0.33399963853756587
27,0.33402861526939603,0.3341623413761457
28,0.3340294151239925,0.3341226597428322
29,0.3340264472299152,0.3339377361536026
30,0.3340141993429926,0.3339290280342102
31,0.33401871526903576,0.33406753623485563
32,0.33401463764243655,0.3339497834046682
33,0.3340108201636208,0.3340033809145292
34,0.3340024111403359,0.33396232563257217
35,0.33400009840064576,0.33390578206380206
36,0.33400333399242826,0.3338959098259608
37,0.3339995841715071,0.3339277740120888
38,0.3339977273676131,0.33404302151997883
39,0.33400290697813034,0.33389657066265743
40,0.3339963862233692,0.3339008469382922
41,0.3339990165895886,0.33424499599138896
42,0.3339882288575172,0.3339253471096357
43,0.3339932562046581,0.3339106849034627
44,0.3339879842400551,0.3338863641619682
45,0.3339959018561575,0.3339535660743713
46,0.33398495263523525,0.3338937049309413
47,0.3339877424703704,0.33388693356513977
48,0.33398580176300474,0.33396234637498856
49,0.3339835200972027,0.3339336084127426
50,0.33398525860574513,0.33393837793668113
51,0.33398564163181516,0.33424751277764636
52,0.3339799018038644,0.33404111677408216
53,0.3339897136290868,0.3339387629230817
54,0.3339893074962828,0.33431848472356795
55,0.33398511045508916,0.33389974405368167
56,0.333973787718349,0.3341267366409302
57,0.33398094265990785,0.33391621412833533
58,0.33398079521788493,0.3341765001813571
59,0.33397765280803043,0.333916991353035
60,0.3339814098543591,0.3339215438365936
61,0.3339705835713281,0.33393045292298
62,0.3339739285575019,0.3338781632184982
63,0.33397418321503536,0.33403957019249597
64,0.3339751351343261,0.33399667940537137
65,0.33396800721353953,0.33423506184418994
66,0.3339756606883473,0.33387478490670525
67,0.33397220809592143,0.334001813352108
68,0.3339729553725984,0.3339056314428647
69,0.3339670559234089,0.33388370859622957
70,0.3339670334789488,0.3339066724975904
71,0.33398059919807643,0.33391920975844064
72,0.33396712436278664,0.3339003944993019
73,0.33397088098526,0.33391823412974675
74,0.33397048972712623,0.33422642934322355
75,0.3339632099866867,0.33387356438239413
76,0.3339688184460004,0.33389336719115575
77,0.33397049775388504,0.3339226264953613
78,0.3339678274790446,0.3339109956820806
79,0.3339715585708618,0.3340929532647133
80,0.33396752374039756,0.3338929907282194
81,0.333970467891958,0.3338705455859502
82,0.33395919862058426,0.33395773090918857
83,0.33396128416723675,0.3338689702351888
84,0.33396685448620056,0.3339666203260422
85,0.3339617866012785,0.3344712205727895
86,0.33397004930840596,0.3338677388827006
87,0.3339591403139962,0.33388649837176004
88,0.333966222193506,0.3340833835403125
89,0.3339588655498293,0.33414600137869516
90,0.3339654166367319,0.3338895250161489
91,0.33395961091915766,0.3338467128872871
92,0.3339661026067204,0.33399818889300026
93,0.3339567168421215,0.3339555972417196
94,0.3339635946220822,0.3340085811416308
95,0.33396403684218723,0.3339380435546239
96,0.333966102262338,0.3339283585349719
97,0.3339563725458251,0.33396618988116583
98,0.33395510697364805,0.3339538919130961
99,0.3339603360229068,0.33388141109546027
100,0.3339673456947009,0.3339772111773491
101,0.3339582180182139,0.3338786104122798
102,0.3339662153787083,0.33388296631972
103,0.3339579875469208,0.33389349991083145
104,0.33396578871541555,0.3340896385709445
105,0.3339580485622088,0.3338955196738243
106,0.3339578586220741,0.3339294051925341
107,0.3339596321516567,0.33408224759499233
108,0.33396177640226155,0.3339560301303863
109,0.33396029486921097,0.3338807869553566
110,0.33395690744453005,0.33396539523204166
111,0.3339626785980331,0.33390043620268506
