epoch,loss,val_loss
0,0.5586574964258406,0.556235763112704
1,0.5564376488129298,0.5577360165516535
2,0.5562919163968828,0.5562089747985204
3,0.5562159507142173,0.5560338431199392
4,0.5561840827332603,0.5561361726125081
5,0.5561576211982303,0.5561527814865113
6,0.5561314273145463,0.5560744574069977
7,0.5561270892222723,0.5559770001967748
8,0.5561067134804196,0.5559801009893417
9,0.5560983060730829,0.5559574002822241
10,0.5560829164054659,0.5561048896710078
11,0.5560678518878089,0.5560361875693003
12,0.5560588962634404,0.5559644379218419
13,0.5560463121467166,0.5560340864260992
14,0.5560443396568299,0.5559588309129079
15,0.5560357372893228,0.5559485301574071
16,0.5560387874179417,0.5560025163094202
17,0.5560302095545663,0.5559310441017151
18,0.5560219799809986,0.5559606320460637
19,0.5560255378882091,0.5559568663438161
20,0.556022125005722,0.5559968019326528
21,0.5560135819647047,0.5560203332901001
22,0.5560152460866504,0.5560298667351404
23,0.5560078885290358,0.5559344209035237
24,0.5560010233720144,0.5560792889992396
25,0.5559946231577132,0.556261594971021
26,0.5560010409222709,0.5559708010355632
27,0.5559875504838095,0.5559147022167842
28,0.5559916379451751,0.5559289702971776
29,0.5559902526537577,0.5561194132169087
30,0.5559842714601093,0.5559432624975841
31,0.555981119884385,0.555912618637085
32,0.5559857029517492,0.555907893896103
33,0.5559785262743632,0.5560101582606634
34,0.5559766587813695,0.5559839706818263
35,0.5559777331749598,0.5559687103033066
36,0.5559817232688268,0.5560370646715164
37,0.555973478158315,0.5561480367978414
38,0.5559757178094652,0.5560196767250697
39,0.5559732939534717,0.5558935545682907
40,0.5559717443519169,0.5559200716416041
41,0.5559720764954885,0.555908401330312
42,0.5559677551587423,0.555985638141632
43,0.5559678306447136,0.5561525203386942
44,0.5559714843034744,0.555893246571223
45,0.5559706290033128,0.5559945487976075
46,0.555966344555219,0.5559448535044988
47,0.5559686974154578,0.5559048540989557
48,0.555971018102434,0.5559010314146677
49,0.5559656715790431,0.5559685937563579
50,0.5559710333744685,0.5559455778598785
51,0.5559627434545094,0.5559281381368637
52,0.5559642542203267,0.5559103519121806
53,0.5559664602412118,0.5559460506439209
54,0.5559663063552645,0.5559324956337611
55,0.5559629152086046,0.5560341118574142
56,0.5559694096247355,0.5561117579936982
57,0.5559623654418522,0.5559723295768102
58,0.5559600198666255,0.5559111850659052
59,0.5559601736333635,0.5559013053178787
60,0.5559615033864975,0.5560377188523611
61,0.5559598966174656,0.5558996230363846
62,0.5559598946836259,0.5559660167296727
63,0.5559578849342134,0.5559320463339488
64,0.5559578311708239,0.5559071298837662
