epoch,loss,val_loss
0,0.7791146176523632,0.7794819540182749
1,0.7783081545035044,0.7782176120678583
2,0.7781856953567928,0.7783538825511932
3,0.7781471786101659,0.7782141679922739
4,0.7781281467808617,0.7782340784867604
5,0.7780965265830357,0.7783209757407507
6,0.7780793092383279,0.7781503808895747
7,0.7780687137577269,0.778022520105044
8,0.7780604772567749,0.7781516357660293
9,0.7780550531016456,0.7780100787083308
10,0.778048751645618,0.7780207284291585
11,0.7780341126521428,0.7779950278600057
12,0.7780326679415173,0.7779930053949357
13,0.7780232299963633,0.7780116380055745
14,0.7780195806423823,0.7779945147037506
15,0.7780170203314887,0.7779628885984421
16,0.778013353837861,0.7779626785119375
17,0.7780147507720523,0.7779861444632212
18,0.7780072206921048,0.7779690042734146
19,0.7780076147450341,0.7779694079558055
20,0.7780052910910712,0.7779916162888209
21,0.7780026028951009,0.7780061288277308
22,0.7779995658927493,0.7780130351781845
23,0.7779981731706196,0.7779587976932526
24,0.7779987271096971,0.7779747224648793
25,0.7780002100865047,0.7780998801787694
26,0.7779953252871831,0.7779655236005784
27,0.7779960817363527,0.7779517521460851
28,0.777993891927931,0.7779748829603195
29,0.7779954688284132,0.7779876324335734
30,0.7779920652574963,0.7779731674989064
31,0.7779943679968516,0.7779519492387772
32,0.7779947126441532,0.7779616829156876
33,0.7779921374056075,0.7780188610156377
34,0.7779900829792022,0.777968098839124
35,0.7779913311269548,0.7780061015288036
36,0.7779916435745027,0.7779739683866501
37,0.777992233965132,0.7779545432726542
38,0.777989394651519,0.7779507728417715
39,0.7779897962146335,0.7779687610467275
40,0.7779905464119381,0.7780082373619079
41,0.7779901194307539,0.7779732926686604
42,0.7779895201259189,0.7779666006167729
43,0.7779899658759435,0.7781145901679992
44,0.7779886813693576,0.7779739841222763
45,0.7779898766941494,0.7779634516636531
46,0.7779920707411236,0.7779691801071167
47,0.77798647763994,0.7780284277200699
48,0.7779881503582001,0.7779589208761851
49,0.7779881783723831,0.7779545593659083
50,0.7779896787802378,0.7779839843114217
51,0.7779868162340589,0.7781094746987025
52,0.777987454838223,0.7779622023105621
53,0.7779870920976003,0.7779545050064722
54,0.7779859527879291,0.7779675322771072
55,0.7779862239625719,0.7779937694470088
56,0.7779856323666042,0.7779613140424093
57,0.7779834839105606,0.7780145631631216
58,0.7779855906036165,0.7779788012504578
