epoch,loss,val_loss
0,0.7791350091033512,0.778215818564097
1,0.7782555376556185,0.7780469624201457
2,0.778173467569881,0.7781180371840795
3,0.7781398609214358,0.7780541714827219
4,0.7781173987388611,0.7780594525337219
5,0.7780950224399567,0.7781642862558364
6,0.7780830031368468,0.7780133173068364
7,0.7780709588925043,0.7780171605745951
8,0.7780586147970624,0.7780141330560049
9,0.7780520378351211,0.7780070161024729
10,0.778047212349044,0.7780003190835317
11,0.7780411757230759,0.7780184178749721
12,0.7780385952525669,0.7780591673453648
13,0.7780383118391037,0.7779936412572861
14,0.7780334979428185,0.7779850761095682
15,0.7780298877822028,0.7780312493642171
16,0.7780319808853997,0.7782230333089829
17,0.7780242287582821,0.7780126428206762
18,0.778023732940356,0.7779833888610204
19,0.7780207762188381,0.777974769115448
20,0.7780178303718567,0.7779836231867472
21,0.778016765859392,0.777978852669398
22,0.7780131783617867,0.7779844915469487
23,0.7780139582422044,0.7780311560233434
24,0.778010984328058,0.7779892391761144
25,0.7780123006370333,0.7779820129871369
26,0.778007861190372,0.7781099614699681
27,0.7780107497241762,0.7780544331073761
28,0.7780073039664163,0.7780728032191594
29,0.7780075487163332,0.7779761389891307
30,0.7780061430136362,0.7779643261035284
31,0.7780047287013796,0.7779626500606537
32,0.7780038027366002,0.7780021469593048
33,0.7780015048318439,0.7779907335837682
34,0.7780011563565996,0.7779677984317144
35,0.7780015325546265,0.7779975464741389
36,0.7780000258154339,0.7781388255755106
37,0.7780025193426344,0.7779693330923716
38,0.778003109269672,0.7779663390715917
39,0.7780009468396505,0.778097341020902
40,0.7780008436838786,0.7779774700005849
41,0.777997088432312,0.7779701901674271
42,0.777998904519611,0.7779911747376124
43,0.7779977092345556,0.7780168979167938
44,0.7779982975721359,0.7781358658472697
45,0.7779971765942044,0.7780121146440506
46,0.7779969665474362,0.7779854639768601
47,0.7779986460606257,0.777983404080073
48,0.7779981442424986,0.7780319065650304
49,0.7779980924261941,0.7779820317824682
50,0.7779955680370331,0.7780632870197296
51,0.7779959909651014,0.7780774168173472
