epoch,loss,val_loss
0,0.4476661540667216,0.44522950301567715
1,0.44561659674512016,0.44522476559877394
2,0.4454357552263472,0.4472605238755544
3,0.44530155869987276,0.44545279534657795
4,0.44524361696508197,0.4450658960143725
5,0.4451835403177473,0.44506523096561434
6,0.4451546550128195,0.44496034004290896
7,0.44512277129623623,0.44492719225088756
8,0.4450941426621543,0.44495795206228894
9,0.44508059137397343,0.44505375188589097
10,0.445083917942312,0.4451169431408246
11,0.44505035950077904,0.44508508330583574
12,0.4450364349881808,0.44494251237312954
13,0.44502772780259453,0.4449176018039385
14,0.44502124546633826,0.44529518733421963
15,0.4450176558229658,0.4451198688149452
16,0.44501444647047256,0.4450481424331665
17,0.44500382528040144,0.4452984449664752
18,0.4449960023827023,0.44584894450505574
19,0.4449899887442589,0.4450078495939573
20,0.4449821010761791,0.44490357234080635
21,0.4449863919019699,0.44489309209585187
22,0.44497902140352463,0.44489101831118266
23,0.44497691581646603,0.4453843156298002
24,0.44497779353459677,0.44490556001663206
25,0.4449723842077785,0.4448886732260386
26,0.4449727879828877,0.44498099011182785
27,0.4449684028029442,0.4448842647075653
28,0.444971115913656,0.4451668186585108
29,0.444967390636603,0.4449075002471606
30,0.4449628583126598,0.44492269386847816
31,0.44496289761198893,0.4449030581712723
32,0.4449584271576669,0.44515059395631157
33,0.44495669429832035,0.4448914539813995
34,0.444955653919114,0.44490018701553347
35,0.4449544571903017,0.44503730241457623
36,0.44495782644881143,0.4450988516608874
37,0.4449555963675181,0.4449802451928457
38,0.44494899192121296,0.44489369255304334
39,0.4449568068517579,0.44496632357438404
40,0.4449484363132053,0.4449189431667328
41,0.4449522234002749,0.4448753017783165
42,0.4449526711437437,0.4448975882530212
43,0.4449475871986813,0.44492315312226616
44,0.4449528151154518,0.4448946961760521
45,0.44494987689786486,0.44489914457003277
46,0.4449387027555042,0.444882755001386
47,0.44494788814915553,0.44500469464063647
48,0.44494679878817667,0.44485771826903026
49,0.4449477616482311,0.44486568971474966
50,0.4449434369868702,0.44490667172273
51,0.44494132888317106,0.444893601834774
52,0.4449356079234017,0.4448823966582616
53,0.44493526885906853,0.4449079761505127
54,0.44494055977132585,0.44485605841875075
55,0.4449338473081589,0.44490579905112587
56,0.44493634121285547,0.4448620934486389
57,0.4449379336105453,0.4448526547551155
58,0.4449347844719887,0.44487979648510617
59,0.4449341583053271,0.4448827696641286
60,0.4449304159548548,0.4449089677333832
61,0.44493377381563187,0.44493245621522265
62,0.44492727232641643,0.4449307292898496
63,0.444935441368156,0.44488166318337125
64,0.4449293937087059,0.44500537647803623
65,0.44492831797069976,0.4448710446556409
66,0.4449329496357176,0.4449111449519793
67,0.4449294744663768,0.44484888432423275
68,0.4449313124352031,0.44486500237385435
69,0.4449270912475056,0.44489093430836996
70,0.4449317221575313,0.4450654644171397
71,0.44492526934544246,0.4449364238381386
72,0.4449299374818802,0.4448549627661705
73,0.44492808110846416,0.44495399566491445
74,0.4449329871667756,0.44499777952829994
75,0.4449318955341975,0.44490318900346754
76,0.4449271681573656,0.44496636019150415
77,0.4449334452615844,0.44506070135037107
78,0.4449268474645085,0.4448698429663976
79,0.44493009148041407,0.4449501452843348
80,0.44492208735148114,0.4450124686757723
81,0.4449270466036267,0.44490755871931714
82,0.44492854802476034,0.44484818357229233
83,0.44492908049292035,0.4449119047721227
84,0.4449240051574177,0.44485815383990607
85,0.44493118924564784,0.44513026585181553
86,0.4449269011749162,0.4448818199237188
87,0.44492531360520254,0.44509301499525705
88,0.44491936486959455,0.4449322468241056
89,0.4449208047721121,0.4448558784921964
90,0.444922100159857,0.4449912796417872
91,0.44492147928476333,0.4448696991999944
92,0.4449205826057328,0.4451917515595754
93,0.44492396605677076,0.44484881742795307
94,0.44492096904913586,0.444870447854201
95,0.44492052625947526,0.4449344849983851
96,0.4449259225593673,0.444848336537679
97,0.4449149322112401,0.444855816423893
98,0.44492120938830904,0.4448593113621076
99,0.4449201904005475,0.44486655650536217
100,0.4449196184674899,0.4448829257289569
101,0.4449220663441552,0.4448511836330096
102,0.44491984887917835,0.4448410515387853
103,0.4449152091940244,0.44486336801449455
104,0.4449203615453508,0.44484789701302846
105,0.44491784502400294,0.4448469933668772
106,0.44492477164665856,0.44490785815318423
107,0.4449171814521154,0.4450323814153671
108,0.44491652911901475,0.44493526305754977
109,0.44492157447338104,0.4448659280935923
110,0.4449212903711531,0.4449038873314857
111,0.4449209594329198,0.4448909531831741
112,0.4449158623814583,0.4448543819785118
113,0.4449161802265379,0.44492570505539575
114,0.44491636476251817,0.44502539791663487
115,0.4449200948741701,0.4448443761269251
116,0.4449203869038158,0.44497032890717186
117,0.444916996313466,0.44495475562413533
118,0.4449188057846493,0.44484576958417893
119,0.4449210851656066,0.4449507711132367
120,0.4449153508146604,0.4450741549928983
121,0.4449179264638159,0.44493481642007826
122,0.4449152055978775,0.44487207279602686
