epoch,loss,val_loss
0,0.7095259359176401,0.6913319239017995
1,0.6452782992169345,0.6228819422206261
2,0.6214055506397875,0.6442429206930189
3,0.5684508570997739,0.5566547258030079
4,0.5368201487022434,0.5494180579494093
5,0.536020236001979,0.5331394878446162
6,0.5356297807799255,0.5393521156758894
7,0.5354826422713452,0.5347949876593339
8,0.5346583073183024,0.5301932991727093
9,0.5322254476644438,0.5399486630472877
10,0.5314326799697251,0.5221842322278042
11,0.5305561346115826,0.5273126388687549
12,0.5306673322459586,0.52282996396898
13,0.5289912861194923,0.5255561010190231
14,0.5293450390311073,0.529892715818786
15,0.5296672545939232,0.5224100063895276
16,0.5285266919625844,0.5309483110669474
17,0.5286551155894399,0.5287588289053118
18,0.5306327659592068,0.526561970868822
19,0.5293717516554917,0.5245085423305078
20,0.5298316682056843,0.530122604441624
21,0.5304749091680673,0.5257213891446355
22,0.5299586096970583,0.5269335109649348
23,0.5301520752725746,0.5249060772965062
24,0.5300244328429659,0.5282495313962803
25,0.5295564122527814,0.5247012172379453
26,0.5293890165148688,0.529440896216583
27,0.5306641511756072,0.5290269186013123
28,0.5304919060566824,0.5267738481629243
29,0.5300698070574722,0.532083188019687
30,0.531444515243804,0.5326752222327614
31,0.531519495373626,0.5257854604918654
32,0.531153531669141,0.5314137168116897
33,0.5315089555357476,0.5276156541345246
34,0.5319463144436919,0.5359427949153446
35,0.5316761235872524,0.5346000257823631
36,0.5318879343503766,0.5374541087421547
37,0.5314506267567428,0.5293404878644183
38,0.5323317727382234,0.5314168882539353
39,0.5314467457963599,0.5272032212063188
40,0.5315995583240744,0.5309140892977214
41,0.5308670439689661,0.5285888753166891
42,0.5312134480590729,0.5310599569645846
43,0.5297727605326474,0.5331164470505507
44,0.5301267028236084,0.5264160398573224
45,0.5310196407216725,0.5286697892100207
46,0.5330652303451733,0.5284067622864443
47,0.5316030692806442,0.5267540491182408
48,0.5324357165802392,0.5332074944391529
49,0.5328926586037536,0.5355361548576566
50,0.533146786627819,0.5279010226619272
51,0.5324728881402744,0.5328806635895016
52,0.5323991952516097,0.5285620367376468
53,0.5329120075292915,0.5289044914371683
54,0.5329891504477159,0.5386953619209537
55,0.533487904438679,0.5272308892166887
56,0.533701166331911,0.532440659043915
57,0.5325627109820513,0.5250252681683628
58,0.5325634994571634,0.5269902864119719
59,0.5319152853662352,0.532365482720975
60,0.532167420398703,0.5340549703084679
61,0.5318077103935367,0.5342260362505442
62,0.5322923404778794,0.5293226453998283
63,0.5312173423244894,0.5255889051197642
64,0.531195874753997,0.530281071034396
65,0.5304221247406982,0.5314248507194097
66,0.5306459318914954,0.5337361452517401
67,0.5308303094739251,0.5346021425469992
68,0.5312449151187015,0.5292487016981196
69,0.5309560993830744,0.5229881622702848
70,0.5302634915168718,0.5293040475510384
71,0.5288258845404946,0.5282961186124475
72,0.5292915423496736,0.5288954248038821
73,0.5282080759771531,0.5234817214245484
74,0.5295962994809535,0.5256136591827766
75,0.5285951058856018,0.5268451042455675
76,0.5286948130928355,0.5256125186735378
77,0.5290894910609789,0.5243825830619168
78,0.5289233355975742,0.5248818499607276
79,0.5289775544076228,0.5281353475968482
80,0.5292259839822729,0.5255656530985046
81,0.5290213206069742,0.5309299933882143
82,0.5284011741098074,0.5217924981533116
83,0.5284858689867525,0.5217242031089885
84,0.528577881644098,0.5233764499543497
85,0.5282774681715275,0.5266243962199084
86,0.5288656435543589,0.5270914202284042
87,0.5287042534489521,0.5226815070518849
88,0.5283290116811733,0.5265703079450196
89,0.5285306118136878,0.5224324418930153
90,0.5285280315900783,0.5252433502495336
91,0.5290759395447662,0.5272035300966879
92,0.5285426563234161,0.5275666458736561
93,0.5288529611891694,0.522828076966842
94,0.5287703948912861,0.5204546434868013
95,0.5278756992398597,0.5226851627407059
96,0.5278539977413859,0.5316698070389131
97,0.5279802650237064,0.5223208964576661
98,0.5277493466004479,0.5212645934572724
99,0.5286756912343127,0.5306957635055307
100,0.5280384589537538,0.5255031623093275
101,0.5281688483427468,0.5337498205425049
102,0.5292689400277645,0.5224624820224112
103,0.5283177439852965,0.5211595322969116
104,0.5286359181173509,0.5233686518603267
105,0.5287954576676793,0.5236062620837761
106,0.5281899837281206,0.5243038375404
107,0.5282835858545715,0.5211408178027258
108,0.5278864487183752,0.5284933551804889
109,0.5282902992862782,0.5269124346543412
110,0.5280907620414556,0.5276215019993831
111,0.5280040705280243,0.5239743152376037
112,0.5285290326241204,0.524811600594419
113,0.5282788214971312,0.5298025080229978
114,0.5282352352790314,0.523019293512805
115,0.5291151897870093,0.521131096717967
116,0.5288927978058037,0.5240385594947562
117,0.528843237377471,0.5279158136933078
118,0.5287832566064229,0.5235338065693862
119,0.5282398358189898,0.5274752168647868
120,0.5293218063698303,0.5216512731096362
121,0.529161530694992,0.522566913758664
122,0.5292138336040229,0.5320556318562334
123,0.5285735706583583,0.5256300989153259
124,0.5284488384934257,0.5289469657446704
125,0.5287354986825816,0.5263715102480637
126,0.528834090601626,0.5270612845292878
127,0.5291538555845082,0.5267657036374852
128,0.529498409310119,0.5240672799246275
129,0.5298292997905867,0.5274128124012002
130,0.5301318071443114,0.5300533136421992
131,0.5309005342275024,0.5310822628385549
132,0.5308092243784813,0.5380481066624763
133,0.5287708766121182,0.5273253242143422
134,0.5293750234787984,0.5283976887377022
135,0.5299014223755883,0.5264388877948439
136,0.5291648989768146,0.5272390013994339
137,0.5304827720260353,0.5298256804459474
138,0.5308044829385744,0.5246169645671498
139,0.5304142902675959,0.5286218808594894
140,0.5309341439097334,0.528425247676747
141,0.5306824268006402,0.5356977063553862
142,0.53087373840199,0.5283045443193877
143,0.5302572437970758,0.5255566609357414
144,0.5315026199336437,0.5295175347350767
145,0.5304375372701984,0.5230304547295198
146,0.5300344107129115,0.5311755714401449
147,0.5309405707888942,0.5250415065294189
148,0.5300978058748108,0.5356890726672822
149,0.5290334006960539,0.5281415476795248
150,0.5299178896952781,0.5326020202019502
151,0.5302505469341263,0.5271816665296396
152,0.5307568270001385,0.528248890611066
153,0.5296005281708319,0.5275450649464705
154,0.5305670803542332,0.5246183934791312
155,0.5310426045903008,0.5260540261547115
156,0.5311327755308266,0.5292218564623627
157,0.53150200681816,0.5284566606417733
158,0.5316077914717291,0.5256506063473347
159,0.5329249034777915,0.5318865198362692
160,0.532916384492275,0.5283190846066825
161,0.5319136567562699,0.5267982943705338
162,0.5311683745597668,0.5254914366361563
163,0.53141286978714,0.5288648164545163
164,0.5315360961248168,0.5422268464702645
165,0.5316643149113293,0.5347107566993069
166,0.5323758679066154,0.5277111206171357
167,0.5317318121449267,0.5258972558245099
168,0.532689139318409,0.5279755425105062
169,0.532641484571113,0.5338922909327916
170,0.5336163437052025,0.534052049116347
171,0.532946813354294,0.5303150403659552
172,0.5329109568485348,0.5337911182345606
173,0.5327360724135459,0.5314932257619164
174,0.532793428233678,0.525977086108222
175,0.5326048744906434,0.5314942299614013
176,0.5317913440110491,0.527190788533618
177,0.5313084823526829,0.5296327660143987
178,0.5316759442253937,0.532364765489393
179,0.532196302136643,0.5286092790874234
180,0.5323541588444027,0.5300223237901761
181,0.5329677868280098,0.5378212004829412
182,0.5335447879003392,0.534768778222136
183,0.5330737299865765,0.5307026750569092
184,0.5334734373050724,0.5297229469481094
185,0.5332767815231609,0.5445673006109676
186,0.5338497181876386,0.5307431326857117
187,0.5332935109532041,0.5303487100747973
188,0.5335942197093766,0.5314287477435328
189,0.5332576656084267,0.5319001309356072
190,0.5325231016587487,0.5291974879007407
191,0.5329475401164435,0.5308690821456458
192,0.5332953602456741,0.5296775793220081
193,0.533218458878527,0.5303342351785493
194,0.5335974814794618,0.5287349185985002
195,0.5331355084618219,0.5331941591818312
196,0.5338527711508848,0.532411776712398
197,0.534810076157252,0.5379338418769385
198,0.533207516756942,0.5330294572469656
199,0.5334125106854977,0.5358098201518371
200,0.5329953334886107,0.5266735526455982
201,0.5325612232124777,0.5293788048067521
202,0.53442023905347,0.5326983779551199
203,0.5336808846722976,0.5303836460177506
204,0.533557891154842,0.534290384804064
205,0.533506972469586,0.5307377891551818
206,0.5323598535417272,0.5311859337335133
207,0.5326982151976021,0.5320209730490042
208,0.5335586712085943,0.5384655427819833
209,0.5336428949777647,0.5303729083844781
210,0.5334125139253983,0.5267447439252436
211,0.5337215550988317,0.5337280161567062
212,0.5337331144691562,0.5372099860408877
213,0.5344098564818037,0.5273200843215647
214,0.5342381653620851,0.5315062153405248
215,0.5348830202834116,0.532383996149453
216,0.5348535134828538,0.5345873936669696
217,0.5352449195323993,0.5376311393826612
218,0.5342330291069193,0.5368443596240754
219,0.5344794072883783,0.5288707709914601
220,0.5343851121447736,0.5387126326372799
221,0.5341864001932,0.5325095831830386
222,0.5352952513191626,0.5355853297245625
223,0.5350713801803253,0.529257132438759
224,0.5349163859487056,0.5296204145159793
225,0.5349836976503392,0.5300184327406308
226,0.5356865874011454,0.5308569307014899
227,0.535038518891346,0.5314426098927421
228,0.5350414222474102,0.5333589226501423
229,0.5354497252131919,0.5358442584642201
230,0.5356815413748331,0.526380468303986
231,0.5342017107968517,0.5305821412928761
232,0.5341974370580592,0.533647242360164
233,0.5347301863509116,0.5340863712302512
234,0.5350446553348447,0.530279823241501
235,0.5350688599901711,0.5324195403702727
236,0.5347289368927145,0.534848695819361
237,0.5354812999399636,0.5392215312138823
238,0.5353846738068796,0.5323509624743894
239,0.535179337878212,0.5368590436775852
240,0.5357727651163448,0.5317177087562519
241,0.5348261845864647,0.5318833292236268
242,0.5352633220972203,0.531150718984777
243,0.5362305388414412,0.532333654969719
244,0.5348680386488005,0.5305855920819099
245,0.5357911540545244,0.5297383701321452
246,0.5363296583402071,0.5317633731589133
247,0.53557864043543,0.5307481666672578
248,0.5351976627926175,0.5311638025100907
249,0.5363573895083914,0.5372822820528719
250,0.5368429439292728,0.5337280187441217
251,0.5352629960345612,0.5394412567978688
252,0.5356688167599084,0.5304751981875985
253,0.5370916158651753,0.5306783657706244
254,0.5353347075928887,0.5350240070516892
255,0.535223471151172,0.5330624099124014
256,0.5360779647918628,0.534785529949953
257,0.5345280450239456,0.5318096809812484
258,0.535097090055426,0.5323396182097877
259,0.5348253833542435,0.5339414488168429
260,0.5366601411768382,0.5321386988556281
261,0.5354791804969453,0.5349652806698288
262,0.5344776457591023,0.540871849188018
263,0.5353858707358035,0.5368866897890111
264,0.5343510184308989,0.5297411053596562
265,0.5349572033142681,0.5317274234195158
266,0.5352920464379229,0.5293908201528518
267,0.5361440509295673,0.5327122466434338
268,0.5358653099750348,0.5310595746386587
269,0.5358083659081722,0.5360877804616915
270,0.5368336931788188,0.5328550877397984
271,0.5373681407037685,0.5339051227731411
272,0.5232783717979534,0.5102345048440378
273,0.5094631661614069,0.5041840291437241
274,0.504453814144043,0.5094846546320625
275,0.5012289535918301,0.4960842431532462
276,0.5014915935736861,0.4992586240442889
277,0.5099827154077214,0.5079076055851901
278,0.5121753393507881,0.5087127362590375
279,0.5122270934778056,0.5127353291626323
280,0.5116399945639115,0.5078319720659279
281,0.5093566040626819,0.509824299045501
282,0.5109049898328827,0.513708028321955
283,0.5105034271351916,0.5079555985677308
284,0.5061914160264005,0.5074677500747373
285,0.5017357470749093,0.5001218779734391
286,0.4977918210790026,0.4934244512947131
287,0.49510773750756093,0.4878704610685711
288,0.4893151665453335,0.4839484183545553
289,0.48702433632670356,0.4837958969134652
290,0.48459983941652984,0.48356733848094563
291,0.48391987975362205,0.48351988838522475
292,0.4828392698300733,0.4840798624030417
293,0.4830891471400821,0.48022425082977493
294,0.4838455355734372,0.4864255037943773
295,0.4835458139507033,0.48539952687983823
296,0.48511165312582927,0.48190506810547334
297,0.48511591704962825,0.48471703683191525
298,0.48458671117191027,0.4798078059961971
299,0.4858940715293328,0.48602787217664833
300,0.4865252366192716,0.4807315984389494
301,0.4876210182714615,0.4848417619973915
302,0.48749295833537715,0.48180622845629395
303,0.48817076303547235,0.4851402781709688
304,0.4880338627562153,0.4866345391888833
305,0.4892583967660733,0.48689350624581257
306,0.4902157998032612,0.4919056158274671
307,0.49043277839867233,0.4877111760292264
308,0.4902757474487062,0.489412861987184
309,0.4913725524688129,0.4900914478367863
310,0.49189045866854564,0.49244669145642067
311,0.49246812536180923,0.48957122854106333
312,0.49313996987138914,0.49217931273516086
313,0.4944260317525513,0.490335474921289
314,0.4945910704983986,0.49195617122168417
315,0.4954246569523137,0.4949685197085401
316,0.49667535987879924,0.49315842360422757
317,0.49749218715990573,0.4968451301272497
318,0.49892709807431,0.494294709004844
319,0.49949686597291226,0.4970118536804262
320,0.5012808838527171,0.5073406045937406
321,0.5023656855169818,0.49697062147350507
322,0.5033020979399494,0.49691740543990975
323,0.5038971569445684,0.5075515742224789
324,0.5058880401648682,0.5095488808713942
325,0.5057809603967064,0.5044007890320427
326,0.508665212814947,0.5096817809997248
327,0.5100812513431866,0.5066581614015605
328,0.5113169420465863,0.5106040575462905
329,0.5123693544706471,0.5131232972067928
330,0.5161586397533698,0.5243933748427393
331,0.5164093678589348,0.5097680936296247
332,0.5205473212196197,0.5206586587541953
333,0.521948786364566,0.5174267550764257
334,0.5218809367917615,0.5208194503985528
335,0.5219948511424778,0.5193515134873876
336,0.5207942565091603,0.5073968101507487
337,0.5205828385720912,0.53238017992326
338,0.523924131259072,0.5137346995187352
339,0.5227368541782518,0.5103905430062136
340,0.525611984143726,0.5159571657241002
341,0.5239948156973917,0.5191855378384278
342,0.5329948040626222,0.5410705473635643
343,0.5512920444389041,0.5336401734468781
344,0.5404788222577837,0.5379291154685317
345,0.5400582164120998,0.5357738732350747
346,0.5437071596642288,0.5370790622040523
347,0.5412499261416978,0.5478891065107525
348,0.5424364445020826,0.5427876598927197
349,0.5179116472208815,0.3653307574512268
350,0.2801254901716368,0.2302781833069665
351,0.20684170362046012,0.18219421464058952
352,0.20137334871087237,0.1869546339421547
353,0.19825710941085237,0.18444417165364443
354,0.19280870463088642,0.19589292148059056
355,0.192641916106359,0.18331467694857972
356,0.19107523823170353,0.1885315345066593
357,0.18863727185103915,0.1897842237209841
358,0.19278980756430125,0.18639773290366193
359,0.19096800637283295,0.17714442371522335
360,0.1905269944291416,0.19702398197191762
361,0.18873689671476587,0.18525309331462245
362,0.19260699932071135,0.18368204920049155
363,0.191489352507414,0.17168783934547285
364,0.19006245496342603,0.19951131369480488
365,0.1928880586981964,0.19367828681747465
366,0.18955819095543724,0.17584266376570631
367,0.19038720857754027,0.20616603520975962
368,0.18982970765192542,0.17095715430842295
369,0.18958504141854057,0.18389703980231717
370,0.1905025988340759,0.1788071842412828
371,0.19291256109682872,0.18239681582659742
372,0.19144391255984775,0.21419014829345454
373,0.19330892372998498,0.2033967389045217
374,0.2000353579862798,0.21038031553365907
375,0.21693764171368785,0.22774669611510462
376,0.2509882204073796,0.24604006909016277
377,0.26517289247420384,0.26132418663368134
378,0.26979843954697885,0.25901859465930627
379,0.2688161928316863,0.26878873023021477
380,0.2704209689137271,0.26090841499857764
381,0.2705862613545238,0.26074516635620415
382,0.27248507733944416,0.275175436554975
383,0.28657891450644873,0.27672703610034843
384,0.2788165524768696,0.27391299566558336
385,0.2777693788413045,0.2702832129661173
386,0.2779413014650345,0.26873789575971196
387,0.2772325717395158,0.2860881816287067
388,0.2828622700260888,0.29157900654996766
389,0.29010164764502067,0.29672694356778334
390,0.2928148988458655,0.2779568324972535
391,0.2921424547223736,0.28634008781686016
392,0.2913400345592857,0.30413036237764096
393,0.29126144669277015,0.30166709700624306
394,0.2900960078771166,0.2916055643120994
395,0.28802853517776295,0.28217988844075914
396,0.28825372988752707,0.2777199801160486
397,0.28335678004484766,0.2711080802808903
398,0.2827553945741684,0.269018313785002
399,0.27999109960645796,0.2746416756084987
400,0.2779704793799314,0.2722302646315182
401,0.2784708150678116,0.26254846492007483
402,0.2772200315547504,0.2799124628328957
403,0.2751560856303056,0.2701070805116253
404,0.27310294064757923,0.2709911131044966
405,0.27262911327975353,0.2763026861713548
406,0.270120101176101,0.2535463421831191
407,0.2655789481995584,0.2599282065125648
408,0.263929185678633,0.25884169288385356
409,0.26430119885553083,0.25062379252750666
410,0.262824730228463,0.2632498627538839
411,0.2615765402440449,0.2600284377678982
412,0.26099213411053307,0.25074816774503395
413,0.2605651677976981,0.24907088975974115
414,0.2624967616679762,0.25198439878559337
415,0.2604876842787512,0.24719197554153632
416,0.258479085936249,0.2456356957025573
417,0.2575655256112893,0.24926256244353825
418,0.25724575353516854,0.2494741239318155
419,0.2575536588017794,0.2636530486941808
420,0.2564060485465445,0.24176603599194946
421,0.25477067000574344,0.2370608820158756
422,0.255886167496276,0.2479023528832945
423,0.25424596597608046,0.2395637086765354
424,0.2531761110698481,0.25049612939875243
425,0.25296938254369156,0.24192240857758104
426,0.25190748975907773,0.24177296319719177
427,0.25039523495115534,0.2345701200974298
428,0.24832754544050192,0.23318837904139778
429,0.2407486287595557,0.2361536863029897
430,0.23412332557540813,0.22695933771632087
431,0.2288963204200605,0.23703000298756358
432,0.22805360591502116,0.2254950027227778
433,0.22819803541393685,0.2177363119096199
434,0.22703274128605708,0.2142494838822989
435,0.22471452032109435,0.21988193377934767
436,0.2204306493107554,0.23199806255953653
437,0.22152794916614546,0.20642419488719813
438,0.2212235295265127,0.20653639273937047
439,0.2198210785762488,0.2102757332686279
440,0.2150948091054992,0.21566109948489454
441,0.21825412030724123,0.21690059280950627
442,0.21647590877031156,0.21280425169520614
443,0.21398164615999882,0.1962755895686507
444,0.21431919228997257,0.20448782990650577
445,0.21299310245936057,0.2130842617438737
446,0.21301635786545553,0.1952523802478387
447,0.21038057151839412,0.2141811394889052
448,0.21012090213245435,0.19918645626696999
449,0.20969973412825527,0.18929234906831122
450,0.2081647155453547,0.18686657818218055
451,0.2080072994104964,0.20616933596397632
452,0.20932646263703453,0.21151636363298948
453,0.20726422686204254,0.1828327186599715
454,0.20602825959380583,0.18930761227950207
455,0.203668599631146,0.17993780076738974
456,0.20244857260315632,0.20543482579767186
457,0.2041512001022923,0.19949579529387798
458,0.20281801565135602,0.21193854560180264
459,0.20035637273705548,0.19511974016652864
460,0.19780023022592783,0.18625141987202198
461,0.1995640276885814,0.18215252867155218
462,0.19502971208186076,0.19377154081283635
463,0.19050826250815944,0.1898529293058233
464,0.19062362823018925,0.17522320500630137
465,0.18678580087235125,0.18085265174896206
466,0.1874255481288492,0.18064598716801325
467,0.1824691827825124,0.16627257547231764
468,0.1794824790861681,0.18324273175485697
469,0.17954128518772067,0.15956595089013123
470,0.17664670680078576,0.15961453656136002
471,0.17273951618731928,0.1770637888158506
472,0.1700781883030153,0.15901626824697548
473,0.16873354617830852,0.15471065960583388
474,0.16333517923260288,0.13512773030300074
475,0.15654299944805966,0.1514973637795674
476,0.1522336897286151,0.15092737141823148
477,0.14865750367704816,0.12678352284709016
478,0.1487398820487763,0.12315270817458583
479,0.14499144000019865,0.13436675598608197
480,0.14438847957743253,0.12044777440079198
481,0.14419227671161067,0.12594927309908638
