epoch,loss,val_loss
0,0.7792902220222685,0.7782787062724431
1,0.778281702266799,0.778379235625267
2,0.7782292648156484,0.7781460417509078
3,0.7781973552968767,0.7783992365201314
4,0.7781785907612907,0.7781074788570405
5,0.7781671176751455,0.7781191359361013
6,0.7781574120256636,0.7781337400277456
7,0.7781471909549501,0.7781143586635589
8,0.7781405032740699,0.7781045063734054
9,0.7781344213353263,0.7782385922273
10,0.7781323718097475,0.7780953325827916
11,0.7781280649635527,0.7781348697741827
12,0.7781199862957001,0.7781152960062027
13,0.778114895025889,0.7780919599533082
14,0.7781128568649291,0.7781523136695226
15,0.7781111651129192,0.7780884654521942
16,0.7781073351171282,0.7780923578739166
17,0.7781043444871902,0.7780847022930781
18,0.77810040210353,0.7781504061619441
19,0.7780966408782535,0.7781510712305705
20,0.7780935630136065,0.778074287255605
21,0.7780942543347676,0.7780814157327016
22,0.7780921207004123,0.7781202299594879
23,0.7780880136092504,0.7781415493488312
24,0.7780848046011395,0.7780573245684306
25,0.7780777975188361,0.7780462135473887
26,0.7780763503445519,0.7781313605308533
27,0.7780760178168614,0.778071987191836
28,0.7780722574392954,0.7780577571789423
29,0.778071461531851,0.7780612886746724
30,0.7780725939538744,0.77811663266023
31,0.7780698393715753,0.7780678640206655
32,0.77806830587652,0.7781255811452865
33,0.7780680195755428,0.778048270146052
34,0.7780659247239431,0.7780525540908177
35,0.7780643424060609,0.7780338890949885
36,0.7780641581084993,0.7780505335330963
37,0.7780620642105738,0.778042905052503
38,0.7780599837435617,0.7781078291734059
39,0.7780608515871895,0.7780651925007502
40,0.7780579363107681,0.7780500729481379
41,0.77805709124936,0.7780389219522477
42,0.7780593160125945,0.7780300634304682
43,0.7780561125940747,0.7780336323181788
44,0.7780572347111172,0.778030252456665
45,0.778053325732549,0.7780398472944895
46,0.7780538872612848,0.7780695405403772
47,0.7780536291466819,0.7780370401541392
48,0.7780533303287294,0.7780404558579127
49,0.7780523556470871,0.7780281933546066
50,0.778050780667199,0.7780380754470825
51,0.7780484925243589,0.7780469399690628
52,0.7780485537184609,0.7780429654518763
53,0.7780520541403029,0.7780369807879131
54,0.7780502816306221,0.7780206226905187
55,0.7780482538276249,0.7780439181725184
56,0.7780471435652839,0.7780291293462117
57,0.7780487216975954,0.778048667271932
58,0.7780479139751858,0.7780248112678528
59,0.7780451955133014,0.7780246030489604
60,0.7780453794664807,0.778047054251035
61,0.7780452449321746,0.7780226984024048
62,0.7780436993704902,0.7780249797900518
63,0.7780449112123913,0.7780405648152033
64,0.7780453256236183,0.7780324415365855
65,0.7780443729559581,0.7780324662526449
66,0.7780431634849972,0.778053857366244
67,0.7780459687047534,0.7780172929763794
68,0.7780420735147264,0.7780195569594701
69,0.778041633658939,0.778025688290596
70,0.7780437839561039,0.7780190409421921
71,0.7780410045782725,0.7780429624319076
72,0.7780409358210034,0.7780184655586878
73,0.7780439617501365,0.7780185419321061
74,0.7780425692929162,0.7780899200836817
75,0.7780392873949474,0.7780164345900218
76,0.7780406745804681,0.7780215857028961
77,0.7780412544276979,0.7780154830217362
78,0.7780405074490441,0.7780291602611542
79,0.7780391369130877,0.7780376185576121
80,0.7780384682416915,0.7780369280576706
81,0.778039686481158,0.7781750380198161
82,0.7780379917621613,0.7780170139471689
83,0.7780374185376697,0.778019024570783
84,0.7780353917280833,0.7780757073163986
85,0.7780384089416927,0.7780309267838796
86,0.7780364918576347,0.7780627430280049
87,0.7780368486377928,0.7780239296356837
88,0.7780365216467116,0.7780060690641403
89,0.7780374541680019,0.77804077454408
90,0.7780344328350491,0.7780048859516779
91,0.778035081187884,0.7780080320835113
92,0.7780360292461184,0.7780100521246592
93,0.7780356990628773,0.778021390914917
94,0.778034419271681,0.7780099434455235
95,0.7780333797004487,0.7781684652169546
96,0.7780340884394116,0.7780138846238455
97,0.7780347865157657,0.7780220219691595
98,0.7780336611800723,0.7780352479219437
99,0.7780335943169064,0.7780078900655111
100,0.7780340229007933,0.7780077354510625
101,0.778032859298918,0.7780250749985377
102,0.7780327359040579,0.7780164404710134
103,0.7780318111181259,0.7780282837549846
104,0.7780341370900472,0.7780137031078339
105,0.7780318603912989,0.7780487708648046
106,0.7780336202250586,0.7780438793897628
107,0.7780322358608246,0.7780394363800684
108,0.7780317131943173,0.7780576057831446
109,0.7780333063734902,0.7780124214490255
110,0.7780333997938368,0.7780250438849131
