epoch,loss,val_loss
0,0.7792371702591578,0.7783482157389323
1,0.7783015805482865,0.7781878836949666
2,0.7782259509828355,0.7784320700565974
3,0.778190836403105,0.7781929800907771
4,0.7781719043122397,0.7781782220204672
5,0.7781506614552604,0.7781181435187657
6,0.7781313061846628,0.77820931828022
7,0.7781174703836441,0.77809186176459
8,0.7781079297860464,0.7781058277289072
9,0.7781022962331772,0.7780761733055115
10,0.7780986509455575,0.7780976222753525
11,0.7780907935433917,0.7780953804254532
12,0.7780902030600442,0.7780574841101965
13,0.7780844180716409,0.7782648783127467
14,0.7780807111793094,0.7780474726756413
15,0.7780782906744215,0.7780698176225026
16,0.7780743735498852,0.7780717728535335
17,0.7780726373328103,0.7780582824548086
18,0.7780714058743583,0.7780505712032318
19,0.7780682948827744,0.778080783367157
20,0.7780657057232327,0.7780360855261484
21,0.7780654109319051,0.7780460747083028
22,0.7780645170079338,0.7781181440750757
23,0.7780610786411497,0.7780430226325988
24,0.7780588572687573,0.7781711383660634
25,0.7780591034889222,0.7780687496264775
26,0.7780561593108707,0.7780388159751892
27,0.7780540898773405,0.7780359118779501
28,0.7780569197734197,0.7780623510281245
29,0.7780556928184298,0.778110745549202
30,0.7780549941062928,0.7780441340605417
31,0.778053859061665,0.778039914170901
32,0.778052942580647,0.7780222769180933
33,0.7780539965099759,0.7780884517828623
34,0.7780508395963245,0.7780403219858806
35,0.7780517355203629,0.7780932161808014
36,0.778050387567944,0.7780428653160731
37,0.778051706009441,0.7780299708048503
38,0.7780496902598275,0.7780734581549963
39,0.7780484238465627,0.7780375627279281
40,0.7780470729536481,0.7780426534414291
41,0.7780454668998719,0.7780211186806361
42,0.7780426615476608,0.778039637207985
43,0.778048363606135,0.7780576304197312
44,0.7780440953175227,0.7781524064540863
45,0.7780391760004891,0.7780301623344421
46,0.7780403695106506,0.7780421336889267
47,0.7780381362570656,0.7780144314368566
48,0.7780366035832299,0.7780156987905502
49,0.7780379836294387,0.7780564357439677
50,0.7780354854795668,0.7780313623746237
51,0.7780357970661587,0.7780838999350865
52,0.7780355496141645,0.7780090254147848
53,0.7780359429121018,0.7780232407649358
54,0.7780354744460848,0.7781105254093806
55,0.7780332104497486,0.7780106761058172
56,0.7780328662263023,0.778063003261884
57,0.778035826921463,0.7780184979041418
58,0.7780327634811401,0.7780315306186676
59,0.7780360609822803,0.7780700780948003
60,0.7780314030647277,0.7780124857028325
61,0.7780326144562827,0.778004437883695
62,0.7780328420665529,0.778007432103157
63,0.778033192038536,0.7780048730373382
64,0.7780309863090515,0.7780066003799438
65,0.7780322071843677,0.7780719842116038
66,0.7780301093922721,0.7780872093439102
67,0.778030399441719,0.7780009062290192
68,0.7780303293996387,0.7780277319351832
69,0.7780307689640257,0.7780076205730438
70,0.7780290412902832,0.7780037943124771
71,0.7780304710732566,0.7780423214038213
72,0.7780289338562224,0.7780255161126455
73,0.7780296824508243,0.7780085740884145
74,0.7780281064907709,0.7780110675493876
75,0.7780313894483778,0.7780173475344976
76,0.7780292006333669,0.7780084985494614
77,0.77802615931299,0.7781476718982061
78,0.7780246517260869,0.7779997761646906
79,0.7780254088507759,0.778002156774203
80,0.7780246055920919,0.778016627351443
81,0.7780250710381402,0.7780171767870585
82,0.7780237001180649,0.7780264962514242
83,0.7780233858558867,0.7780031565825144
84,0.7780241479078929,0.7780076882441839
85,0.7780230281088087,0.7780636481444041
86,0.7780234195126428,0.7779980836311976
87,0.7780222235255772,0.7779975822766622
88,0.7780227534241146,0.7780516953468323
89,0.7780236523416307,0.777999008655548
90,0.7780223622586993,0.7779955420096716
91,0.7780215042829514,0.7780146726369858
92,0.7780220683018366,0.7780261415243149
93,0.7780214054187139,0.778027659535408
94,0.7780222093661626,0.7782475558519364
95,0.7780212984879812,0.7780002437432607
96,0.7780206080675125,0.778026534318924
97,0.7780216422875722,0.7779973932504654
98,0.7780208769904242,0.7779982944726944
99,0.7780208716789881,0.778064277013143
100,0.7780212497711182,0.7781239617665608
101,0.7780211689869563,0.7779971272150675
102,0.7780198380682204,0.777999364177386
103,0.778020157986217,0.7779996860027313
104,0.7780210451947318,0.7780000462532043
105,0.7780215346415837,0.7780154600938162
106,0.7780217605034511,0.7780315728584926
107,0.7780206101338069,0.7780106206734975
108,0.7780205084217919,0.7780007784763971
109,0.7780204610559676,0.7780047290722529
110,0.7780216248167886,0.7781262478033701
