epoch,loss,val_loss
0,0.6241925051079856,0.6209494517246882
1,0.620993498828676,0.6215554310878117
2,0.6207945367760128,0.6206806141138077
3,0.6206585747798284,0.6206564884583156
4,0.6205774187909232,0.6204839938481649
5,0.6205292426877551,0.6204666442871094
6,0.6204813833634059,0.6203437356551488
7,0.6204485392173131,0.6203947300116222
8,0.6204160095188352,0.6210869364738464
9,0.6204090144501792,0.6203820722500483
10,0.6203914110263189,0.6203599661191305
11,0.6203739354345533,0.6204668420155843
12,0.6203736061520047,0.6203503990570705
13,0.6203603373103672,0.6202997767925262
14,0.6203644756211175,0.6203189089298248
15,0.6203465847306782,0.6203316410779953
16,0.6203497743474112,0.6202920225858688
17,0.620342046101888,0.6204413431882858
18,0.6203363553020689,0.6204029415448507
19,0.6203296585083008,0.6203343850374222
20,0.6203287657234404,0.6207173082431158
21,0.6203288723892636,0.6203197954893113
22,0.6203221821520064,0.6203764726320903
23,0.6203363416724735,0.6205657492876053
24,0.6203146590126886,0.6202763489087423
25,0.6203035106261571,0.6202755418221155
26,0.620319241868125,0.6203834272225698
27,0.6203042422135671,0.6203172229528428
28,0.6203113712602192,0.6204052629470825
29,0.6203024886449178,0.6202645020882288
30,0.6203053776555592,0.6203188642263412
31,0.6202983450094859,0.6203145597378413
32,0.6202993322081036,0.620549521446228
33,0.6203008389340506,0.6202656271855036
34,0.6202912230094274,0.6203997330268224
35,0.6202917128403982,0.6202750329176585
36,0.6202918131086561,0.6202898287773132
37,0.6202881343497171,0.6203053985436757
38,0.6202910640107261,0.6202916853030522
39,0.6202847635216183,0.6202871027787527
40,0.620287083334393,0.6203421375354131
41,0.6202866827646891,0.620377846678098
42,0.6202855152818891,0.6202742940584819
43,0.620286417749193,0.6202892821629842
44,0.6202778677013185,0.6203095289071401
45,0.6202813937266668,0.620305123647054
46,0.6202815136909485,0.6202909363508224
47,0.6202758568525314,0.620380047361056
48,0.6202800629006492,0.6203665042718252
49,0.6202773518032498,0.6203262513875961
