epoch,loss,val_loss
0,0.5756307572126389,0.5733847573995591
1,0.5735034648842282,0.5731650194327037
2,0.573288294090165,0.5731528193950653
3,0.5731676514546077,0.5730508550802866
4,0.5617478180064095,0.52555095632871
5,0.5255976787408193,0.5255095767974853
6,0.525557848877377,0.5255512212912241
7,0.5255265393654506,0.5255027483304342
8,0.5255063200924132,0.5257277248303095
9,0.5254944991535611,0.5255380888382594
10,0.525477108253373,0.5254806087414423
11,0.525470807870229,0.525384747227033
12,0.5254607985946868,0.5255401766697566
13,0.525456694179111,0.5253520367542902
14,0.52544087975555,0.5253555803696315
15,0.5254228350586362,0.5253649849891663
16,0.5254376051690843,0.5254013396898906
17,0.5254303448994955,0.5255894957383473
18,0.5254235436916351,0.5255513827403386
19,0.5254320165316264,0.5253871085246404
20,0.5254176349507438,0.5254432775576909
21,0.5254160745011436,0.5253470092614492
22,0.5254027785725064,0.526305032412211
23,0.5254065632025401,0.5253256652752558
24,0.5254029273589452,0.5253577751715978
25,0.525399915099144,0.5253646251360575
26,0.5253907074928283,0.5253853355248769
27,0.5253960183858871,0.5253543376525243
28,0.5253758237891727,0.5253508020242055
29,0.5253779668940438,0.5253137202660243
30,0.5253904419740041,0.5253841887315114
31,0.5253785798019833,0.5254372280836105
32,0.5253732891347673,0.5253879874547323
33,0.5253727800051371,0.5253578092257182
34,0.5253736844062805,0.525409876426061
35,0.525373085697492,0.5253482005198796
36,0.5253683557113011,0.5255825556119283
37,0.5253669234779146,0.5257377760012945
38,0.5253628141482671,0.5257923482656479
39,0.5253570849763023,0.5253230204582214
40,0.5253558698495229,0.5254058769543966
41,0.5253583378924264,0.5253041253884634
42,0.5253554557826784,0.525310355424881
43,0.5253569003740947,0.5253232839902242
44,0.52534751007292,0.5255182598034541
45,0.5253473116026984,0.525346209804217
46,0.525350340935919,0.5253536346356074
47,0.5253479192786746,0.5255374407370885
48,0.5253542110125223,0.5253142904837926
49,0.5253436169359419,0.5253063724438349
50,0.5253458071019914,0.525943486015002
51,0.5253366960287094,0.5253420042594273
52,0.5253431148926417,0.5253601050376893
53,0.5253384812672933,0.5253190309604009
54,0.5253448145124647,0.5253358238538106
55,0.5253415814638138,0.5255126163164775
56,0.5253308087189992,0.5253431939681371
57,0.5253364995718003,0.525393453558286
58,0.5253374206489987,0.5253528561989467
59,0.5253344370656543,0.5253056981166204
60,0.5253315315246582,0.5253048393328985
61,0.5253426956070794,0.5252986509402593
62,0.5253266647656759,0.5254980700413386
63,0.5253252083063126,0.5254003477891286
64,0.5253301133844588,0.5253563874165217
65,0.5253249166938994,0.5254903746843338
66,0.5253327304919561,0.525618971268336
67,0.5253358685572942,0.5256301778554916
68,0.5253288246923022,0.5253162730534872
69,0.5253277524709702,0.5255404264529546
70,0.5253172334697511,0.5257865371306737
71,0.525326420293914,0.5260073361794154
72,0.5253320194085439,0.5253160419464111
73,0.525325896276368,0.5253567222754161
74,0.5253296261363559,0.5256711664597193
75,0.5253223902251986,0.5253025336265564
76,0.5253200936714808,0.5253173727989197
77,0.5253209802574581,0.5254495596488317
78,0.5253272867070304,0.5253021309773127
79,0.5253117513259252,0.5254196947018306
80,0.525312276257409,0.5255402805010477
81,0.5253227090968026,0.5255081363916397
