epoch,loss,val_loss
0,0.5036843368477292,0.502242023785909
1,0.5021736964649625,0.5020266106526057
2,0.501985974046919,0.5021190139452616
3,0.5018432180484136,0.5019872824350993
4,0.5017946947945489,0.5017675032218297
5,0.501761060502794,0.5017037731409073
6,0.5016870522499084,0.5015604372819265
7,0.5016397051678764,0.5018711103995641
8,0.5016209688054191,0.5016282139221827
9,0.4811453253030777,0.4018816489179929
10,0.40191018250253463,0.40185615622997284
11,0.4018897157907486,0.4019042541583379
12,0.40187936889463,0.4017082870403926
13,0.40187335151433945,0.40172848252455395
14,0.4018688251574834,0.40202867782115936
15,0.4018686338994238,0.4017242343227069
16,0.40185044811169307,0.40178562464316686
17,0.40185952228969996,0.4017675499916077
18,0.40184755728642146,0.40179832673072813
19,0.4018488728735182,0.40236858095725375
20,0.40183308022552067,0.4017193490068118
21,0.40183754928244486,0.40171573785940806
22,0.40184195711215337,0.4017188765803973
23,0.40182492768764494,0.4016884729067485
24,0.40182807779312135,0.4018477725187937
25,0.40182333658801184,0.4020798366268476
26,0.40183553169171016,0.40186758758624397
27,0.4018300369050768,0.4018002243240674
28,0.40182525512244965,0.40190812361240386
29,0.40182488779889214,0.40170817402998604
30,0.40181838078631293,0.40172563137610756
31,0.40182036885288025,0.4019477878411611
32,0.40182374280691147,0.40171036434173585
33,0.4018098078171412,0.40169467715422313
34,0.40181299210257,0.4017305112481117
35,0.4018008949028121,0.40177727975447974
36,0.40181605538394716,0.4016613026460012
37,0.40180145172278087,0.40220414543151856
38,0.4018086366918352,0.40170793648560843
39,0.4018103945189052,0.4017123673558235
40,0.40180606418848036,0.40167879927158356
41,0.4018081008593241,0.4018281797965368
42,0.40180301533805,0.4021315894126892
43,0.40180588077836565,0.4017929898103078
44,0.4017993686265416,0.40174161158005395
45,0.40179046930207146,0.4016911948521932
46,0.40180039636294046,0.4017108379801114
47,0.40178369762500127,0.4016798644264539
48,0.40180502462387085,0.4017790475289027
49,0.40180147931973137,0.4023143878181775
50,0.4017928472624885,0.40175137102603914
51,0.40179742248190775,0.4018041637937228
52,0.40179325711064867,0.4018216544191043
53,0.4017888490226534,0.40166044533252715
54,0.4017899609009425,0.4017604558666547
55,0.4017857711977429,0.4017024959524473
56,0.401788612027963,0.40172020345926285
57,0.40178641245100233,0.40180247763792676
58,0.4017814614706569,0.401810263633728
59,0.40178447765774195,0.40177767640352247
60,0.4017810294760598,0.4016767195661863
61,0.4017790033817291,0.4016531226237615
62,0.40177517782979544,0.40167866653203965
63,0.40179346017042794,0.4016428342262904
64,0.4017836642795139,0.4017765174905459
65,0.40178836023145253,0.4017192524075508
66,0.40177827613221273,0.40171075842777887
67,0.40177742612361905,0.4019906125466029
68,0.40178360210524666,0.40197098650534946
69,0.4017793302734693,0.401721220990022
70,0.40178834840986466,0.4024293878475825
71,0.401781938943598,0.40171083799997964
72,0.40177638422118295,0.40177494364976885
73,0.40177231930361856,0.4016442147692045
74,0.40177653565009436,0.4017414415478706
75,0.4017797955142127,0.40170872497558596
76,0.4017697358528773,0.4016502524415652
77,0.40177342277765277,0.40257248636086784
78,0.4017850113444858,0.4017099638183912
79,0.4017710796197255,0.4018176201780637
80,0.401775846891933,0.4016443181037903
81,0.4017887481914626,0.4016221998532613
82,0.40177954733371735,0.40190968892971674
83,0.4017775588830312,0.4020093022584915
84,0.4017864140868187,0.402172870794932
85,0.4017772830790944,0.4016307861208916
86,0.40177598348591065,0.40166506212949754
87,0.40177242536677255,0.40182201309998833
88,0.40177371931738326,0.40166292293866473
89,0.4017791466580497,0.40165323676665626
90,0.4017695178190867,0.4017930360635122
91,0.401774608929952,0.40171376021703087
92,0.4017717588742574,0.402016720811526
93,0.4017701175676452,0.4017278090715408
94,0.40177019927899044,0.40174445217847826
95,0.4017674244178666,0.40171926174561184
96,0.4017774232427279,0.4018765430251757
97,0.4017745796508259,0.40165275434652964
98,0.40176430308818817,0.4017598211566607
99,0.4017698514329063,0.40183338101704913
100,0.4017749646372265,0.4018102267384529
101,0.4017673659523328,0.4019960378408432
