epoch,loss,val_loss
0,0.6029517847432031,0.6019047567844391
1,0.6016579047971302,0.6013629724184673
2,0.601522518104977,0.6016245977481206
3,0.6014607014258703,0.6013612567186356
4,0.5787655506398943,0.5016216220855713
5,0.5017371755705939,0.5017284510135651
6,0.5017302582793766,0.5015925002892813
7,0.5016965032948388,0.5015605498154958
8,0.5016523938708836,0.5014715467294057
9,0.501603288438585,0.5015078029235204
10,0.5015896073844698,0.5015433341662089
11,0.5015721138980653,0.5014866511821747
12,0.5015581642654207,0.5014734299580256
13,0.5015579106542799,0.5014916847149531
14,0.5015454663568073,0.5014590268929799
15,0.5015368053250843,0.5016131479342778
16,0.5015388320949342,0.5014835806687673
17,0.5015350992679596,0.5015670254230499
18,0.5015197503699197,0.5016321090459823
19,0.5015203758080801,0.5015569226741791
20,0.5015141731103261,0.501578997294108
21,0.5015007647673289,0.5013811244567236
22,0.5015068868266211,0.5014386134147644
23,0.5015119226111306,0.5015423616965612
24,0.501499352004793,0.5014227904081344
25,0.5015006872283088,0.5015487248500188
26,0.5014955859978993,0.5013913666407267
27,0.5015017123222351,0.5014664172331492
28,0.5015010185109244,0.5014619272947312
29,0.5015038232008616,0.5014505970478058
30,0.5014871342844434,0.5016236756245295
31,0.50149656785859,0.5014080330133438
32,0.5014848706324895,0.5014823176066081
33,0.5014899309343762,0.501472620010376
34,0.5014866348372565,0.501432795882225
35,0.5014880864355299,0.5013511104981104
36,0.5014802011648813,0.5013533553679784
37,0.50148850162824,0.5014256499210994
38,0.5014783014588886,0.501364879488945
39,0.5014806169006559,0.5014232148329417
40,0.5014822173118592,0.5017313356002172
41,0.5014828278621037,0.5014392754236857
42,0.5014805666340721,0.5013663649161657
43,0.5014812373320262,0.5014122520685196
44,0.5014738386339611,0.5013746257623036
45,0.5014887677033742,0.501456651767095
46,0.5014809130695131,0.5013868647019069
47,0.5014770690467623,0.501380574186643
48,0.5014765192800098,0.5014647189776102
49,0.5014822947846519,0.5013703199227652
50,0.501468124071757,0.5015241465965907
51,0.5014706635740068,0.5014137241442999
52,0.5014775123993556,0.5014299748738607
53,0.5014792529212104,0.5014083744684855
54,0.501473747531573,0.5017645984888077
55,0.5014667118920221,0.5015710099935532
