epoch,loss,val_loss
0,0.20608130690786575,0.20363382721940676
1,0.20333388933208255,0.20268151743213336
2,0.20309354148308437,0.2035684532125791
3,0.2029315840204557,0.20271169918775558
4,0.2028496934738424,0.2028533998032411
5,0.20279020152820482,0.20253275856375694
6,0.20275858599940935,0.2029691831767559
7,0.20271360228790178,0.20259415535132091
8,0.2026797775891092,0.2025315006474654
9,0.20266629258791605,0.20247798276940981
10,0.2025589745276504,0.20259907269477845
11,0.20251659741997718,0.20254658064246178
12,0.20252482566568586,0.20251885918776194
13,0.2024876320925024,0.20233312139908471
14,0.20249146339628432,0.2023893839220206
15,0.20248784906334347,0.20244038641452788
16,0.20248561268051465,0.2023007728854815
17,0.20247280452317662,0.20240986202160519
18,0.20246391132142808,0.2023679510653019
19,0.20246470638778474,0.20233219532171884
20,0.20243911429246267,0.20247291586796443
21,0.2024587023390664,0.2032336076994737
22,0.2024198660751184,0.20222283420960108
23,0.2024256249765555,0.20226280957460405
24,0.2024175954328643,0.2022497429251671
25,0.20241632092330192,0.20223700499534608
26,0.20242409225304922,0.20219213968515395
27,0.2024072022471163,0.20229362935821216
28,0.20241858027709855,0.20221504154801367
29,0.20238648428519568,0.20216741266846658
30,0.20239465360840161,0.20222457472483318
31,0.20238890305492613,0.20248544337352117
32,0.20239595172802607,0.20222413832942646
33,0.20239612534973356,0.20221958591540654
34,0.20239140660232968,0.20241185635328293
35,0.20238665582736334,0.2022202846010526
36,0.20239626776509814,0.2024094436566035
37,0.2023646787305673,0.20227178984880448
38,0.20238234616981612,0.20231296682357788
39,0.20237809463010895,0.20226433117190998
40,0.20238418087032106,0.20231801089644433
41,0.20237027720279163,0.20223406986395517
42,0.20238492031229866,0.20224882859985033
43,0.20237219862805472,0.20267204627394675
44,0.20236987272898357,0.2023544635673364
45,0.2023666584690412,0.2026901648839315
46,0.202361431290706,0.20239375279347102
47,0.202366114983956,0.20261898231506348
48,0.20237873549924956,0.20221116842826206
49,0.2023548163374265,0.20216974701484045
