epoch,loss,val_loss
0,0.40718549790647296,0.4042401677568754
1,0.40266895286242166,0.40216404432058334
2,0.39491932300726573,0.302552190164725
3,0.3025787293050024,0.3028693462014198
4,0.3025366660555204,0.30226287949085234
5,0.30247694377766715,0.3022877785364787
6,0.30242527890205384,0.30228314632177355
7,0.3024096617632442,0.3022856308221817
8,0.30236256806717976,0.3022007377545039
9,0.3023174177010854,0.3020950369040171
10,0.30222865184810427,0.30203999986251195
11,0.3022135939862993,0.3023888218800227
12,0.302198732164171,0.3023283343513807
13,0.30219472861289975,0.30210100203752516
14,0.3021954880754153,0.30210873957475026
15,0.3021855805383788,0.30232484817504884
16,0.302175100631184,0.30221765307585396
17,0.3021759409242206,0.3020057247082392
18,0.30216784189807044,0.3021867110133171
19,0.30216473494635687,0.30233178172508873
20,0.302163432723946,0.3021273594697316
21,0.30216005785597694,0.3020324438412984
22,0.3021670132478078,0.3024843638539314
23,0.30214457959598967,0.30227801032861074
24,0.30214874833159977,0.3020327673355738
25,0.3021396343774266,0.3020015322168668
26,0.30214432568682564,0.3019983260234197
27,0.3021390663054254,0.30207907072703044
28,0.30212886542081835,0.30204196461041766
29,0.3021423122021887,0.3019735858241717
30,0.30213856563303204,0.30220978993177416
31,0.3021405106650458,0.30222242544094724
32,0.3021317108207279,0.30221292382478715
33,0.3021267072028584,0.3020331978003184
34,0.30211594959100085,0.3028131014704704
35,0.30213104623556136,0.30206578197081885
36,0.3021267096532716,0.3020248420039813
37,0.30213258096906875,0.3019844833016396
38,0.3021280728313658,0.30208677663405736
39,0.3021201002730264,0.3023284552693367
40,0.3021210472517543,0.3020109347899755
41,0.3021315428217252,0.30202761751413343
42,0.3021228158407741,0.3020031841993332
43,0.30211874830060537,0.3019985705415408
44,0.3021125756568379,0.30193986201286316
45,0.3021296981573105,0.3019846366047859
46,0.3021326840519905,0.3019436797698339
47,0.3021113326218393,0.3020094505151113
48,0.30212002812491523,0.3023264731764793
49,0.30212110894256167,0.30195947144428886
50,0.3021226804123984,0.3019767757852872
51,0.3021250136031045,0.30197614137331646
52,0.30211620060602823,0.30196303832530974
53,0.30211816351943543,0.30210426622629166
54,0.3021163352131844,0.3020641903281212
55,0.3021193287240134,0.3019466115832329
56,0.3021179945336448,0.3020185419917107
57,0.30211841576629217,0.3019525070587794
58,0.30211179605457517,0.302309601187706
59,0.3021112787723541,0.30194868218898774
60,0.3021273910005887,0.30210825167099636
61,0.3021167321801186,0.30245987671613694
62,0.30211358586947124,0.3020873473485311
63,0.30212683626678255,0.30223928395907085
64,0.3021196300652292,0.3019482926527659
