epoch,loss,val_loss
0,0.5681546393123968,0.5556128046251619
1,0.5555991020136543,0.5558004216985319
2,0.5556332778776836,0.5555756347204583
3,0.5558567510387792,0.5559074229985658
4,0.5557737349267836,0.5555896980384033
5,0.5557614081625667,0.5556024607849863
6,0.5558749284847453,0.555760953156545
7,0.5557314780010687,0.5557302645918042
8,0.5556921237753691,0.5556741795908149
9,0.5557931003954611,0.5559485439879737
10,0.5556883902701805,0.5555777298584981
11,0.5557090989953005,0.5557231157880113
12,0.555750223988459,0.5557177734498647
13,0.5556950120291749,0.5555947319647409
14,0.5556897227421072,0.5556121071878904
15,0.5556856409712093,0.5557400412439395
16,0.5556980586043109,0.5556367781564557
17,0.555645194830297,0.5556754813103306
18,0.5556725951349974,0.5556423684075312
19,0.5557426358036218,0.5559456194964001
20,0.5556771327757171,0.5557923562704666
21,0.5556512764434737,0.5555921703339682
22,0.5556476029882212,0.5555847744342022
