epoch,loss,val_loss
0,0.35680393989326165,0.3334164123752422
1,0.3333972028490238,0.33345852794747016
2,0.33344204629854585,0.3336308344213316
3,0.3335581647570686,0.3334304541873808
4,0.3338272201189846,0.3345353036682834
5,0.3338340926101531,0.337747145204726
6,0.33368109226653697,0.33352147985838326
7,0.33375003462946506,0.3338482295071379
8,0.33366436971082913,0.3334817552283906
9,0.3336716216923856,0.33341313711160375
10,0.3336374224956393,0.3336372239972998
11,0.3336104219365649,0.3334142445557469
12,0.3512315143302147,0.33339604362224423
13,0.3333917997035233,0.3333796711183517
14,0.33337170613558,0.333377267778262
15,0.3333673441337935,0.3333699837241444
16,0.33336638335965546,0.3333570621845611
17,0.3333646643177598,0.3333747282494525
18,0.3333809784087785,0.33334953418637364
19,0.3333773977222592,0.33336515818222473
20,0.33338603621240465,0.33340158613109216
21,0.3334056631002496,0.3337654628550969
22,0.3334315006998938,0.33337052888750124
23,0.33345184750247525,0.3335892550756278
24,0.3334772425312378,0.33339577939228165
25,0.33345676158738485,0.33358402965598294
26,0.3334997564041761,0.33342352175540363
27,0.33343282903723465,0.334000943689175
28,0.3335414057886693,0.3334941886314354
29,0.33345765361000407,0.3333555550834916
30,0.33346478590293877,0.33349613151764024
31,0.33345642358545824,0.3335853777653333
32,0.333486081273706,0.333467276433283
33,0.33346616065546697,0.3334021642597147
34,0.3334494176007147,0.3335698685351953
35,0.3334604746100895,0.33339000991879403
36,0.33345355269341653,0.3336791923187865
37,0.33345096610704783,0.3333752257809813
38,0.333417100371912,0.33338799782319517
