epoch,loss,val_loss
0,0.7020571922858556,0.6668599354426066
1,0.6670897500514984,0.6668593763510386
2,0.6671146359443665,0.6668586405118306
3,0.6670650530788633,0.6668608337243398
4,0.6670371122625139,0.6668587339719136
5,0.6670683256520166,0.6668831508159637
6,0.6670212605794271,0.666859315276146
7,0.667021645532714,0.6668590818643569
8,0.6670146812068092,0.666858833471934
9,0.6670098760260476,0.6668591989278794
10,0.6669928883049223,0.6668594298760097
11,0.6670016888777415,0.666859112183253
12,0.6670073905653424,0.6668602537314097
13,0.6669745538632075,0.6668593765894572
14,0.6670005359914568,0.666859206199646
15,0.6669813596804937,0.667875166495641
16,0.6669928854836358,0.6668591518402099
17,0.6669783931043413,0.6668595451116562
18,0.667004879169994,0.6668589876890183
19,0.6669807203345829,0.6668588263591131
20,0.6669689161115222,0.6668588511546453
21,0.6669738161696328,0.6668601796229681
22,0.666991005367703,0.666858798066775
