epoch,loss,val_loss
0,0.6690502642525566,0.666859361966451
1,0.6671283257007599,0.6668584936459859
2,0.6670553593635559,0.6668586011330286
3,0.6671397578848732,0.666859161456426
4,0.6670703162087335,0.6668599248727163
5,0.6670644674433602,0.666859431664149
6,0.6670786259571712,0.6668583758672079
7,0.6670192171202766,0.6668589751720428
8,0.6670824072096083,0.6668590362071991
9,0.667048953016599,0.6668593600988388
10,0.667035032722685,0.6668596036036809
11,0.6670236419969134,0.6668588883479436
12,0.6670374597973294,0.6668673927386601
13,0.667032127433353,0.6668593523899714
14,0.6670207873980204,0.6668591944376627
15,0.6670049631330702,0.6668597568670909
16,0.6670073820617464,0.6668606686194738
17,0.6670137386719386,0.6668596820433934
18,0.6670141009489695,0.6668588570356369
19,0.6669960432582431,0.6668594226042429
20,0.6670052861902449,0.6668591910998026
21,0.6669841021829181,0.6673023874759674
22,0.6669763270484077,0.6668589740991593
23,0.6669851706822714,0.6668590432008108
24,0.666980093770557,0.6668588014443716
25,0.6669883701139027,0.6668599147001902
26,0.6669851027727127,0.6668599244753519
