epoch,loss,val_loss
0,0.8894793172809813,0.8889519960482916
1,0.8891886528862847,0.8889525427420935
2,0.889066870994038,0.8889526530901591
3,0.8890496589607663,0.888952785174052
4,0.8890369838078817,0.8889518500963847
5,0.8890350810819202,0.8889518767595291
6,0.8890258396731483,0.8889519234895706
7,0.8890308640797933,0.8889527384837469
8,0.8890044403738445,0.8889524587392807
9,0.8890161100228627,0.8889523956378301
10,0.8890045960744222,0.8889529407421748
11,0.8890136228667365,0.8889520554542542
12,0.8890115549299452,0.8889526071945826
13,0.8890082244608137,0.8889524190425873
14,0.8889993046654595,0.8895678295294444
15,0.8889966618087557,0.8889520685275396
16,0.8890022249486711,0.8889529172976812
17,0.8889961859517628,0.8889542598724365
18,0.888997847172949,0.8889515623648961
19,0.8890012679497401,0.888952226003011
20,0.8052561979161369,0.7779045164187749
21,0.7779931155310736,0.7779045050938924
22,0.7779869493378533,0.7779041292667389
23,0.7779831209580104,0.777903414050738
24,0.7779953023195266,0.7779054881334305
25,0.7779876069625219,0.7779064586957296
26,0.7779807077911165,0.7779031208753586
27,0.7779912043942345,0.7779407914082209
28,0.7779817695352766,0.7779041670958201
29,0.7779904940790601,0.777914491891861
30,0.7779803844160503,0.7779036980867385
31,0.7779850839773814,0.7779049070278804
32,0.777983633518219,0.7779042393366495
33,0.7779937529298995,0.7779089244206746
34,0.7779794842534595,0.7779705568949381
35,0.7779887952009836,0.7779144854148229
36,0.7779886874225405,0.7779043783744176
37,0.7779859153959486,0.7779043609301249
38,0.7779821360111236,0.7779037410815557
39,0.7779907888438966,0.7779062147140503
40,0.7779896566205554,0.7779041434526444
41,0.7779836199680964,0.778637614607811
42,0.7779953681892818,0.7779054256677628
43,0.7779841256671481,0.7779044016599655
44,0.777981504480044,0.7779056910673777
45,0.7779881217479706,0.7779044927358627
46,0.7779851539532343,0.7779055403073629
