epoch,loss,val_loss
0,0.8191149828674125,0.8074738148073559
1,0.8068865111215319,0.8070785751847084
2,0.8066330263607031,0.8067812753081227
3,0.8064267330651851,0.8068048459578426
4,0.8062938698332944,0.806432584513805
5,0.8064777955925055,0.8045691548131447
6,0.7941988057655682,0.7882129405084894
7,0.7998650279834116,0.8090127137766735
8,0.808171206169563,0.8077830196179644
9,0.8075535097282281,0.8077035160072225
10,0.8073790465518058,0.8071037008241113
11,0.8006827733356604,0.7926268494307948
12,0.7873544619380713,0.8286492668368634
13,0.7875659601579753,0.7852148168088887
14,0.7839317725812026,0.7841542833135555
15,0.7833049902670103,0.7833457074489006
16,0.7876944517155441,0.7856278011623855
17,0.7863530400607416,0.787021674268718
18,0.7862117176385616,0.7856567370298818
19,0.785725647739941,0.7859797661193451
20,0.7854093427566602,0.7867778238106075
21,0.7850478922577498,0.7845156109982244
22,0.7847070024549055,0.7846303764721871
23,0.7844293263795183,0.7839625932235086
