epoch,loss,val_loss
0,0.7988680430072294,0.7907340987140773
1,0.7897247979395109,0.9979058324867285
2,0.7911651074933967,0.7921374129232874
3,0.7934992476809416,0.8644286887139528
4,0.7925114043706136,0.7713650985787774
5,0.7719170604583075,0.7767743190255049
6,0.7701614187251654,0.7754955815817299
7,0.7727243023381817,0.769188025850147
8,0.765866116415873,0.7547689887041545
9,0.745792127484612,0.7360944784619061
10,0.7352121497134415,0.7384414731186022
11,0.7312555356944302,0.7279276979562327
12,0.7259627237832613,0.7221063782873357
13,0.718703783578057,0.7085066771262635
14,0.7152721714392173,0.6994448028498969
15,0.6943108627169157,0.6988725286820976
16,0.6901817903530112,0.6862476479847223
17,0.6864733420830551,0.6839655331485179
18,0.6846459116295374,0.6818941745027935
19,0.6829436989329892,0.6845215494555569
20,0.6803644890550801,0.676125212080759
21,0.6717788980876227,0.6677560363591141
22,0.6591166386739623,0.6320317468966851
23,0.6140282746794508,1.5472932262691628
24,0.5862980085692341,0.5712146903458033
25,0.569456088361885,1.3138653527777686
26,0.5686442058482807,0.5701240682187942
27,2.659687422567325,0.9329735526157912
28,0.9350245438938994,0.9317921525677453
29,0.9733036135216887,0.9310492514246735
30,0.9309782652165011,0.9303428305352685
31,0.9294536849625296,0.9283336002994167
32,0.9277180550957945,0.9277918600810261
33,0.8372794214627154,0.7232709876081561
