epoch,loss,val_loss
0,0.671525506734848,0.6686161648432414
1,0.668291752603319,0.6674744789997736
2,0.6384264606634776,0.5842253855069478
3,0.5845151429971059,0.5851001192728679
4,0.5842146206431919,0.5842054226795832
5,0.584144565264384,0.5838237361510594
6,0.5841399189498689,0.5841794027884801
7,0.5842274127801259,0.5838096396923065
8,0.5841155124240451,0.5851811005274454
9,0.5840501529773077,0.5840528337558111
10,0.5840335798660914,0.5838925204674403
11,0.5840175734625922,0.5839669817686081
12,0.5839639223946466,0.5839963643550873
13,0.5839792385631137,0.5840402373075485
14,0.5839483142296473,0.5839848520755768
15,0.5839340301222271,0.5839968359470368
16,0.5838939526610905,0.5852696188290913
17,0.5839014446205563,0.5838918555577596
18,0.5838654459052616,0.5837361981868744
19,0.583868220726649,0.5838369908332824
20,0.5838480696943071,0.5845670090516408
21,0.5838420842488606,0.5836997697353363
22,0.5838222555319468,0.5836726711988449
23,0.5838362478415171,0.5837829821109771
24,0.583801492969195,0.5836343244314194
25,0.583796064986123,0.5836508270502091
26,0.5837955501212014,0.5835851089557011
27,0.5837810113430023,0.583774100502332
28,0.5837697597477172,0.5837910815080007
29,0.5838267612324821,0.5838388744990031
30,0.5837924020952648,0.583661829829216
31,0.5837865710390938,0.5837863216400146
32,0.5837707073953416,0.5835950384934743
33,0.5837685774564743,0.5840343699057897
34,0.5837715524302589,0.5836082944869995
35,0.5837557245360481,0.5836145112117131
36,0.5837573456366857,0.5835951566298803
37,0.5837424626085493,0.5837715331315995
38,0.5837641557455063,0.5836955268383026
39,0.583733570628696,0.5838039693435033
40,0.5837351325352986,0.5836107538143793
41,0.5837431399557326,0.5837434401512146
42,0.5837167245149613,0.5837066721916199
43,0.5837245465649499,0.5837167395353318
44,0.583715577615632,0.5836383479038875
45,0.5837265310287476,0.5835631173054378
46,0.5837300400733948,0.5836431803305944
47,0.5837143075995975,0.5836709462801616
48,0.5837167475620906,0.5836778859694799
49,0.5837104627953635,0.5837243272066116
50,0.5837188353670968,0.5836043795744578
51,0.583701969438129,0.5838250492811203
52,0.5837000713348389,0.583804186741511
53,0.583729761838913,0.5835921533902486
54,0.5836978276835547,0.5835570836464564
55,0.5837085633145438,0.5837294390201568
56,0.583698817094167,0.583593118707339
57,0.5836953811248143,0.5836911878188451
58,0.5837234271764755,0.5835497686068217
59,0.5836936503648757,0.5836959098180136
60,0.5836895408895281,0.5836304836670557
61,0.5836912267605464,0.5835767471790314
62,0.5836773567332162,0.5835631836652756
63,0.5839910801384184,0.5835781998236974
64,0.5836680460373561,0.5844099835952123
65,0.5836740510993533,0.5836217979192734
66,0.583664083480835,0.5836244162718455
67,0.5836584033038881,0.5836069165468216
68,0.5836673172314962,0.5836239909331004
69,0.5836730645365186,0.5836243442694347
70,0.5836590028736326,0.5836180380185445
71,0.5836505224174924,0.5835209074815114
72,0.5836439363294178,0.5836015348434448
73,0.5836519058942795,0.5836394815842311
74,0.5836464669439527,0.5836025603612264
75,0.5836444554064009,0.5837672517299652
76,0.5836436515781614,0.583780386487643
77,0.5836407074398464,0.5835722234646479
78,0.5836403111484315,0.5835908585389455
79,0.5836371853086684,0.5835701706806818
80,0.5836351008680132,0.5836069465478261
81,0.5836437239779366,0.5835901229778926
82,0.5836374728944567,0.5835322476228079
83,0.5836419086853664,0.5837680434385936
84,0.5836261866490046,0.5835670638084411
85,0.5836259422302246,0.583569258650144
86,0.5836325092183219,0.5836019365787506
87,0.5836290830771128,0.5836659430662791
88,0.5836438822216458,0.5836216270128886
89,0.5836292557319005,0.583533228913943
90,0.5836180484427346,0.5836759794155757
91,0.5836191819906235,0.5835988626480103
