epoch,loss,val_loss
0,0.6700340797371335,0.6680912787516912
1,0.659205124311977,0.584950332681338
2,0.5851259890794754,0.5849108510017395
3,0.5850021554099188,0.5847994791666666
4,0.5849251181019677,0.5847195338408152
5,0.584851372440656,0.5847172314723332
6,0.5848101656569374,0.5847233208020528
7,0.5847925560341941,0.5846719071467718
8,0.5847792818413841,0.5847298810084661
9,0.5847713165548113,0.584724284251531
10,0.584758156908883,0.5847408175865809
11,0.5847542751365238,0.5846297783056895
12,0.5847570168309741,0.5846323125362396
13,0.5847439528968599,0.5847229434251785
14,0.5847453032864465,0.584644108057022
15,0.5847418628931046,0.5846952340602874
16,0.5847282294564777,0.5847882851759593
17,0.5847281296650568,0.5847562724351882
18,0.5847171125014623,0.5846265304088593
19,0.5847254210180707,0.584655387322108
20,0.5847047943274181,0.5847199602921804
21,0.5847088276942571,0.5849987725814183
22,0.5847034646537569,0.5847012496391932
23,0.5846904695298937,0.5846533751090368
24,0.5847009802261989,0.5846059637069703
25,0.58470577261183,0.5846149574120839
26,0.584710601846377,0.5846698870658874
27,0.584702081018024,0.5846372682650884
28,0.5846985879739126,0.5845937405824662
29,0.5846952979829576,0.5846335221131642
30,0.5846871671809091,0.5849234177271525
31,0.5846946325567034,0.584660080353419
32,0.5846926007138358,0.5846117794116338
33,0.5846921167108747,0.5848234732548396
34,0.5846839401721954,0.5846395883162816
35,0.584688944723871,0.5846197887261708
36,0.5846916438473595,0.5846458500623704
37,0.5846885583003362,0.5847410463492075
38,0.5846898337470161,0.5852623969713847
39,0.5846909285518859,0.5852728770573934
40,0.5846790330542458,0.5847589644193649
41,0.5846865972545412,0.584628815929095
42,0.5846916143099467,0.584639922618866
43,0.5846818511221143,0.5847322368224462
44,0.5846868008242713,0.584598903854688
45,0.5846866001553006,0.5847114804585775
46,0.5846843083832,0.584631545027097
47,0.5846860981384913,0.5850045345226924
48,0.5846854965156979,0.5849674888451895
