epoch,loss,val_loss
0,0.5864658102724287,0.585137688557307
1,0.5724607467121549,0.41919117015600205
2,0.419083525121212,0.41870744474728905
3,0.41895422888464395,0.4187205155491829
4,0.4188900769750277,0.42130786257982256
5,0.41883943876955243,0.4186363765199979
6,0.4188180672989951,0.41880347806215285
7,0.418797998269399,0.4188391542037328
8,0.41876841478877597,0.41874379271268847
9,0.4187529912193616,0.4189448206623395
10,0.41874289683500926,0.4185990716417631
11,0.41873750309149427,0.41865678906440734
12,0.4187292232049836,0.41856622527043025
13,0.41871936013301214,0.41883543608585994
14,0.4187094773054123,0.4186408189336459
15,0.418721407784356,0.41873632804552713
16,0.41870291464858583,0.41855347857872643
17,0.41869177542792424,0.41865880159537
18,0.41868699026107786,0.418844386001428
19,0.41868807919157874,0.41873171909650164
20,0.4186888538532787,0.4186082606712977
21,0.41868727031019,0.4187362828453382
22,0.41868424700366125,0.4186550641854604
23,0.4186769935819838,0.4185843394796054
24,0.41867392573091716,0.41924184890588123
25,0.41868453586101534,0.4187198808789253
26,0.41867989632818436,0.4187056080698967
27,0.4186760979824596,0.41863020469745
28,0.4186644616259469,0.41896339094638824
29,0.4186673611468739,0.4185485524535179
30,0.41867939098676044,0.4185836940805117
31,0.41867006693283715,0.4186348143617312
32,0.4186746855047014,0.418700664639473
33,0.41866975968413883,0.418557847281297
34,0.4186652061740557,0.4187333378593127
35,0.41867866079012556,0.4185721409320831
36,0.4186671927438842,0.4185442108909289
37,0.41866356588072245,0.4186563292145729
38,0.4186659455961651,0.4185548768043518
39,0.4186627451115184,0.41898801883061726
40,0.4186646485726039,0.4185879879593849
41,0.41866306669182246,0.41853832189242046
42,0.4186640395588345,0.4186869562069575
43,0.4186621481378873,0.4186054778496424
44,0.4186680109169748,0.41853097544113793
45,0.41866243877013526,0.41858639858166374
46,0.41866403898265625,0.4185453423659007
47,0.41866747544871435,0.41859215664863586
48,0.4186633668541908,0.41872264701128004
49,0.4186579231288698,0.4185570564667384
50,0.4186626005305184,0.4187606481909752
51,0.4186587807867262,0.4185946528514226
52,0.4186699727839894,0.41852021328608197
53,0.4186682398054335,0.4186423298517863
54,0.41866388507021796,0.41905035493771237
55,0.4186575003200107,0.4186067543228467
56,0.41867332837979,0.4186364208658536
57,0.4186650369697147,0.4185405607422193
58,0.41866511845588683,0.4186828343073527
59,0.41865775646103753,0.4185561001896858
60,0.41866441099511253,0.4186733906070391
61,0.4186561952696906,0.41880642239252724
62,0.41865979337029985,0.4186186145544052
63,0.4186589283413357,0.4186466106573741
64,0.41865415730079014,0.41861974078416825
65,0.4186667582988739,0.41853600839773814
66,0.41864722363816365,0.41879023681084315
67,0.4186688740452131,0.41857725258668266
68,0.418656393316057,0.4186951242884
69,0.41866092415650685,0.4187994433840116
70,0.4186576204697291,0.4185404450496038
71,0.41866522959868113,0.4186727618575096
72,0.4186556170185407,0.41864737164974214
