epoch,loss,val_loss
0,0.7787267500427034,0.7780333060820898
1,0.7780051923195521,0.7778609751065572
2,0.7778690765433841,0.7778949766159058
3,0.7778695733017391,0.7778424787918726
4,0.7778780767387814,0.7778626762231191
5,0.7778586126565933,0.7778245304028193
6,0.7778549753824869,0.7778490595817565
7,0.777854093975491,0.7779031839370728
8,0.7778444069756402,0.7778228930632274
9,0.777842292216089,0.7778310121695201
10,0.7778389554553562,0.7778414480288823
11,0.7778370512459013,0.7778181936740876
12,0.7778354722791248,0.7778282424211502
13,0.7778363488117854,0.7778321508963902
14,0.7778640650775698,0.7778238048553466
15,0.7779035397900476,0.7778225120306015
16,0.7778372039530013,0.777820260365804
17,0.7778343578312132,0.7778203179836273
18,0.7778499182197782,0.7778701777060827
19,0.7778363420036104,0.7778479413986206
20,0.7778404265509712,0.7778167477051418
21,0.7778336602184508,0.7778185180425644
22,0.7778317106962204,0.7778186384042104
23,0.7778295296430587,0.7778174508810043
24,0.7778284567462074,0.777824515581131
25,0.7778300777011448,0.777846020579338
26,0.7789971569776535,0.7778523480097452
27,0.7778519057300356,0.7778267668485641
28,0.7778351743088828,0.7778167652289073
29,0.7778300012747447,0.7778415055274963
30,0.7778561574353112,0.7778343439896901
31,0.7778298734691408,0.7778316787878672
32,0.7778318656285604,0.7778743023872375
33,0.7778325517707401,0.7778497917254766
34,0.7778294415209028,0.7778306063810985
35,0.7778304711447822,0.777817942182223
36,0.7778307474189334,0.7778292657931646
37,0.777824123263359,0.7778340006669362
38,0.7778280077113046,0.7778153459231059
39,0.7778239362637202,0.7778286678791047
40,0.7778244555128945,0.7778159638643265
41,0.7778261884053548,0.7778202837705612
42,0.7778226683272256,0.7778275018135706
43,0.7778226912551456,0.777822552839915
44,0.7778216989570194,0.7778414309422175
45,0.7778217142687903,0.7778131286700567
46,0.7778215167654885,0.7778331748247147
47,0.7778221618466907,0.7778190585772197
48,0.7778324134879642,0.7779170781373977
49,0.7778436774147881,0.7778292584419251
50,0.7778248478968938,0.7778223975102107
51,0.7778722560140822,0.7778168284893036
52,0.7778197125064003,0.7778269772529602
53,0.7778806034194099,0.7779003065824509
54,0.7778257678349813,0.7778407003879547
55,0.7778250914944542,0.7778208528359731
56,0.777824036333296,0.7778191270828247
57,0.7778315806918674,0.7778128256003062
58,0.7778245890935263,0.7778224077622096
59,0.7778227255476846,0.7778230425914129
60,0.777825359834565,0.7778324574629466
61,0.7778241817553838,0.7778323317368825
62,0.7778239623440637,0.7778211735884348
63,0.7778476398918364,0.777824144244194
64,0.7778226194381714,0.7778229964176814
65,0.777824113673634,0.777828899025917
66,0.7778248161872228,0.7778220797777176
67,0.7778230056762695,0.7778288591305415
68,0.7778326629400253,0.7778237377405166
69,0.777827931245168,0.7778193729321162
70,0.7778575183418062,0.7778269098202387
71,0.7778220485051472,0.7778265723784764
72,0.7778218143251208,0.7778298440774282
73,0.7778210065894656,0.7778197671175003
74,0.777866579691569,0.7778272067308426
75,0.7778323970503277,0.777818998893102
76,0.7778241506550048,0.7778396750688553
77,0.7778212090730667,0.7778468995889027
