epoch,loss,val_loss
0,0.33551786955197654,0.33355700339873634
1,0.33366652350293263,0.333654205083847
2,0.3336110805206829,0.33348733258247376
3,0.33358721101946304,0.33350648283958434
4,0.33354292107952965,0.33348189477125806
5,0.33360034765137564,0.3334892223676046
6,0.33353082146247226,0.33349844058354694
7,0.3335916651089986,0.33347259187698364
8,0.33351002869341106,0.33347193815310794
9,0.3335169358121024,0.3335418593287468
10,0.3335423507889112,0.3335084602634112
11,0.33350922424263424,0.3336661033829053
12,0.33350452095270156,0.33351426768302916
13,0.3335080738464991,0.3334748690923055
14,0.3335477276510663,0.3334748251636823
15,0.33350878372457293,0.3334473228653272
16,0.33349812735451595,0.3334574854771296
17,0.3334967838724454,0.3335500364502271
18,0.33348961240053177,0.3334654856522878
19,0.3334908749461174,0.3334518503348033
20,0.33355886487166087,0.3334406947294871
21,0.3334766152434879,0.3334574448664983
22,0.33348096086581547,0.3337120165626208
23,0.33347940944963034,0.3334646579623222
24,0.3334794914391306,0.33356357663869857
25,0.333476001434856,0.3334523261785507
26,0.3334771698249711,0.33349035423994067
27,0.3335369781984223,0.333500870068868
28,0.33350736070341536,0.3335643060604731
29,0.3334888128307131,0.3334563386837641
30,0.33353830703761844,0.3334915639559428
31,0.33368471454911763,0.33353190807501476
32,0.33350125499566396,0.3334800628423691
33,0.33349544170829987,0.3334842998981476
34,0.3334834945599238,0.3334455088973045
35,0.33348024258348674,0.33350385518868764
36,0.33351936656898923,0.3335045992533366
37,0.33349191676245793,0.3334744093020757
38,0.3334919596645567,0.33353262416521706
39,0.3334860932495859,0.33346602072318393
40,0.3334794693655438,0.33346792876720427
