epoch,loss,val_loss
0,0.500452694425686,0.5015174287030684
1,0.4916361056632095,0.4891687265906214
2,0.4863684523263104,0.4831325546426688
3,0.46962485930698217,0.4473867777248562
4,0.4599795822409079,0.4741060034782057
5,0.44052536524325203,0.2889751842228842
6,0.31167852132915974,0.2956827918350068
7,0.4078939813282415,0.4108245406127614
8,0.4130406120808436,0.39412815555845543
9,0.31817638951005506,0.3060297630757504
10,0.2540857296308772,0.2063561858607808
11,0.2362093565235432,0.2526961151096556
12,0.27105536201507974,0.44675827398594087
13,0.3443909082129252,0.24026204057080128
14,0.19986204582276204,0.18411885721598423
15,0.18381213829863827,0.2130266128520316
16,0.18940112649726334,0.2027092173224238
17,0.18393718686590108,0.16741567002934166
18,0.20174771312883705,0.28655707463924224
19,0.302528256525079,0.23378978855756852
20,0.24429687327318328,0.24757789596250554
21,0.2453085356552282,0.22975143287497038
22,0.24531514822148245,0.22292579905056703
23,0.24872739536701152,0.2161303498424946
24,0.25163832233489464,0.24358101029610693
25,0.24194383047956577,0.2424955167184491
26,0.25119436803677253,0.28203527826365665
27,0.26478415625013285,0.2688497293918769
28,0.2644175690374344,0.23443070008130162
29,0.23982011755291607,0.23623709657379793
30,0.2448715195954562,0.2947397066970618
31,0.2507826396770435,0.27757152211637104
32,0.26496145261035525,0.24588970303390437
33,0.25854462120917626,0.23062725638289425
34,0.2568967147850341,0.23426417538719455
35,0.25906743037643387,0.23819192323081395
36,0.258703377989648,0.22166420147125063
37,0.2479558768357822,0.2637637297820001
38,0.25493945334676366,0.20907260013467785
39,0.2556632283666403,0.24579175851109158
40,0.2624602649656174,0.23809830112033806
41,0.27487388770397997,0.2263654006006074
42,0.23327716114260466,0.22578211338995727
43,0.2277139140079745,0.23714571359770528
44,0.23710081701258642,0.2749069058015302
45,0.2365829483438149,0.2228396624955141
46,0.23645945351490313,0.21476843098702705
47,0.23496585203896914,0.2627703255134584
48,0.23604205509631324,0.21362820213293507
49,0.22601920336461048,0.2631107962237851
50,0.22856003025157437,0.22753236883313116
51,0.23584050820578184,0.24959760285545343
52,0.211393375752018,0.21209920182618686
53,0.2288049023577554,0.2903517918526788
54,0.2782436830459164,0.2742766350483566
55,0.29281142300324403,0.3141596180244084
56,0.3382433785485019,0.3234659108512303
57,0.29407434376050606,0.30604901037270327
58,0.25849223407127075,0.22762703216375613
59,0.24883482844424878,0.26417783108167503
60,0.2541710098950361,0.2721588307657768
61,0.25367915285549897,0.235085508756684
62,0.260159600552938,0.2701072604769338
63,0.24917202828835258,0.230972675438925
64,0.25856170293877273,0.2564035222260621
65,0.2607951872796417,0.2848479555374418
66,0.2610128846368473,0.22091683925455022
67,0.26412306876302816,0.25777476299659857
68,0.26780215177157096,0.2625800711491779
69,0.26842003803047015,0.2728049206666026
70,0.2668695608862311,0.2676721119411767
71,0.26563272852483416,0.2831560293301662
72,0.263971531875521,0.27359318954376116
73,0.2680868810062126,0.34429815621851717
74,0.2619205535686999,0.24961543173830586
75,0.26521546419283404,0.2736185309080602
76,0.25751445103612686,0.2756334930682511
77,0.25665859291083915,0.24326793367265204
78,0.2623711039570926,0.25704116001423066
79,0.2567426646777016,0.2409069872032987
80,0.2657161555808482,0.2370326475747117
81,0.26431576311707594,0.2496696988910751
82,0.26620065631438866,0.25340169291136616
83,0.2632624243644832,0.27354185187710267
84,0.25957100763857316,0.25082346121421795
85,0.2612339902678139,0.25769296147092413
86,0.2759462822142174,0.22951731304521011
87,0.26200819902533623,0.2563869837499303
88,0.2548352397853036,0.25569391694140453
89,0.26233469909004825,0.23026294942223147
90,0.2558710282031682,0.24925201722788598
91,0.2468110044495023,0.25202145564633466
92,0.2697974093514886,0.31114001022251464
93,0.4824267447030573,0.5081605278227451
94,0.4999761546822526,0.49382894532717253
95,0.49988584163143124,0.5005632964025546
96,0.4874464657375391,0.4910943030054165
97,0.48317419884918783,0.4825772379388291
98,0.481955087941298,0.48914178635468836
99,0.48454530864023415,0.47406584621442593
100,0.485200945404265,0.4819455837826369
101,0.4819816252510485,0.47846438330262053
102,0.4854291074628158,0.48469481819640886
103,0.48271309363068915,0.48037724906317314
104,0.4861199856043053,0.47763489195223463
105,0.48560499443446664,0.48267130808721975
106,0.48508534361544947,0.4860821114936111
107,0.4871709542908222,0.47932134110658803
108,0.48362643393972,0.48773795578988316
109,0.48868862758453985,0.4744811577228444
110,0.48772294194198207,0.47506057773773397
111,0.486823290598402,0.49894163962408283
112,0.4881449764828571,0.48099125079381594
113,0.4862973987578964,0.4820108507478131
114,0.49041002962568264,0.484133081787114
115,0.485754192662869,0.49083160902075135
116,0.4866236443038556,0.55896670883106
117,0.4901067928565417,0.4963761424737932
118,0.49144005782609945,0.5081151423179707
119,0.4906072745306956,0.48729203173713964
120,0.49118408405656716,0.4890395363993695
121,0.49882279626362985,0.47659945326033204
122,0.5119869279398548,0.515372451325306
123,0.4576311633766318,0.3096908191211419
124,0.2930431078144128,0.2985867457426571
125,0.28885725168011683,0.27501600135996973
126,0.25179076769812,0.3145730138453447
127,0.3795613295095171,0.4663690579005208
128,0.43255076692808714,0.41643822930348373
129,0.41844331331735996,0.41140111301937243
130,0.42198038026034307,0.4196292013292475
131,0.384514711660037,0.33264256082021987
132,0.287457681118583,0.29560779867767806
133,0.26787083255972644,0.2397818787617115
134,0.26323001612249236,0.28108745885881486
135,0.2678973675907565,0.2725744903305151
136,0.26142525682456974,0.28502950989561937
137,0.2700216893771823,0.28026970106706517
138,0.2650393951382992,0.2591768366625323
139,0.2593160195170258,0.27516175909247326
140,0.2675625565674326,0.28420485637097076
141,0.271999956030336,0.27117041143719395
142,0.2612487403772849,0.25710689591278607
143,0.2614626380934822,0.29408683899158594
144,0.26613378249186337,0.27450204438198317
145,0.2700228413717569,0.23765168483433255
146,0.26597463226824214,0.24712215956158495
147,0.26595198884427407,0.2429764757457054
148,0.2709392053339842,0.2669384093518578
149,0.26882448680311133,0.2708989671111977
150,0.2708598474164406,0.3141134260683067
151,0.27619868022403876,0.2927698955386998
152,0.26203944455322215,0.2316284860089264
153,0.26285362006235924,0.25868435636682424
154,0.26977233814777996,0.25908440254803894
155,0.277291481618026,0.29439244111765717
156,0.2690935942759697,0.27256393140153196
157,0.27390048197739786,0.2836597379590086
158,0.27149686004349094,0.2355864236534657
159,0.27535564775129046,0.24988531375066692
160,0.2750854742071264,0.2742351640411634
161,0.2730669862537789,0.23875553333121205
162,0.281300545884095,0.2697533408099814
163,0.2865906240309688,0.2660616126156201
164,0.2817210639663655,0.3102783554226813
165,0.277901170937847,0.2875253461234858
166,0.27560364483021277,0.25502672132832777
167,0.27142539035209756,0.24215180438317038
168,0.27961172307248683,0.2736995437719526
169,0.27710149147875124,0.2959497548512879
170,0.2727078555451573,0.261276929507097
171,0.2686176035967801,0.2577918471476941
172,0.27939131768872205,0.29586146383970036
173,0.28132405585413267,0.25778097553603163
174,0.2527570045106501,0.24123187927530726
175,0.25554589902739033,0.2650210678408229
176,0.26786411415824324,0.2894292920223601
177,0.26931520974974904,0.29997930501112585
178,0.27385157758326795,0.26387078650386375
179,0.26129719995564704,0.23657781891192448
180,0.26443931830225226,0.24104921583808347
181,0.26722011164582377,0.245845554156315
182,0.27350133699808626,0.28610856825031117
183,0.2795516413101871,0.2451110920670162
184,0.2711077137552709,0.24655510238632378
185,0.274190506510872,0.27758269478466485
186,0.28269181699395846,0.3257017430501166
187,0.3313570052051277,0.2698414041347264
188,0.26972796525164927,0.2803566489075609
189,0.26830741146309456,0.2763076734102942
190,0.2707947939872933,0.3758776154783037
191,0.2661758933046324,0.2715454041377761
192,0.2663985159012487,0.28549560981848715
193,0.26132854125540766,0.25893130832006556
194,0.2745415926981774,0.29762416766217736
195,0.26494513795650704,0.25392418246586346
196,0.2704169552108113,0.26380166811422906
197,0.27372461485208943,0.2683533311784509
198,0.26494635643960956,0.2630845163038661
199,0.31614398149202305,0.4420591749655746
200,0.29170518794997014,0.28030318720303987
201,0.29643226612964757,0.2970182266741967
202,0.2848793533895376,0.28747386228525823
203,0.2953138021204928,0.28389417392784083
204,0.2874339478518411,0.25525153120745514
205,0.2949828900593677,0.30908959608491804
206,0.2897603993204902,0.22706682268237063
207,0.28743139717629473,0.2836910028188865
208,0.28660952567672426,0.3064563376625089
209,0.29915372267353524,0.26159423674303445
210,0.28440117546684557,0.31573832830276705
211,0.28657760084558237,0.25594135531543816
212,0.3069289940192377,0.28475818369123673
213,0.2882469962891624,0.28475414768816104
214,0.313218980771098,0.30062023885638756
215,0.35963913677834436,0.2904565373959816
216,0.3407839625847158,0.29694358256418146
217,0.3101161153937837,0.27280592339510656
218,0.3217335337634274,0.2824040630293008
219,0.3084007257385384,0.4261303805811852
220,0.32859251746614043,0.2695802536952428
221,0.34096821527585114,0.3608074593814717
222,0.33581757571121706,0.3226797594979635
223,0.32054618308193883,0.2555989736792332
224,0.32405168360905995,0.47948746176531715
225,0.3345097992375338,0.3120724678958033
226,0.3562851516698436,0.438095225953321
227,0.3526048238237826,0.3229754261388493
228,0.3470542490887966,0.31500468554771344
229,0.3484928200336052,0.3621482246790296
230,0.3370018831377415,0.3682398931195073
231,0.32714010300852947,0.36500096335608306
232,0.33672694617910703,0.315633199003201
233,0.2863043521980556,0.2882854472256635
234,0.29378815150981524,0.2436149637460322
235,0.3147194908978082,0.32917366973868445
236,0.3025638205860499,0.29111842725302084
237,0.3187656085296952,0.3502354964384294
238,0.3658351415903975,0.26786582028102024
239,0.3239402204238958,0.3366652432487732
240,0.3198032467197284,0.29511653506842844
241,0.2999893826029127,0.27801920554547027
242,0.345798880398703,0.4575349941112506
243,0.3657972379099187,0.31790137252281664
244,0.27938151486021123,0.26242304162484115
245,0.28178567663610604,0.2563282119870089
246,0.3006828206958916,0.3219654258198595
247,0.28642229439379024,0.26194540467430494
248,0.2984798685300818,0.2581007129543696
249,0.3090426916535422,0.4524378104608231
250,0.2913831301433168,0.2409511740770363
251,0.27755788332514997,0.2726566369516136
252,0.2811337091189752,0.2964531856151683
253,0.30796609222411725,0.2598161739323648
254,0.29358216373322965,0.29482653761238753
255,0.28718977261057277,0.2523381616028943
256,0.281722473832156,0.3637128984261023
257,0.28754349875512175,0.26609471008870433
258,0.29361980870735943,0.34222245883477576
259,0.28469613773690117,0.27111972619485586
260,0.291568987471185,0.26527468183373204
261,0.29499991766637185,0.3600201837821212
262,0.31631717264198894,0.2639291128755486
263,0.29266428018661383,0.3021592903891329
264,0.4289678757170661,0.5402836980900916
265,0.46277718142188007,0.4216894956255771
266,0.3808611552055785,0.38719469183166144
267,0.396043420148144,0.4419784487889051
268,0.38270248360544135,0.31388223492702816
269,0.3233487559519738,0.32403518384003777
270,0.3069849009450385,0.3086173757971155
271,0.285551213748079,0.30718819392181856
272,0.29124579128859235,0.29160556325270504
273,0.31535676039391464,0.3207304825022853
274,0.2934377985336095,0.24594532240964684
275,0.3597390445842564,0.3615503921222609
276,0.30088290298958603,0.2256952068328084
277,0.39965190944240225,0.4900506879871489
278,0.3849886147688636,0.3120869223605494
279,0.33865498578410036,0.43049951495915434
280,0.3281385236627775,0.2733435952750436
281,0.2737333884863876,0.2588973566225072
282,0.26866001308894905,0.2533852183784978
283,0.27864963172959556,0.2682047555553942
284,0.2820704485937726,0.26192930296051337
285,0.2725088086793478,0.2562406617552888
286,0.2681504095061194,0.2512983065113631
287,0.27541409436467174,0.2794805886850837
288,0.2741617173004189,0.31880595330194256
289,0.2855339586209831,0.2823340075584514
290,0.275161071281561,0.2733573907894133
291,0.27449862530128394,0.30934651661286583
292,0.2744555780000454,0.27568533255235994
293,0.2772600294960986,0.25671307456174325
294,0.27238109133380045,0.31161133680320424
295,0.27764037541979497,0.26821400169570175
296,0.2740685748960897,0.27701763394201856
297,0.27974372209788706,0.2688015446683206
298,0.27866165949593935,0.2652318732509358
299,0.28073360513242557,0.29441799045769257
300,0.27961043705097477,0.2541554114945227
301,0.28133992207727976,0.2592899853126459
302,0.2831636735493894,0.32006143868597947
303,0.2676507264936419,0.24656423164980254
304,0.273088551401567,0.3077579172326604
305,0.2817676313299003,0.2765086967821346
306,0.2868756865791744,0.25989645234908115
307,0.27671210505992916,0.23205879655729342
308,0.27329021639185397,0.26963689281557596
309,0.2758423426659037,0.30392890511154647
310,0.2850508633747494,0.27633840882575134
311,0.28679011884429534,0.2754220566731203
312,0.2772969743661923,0.29554767849864944
313,0.28017290138764034,0.3421922535163449
314,0.2816030790893625,0.2929523406914358
315,0.29693219637732393,0.29562149027064866
316,0.27191932094965676,0.27117123224584433
317,0.2746871622492544,0.2645999862233121
318,0.2704015285719195,0.2851944689284663
319,0.2790875565573824,0.28050552847563304
320,0.2829689435583291,0.24476557345237562
321,0.2753169565521974,0.2714397751115148
322,0.2749259313993496,0.29015091240454377
323,0.2764538369351048,0.2698667036960111
324,0.26985143234221054,0.24709185482956778
325,0.2788153863888535,0.24865723007931906
326,0.28110752663343214,0.2907630316097371
327,0.27661392896818676,0.24442109642044277
328,0.28420499906098967,0.2811089553367966
329,0.2828877288713944,0.2742671751797151
330,0.28075656840045327,0.27335067052282364
331,0.2750492298884617,0.24651219233544203
332,0.2938750082011028,0.3096487997318803
333,0.2730937163122565,0.30058075653182137
334,0.27780693032748227,0.25921052759581237
335,0.26947233327228226,0.24316591372455124
336,0.27439357293807,0.2666844456711148
337,0.2746612036450087,0.2233078141378757
338,0.2657317598108008,0.282157395612101
339,0.27369656999579806,0.2886811087553035
340,0.2738625925001476,0.2811092261560352
341,0.270721910463227,0.28103644699945934
342,0.2755231997244257,0.24360086439541465
343,0.2838955895245982,0.264028647967402
344,0.2796069821767849,0.27236641169996256
345,0.27547925986272037,0.2793411311224429
346,0.28703070343662207,0.29546438719524376
347,0.27254031759629355,0.25919484607543003
348,0.26811444311976146,0.25839944728872977
349,0.27211221240705447,0.2881974684979407
350,0.27614993448134323,0.36581226436471126
351,0.2783337070213689,0.25663070021754636
352,0.2794717776061918,0.28999437982728593
353,0.27215316430557435,0.30926394370737254
354,0.28114852236451104,0.27721802037079357
355,0.2771818561254262,0.2973470853434669
356,0.27446143334512235,0.26603336049740817
357,0.27197444262959847,0.2575006882591356
358,0.2758464898535306,0.3022323032510252
359,0.27286467535959613,0.26486579660516585
360,0.281376178230974,0.2885326179347189
361,0.2792402102445678,0.2808387677599914
362,0.2735383059021184,0.22885511990784632
363,0.2699832324985507,0.24798664930431416
364,0.2736958008501127,0.30877800134750083
365,0.27708910762356986,0.27740546641606967
366,0.274414433722643,0.29067887908447493
367,0.2748143352073035,0.2906646918496366
368,0.2815954855936255,0.2634624296924687
369,0.2812395851143462,0.27919311363428273
370,0.2816440040011517,0.30180043098120213
371,0.2841216969707186,0.2652873831097904
372,0.2776777515407082,0.27367628570600727
373,0.2789297214000105,0.25188751629911005
374,0.27869150746431803,0.30096175311932405
375,0.2797261372304039,0.2791700345514658
376,0.27998994297390467,0.3451671864284506
377,0.2848234322843693,0.27433120569898556
378,0.29425849364078743,0.34837012180253346
379,0.28856009629080065,0.2778749459174621
380,0.2801243471707985,0.27364853849907955
381,0.28205384963674485,0.3019415903700529
382,0.2697334136244199,0.27769709275151694
383,0.2722475344033314,0.21815915224470941
384,0.2816494273139631,0.2662487332403225
385,0.2927917139209491,0.29987698699146004
386,0.2870349756138529,0.25925730376686396
387,0.2804978013969212,0.2782957546612352
388,0.27451435124592555,0.24620987256174637
389,0.2802381811497973,0.3019164307322429
390,0.28019009305058334,0.26539525720808244
391,0.2740756366983521,0.3152596015371352
392,0.2801341771053447,0.23593948108339735
393,0.2745483473026819,0.31540749252857664
394,0.27917449243122144,0.27952806693890764
395,0.28330955166426347,0.33037643510446446
396,0.2810791259686693,0.2662799617113955
397,0.27623380971155326,0.28262486033872775
398,0.2903715695103137,0.31785215728667726
399,0.2766731443932001,0.2564324065257356
400,0.29296233145903355,0.3196565580387378
401,0.27785464704895707,0.26875321754380543
402,0.2743586748599815,0.26574615255566214
403,0.28064230047434785,0.31123630314557804
404,0.2925070244804013,0.2737566168991802
405,0.2882876663004235,0.27572683687869454
406,0.28364527122892313,0.3011671181674518
407,0.28088822171652766,0.24340361901781757
408,0.27121607561985717,0.3196461848969007
409,0.2729757011616774,0.2820734524282129
410,0.27876035051287607,0.28161647616124985
411,0.27378909491461884,0.32464419161509617
412,0.2695194145111297,0.25077074455567133
413,0.2717925050527788,0.3243498494977015
414,0.2779410940060337,0.32919771789247587
415,0.2733271465397435,0.27990647144947994
416,0.27864509643174057,0.2363323600356983
417,0.270536204574822,0.2700101447994885
418,0.2808584096111518,0.3119632699870522
419,0.27516331006470823,0.2931314914427631
420,0.2835376031690831,0.3266373371942587
421,0.2814251130299152,0.2578415813019676
422,0.28019032214549755,0.2918272665478984
423,0.2721708443185823,0.2810367304236543
424,0.26820008035561294,0.311582964484709
425,0.2861252609100506,0.25854698922077235
426,0.2724077220889833,0.3199772335897107
427,0.27272875819972653,0.27907813298731243
428,0.27137141153991845,0.25663815135406653
429,0.2739560917091427,0.2986442455893499
430,0.26898828131542674,0.23978701318460852
431,0.2711749860198141,0.29399956560966356
432,0.2677164189487672,0.26323836749390866
433,0.27102192295036664,0.28852205315645596
434,0.2725871221436034,0.24840806799261722
435,0.27831002340925703,0.25763032381745343
436,0.2777992417876295,0.269268120860338
437,0.26639427630017526,0.265145579949686
438,0.27112670164641806,0.31330720936488254
439,0.28239849387549515,0.262808261404459
440,0.28595460445476206,0.2797097854757348
441,0.280675162366622,0.27182464559002806
442,0.2680772555122574,0.2970637794151987
443,0.28776206590945097,0.26748258213830595
444,0.27993300225469375,0.2736042661460937
445,0.2784014811770643,0.25604601478731354
446,0.2733288222403408,0.23801074699715494
447,0.2802574886821861,0.2969393379931902
448,0.27617815787716804,0.312070451465353
449,0.2744798912548179,0.27232806286672606
450,0.2729716964358325,0.2623199799369238
451,0.2871321474043153,0.3058946319740184
452,0.28420049237837497,0.24028221161889526
453,0.27368660445352666,0.2572878645816085
454,0.2844472632850047,0.28331684045016237
455,0.2846099874429745,0.2652694945135256
456,0.28807427646447603,0.2458660588308939
457,0.3094673368504183,0.40892618507847783
458,0.2815842724280705,0.2837083821410777
459,0.2761641943020473,0.2652555679704538
460,0.30775050567783674,0.35057490442887806
461,0.30112440791652145,0.2833452758659508
462,0.2704126084263655,0.2954782302893958
463,0.27338912712038754,0.2892565337362467
464,0.2841559250035985,0.4225020839108361
465,0.2756225887694962,0.2637541017344785
466,0.2827757999682732,0.30567346383958743
467,0.2800894726673253,0.2826553692396153
468,0.2732401740453165,0.3267762885766598
469,0.27026861554699194,0.26619361102919414
470,0.27734375249346893,0.2759799056075399
471,0.2820325528888153,0.2896014504189039
472,0.2865412231263301,0.26736747399153793
473,0.29636110235348617,0.35321715210669424
474,0.2784247198600689,0.29047420195516105
475,0.28576152665530136,0.33126896399844497
476,0.279763130102757,0.28556764403785617
477,0.281294526679932,0.23849343640815893
478,0.2787228551230209,0.2910260507370144
479,0.282797316839401,0.2876872066695421
480,0.2744006355993265,0.2665781881614903
481,0.2774352349752517,0.25236182689473385
482,0.2794063157790465,0.2599818416586371
483,0.27681929312103554,0.26437265189653086
484,0.27685690133737695,0.2680665734499717
485,0.27580320697316557,0.28336910863572373
486,0.2748560324203882,0.24884358719172558
487,0.27159465490292317,0.26262827436322617
488,0.2807820217909099,0.29261625990186974
489,0.26834834686773507,0.2606528730578086
490,0.2750619206968262,0.22419439542612601
491,0.2770616641108564,0.3425307116997696
492,0.2931218620857971,0.295578532700411
493,0.26498480191867385,0.23152235579364974
494,0.2789148665648446,0.24014263529412067
495,0.2682399684794432,0.28996759358210383
496,0.2711042810538657,0.262580687208864
497,0.27169198558939467,0.25082222427281536
498,0.275349082286545,0.2753074186320046
499,0.27532701273623994,0.32237349737009574
500,0.27230513756803937,0.2689429156101533
