epoch,loss,val_loss
0,0.6199100104878672,0.5895817552459791
1,0.5876456783283607,0.5733861091266487
2,0.5452396023073036,0.529201743038128
3,0.5110723297771594,0.5032345174727939
4,0.5033512821046708,0.4997381085268579
5,0.4937075455371049,0.48255120202089263
6,0.5226618803268055,0.5381617735095461
7,0.5364392606423701,0.544301072659767
8,0.5306530884736247,0.5460066164980453
9,0.5272667157210953,0.5302414336730481
10,0.5219514748637823,0.5298361337387939
11,0.5100219836346715,0.5014258702402664
12,0.5008209652548509,0.49606144285646764
13,0.49652832872968755,0.4933523608965305
14,0.49282869554644493,0.49366019590057597
15,0.4916901400654291,0.491761616619254
16,0.4921463974792543,0.4894066911495902
17,0.49233015810994746,0.49104517705539136
18,0.4917567083962542,0.4915057693133002
19,0.4917578326286174,0.496455387139069
20,0.491528792809352,0.4912946057193954
21,0.4410478155359065,0.4267270099507631
22,0.42908752785385657,0.4256495462378543
23,0.42650735162323816,0.41355810306561447
24,0.4255959438719303,0.4148967073201553
25,0.4250907354277549,0.4204876965753257
26,0.4241441149798463,0.42723222597768806
27,0.4237937910543431,0.41553962590823984
28,0.42407848066191756,0.41947747543393743
29,0.423518095830615,0.4251078054466
30,0.4233513596393854,0.41441503418526415
31,0.4235304075183632,0.41150966054621696
32,0.4235286953522741,0.41818762956744565
33,0.42344940465101727,0.41575563169067115
34,0.423417328905353,0.4148317110412796
35,0.4245020358251323,0.4167741413099052
36,0.42405056712434613,0.4209638283393872
37,0.42430154405373205,0.4176553921156169
38,0.4243723883377828,0.41563987980890543
39,0.4239667106309445,0.4246196769788221
40,0.4243268958442778,0.4161048728522496
41,0.42357100287468746,0.4173267912738998
42,0.42424847179646485,0.41876271775555823
43,0.42285431389382977,0.4163526069170464
44,0.4240446435846836,0.4171418385929145
45,0.422987973086351,0.4152054577848337
46,0.42358129988726473,0.41471085624296494
47,0.4235404367633969,0.4151441526674006
48,0.4227865075735782,0.4149391969963485
49,0.4224715542444904,0.4195157768807562
50,0.422716259681959,0.41601299296910454
51,0.4228419612010447,0.4096860651648924
52,0.42269312573061457,0.41471339229249604
53,0.4231976908120849,0.41572703248296244
54,0.42261564639733257,0.4193784809170558
55,0.42221790640424783,0.4218846960997833
56,0.42270352177805093,0.417343054326298
57,0.42275046322754234,0.41902821574477966
58,0.42239048424437103,0.4140735112209196
59,0.4219848011210978,0.41626969714621076
60,0.421509835102541,0.41484246835027977
61,0.42266494192010023,0.423005270841928
62,0.4217671784188291,0.4174648418430381
63,0.42215299624218955,0.4142459761003895
64,0.4224772870516758,0.41737004065552286
65,0.42229223303836855,0.41817769874718164
66,0.4214325855263144,0.41392218230317884
67,0.4214161709129953,0.4154920899229908
68,0.4219256872959954,0.4123610114529185
69,0.42103098955652635,0.41735799036563553
70,0.4215284366074135,0.4145069483181179
71,0.42171152484856,0.4126997592965472
72,0.422566145682354,0.4205450463710717
73,0.4213157842357794,0.4136728530285906
74,0.42243095682419424,0.41480616607611875
75,0.4215166551218308,0.4186512074476321
76,0.4219513873131968,0.418886332374613
77,0.42229449951810966,0.4203253970432359
78,0.42189049929547445,0.4116098191906356
79,0.4224273235297757,0.4220454500201071
80,0.4222164959478989,0.4128952946541083
81,0.4219528814260248,0.42343868645148264
82,0.4225392920480336,0.41569463556990427
83,0.4224723594440662,0.4171127650376171
84,0.42042934250316205,0.4149217576344421
85,0.4205923116712975,0.4184308104513142
86,0.42098146004138515,0.4161625839981333
87,0.4219521274916929,0.41440879184350865
88,0.4211760900610442,0.4201217845553609
89,0.4208328879600148,0.41711618425588926
90,0.42189069280775193,0.41479692740451973
91,0.42135661802261326,0.4138608887634525
92,0.42103913976394053,0.42277057424175574
93,0.42171737209284565,0.4161120965678036
94,0.4214404311845358,0.41536409907580774
95,0.42081511011116024,0.41578011846793733
96,0.42107790102473824,0.4162579873955936
97,0.4212141927955053,0.41552064402840144
98,0.4209602671541912,0.41180432091760905
99,0.420618213659482,0.41090152619915676
100,0.4212421797293487,0.4204562485749801
101,0.4207159215517288,0.4138041140824339
102,0.42070029034101075,0.41663679770599604
103,0.4205997711997494,0.41057254629026846
104,0.4205120818509017,0.4171853189002375
105,0.4204732732022639,0.4177461567924744
106,0.42050807568146953,0.4202285079770425
107,0.4207860908931117,0.41378217369970616
108,0.42072276824755706,0.4110066425916342
109,0.42070586364969814,0.40887971110007476
110,0.4215599431859865,0.4242378147220766
111,0.42077883345494754,0.4129722156083787
112,0.4200922612121718,0.4117508440460505
113,0.4201247427370951,0.4147261673129871
114,0.420802420167755,0.41633226295263903
115,0.4211343863756777,0.41748955988439235
116,0.42012292443751525,0.4166723371808933
117,0.4205556698113656,0.4156641204571782
118,0.4201935131946881,0.42284795395359215
119,0.4201117301101776,0.4135063208416044
120,0.41971175664897153,0.4132644023870126
121,0.4200861102180351,0.4136454204863295
122,0.419938956717666,0.42015856035531096
123,0.42020558819377585,0.4213752837705109
124,0.4197515327635529,0.4142634525883033
125,0.42016501469407874,0.4203905639663907
126,0.4201424967130725,0.4235465895423827
127,0.4198722344002216,0.41432669828891366
128,0.4203045673376088,0.4136792948259538
129,0.42020110585529197,0.4240915938692178
130,0.4199463793451639,0.41393066702194553
131,0.4204349447909692,0.41478353796794176
132,0.4197487421661878,0.41691165911116834
133,0.4195721773169726,0.4253011793260737
134,0.4198546128047763,0.41683767290010937
135,0.4200599818133277,0.41810124911917773
136,0.41982859254980964,0.418209163763614
137,0.41991883678566083,0.41033105732267305
138,0.4198508047527843,0.41763040819790725
139,0.4202606755437805,0.4231558598499422
140,0.4202740099355638,0.417921942225918
141,0.4197863011454658,0.40960957019288463
142,0.4198015190130047,0.4143552051891859
143,0.4196821320906365,0.4206065895203546
144,0.41985080217580206,0.41868210066070616
145,0.4193458751953536,0.4188838533193042
146,0.4193502611236824,0.4138593209389256
147,0.4199961739554226,0.41265208962383254
148,0.41922503879205814,0.42046965116035234
149,0.4198868929194488,0.4157708724968238
150,0.4207370764284348,0.4200599228136924
151,0.4203943172342974,0.41185099425493754
152,0.4188586104694035,0.4137836990806985
153,0.42015689759372804,0.418072228763322
154,0.42007719901344887,0.4120289625332593
155,0.4196217576678607,0.4170778419366235
156,0.4202025205350285,0.4177874865709817
157,0.41929990922908383,0.41624820710968796
158,0.41998948542187936,0.4129947391062951
159,0.4195431055929109,0.4081753785544455
160,0.41914202462586525,0.4131235280417855
161,0.4196394557734315,0.41392946980488754
162,0.4197134296711776,0.41196152082034854
163,0.41874227587512436,0.41357418708654314
164,0.4196394936884757,0.42122717304434704
165,0.41928705491954754,0.41972345353042995
166,0.41958734825002947,0.41653698890652
167,0.4189603644981682,0.41684298527888525
168,0.41975493732693675,0.4122011644126725
169,0.41946284476521495,0.41817629441244275
170,0.41932835695359877,0.41160548485011855
171,0.4197577133214025,0.4195965096318229
172,0.4203074746388641,0.41629217597689944
173,0.41941021280206614,0.4165165527313585
174,0.4192215855642736,0.41270032196342704
175,0.41915031889374493,0.41640085392818155
176,0.42000599594427357,0.40876200674320756
177,0.4193517071805638,0.41136134352417175
178,0.4188398059436662,0.41489924651186155
179,0.41848026907997576,0.4174913459692365
180,0.41868371398950976,0.41148720574108255
181,0.42010361099357696,0.4165910682539
182,0.4195681813242342,0.41210558150033105
183,0.41926483412663207,0.4121847735462591
184,0.41883887734720476,0.41188787597035936
185,0.41888346929279113,0.41418933747555314
186,0.4191237067322048,0.4160440714496572
187,0.4192767811475323,0.41534403469247344
188,0.419970914924307,0.40903681400628567
189,0.4192222634776293,0.4081205007803701
190,0.419495260648674,0.4149486043785804
191,0.41938085005796844,0.410042730851185
192,0.4199088118117365,0.41133056287347836
193,0.41895494826609275,0.4183810357629818
194,0.41939993930445185,0.41203680634498596
195,0.4191990798716549,0.41157390246136055
196,0.4193100289071055,0.4135054978092608
197,0.41894132985746124,0.4138061178233308
198,0.42005743663772954,0.4127109250157999
199,0.41864964050994674,0.41558069285588445
200,0.41981926457799845,0.41079833702352697
201,0.4195585914904638,0.4141265565509827
202,0.4191283156888021,0.41206550018050664
203,0.4190586431681203,0.4083529079917574
204,0.41850944982470273,0.4148604285397959
205,0.42005933539642154,0.4140539578761111
206,0.41861784912711436,0.41302063655099147
207,0.4189598915503443,0.41493510208957485
208,0.4202711921367195,0.4203816129246671
209,0.4195486579755481,0.41664172417732726
210,0.4191620913718203,0.41358579220272906
211,0.4190615577588948,0.41176385801687343
212,0.41925213330263517,0.4162032157303546
213,0.4204145878362503,0.41692719221211794
214,0.42006084967174945,0.41542164035087087
215,0.41861387934562583,0.4114085225341577
216,0.4197785770468372,0.41336778023817244
217,0.4190815513829788,0.4132093379435651
218,0.4190122575474511,0.41502622690804103
219,0.41886364332764886,0.4084686868237173
220,0.41887102256401526,0.41243718055719686
221,0.4188757033778535,0.4156820851182512
222,0.41882766224891305,0.417237376161252
223,0.41955081842917263,0.4171339890769315
224,0.41935950469932526,0.4110113347533846
225,0.41979134045809724,0.42289720172332923
226,0.4190893936648762,0.413683008393522
227,0.4188724923028862,0.40925910687021194
228,0.41899158191785896,0.41353519049390774
229,0.4192328129628833,0.409503400277434
230,0.41962230532430855,0.4206330441935509
231,0.4199093350465055,0.41727491367278985
232,0.41833476113786305,0.41062633225517553
233,0.419647851438404,0.4105472665246869
234,0.4196080129155166,0.4120351986148352
235,0.41910242223090605,0.4151568323107918
236,0.41962346786542165,0.414060536962356
237,0.4188011661947394,0.41283890162651266
238,0.4199972748637104,0.4198810768533507
239,0.42023882479835645,0.4185282549815553
240,0.4199653427967365,0.4136037458178481
241,0.4195324402746914,0.4147559166292978
242,0.4192298284237436,0.4112538676240632
243,0.41951763004756526,0.41768969345266804
244,0.4187292832436802,0.41173083803466154
245,0.41890928767221847,0.41629772136004495
246,0.4194968231589055,0.42073342039734
247,0.4196865527605037,0.41370116622585257
248,0.4182316360471724,0.4168541760871977
249,0.4200258031308508,0.4089075280753752
250,0.4190317754319804,0.41270286888971813
251,0.41965414564594256,0.4168913626902875
252,0.4191726432908908,0.41388222683955284
253,0.41916904679005196,0.4149307398320405
254,0.4194149855402014,0.4152677373391095
255,0.419228297696293,0.41492753297646456
256,0.41920708918017896,0.4124508691288452
257,0.41853997536045345,0.4132579132394876
258,0.41900499057683877,0.41129265318338404
259,0.41904354001208244,0.4219373474977699
260,0.4190593059536359,0.41214352626193373
261,0.4191949726511136,0.4222252940802872
262,0.41894735753822554,0.40959514030961613
263,0.4190781011974649,0.41449966966284063
264,0.41983686278971605,0.4118435700202704
265,0.4190494524921962,0.4141470384327068
266,0.4193432650583281,0.41494444566148136
267,0.41882501108298975,0.42108897882946505
268,0.41895067520004164,0.4182053275787047
269,0.4194339452933272,0.4212260630589042
270,0.4189980969942504,0.41810689565619125
271,0.41973883890695246,0.4111069340775483
272,0.41942305540780817,0.41053893884216397
273,0.41856213704980405,0.41142348054455047
274,0.4187748165513345,0.4201658562200396
275,0.41951473287528185,0.41818560209104133
276,0.4189443863492856,0.42645028366466314
277,0.41984910640218337,0.41176488280102963
278,0.4182316594309001,0.4127181535171283
279,0.41967097869675285,0.411230388010602
280,0.41891272379170424,0.411318627248812
281,0.418522257199757,0.41082894415364263
282,0.41987290474965727,0.4112915563950767
283,0.41883306064493087,0.41637325721935636
284,0.4199193616549047,0.4090615902987323
285,0.4189028923658489,0.4133138899288812
286,0.41914760042802157,0.40936294480831953
287,0.4193087747757486,0.419582059445269
288,0.42037969989906415,0.4141610549749249
289,0.4190893923167327,0.41094930633141175
290,0.41867443149666295,0.4111167990571584
291,0.4193028667814928,0.41750845267148107
292,0.41883965245812677,0.41796165165723287
293,0.4192865674404071,0.41471773857327854
294,0.41991076796793575,0.41538094236709583
295,0.4184608181492628,0.4096619936623229
296,0.41968900882739657,0.4228524911577684
297,0.41912868695320177,0.4143768810007694
298,0.41900717613217925,0.41562027162105597
299,0.41909252682192216,0.4118801103746224
300,0.419377444218024,0.4164980736237083
301,0.41939296004913446,0.40993173859125215
302,0.41929038923630435,0.4120000728193764
303,0.41917295644195485,0.41024823620951667
304,0.41914227725363806,0.4115921489997115
305,0.4189986321475622,0.4201113552894422
306,0.4193813066013915,0.41517288133272384
307,0.41901973775141327,0.4192537246491014
308,0.4190580697895719,0.42277611822300776
309,0.41922508258882574,0.4097772739761164
310,0.4189557127111716,0.4130587211877277
311,0.42001082532829626,0.41499307734736174
312,0.4189483699581927,0.4128719369087003
313,0.41913963232735235,0.41625718708359316
314,0.41878787150757135,0.4143945371485878
315,0.4189716947851799,0.41411579423867295
316,0.4195184767890492,0.41225308431229357
317,0.41879261086424224,0.41247559804695944
318,0.41888670572001424,0.4127550484296856
319,0.4189359054291506,0.4095287549959772
320,0.41810516132604036,0.41224530322321623
321,0.4183534531473064,0.4106936605113943
322,0.41908956349516413,0.41234980478870703
323,0.42015666999608825,0.41646037489441673
324,0.4187307361725142,0.4157733916269505
325,0.41828157686538175,0.4154174136419366
326,0.41901798382866756,0.4208371918421882
327,0.4188971747938779,0.4140287475284289
328,0.41926492867563325,0.4135866934510623
329,0.4197034137405521,0.41396009366104297
330,0.41993850839433905,0.4124172774157868
331,0.42019306957196767,0.41791104279392055
332,0.4209264480800415,0.4122951498190175
333,0.42093576845214115,0.41472447566259035
334,0.4227854598155491,0.41837825302853393
335,0.4214189984113145,0.420617716107442
336,0.4213928316024134,0.41339762256286633
337,0.42101901159990873,0.41655019322064285
338,0.42147229446040047,0.42151689082263255
339,0.42124663453230005,0.4210689342901751
340,0.4218962976964022,0.41155237645901804
341,0.4209808130756772,0.4169403620106557
342,0.4216388521240271,0.4225323255576453
343,0.4212637317953728,0.4124486340271779
344,0.42098746680802973,0.41956394671523656
345,0.4197677987351047,0.41498423988318306
346,0.4196628491529185,0.4152529727658506
347,0.4194152981424637,0.42243362420570146
348,0.42042553711166564,0.4134890180434624
349,0.42002491104163775,0.4152654120570165
350,0.419479313065664,0.4140011662646028
351,0.4197603985726881,0.41456354739988904
352,0.41979085120131626,0.4199336372732826
353,0.41960930761048276,0.4160510330111248
354,0.41966821866526044,0.4158490412088303
355,0.4187921064915516,0.416195795701368
356,0.41939789071094524,0.41212232008467625
357,0.4192351559169584,0.41199548082050036
358,0.41907102196478097,0.41551891440602695
359,0.41997528807509893,0.4172853606074009
360,0.41816015310102317,0.4117106001790906
361,0.4188228781410367,0.42839085074430155
362,0.41942233532022916,0.4141996226606578
363,0.4188270076954241,nan
364,0.4187989875710039,0.41875934040072677
365,0.419544635449437,0.4154841473019423
366,0.4187735229420414,0.4107879498869253
367,0.41889214874793285,0.4119710199540936
368,0.41854358676245346,0.41278389463652854
369,0.41927835581491624,0.4089106028870848
370,0.4196007263908585,0.40921751931249273
371,0.4186323156730951,nan
372,0.4182691566222567,0.40865538778676314
373,0.41885931520246333,0.41997818780544804
374,0.41863294902613296,0.41226371547504836
375,0.4185002196827729,0.41620107917213284
376,0.4186540448589264,0.4114477621861231
377,0.41767712842950444,0.41104388882353937
378,0.4178942434543414,0.41111003504182303
379,0.41789985616938224,0.41445314785086423
380,0.4185476917758572,0.4127549649203394
381,0.41922582276732184,0.4091902184273688
382,0.41870627394192117,nan
383,0.4186090749082229,0.41357363292770666
384,0.41782700696928776,0.4091817640185066
385,0.41787220587770496,0.41236814875865696
386,0.4176219589739823,0.4134031938085301
387,0.41884581398687143,0.4089112777054455
388,0.4173616340653814,0.4088844253537332
389,0.4178100731059778,0.41330422017502766
390,0.41945141215053344,0.411171182397895
391,0.41822826067765684,nan
392,0.4194147109722881,nan
393,0.4183388270431752,nan
394,0.4190215715367475,0.4199562443047158
395,0.4172638393550801,0.41673030187613774
396,0.41710963128231543,0.41078286584759766
397,0.4172789615879448,0.4125955599599608
398,0.4170573265959111,0.4141379321191916
399,0.4175842435861989,0.41804061998029307
400,0.4169953324204927,0.41198718209432955
401,0.4163181386631522,0.4112683766901445
402,0.4177990888981365,0.4149191547290929
403,0.4177806311077457,0.41095837249759726
404,0.4190738530780336,0.41877376027737606
405,0.41861948912577024,0.408829193166476
406,0.41781651714833096,0.42018851478314456
407,0.4179417030442897,0.40995109700035104
408,0.417362262849048,0.41578270259274763
409,0.41741842110220007,0.4106863780855069
410,0.4187154546559,0.41096727331286026
411,0.41730578247311595,0.4085158131901849
412,0.4182910060314678,0.40687855232177667
413,0.41813518063987704,0.41309185363563794
414,0.4173787351342752,0.41280368045395405
415,0.4173709601402474,0.41062067244851486
416,0.4170281998246455,0.41120139267129424
417,0.41727960242138945,0.4080868361930197
418,0.4170740667321951,0.4146363305446102
419,0.4169451677627426,0.40889115792314695
420,0.4169239460157336,0.4157072194011252
421,0.4176802223591541,0.41646920839462065
422,0.41751039486297903,0.4105854343323812
423,0.41912098386413676,0.41775173635281687
424,0.4179865487152524,0.40776629215416055
425,0.41703118404166234,0.41294110174210014
426,0.4161523552872449,0.4144462854371067
427,0.4164305382055507,0.41503188724645446
428,0.4169101360633528,0.4091608826454732
429,0.416627078962097,0.4187958551826075
430,0.41716578278281957,0.4112768680558201
431,0.4169967519201404,0.41183631174079016
432,0.4167721589342702,0.4107758731302554
433,0.41659452263310587,0.4110936399697291
434,0.41663226305102236,0.4194860130379283
435,0.4175634145903721,0.41264558379860883
436,0.41702920295077384,0.4049405848844595
437,0.41723627441400907,0.4126393841904349
438,0.41767859777466976,0.4164477365827135
439,0.4175831746635101,0.4136991696636172
440,0.4171398509087994,0.41085100903901645
441,0.4168161098913158,0.41359034439266357
442,0.41773233356907236,0.4099912071798453
443,0.41647132626288025,0.4160782219864736
444,0.41694368560424894,0.4070584730268588
445,0.4174954639233237,0.4116772990930593
446,0.41800725433805447,0.41550543005159013
447,0.4174194958827513,0.4131846534268023
448,0.4171895874057225,0.41095223873007714
449,0.41736882976334605,0.41094989080015276
450,0.4176095637251989,0.4135633596103557
