epoch,loss,val_loss
0,0.4512245412751901,0.31768802651910405
1,0.3023725495136099,0.2672225189639221
2,0.25301894346912734,0.23671738553221208
3,0.24839322590489116,0.20480797695417474
4,0.2056499339097304,0.19086459114700435
5,0.19327102890842146,0.18378567936114926
6,0.18900608205742794,0.17663512929415953
7,0.1812652493950078,0.17579992580781212
8,0.1795778481171931,0.1697420045697196
9,0.17921080414632304,0.18296780524849407
10,0.18014899396104178,0.17269498776925452
11,0.17719997514525446,0.17589662293544747
12,0.1759264720581454,0.17019811598923953
13,0.17648316644209686,0.15937044302912523
14,0.17448577062906123,0.16613888462577905
15,0.17496959338959356,0.15786307282739795
16,0.1741976881261059,0.16171586535272808
17,0.1744195564960937,0.17466334031784525
18,0.18092496193844,0.1638202999098361
19,0.16843377822060124,0.15314508888746603
20,0.16318652416177518,0.14682406214249394
21,0.16288706581231305,0.14490684042084245
22,0.16094270591334023,0.1508122958297277
23,0.15632702523560596,0.14448389970521472
24,0.1519107177340574,0.13588939439762152
25,0.14619033452603605,0.14351922058517722
26,0.14491036531028506,0.13502850373851896
27,0.14524558604992419,0.1318964032639069
28,0.14107678360562978,0.13570884803109118
29,0.14306864758328594,0.1300691100138044
30,0.14537086027015964,0.1493925199770676
31,0.14287425257605585,0.14288073489314063
32,0.14494407285538743,0.15104320761955375
33,0.1426284611016345,0.13107773099043266
34,0.14128068589670262,0.13526498922732239
35,0.14467560313791156,0.1337302977767594
36,0.14142258071286187,0.13557898374055327
37,0.13940371764157178,0.13420051885564832
38,0.13935024993683548,0.12093386771905161
39,0.1407999543784808,0.14526807706552314
40,0.1399201194675948,0.12359968160746644
41,0.14102182808139022,0.12353486436006023
42,0.14006188250272822,0.13982653478878065
43,0.14018943520177832,0.13611810352269557
44,0.1412133108242881,0.1324793783236304
45,0.13890194023748317,0.13473207258225842
46,0.13772806869126303,0.1469759525669269
47,0.13713520548766475,0.13067286343760154
48,0.13753526595483026,0.13016582003040036
49,0.13614344009883506,0.13272336611806718
50,0.1351620011848865,0.14372811577640118
51,0.134194708692493,0.11965227327086726
52,0.13469552995862247,0.11942244624448616
53,0.1332972793578147,0.12111801225072663
54,0.13208849676209894,0.11986761613290482
55,0.13006628112341043,0.12148730493084937
56,0.13046653795721916,0.12739351566424723
57,0.13177137921233956,0.1283427052870574
58,0.1308894960091914,0.12447073665316861
59,0.1299512423992491,0.1151889972056399
60,0.12781305745947924,0.11615913184865741
61,0.12513764048989912,0.11682905531688521
62,0.1255324466215123,0.12030911209954542
63,0.12434337474853158,0.11904728216846494
64,0.1255874293502137,0.12469122671225355
65,0.1253868977877023,0.11036124411556456
66,0.12403305895250735,0.11785537709043167
67,0.12444925703424468,0.11548505459412847
68,0.1252260474626831,0.10630418924616297
69,0.12447084394918145,0.1146702809381659
70,0.12393201059036202,0.10958836218591445
71,0.1266834270880163,0.1213719179643815
72,0.1286835688307249,0.12327862586539061
73,0.12285042338496785,0.1261675446403771
74,0.124543318753127,0.11414213595792519
75,0.1252619552018167,0.11421623910623939
76,0.12391983484140962,0.1072492798592439
77,0.12522639674816827,0.12746428066240706
78,0.12349345984818746,0.11527121155873993
79,0.12349325515407386,0.1131729584335314
80,0.12336130142271566,0.12607240381998833
81,0.12375666747232071,0.12503259206026043
82,0.1247553629987091,0.11059282203442859
83,0.12616361847954144,0.11776218274479848
84,0.12619110443491377,0.11616727965374063
85,0.12563147712305034,0.12411976759136932
86,0.12633637266399098,0.12624218885915994
87,0.12581893410369624,0.10841102794187396
88,0.12287427844096413,0.11788045433074212
89,0.12307317904215322,0.11357445471043134
90,0.12387921826972113,0.10527296671878006
91,0.12086100556892906,0.10561512449313641
92,0.1225464019903524,0.10724170547694765
93,0.12048833434573644,0.10553210185174525
94,0.1191460600255536,0.10368739162773402
95,0.11715101877196107,0.10784357236902209
96,0.11685670155575506,0.11178909882069214
97,0.1157115589054801,0.10346355031804157
98,0.11637854466947009,0.0985185263341554
99,0.11535005052212337,0.09873467837275283
100,0.11330848346181732,0.09882000990254262
101,0.1149151390276736,0.10161061077971625
102,0.11261109512946528,0.1190852666483695
103,0.11467742046312965,0.09991559914984746
104,0.11544737149122432,0.10063503687447488
105,0.1133143540450914,0.09857399776179135
106,0.11432003614017733,0.10083202379004122
107,0.11428933599896675,0.10187315732989964
108,0.11449356129269203,0.10167279309575769
109,0.11392129691029855,0.10101167211688251
110,0.11359114777609956,0.09811427915545856
111,0.11258940913194747,0.10731695603280172
112,0.11383575783241645,0.0931254773183944
113,0.11301616471621682,0.11165741590566976
114,0.11279387870509687,0.10537074760678138
115,0.11088113123782165,0.09462785388479751
116,0.11168807279393136,0.10008957043640612
117,0.11214324495224975,0.09863425142283568
118,0.11259019748569489,0.1088186230658518
119,0.11032106875001287,0.09775698687715059
120,0.10966673632673592,0.10292893573823056
121,0.1104030922395263,0.09098057655522424
122,0.10967714271192745,0.09503412321028629
123,0.10822452642351651,0.09972612681856798
124,0.10816153640552365,0.09899168989688327
125,0.10839761586917983,0.09458907783659899
126,0.10947446077704143,0.09787531927022523
127,0.1091415786994897,0.09841804776192678
128,0.10878504755451165,0.0908011166742925
129,0.10971797443777204,0.1037685258641827
130,0.11157613767503356,0.0983877664149436
131,0.1100876990100257,0.10937871505405877
132,0.11134725636105426,0.09823395783762959
133,0.10993190054551327,0.10868413126381644
134,0.11050850148495432,0.09721139469165098
135,0.11097739131940756,0.09988637971302793
136,0.11160476055977533,0.09804034506825055
137,0.11269045692441271,0.10144427491824799
138,0.11150380108263895,0.10191329624216826
139,0.11290123259381736,0.09836063039128798
140,0.1148349401787866,0.10841501987594371
141,0.11406561247020172,0.10443116937796468
142,0.11397041324928725,0.10035032182569341
143,0.11541356738981864,0.10489306332421129
144,0.1143575890796532,0.10501752758137307
145,0.11869430415827432,0.10659505028069165
146,0.1167722044466399,0.10376882454605482
147,0.11996539650832394,0.10416389514736692
148,0.12094685349097435,0.10949221683027101
149,0.1201881280063008,0.10621142166833615
150,0.12025922011610887,0.11593622062279747
151,0.1221631207108927,0.11229966306531709
152,0.1228882572662124,0.10926619580579017
153,0.12254339733941733,0.11527169515761726
154,0.12442730063254877,0.10888240010223056
155,0.12564643912369294,0.11723668056948824
156,0.12657576153954092,0.11573961944548172
157,0.1262913564737555,0.11294106214585965
158,0.12620894672622004,0.11037092578551291
159,0.12596728314188502,0.12383771468398054
160,0.12870275493475605,0.1279697048282198
161,0.12877149172157074,0.1250709384160127
162,0.13088599970941547,0.1331154680285914
163,0.1318600326209807,0.12522263111907683
164,0.13575141181687625,0.12298408330743717
165,0.1391092355820157,0.13419374253144617
166,0.1406299565479553,0.14096811235506942
167,0.14184807469729807,0.1377192052671896
168,0.14435874583651487,0.13233866552245974
169,0.14356827042442116,0.14250300621005063
170,0.14478874228912605,0.13063956409185182
171,0.14223224553074523,0.13661126273971985
172,0.1436975142143792,0.13813812883279233
173,0.14406780338733552,0.1372728462890697
174,0.14540521409795035,0.13122220362165743
175,0.14548932474622545,0.13202081058727275
176,0.14642362243788923,0.12923996001240304
177,0.14496603986923937,0.14564130695148492
178,0.1489149191505533,0.13509757172645637
