epoch,loss,val_loss
0,0.5034268241193559,0.5006794214646022
1,0.5012387844191657,0.5011314287980397
2,0.500940527094735,0.5005786711374919
3,0.5008195610841115,0.5201413023471833
4,0.5008054528633753,0.5006112570762634
5,0.5008462887340122,0.5005041228135427
6,0.5006723101139069,0.5005179528792699
7,0.5007175444761912,0.5006581836541494
8,0.5006230106883579,0.5004894322156906
9,0.500635255350007,0.5039831057389578
10,0.5006526077853308,0.5004769079685211
11,0.5006387495597203,0.5005147222280503
12,0.5006132586399714,0.5004986459414165
13,0.500663440797064,0.5004906318187714
14,0.50069748989741,0.5004946688016255
15,0.5006082190672556,0.5004840292135875
16,0.5005999694532818,0.5004877726236979
17,0.5006318012873332,0.5004867006142935
18,0.5006303744978375,0.500518653790156
19,0.5005714717043771,0.5004854820171992
20,0.5005946281750997,0.5007582450707754
21,0.5005949349138472,0.5004786938428879
22,0.5006292324595981,0.5004801323413849
23,0.5005992453230752,0.5015550894737244
24,0.50057776108053,0.5005190526247024
25,0.5005794255468581,0.5005122454563776
26,0.5006529089742237,0.5006761676470438
27,0.5006759043534597,0.500687748948733
28,0.5006815571652519,0.5006772647301356
29,0.500670477297571,0.5006764577627182
30,0.5006698405742646,0.5006804821888605
