epoch,loss,val_loss
0,0.30444181707832546,0.30098864205678305
1,0.30169640209939746,0.3011658164660136
2,0.3013176940878232,0.30096578975518545
3,0.3012626857360204,0.300842238843441
4,0.3011059439447191,0.30074570115407306
5,0.3009285345077515,0.3007049258550008
6,0.3007806494765812,0.30067336817582446
7,0.3007342621088028,0.3008934192856153
8,0.3008188929027981,0.3008848314086596
9,0.30066494645675024,0.30072926489512125
10,0.30070005981127423,0.3006274914542834
11,0.30065572559833526,0.3090829913417498
12,0.30064542193545235,0.3007304976383845
13,0.30061603403753706,0.3020790985226631
14,0.3006416003902753,0.30207677030563357
15,0.3006038787431187,0.30065671320756276
16,0.3006220036347707,0.3006892538865407
17,0.30052762669324873,0.3006617775162061
18,0.3005978574487898,0.30065480309724807
19,0.30059705747498405,0.3006322748263677
20,0.3005975503789054,0.300689994931221
21,0.300629801372687,0.3006233535806338
22,0.3005726760162248,0.3007091041405996
23,0.3006403059562047,0.3009053471883138
24,0.30072554946608016,0.30062746918201444
25,0.30051564694775473,0.3006473707358042
26,0.30064841748608484,0.30063367770115534
27,0.3005722624593311,0.3006394066611926
28,0.30059044207466973,0.3007210063536962
29,0.30053712754779394,0.3006504023273786
30,0.300547983109951,0.3006344861984253
31,0.3005410539640321,0.30067024944225945
32,0.3006649602121777,0.3015477711558342
33,0.3005621134108967,0.30064000910520555
34,0.30050837521420587,0.3009215892752012
35,0.30069340738322997,0.3009243691364924
36,0.3007213646703296,0.30091380937894185
37,0.3006744406024615,0.30090405289332073
38,0.3006606920030382,0.30089572324355446
39,0.30067867457204395,0.3009461499651273
40,0.300689620534579,0.30119700175523756
41,0.30067662597364847,0.3008836318254471
