epoch,loss,val_loss
0,0.7605805452134874,0.7011503208478291
1,0.7007752622101042,0.7004224851131439
2,0.7006255133814282,0.7004219531615575
3,0.7005037526157167,0.7004253693819046
4,0.7005316014687221,0.7004008142550786
5,0.700449748913447,0.700392100930214
6,0.7003916615512636,0.7003575352827708
7,0.700337053987715,0.7003338709274928
8,0.7003026929563946,0.7002782655159633
9,0.7002898969120449,0.7002828440666199
10,0.7002780619462331,0.7003747730255127
11,0.7002814637687471,0.7003051911592484
12,0.7002793764273325,0.700304409066836
13,0.7002747566037708,0.700320145368576
14,0.7002611819373237,0.7002687433958054
15,0.7002860116693709,0.7002707317272822
16,0.7002652166684469,0.7002872403462728
17,0.7002384857071771,0.7002920495271683
18,0.7002516652610566,0.7003630674680074
19,0.7002586238649157,0.7002996422847112
20,0.7002529514100817,0.7003045163949331
21,0.7002487211757236,0.7003762879371643
22,0.7002445593542523,0.7002894553740819
23,0.7002463542355432,0.7002782305876414
24,0.7002482227219475,0.7002733346223832
25,0.7002255901363161,0.7002907637755076
26,0.7002483240895802,0.700356719215711
27,0.7002540970245997,0.7003481509685516
28,0.7002382916344536,0.70038072681427
29,0.700248175183932,0.7002769542535147
30,0.7002420849932565,0.7003646156787873
31,0.7002534254391988,0.7002634665171306
32,0.7002883951796426,0.7002884687582652
33,0.7003113458289041,0.7002910663286845
34,0.7002443083922069,0.7002737860679626
35,0.7002291450235578,0.7002623454332352
36,0.7002367619011137,0.7002681415081025
37,0.7002469524674946,0.7002691085735957
38,0.7002564043203989,0.7035778830051422
39,0.7002370682557424,0.7002641359170277
40,0.7002488802671433,0.7002777092059453
41,0.7002193639808231,0.7002746226787567
42,0.7002420115073522,0.7002817294200261
43,0.7002606202628877,0.7002974202632904
44,0.7002443465921614,0.7003119006554286
45,0.7002641765011681,0.7002789436976115
46,0.7002352284722858,0.7002865000963211
47,0.700231791390313,0.7003096299568812
48,0.7002520172066159,0.7002801400025686
49,0.7002499158382416,0.7002776880661646
50,0.7002221440209283,0.7002864480813344
51,0.700239494866795,0.7003087579011917
52,0.7002451300885942,0.7003139141798019
53,0.7002361020909416,0.7003545520702997
54,0.7002339124149747,0.7003069839874904
55,0.7002419931358761,0.7003219652970631
