epoch,loss,val_loss
0,0.5842428868081835,0.5007139311631521
1,0.5013258086178037,0.5007144457499186
2,0.5010831959115134,0.5007004460096359
3,0.5009532266457876,0.5006952475706736
4,0.5008779825237062,0.5006821552912394
5,0.5007211280928717,0.500676552772522
6,0.5007130058076646,0.5005029062430064
7,0.5005836678081088,0.5004941376447678
8,0.5004945097764333,0.5005445952018102
9,0.5004845400386386,0.5008950045108795
10,0.5004759064250522,0.5004426188866298
11,0.5004416069984436,0.5004547507365544
12,0.5004256320794424,0.5006333230336507
13,0.5004587666458554,0.5004441876411438
14,0.5004578206936519,0.5004493942260743
15,0.500479071829054,0.5005756010214488
16,0.5005020600954692,0.5007126969496409
17,0.5004320843882031,0.5005111437241236
18,0.5004334203402201,0.5006162769794464
19,0.5005737213558621,0.5005477562745412
20,0.5006270130342907,0.5006535290877024
21,0.5006262111133999,0.5005635903278987
22,0.5005994791322285,0.5006019339164098
23,0.5006215479771297,0.500510538260142
24,0.5006383976009157,0.5006339308023453
25,0.5005659732023875,0.5005786201556524
26,0.5006090159813563,0.5005280037323634
27,0.5005957030322816,0.5006281483570735
28,0.5006229147911072,0.5005426524480184
29,0.5005866810348298,0.5005280378262202
30,0.5006054735183716,0.5006039901177088
