epoch,loss,val_loss
0,0.3379540843301349,0.3343662262558937
1,0.334530777864986,0.3341444785396258
2,0.334321411424213,0.33441438440481824
3,0.33420416088898974,0.3342241391539574
4,0.33412373881207574,0.3339645817875862
5,0.3340498254100482,0.33394433846076327
6,0.3340047313173612,0.33395880575974785
7,0.33397021420796713,0.33407480973005294
8,0.3339422379069858,0.3338873475591342
9,0.33391800348626244,0.3346265851060549
10,0.33391546842787,0.33387854119141896
11,0.33389311943451566,0.33379643921057384
12,0.33389106455776424,0.3338624461889267
13,0.33387791615724566,0.3342462404966354
14,0.3338689723213514,0.33398910280068717
15,0.33386361780431534,0.33379522599776584
16,0.3338523676395416,0.3337754535873731
17,0.33384946622451145,0.3338519410888354
18,0.33383723092079165,0.3337829597791036
19,0.33383483584721885,0.3337761363387108
20,0.3338335318697823,0.3337761474251747
21,0.3338288755218188,0.3337890694538752
22,0.33382659149169924,0.3337539122502009
23,0.333822208987342,0.33375957457224525
24,0.33381638990508183,0.33379524648189546
25,0.333811596095562,0.3338550963997841
26,0.3338067890604337,0.3337657376329104
27,0.33380103077491124,0.3337854187687238
28,0.3337961232331064,0.33375665616989136
29,0.33379708376195694,0.3338558876911799
30,0.33378701176246006,0.33371844816207885
31,0.33379338865147695,0.33396615626414616
32,0.3337791106303533,0.333722626666228
33,0.33378285012642545,0.33375666387875874
34,0.33378349113464356,0.33373844436804456
35,0.33377804556157853,0.3339090486566226
36,0.3337778361174795,0.3339094083706538
37,0.3337743050787184,0.3337189014554024
38,0.33377040150430465,0.33370319948593774
39,0.33376992764737873,0.33369593940178555
40,0.33376888304286534,0.33376079752047855
41,0.33376852569977444,0.3337240949074427
42,0.33376357452074684,0.3337375604708989
43,0.3337670371002621,0.3336962522069613
44,0.33375915520058735,0.33373164784908294
45,0.33376476347446443,0.33376012406746547
46,0.33376134539312785,0.3337298127214114
47,0.33375721937417985,0.3336925431887309
48,0.33375339671638277,0.3338737759590149
49,0.3337549737095833,0.33369567334651945
50,0.33375270607736374,0.33389897471666335
51,0.33374807249175176,0.3336938091913859
52,0.33374686753087573,0.33368966593345006
53,0.3337466466360622,0.3337531410654386
54,0.33374765681558183,0.33369227492809295
55,0.3337431189351612,0.3336831893324852
56,0.33374406040377086,0.33366414602597555
57,0.33374751442670825,0.33376660269498826
58,0.33373605019516417,0.3337088366945585
59,0.33373922452661725,0.333669175585111
60,0.3337391286028756,0.33379711480935415
61,0.33372978643576307,0.33369870932896933
62,0.33373895229233635,0.33373206530014676
63,0.33373513468106586,0.33368561015526454
64,0.33373279198010763,0.3337131552497546
65,0.3337328917781512,0.3337091977198919
66,0.3337329677542051,0.3336890969077746
67,0.33372623162799414,0.33369302103916804
68,0.33372937951485315,0.33370788623889286
69,0.3337209127346675,0.3336869229475657
70,0.33372174471616745,0.333674522737662
71,0.333725507179896,0.33369298257430396
72,0.33372235261069405,0.3336565971771876
73,0.3337245109147496,0.33374339177211126
74,0.3337190617918968,0.33371022617816926
75,0.33371966924932267,0.333698315680027
76,0.33372169547610814,0.33368996236721676
77,0.33372275177637734,0.3337171117266019
78,0.3337205208804872,0.3336696074207624
79,0.3337188140418794,0.3336589214205742
80,0.33371943130758075,0.33392746754487357
81,0.3337236901919047,0.3337172174056371
82,0.3337129486269421,0.33365877292553586
83,0.33372151883443196,0.33384921445449195
84,0.33371515062120227,0.3337302405834198
85,0.33372057100799346,0.33372270941734317
86,0.33371734078062903,0.3336612340211868
87,0.33371315761407216,0.3338804569840431
88,0.3337180750237571,0.33368342022101083
89,0.3337166388498412,0.33365500752131144
90,0.3337119462887446,0.33366537950436276
91,0.3337147168715795,0.33373815727233885
92,0.33371551647451186,0.3337140532930692
93,0.33371476805872385,0.333689412911733
94,0.3337084172235595,0.33364900849262874
95,0.3337149076991611,0.33368246094385784
96,0.3337160874870088,0.3336865701675415
97,0.33371815498669943,0.3336801288127899
98,0.33370843942960104,0.33366336502631505
99,0.33370884696642555,0.3337611520886421
100,0.3337069630689091,0.3336811821262042
101,0.33371224659019044,0.33365832358598707
102,0.3337151509457164,0.33365466191371285
103,0.333706555320157,0.33383111127217613
104,0.3337134542928802,0.3337138401865959
105,0.33371427178382873,0.3336559211015701
106,0.3337095740305053,0.33368017299969993
107,0.33371078290541967,0.3336574162642161
108,0.3337067376772563,0.3336769072612127
109,0.3337112440003289,0.33366015177965164
110,0.33371205810043547,0.333663735806942
111,0.3337090604636404,0.3336410612066587
112,0.333711667213175,0.33366868352890017
113,0.33370997344122993,0.3336784797708193
114,0.33370749658346177,0.3336626338561376
115,0.3337064359254307,0.3336988097230593
116,0.3337120908035172,0.33375472817818325
117,0.3337115137577057,0.3337105272213618
118,0.3337063684132364,0.3336441977818807
119,0.33370518421464496,0.3339469625552495
120,0.33370731769667733,0.33369299632310867
121,0.33371189392937556,0.3336396112044652
122,0.33370180596907933,0.3336315446893374
123,0.33371257405148613,0.3336664596199989
124,0.33370794241958196,0.33364828703800836
125,0.33370624309778213,0.33375757571061454
126,0.3337041752603319,0.33369513191779454
127,0.3337050361169709,0.3336719966729482
128,0.333708171804746,0.33377974017461143
129,0.3337035826444626,0.33369461770852404
130,0.33370157193475297,0.3337048944632212
131,0.3337036436465051,0.3336606508493423
132,0.3337028372353978,0.3337594223419825
133,0.33370041650533677,0.33365149569511415
134,0.33370270380046635,0.33391461688280105
135,0.33369916905297176,0.3337075790365537
136,0.3336985745959812,0.3336839782595634
137,0.33370343163278365,0.33374683103958763
138,0.33369812883933386,0.3337253887852033
139,0.3336998177833027,0.3336472904086113
140,0.33370288826359645,0.33363481710354487
141,0.33369639805952706,0.33375896243254344
142,0.33369638456238643,0.3337230975031853
