epoch,loss,val_loss
0,0.66827457122008,0.6681543187300364
1,0.6672727428542243,0.6670919288794199
2,0.6671750694248412,0.6670645270744959
3,0.667109991060363,0.667012816786766
4,0.6670778768989775,0.6671139396826427
5,0.6670498172442119,0.6670098502635956
6,0.6670376227829191,0.6670070977210999
7,0.6670135821368959,0.6670251884857814
8,0.6670062566068438,0.666950842777888
9,0.6669931513335969,0.6669980823596319
10,0.6669821215073267,0.6670192561149597
11,0.6669734219710032,0.6669814101457596
12,0.6669672628641129,0.6669285989205043
13,0.6669529863066144,0.6669060120582581
14,0.6669465140634113,0.6669460555712382
15,0.6669336213668188,0.6668965484301249
16,0.6669315755234825,0.6669022340377172
17,0.6669248107936647,0.6668964027166366
18,0.6669186117781533,0.6668901881376902
19,0.6669146308898926,0.6668713297843933
20,0.6669114627970589,0.6669074997901917
21,0.6669069985283745,0.6668985969225566
22,0.6669051617648867,0.6668886284430822
23,0.6668988263871934,0.6668690078655879
24,0.6668986507124371,0.6668984688123067
25,0.6668984422021442,0.6668797243436178
26,0.6668918791744444,0.6668681099017462
27,0.6668917259110345,0.6668536422650019
28,0.6668918417559729,0.6668945079644522
29,0.666887336227629,0.6668627428611119
30,0.66688652616077,0.6668657274246216
31,0.6668881594472461,0.6668616019090017
32,0.6668834857410855,0.6669016852378845
33,0.6668830252620909,0.666857171177864
34,0.6668775688807169,0.6668467623392741
35,0.6668752881685893,0.6668573919932047
36,0.666874932633506,0.6668439012765884
37,0.6668740730285645,0.6668966116507848
38,0.6668712289730708,0.6668402471144994
39,0.6668685212930043,0.6668917170763016
40,0.6668693705002466,0.6668527684211731
41,0.6668670491245058,0.6668583144744237
42,0.6668645790285535,0.6668572183052699
43,0.6668662843836678,0.6669339285294215
44,0.6668627805974748,0.6668516759872436
45,0.666863927827941,0.6668580578962962
46,0.6668611137866974,0.6668491171598434
47,0.6668609203762478,0.6669325233300527
48,0.6668597799142202,0.6668484101295471
49,0.6668601623508665,0.6668438444534938
50,0.6668573569986556,0.6668712208271027
51,0.6668579354551103,0.6670282453695933
52,0.6668587304751078,0.6668342621723811
53,0.6668576025830375,0.6668505111932754
54,0.6668572916587194,0.6668273739814758
55,0.6668568059868283,0.6668245470921198
56,0.6668567424350315,0.6668420850833257
57,0.6668563978142209,0.6668375509977341
58,0.6668565378321542,0.6668682843844096
59,0.6668566273318397,0.6668594235181808
60,0.6668554810947842,0.6668219467798869
61,0.6668556519879235,0.666842657605807
62,0.6668533829583062,0.6669516489108404
63,0.6668543956677119,0.6668251674175263
64,0.6668539213339487,0.6668543777863185
65,0.666853301193979,0.6668371238311132
66,0.6668525402413474,0.6668573128779729
67,0.6668573976622687,0.6668215175072352
68,0.6668525727192561,0.6668518274625143
69,0.666851492550638,0.6668394634326299
70,0.6668526947895685,0.6669049653212229
71,0.6668513551155726,0.6668486677408219
72,0.666851910299725,0.6668248240947723
73,0.6668527413739098,0.66682346423467
74,0.6668519255320231,0.6669738163550695
75,0.6668521963887745,0.6668266773223877
76,0.6668519319693248,0.6668288542429606
77,0.6668506760464774,0.6668273173570632
78,0.66684943040212,0.6668328012228012
79,0.666850895219379,0.6668729651371638
80,0.6668508250713349,0.6668451522986094
81,0.6668511584467358,0.6668268376191457
82,0.666850542333391,0.6668224183320999
83,0.6668525302542581,0.6669536540110906
84,0.6668514688677258,0.6668515808582306
85,0.6668513326512443,0.6669137955904006
86,0.666851524564955,0.6668167533874512
87,0.6668518847492007,0.666829293847084
88,0.6668488663832347,0.6668751814762751
89,0.6668489793141683,0.6668359350363413
90,0.66684790066878,0.6669109461307525
91,0.6668509406381183,0.6668284794886907
92,0.6668497875663969,0.6668453890482585
93,0.6668506722317802,0.6668502513964971
94,0.6668485680686103,0.6668574455976486
95,0.6668515362607108,0.6668222485383352
96,0.6668493248886532,0.6668353021542232
97,0.666848918000857,0.6668152785698572
98,0.6668489852216508,0.6668142993450165
99,0.666850179804696,0.6669664661089579
100,0.6668503030273649,0.6668482441107432
101,0.6668495247628954,0.6668256841897965
102,0.6668477352460226,0.6668335407972336
103,0.6668474235799577,0.6668760234117508
104,0.6668485272063149,0.6668220397631327
105,0.6668489304251141,0.6668228191534679
106,0.6668487856520546,0.6668330223560334
107,0.6668479228681988,0.666824368039767
108,0.666849193043179,0.6668112170696259
109,0.6668487042453554,0.6668292984962464
110,0.6668478283087412,0.6668199110031128
111,0.6668463496234682,0.6668204956452052
112,0.6668470559385088,0.6668270190954209
113,0.6668468272023731,0.6668228345314662
114,0.6668490722709232,0.6668277467489243
115,0.6668462162415186,0.6668934238751729
116,0.6668453890879948,0.6668191354672114
117,0.6668464113473892,0.6668224494457244
118,0.6668471738762326,0.6668659292459488
119,0.6668469761477577,0.666931400458018
120,0.6668472866217295,0.6668446006774902
121,0.6668468249638876,0.666841041525205
122,0.6668463129467435,0.6668316982587179
123,0.6668471068673664,0.6668865776459376
124,0.6668455111318164,0.6668968328634898
125,0.6668469949828254,0.6668181073268254
126,0.6668472631374995,0.666853822072347
127,0.6668470895687739,0.6668399571180343
128,0.6668478153944015,0.6668263305425643
