epoch,loss,val_loss
0,0.33701364393366706,0.3362930563489596
1,0.33454352696736656,0.3354972187280655
2,0.3342996019257439,0.3341351269086202
3,0.33417580262819924,0.33407272771994273
4,0.33409334614541797,0.3342299278974533
5,0.33403284798728095,0.33398875983556114
6,0.33398967463440365,0.33389437371492386
7,0.3339553356766701,0.33390900218486785
8,0.33394388151168825,0.33394708440701165
9,0.33390675587124297,0.3340908976594607
10,0.3338976968328158,0.3338441028197606
11,0.3338876178397073,0.33378481851021446
12,0.33387668032778633,0.3337909069458644
13,0.3338610186311934,0.3337918138901393
14,0.33383990136120056,0.33377016218503314
15,0.3338379364411036,0.33387045109272
16,0.3338240350617303,0.33380213727553687
17,0.33381600564718245,0.3337875744899114
18,0.33381189655595356,0.3339055584271749
19,0.3338098962638113,0.3337490374644597
20,0.33380586236053045,0.3337695576151212
21,0.3338058177828789,0.3338315330147743
22,0.33379744575421016,0.33373918785651524
23,0.3337955774201287,0.33372386161486306
24,0.3337922343677945,0.33379660348097484
25,0.33379100300206077,0.3337352516849836
26,0.3337864902416865,0.33389206367731095
27,0.33378580782810846,0.3338565330505371
28,0.33378518578741284,0.3337159703771273
29,0.33378282311227586,0.3337422588864962
30,0.3337818637026681,0.3337096764842669
31,0.3337797855668598,0.3337170323133469
32,0.3337765871286392,0.33402128487825394
33,0.33377188822295933,0.33373276273409525
34,0.3337754503952132,0.33374357016881306
35,0.3337720999320348,0.3337502814332644
36,0.3337695313692093,0.3337494657834371
37,0.33377273137701885,0.3337516816655795
38,0.33376431181695726,0.3337107646663984
39,0.3337680993013912,0.33376622408628465
40,0.3337618677947256,0.3338371024330457
41,0.3337628476354811,0.3337110990484556
42,0.3337636971672376,0.33375318642457324
43,0.33375522689024606,0.3337229138414065
44,0.33375607351462044,0.3339069713751475
45,0.33375358145104517,0.3336975424091021
46,0.33375804331567555,0.33373285965124766
47,0.33375633588764403,0.33370707591374715
48,0.3337561557955212,0.33376815052827197
49,0.33375086067782506,0.333701035062472
50,0.3337548431687885,0.33385571149984994
51,0.33375356881486046,0.3337034831841787
52,0.3337474834654066,0.33370932046572366
53,0.3337523390319612,0.3336922129392624
54,0.3337493185533418,0.33374677735567093
55,0.33374695295757717,0.33391988815863927
56,0.33375028120146855,0.3337956614891688
57,0.3337499469121297,0.3341218184431394
58,0.33374429263008965,0.33378272646665574
59,0.3337492543127802,0.3338331285516421
60,0.3337434497608079,0.33382647442817687
61,0.3337438662118382,0.333706756691138
62,0.3337455099953546,0.33373997537295025
63,0.33374541627698473,0.333708268225193
64,0.3337458718750212,0.3337247210144997
65,0.3337463938858774,0.3337370414733887
66,0.33374259835481646,0.3336997069319089
67,0.333740586552355,0.33376703419288
68,0.333744679596689,0.33372881486018496
69,0.33374264791938996,0.3336883653998375
70,0.3337404572168986,0.33370006587107975
71,0.3337451383537716,0.3337060176332792
72,0.3337470156616635,0.3336869583527247
73,0.33374111017915936,0.3336919182340304
74,0.33374374633365206,0.3338030288219452
75,0.3337409458690219,0.33369259957472486
76,0.33374215503533683,0.3337126310269038
77,0.33373992114596895,0.33380405195554097
78,0.3337344449228711,0.3337806201378504
79,0.3337336175110605,0.33372017908096313
80,0.3337440399063958,0.33370167821645735
81,0.33373377101288904,0.3336986833810806
82,0.3337361533310678,0.333733057975769
83,0.33373329818911024,0.3336921942432721
84,0.33373248847325643,0.33374558184544245
85,0.3337402897808287,0.3336879151463509
86,0.33373608772622215,0.3336976954539617
87,0.3337398503687647,0.33389963577191034
88,0.33373882416884104,0.3338244467576345
89,0.33373599776294494,0.33371778984864553
90,0.3337347691721386,0.33371998912096024
91,0.33373742000924217,0.3336923845211665
92,0.33373462074332766,0.3337888511021932
