epoch,loss,val_loss
0,0.6686535182396571,0.6745288551648457
1,0.6673812856674194,0.6670419297218323
2,0.6672911638551288,0.667077367067337
3,0.6672404363817639,0.667069722811381
4,0.6672389418813918,0.6670758255322774
5,0.667235294090377,0.6670435626109441
6,0.667203411857287,0.6670513039827347
7,0.6672155889405145,0.6670440667470297
8,0.6671674151685503,0.6670529033342997
9,0.6671664672957527,0.667061837553978
10,0.6671564904186461,0.6671564304033916
11,0.6671276444196701,0.6670442852576574
12,0.6671425907611847,0.6670514642397563
13,0.6671341340276931,0.6670377153555552
14,0.6671483845710754,0.6670721442302068
15,0.6671492658191257,0.6670360428889592
16,0.6671147903468874,0.6670446316401164
17,0.667116291642189,0.6670418621301651
18,0.6671246839629279,0.66703624522686
19,0.667121068795522,0.6670569792985916
20,0.6671141672001945,0.6676203983624777
21,0.6671243396070269,0.6670522704521815
22,0.6670926112731298,0.6670372610886892
23,0.6671168394353655,0.667034500916799
24,0.6671138993899027,0.6670490931272507
25,0.6671239449448055,0.6673912822405498
26,0.6670990311172273,0.6670398979187012
27,0.667104423377249,0.6670352576971054
28,0.6671245527532366,0.6670385036071141
29,0.6671094952689277,0.6670352739095687
30,0.6671180612511105,0.6670331873496373
31,0.6671225808329052,0.6670362098614375
32,0.6671250118149652,0.6670345497528712
33,0.66710008070204,0.6670468973318736
34,0.667121122876803,0.6670352847178777
35,0.6671244948175218,0.6670338002840678
36,0.6671110374000337,0.6670405059258143
37,0.6671168421374427,0.6672204321622849
38,0.6671190221177207,0.6670454379320144
39,0.6671022064818276,0.6674948323965073
40,0.6671135373777813,0.6670334134101867
41,0.6671188277403514,0.6670384539365768
42,0.6671063836415608,0.6670515596866607
43,0.6671153870423635,0.6670342611471812
44,0.6671168764034907,0.6670357911586762
45,0.6671213983694713,0.6670412406524022
46,0.6671174277994368,0.6670435487826665
47,0.6671033877134324,0.667033102552096
48,0.6671224033037821,0.667035741130511
49,0.6671149646573596,0.6670342876911163
50,0.6671218749682108,0.6670400401751201
51,0.6671115857495202,0.6670382736126582
52,0.6671135405964321,0.6670349197387695
53,0.6671119964652591,0.6670327783028285
54,0.6671273172828887,0.6681893415848414
55,0.6670987341403961,0.6670916468699774
56,0.6671170452568266,0.6670401048262914
57,0.6671141702466541,0.6670412638584773
58,0.6671229929924011,0.667034725189209
59,0.6670985388623344,0.6670414505402247
60,0.6671260455714332,0.6670342609087626
61,0.667122538195716,0.6670375857750575
62,0.6671000466081831,0.6670332299868266
63,0.6671256482601166,0.6670329570770264
64,0.6671044110324648,0.6670431722005208
65,0.667114515516493,0.6762897178332011
66,0.6671186581187778,0.6670327685276667
67,0.6671135537756814,0.6670360359748204
68,0.6671225717862447,0.6670344212055206
69,0.667122993853357,0.6670484758615494
70,0.6671147311660979,0.6670387841463089
71,0.6671073966158761,0.6670341311693192
72,0.6671194893386629,0.6670343357324601
73,0.6671103601985507,0.6670364574591319
74,0.6671173070934083,0.6670337089300156
75,0.6671203045977486,0.6670331660509109
76,0.6671106118890974,0.6670367092688878
77,0.6671145161920123,0.6670355752706528
78,0.6671062568691042,0.6670363152821859
79,0.6671173683802287,0.6670811958312989
80,0.667111156768269,0.6670464313030243
81,0.6671057133674622,0.6670383788347244
82,0.6671129271454281,0.6670350885391235
83,0.6671234056287342,0.6673153911431631
84,0.6671027947664261,0.6670355530579885
85,0.6671155646774504,0.667047611117363
86,0.6671274489164353,0.6670491898854574
