epoch,loss,val_loss
0,0.6686064907842212,0.6670626970132192
1,0.667386817574501,0.6670826819737752
2,0.6673163465658823,0.6670411109924317
3,0.667277323908276,0.6670395729939143
4,0.6672122251987457,0.6670463165044784
5,0.6672225317690108,0.6670907178719838
6,0.6672020105653339,0.6670588685274124
7,0.6671652686331008,0.6670366001526514
8,0.6671691300339169,0.6671159309148789
9,0.6671487668620215,0.6670381336609522
10,0.6671536621120241,0.6670320966641108
11,0.6671530125008689,0.6670336597363155
12,0.6671543294588724,0.6670408240556717
13,0.667154332253668,0.6670448695818583
14,0.6671638417243958,0.6670338252782821
15,0.6671534851259655,0.6670402977863947
16,0.6671448867321015,0.6670360528628031
17,0.6671406291590797,0.6670332137743632
18,0.6671414801677068,0.6670454586744309
19,0.6671464945342805,0.6678788491090139
20,0.6671271202961604,0.6670463573137919
21,0.6671446134779189,0.6670861420234044
22,0.6671404778560003,0.6670326139926911
23,0.6671154767804676,0.6670357974370321
24,0.6671370088126924,0.671811229189237
25,0.6671202354166242,0.6670437688827515
26,0.6671018263896307,0.6670307567914326
27,0.6671317598422368,0.6716491266489029
28,0.6671153487496906,0.6670697094599406
29,0.6671213446988,0.6670360325574874
30,0.6671177257829243,0.6670592505137126
31,0.6671172035402722,0.6670321544011434
32,0.6671176327202055,0.6670487238168716
33,0.6670877439975739,0.6670362992286683
34,0.6671208235820134,0.667038102666537
35,0.6671250996722116,0.667029676437378
36,0.6671036038266288,0.667028713186582
37,0.6671245694028006,0.6670321028629939
38,0.6671081651051839,0.6671212211847305
39,0.6671201725138558,0.6670441455841064
40,0.6670973235103819,0.6670274093151093
41,0.6671168415678872,0.6670417703787486
42,0.6671012029647827,0.6670321187575659
43,0.6671084732214609,0.6670822274287541
44,0.6671223475668165,0.6670321330229442
45,0.6671052556170357,0.6670403232177099
46,0.6671305222776202,0.6670344191392262
47,0.6671136884027057,0.6670289847056071
48,0.6671193171077304,0.6670443603992462
49,0.6671062288151847,0.6670300108194351
50,0.6671193125115501,0.669634667356809
51,0.6671216708554162,0.6670286926825841
52,0.6671304490698708,0.6670305864016215
53,0.6671146962775124,0.6670330213705699
54,0.6671129278077019,0.6670305370489756
55,0.6671333073245155,0.6670480833848318
56,0.6671060928503673,0.6670240692694982
57,0.6670997280014885,0.6670242476860683
58,0.6671221108436585,0.6670259348948797
59,0.6671055644883049,0.6670426960786183
60,0.667106843272845,0.6670349132617315
61,0.6671029317776362,0.6670244142214458
62,0.667111460963885,0.667036421140035
63,0.667101483186086,0.6670242986679077
64,0.6671072553131315,0.6670221257209777
65,0.6671149788565106,0.6670322674910227
66,0.6670955458084742,0.6670372511148452
67,0.667103905585077,0.6670214126110077
68,0.6671163652737936,0.6670225958824157
69,0.6671017280552123,0.6671320478916168
70,0.6671100699504217,0.6673512674172719
71,0.6671243229707082,0.6671008705298106
72,0.6671056740416421,0.667062852025032
73,0.6671088999112447,0.6670659747918447
74,0.6671048303577635,0.6670318498214086
75,0.6671115747160382,0.6670501761833827
76,0.6670968922641543,0.6670231602589289
77,0.6671159838173124,0.6670313919782639
78,0.6671061765220431,0.6670257328351339
79,0.6671022983127171,0.6728725185791652
80,0.6671232699818082,0.6670269383986791
81,0.667097045328882,0.66702514676253
82,0.6671150253746244,0.6670279209216435
83,0.667094696826405,0.6670586130221685
84,0.6671156336466472,0.6763974975347519
85,0.6671153010659747,0.6670231310923894
86,0.6671023935476939,0.6670299811363221
87,0.6671017659902573,0.6670223140716552
