epoch,loss,val_loss
0,0.28813374652465185,0.22314217266440392
1,0.2237488685614533,0.2230828383763631
2,0.22363534113433625,0.2231093261440595
3,0.2235276723040475,0.22314740612109502
4,0.223431788623333,0.2438574870824814
5,0.2234089549680551,0.2231421020726363
6,0.2233509388698472,0.22312192181746165
7,0.2233304798603058,0.22308418208360672
8,0.22336560569206873,0.22310885022083918
9,0.2232881977657477,0.22309505941470464
10,0.22335015879737005,0.22318820273876191
11,0.22333084620369806,0.22313462673624357
12,0.2233028848932849,0.22313861811161043
13,0.22329609542091688,0.22307992242773375
14,0.22329362058639526,0.22319574537873269
15,0.22325940626859664,0.22313354754447937
16,0.22325534975528716,0.223131166746219
17,0.22325916176372104,0.2231239884495735
18,0.22331572282976575,0.22306855695446332
19,0.22327228339513142,0.22307747719685236
20,0.22327692584859,0.22311047064264616
21,0.22326956945988868,0.22310891954104106
22,0.22326456506053607,0.22913892836372057
23,0.22325832188129424,0.22308634531497956
24,0.22327258743511305,0.22309408844510714
25,0.22331792491674424,0.22314702022075653
26,0.22322189480066298,0.223075591057539
27,0.2232581772506237,0.22307673600316047
28,0.22329401486118636,0.2230743704040845
29,0.2232659108572536,0.22309761570890743
30,0.22325285851955415,0.22307648916045825
31,0.22324831107258797,0.22315210528175036
32,0.22334087626470459,0.22308465451995532
33,0.2232740278177791,0.2231132681866487
34,0.22324510961439875,0.2230819252630075
35,0.2232895079685582,0.22308966281016668
36,0.22324824048082034,0.22317638876040777
37,0.2232790940668848,0.2230986387828986
38,0.22324741024110054,0.22307446444034576
