epoch,loss,val_loss
0,0.601857202384207,0.5975936015844345
1,0.5853506902257601,0.5544894852439562
2,0.5312008293800884,0.5050906595389049
3,0.5082522712283665,0.5038011496067047
4,0.5028683869971169,0.4972408849000931
5,0.49982147135337196,0.4958634014725685
6,0.4988290963967641,0.4973993132511775
7,0.49817438628938465,0.5173764696717262
8,0.49782509100437167,0.5066524089574814
9,0.4982149951590432,0.4903134080370267
10,0.4976342863374286,0.4936472012003263
11,0.4963943403363228,0.5011691065231959
12,0.49685880290137396,0.4910368366241455
13,0.49607282294167415,0.5101028048793474
14,0.4951200493839052,0.48891340643167497
15,0.4946647305952178,0.4907354665795962
16,0.494056165933609,0.4922680186629295
17,0.49343550199932523,0.48991702767213186
18,0.4938333469629288,0.492580045859019
19,0.4932407193316354,0.4889968517223994
20,0.4934162955482801,0.49824297227462133
21,0.4933013757003678,0.4935361610452334
22,0.4929850465191735,0.4892302746971448
23,0.4928086643483904,0.4909751603603363
24,0.4927248947289255,0.4934369353055954
25,0.492343153655529,0.5027376850048701
26,0.4924931074182192,0.4885006705522537
27,0.4923321062260204,0.4909280239343643
28,0.49214184778928755,0.4930295480887095
29,0.4916687161458863,0.4890123718182246
30,0.49213216030597684,0.49082130467891694
31,0.49193384583128824,0.4897215519944827
32,0.4919998419417275,0.4917637596527735
33,0.49166737042533026,0.5001629999081294
34,0.4918755348192321,0.4882964439988136
35,0.49191967176066503,0.4918980373740196
36,0.4918114610645506,0.49561692359050113
37,0.4917086250980695,0.4893119684457779
38,0.491235423915916,0.48958633240063987
39,0.4914142129686144,0.4890625781218211
40,0.4912917050189442,0.4940598530570666
41,0.49132771870825026,0.4892406511704127
42,0.4914289175271988,0.48915645710627237
43,0.4912123354739613,0.4883146200974782
44,0.49117739516496656,0.49624969220161436
45,0.4912162495851517,0.491465506374836
46,0.490942760652966,0.4888655052383741
47,0.4912396023273468,0.4903317035039266
48,0.4911432054903772,0.4885467792550723
49,0.4911915409564972,0.48873009558518726
50,0.4908392610086335,0.4948564347028732
51,0.49077585168679555,0.49739640748500824
52,0.4909162816206614,0.49164223595460255
53,0.49081042140722275,0.48776577732960386
54,0.49085038597053954,0.4892463352282842
55,0.49066916866434945,0.48849300549427666
56,0.49064929497904247,0.4958120085199674
57,0.4909295480714904,0.4921211876471837
58,0.49075413029723697,0.4941272054115931
59,0.49070294412639404,0.48918719846010206
60,0.49082869509193633,0.488256150841713
61,0.490669126868248,0.49041283480326336
62,0.4905194970038202,0.49038516799608867
63,0.49074997335672377,0.48878930348157884
64,0.49049401813745497,0.4906603810985883
65,0.49051730046669645,0.49048336704572043
66,0.49070011797878477,0.4950054236650467
67,0.49036351639694636,0.490878011683623
68,0.49056369695398544,0.48873734949032466
69,0.49050530046224594,0.4998941052357356
70,0.49047694322135715,0.4884691262046496
71,0.49044487743907506,0.4908321816126506
72,0.4900347035858366,0.4909254315296809
73,0.4904308139483134,0.49361854670445127
