epoch,loss,val_loss
0,0.5475059693856396,0.48851584597845765
1,0.4834461281959006,0.4818355664081619
2,0.48279484955193425,0.4776596476124701
3,0.4825082035730783,0.479205761331221
4,0.4890887927141883,0.48379061555147357
5,0.4840964078426742,0.4871881536686618
6,0.48211915344357203,0.47732640726413894
7,0.48176183483059365,0.4846220651807612
8,0.4818508140593886,0.47649056246267496
9,0.48218693240559835,0.4852638233573585
10,0.48244900047350275,0.479921440134485
11,0.4832093841690335,0.48201593966021156
12,0.4832004706898658,0.485209490712835
13,0.4819928345253332,0.4823415922949233
14,0.4821942090440235,0.4913114829616652
15,0.48272564840450183,0.48002155138078223
16,0.4825277963845278,0.4785765491796462
17,0.48239310952923375,0.4790607191910401
18,0.48250519867233044,0.4811276779366744
19,0.48252096262385996,0.48291329666678134
20,0.48375015260933113,0.4808643656917322
21,0.4836023449063968,0.479071304072709
22,0.4828128806716628,0.4881722326342666
23,0.48200866420396704,0.4836444849091058
24,0.4814395829141855,0.4794219301832691
25,0.4808163419306326,0.4806873218554065
26,0.4809798861412312,0.4756997619309384
27,0.48121480861727856,0.4843566706308532
28,0.4812870941264071,0.4812564444805377
29,0.48064419080456383,0.47679468410732057
30,0.4805788822906862,0.4798735701717913
31,0.48090448391904456,0.4817245510166427
32,0.48062033719010205,0.4844075589313597
33,0.48135565675133996,0.47656702000321416
34,0.48033618261154704,0.4764137529160154
35,0.4807644926791759,0.4827170683910457
36,0.48124698384536163,0.478500317426394
37,0.4811092773668295,0.47956974647980366
38,0.4810708067733512,0.4783730158536756
39,0.48070104240322953,0.47799539991787504
40,0.4809021897119679,0.48135375934222974
41,0.4803142178592255,0.48007008694435727
42,0.4808242714686169,0.48068877927600256
43,0.4808455993183892,0.4768155128728149
44,0.4801757482053946,0.4773001817379209
45,0.4801860444432349,0.47664844698104314
46,0.4805671494427345,0.47872398484383594
47,0.48007134622711833,0.4838224876651448
48,0.47991678173498187,0.4788326088753665
49,0.4803319624144968,0.47561848805754225
50,0.4807266541760412,0.47664896933319256
51,0.48004658906151065,0.47724098350555766
52,0.4801137499648223,0.47601553830652604
53,0.480098359745374,0.4785236800479061
54,0.48008427108458573,0.47500313711429826
55,0.47936795992578723,0.47768753327152913
56,0.4792969556306478,0.4757275718022447
57,0.4787194741358288,0.47394813203209485
58,0.47972442565871465,0.47658014631497175
59,0.48033734524755073,0.4773786824664076
60,0.4793722880639428,0.4795607991734168
61,0.4800090476763334,0.4776205888581069
62,0.4802096391991555,0.47531144903133304
63,0.47998041194453417,0.4773487567007777
64,0.4806771250985128,0.4803604687069379
65,0.4799436365933918,0.4757777058711274
66,0.4807851430561712,0.4774589479534101
67,0.4807519736550123,0.4778340646575169
68,0.4802198452557877,0.47823774217147946
69,0.4800525148757261,0.47521335507530627
70,0.47967156157981483,0.4779982728664576
71,0.48003413652678095,0.476089074796076
72,0.4790791810440312,0.47595502554946933
73,0.479256691799747,0.47711549655790864
74,0.4793613279799668,0.47523114981384096
75,0.47952167437278587,0.4815891854106298
76,0.47959820818986826,0.4767402859541405
77,0.4797418579209051,0.47582186284550737
78,0.4792431746598342,0.4767324768988843
79,0.47906293677721473,0.4753273247308212
80,0.4787111853857597,0.47705471176939307
81,0.4794051583579404,0.4767595226593439
82,0.47949566927364023,0.47512033840475254
83,0.4789537898928141,0.4747740852616392
84,0.47928815221281457,0.4769742582948921
85,0.4788101092159605,0.4788520363907035
86,0.479040554887671,0.4798369409300346
87,0.47898348003363816,0.4762176002398568
88,0.4786265495536234,0.47791608088394744
89,0.47894919167557876,0.4744312353461581
90,0.4789043645874011,0.47722359002812603
91,0.47926767265720427,0.479127185120767
92,0.47949136767408357,0.4772062095583379
93,0.4789892242585631,0.47820701047295927
94,0.47874126314735715,0.47864704726715207
95,0.47911524503446407,0.483216112725078
96,0.47898198612969367,0.4804487597217876
97,0.4781226920519325,0.47537750139797214
98,0.4784783600307673,0.47520112001058523
99,0.47889715727332305,0.4750933350779075
100,0.47846480204666453,0.48144713448744264
101,0.4786978704299477,0.47568274708648506
102,0.4792308149863776,0.47577937894104594
103,0.47803758080009456,0.4785654541772468
104,0.47867958591901044,0.4777525384405418
105,0.4782861193164075,0.47542965894340056
106,0.47826156551412924,0.4786286159067899
107,0.47822191712143514,0.47542945747781945
108,0.4778128648928696,0.4763817124321598
109,0.4785355700791883,0.4762493706916201
110,0.47855098240619465,0.4783341204122756
111,0.47876989814064963,0.4753100120748416
112,0.47799022399264274,0.47484739532880926
113,0.47803026864187514,0.4761258699146894
114,0.4784963495797105,0.47520965311879143
115,0.4781500717623533,0.4749545470503436
116,0.4786199067326949,0.47521206306112784
117,0.4782311160930341,0.4755728413669162
118,0.4783451709387114,0.4736635549715775
119,0.4785478526977993,0.47533445590673323
120,0.4786588988787265,0.47461520397672524
121,0.4779846548057384,0.47399846935422757
122,0.47848334010365867,0.4763369670089249
123,0.4780335827744741,0.4729286372285239
124,0.4776923111993537,0.4768599452422939
125,0.47836209479853403,0.4752007103521427
126,0.47821754356511204,0.4747919516480618
127,0.478226626233803,0.4788778344993998
128,0.47770481708524326,0.4760222574482777
129,0.47811624703170963,0.4732990195502798
130,0.4777387140585269,0.4762807656623476
131,0.47770015428439794,0.47613191235319496
132,0.4779032147426209,0.47452411530708455
133,0.4780477872736258,0.47546346173948817
134,0.4776593544643274,0.47364420827769255
135,0.47763044739083993,0.475482336206519
136,0.47829141686383864,0.4753468551782519
137,0.47746473037415177,0.4750039956893334
138,0.47804535296466427,0.4753818061282151
139,0.4777582282190033,0.474686979424229
140,0.47761008481708744,0.4766927522143324
141,0.4774332538449602,0.48326687386587275
142,0.47763816598984454,0.4755482293294938
143,0.47755937647524116,0.47697682604605324
144,0.4777766121067494,0.4771035673962678
145,0.4784999303728175,0.476398898869306
146,0.4778081566738568,0.4727094736782321
147,0.47762106779477387,0.47611958193045106
148,0.4774393657986209,0.4760832313533458
149,0.47729713215435343,0.47808861708960954
150,0.47739933538351126,0.4768194385466843
151,0.4780837776396963,0.4774543193257881
152,0.4780521960043126,0.47757504589932115
153,0.4772589776417811,0.4755023513239203
154,0.4770872544684856,0.474581384244827
155,0.47752596096073885,0.47495278137447144
156,0.4770965936253492,0.4777384126572131
157,0.4771141021204986,0.47878115371916363
158,0.476929619824953,0.47351874407577815
159,0.4773898787325997,0.47393903738415516
160,0.47696924839707777,0.4766401788477081
161,0.47745415543337805,0.47758821737324053
162,0.4772749351892921,0.4725038088393569
163,0.47720353690078027,0.4740613833034518
164,0.47753530146359063,0.47551822737623783
165,0.47739429346663204,0.474193921099522
166,0.4773876037266996,0.47663209505596776
167,0.47709558462258056,0.47536381691012125
168,0.4770628107990102,0.4745228403463266
169,0.47722982223942984,0.47578643969221196
170,0.47703520850026065,0.47416220056135633
171,0.4774665634909408,0.4809749714483308
172,0.4775023239550831,0.4807848188711511
173,0.47700737744307725,0.4738354623411806
174,0.47744519750086617,0.4776507751764796
175,0.47740097963314454,0.4728314142436048
176,0.4771448867760307,0.47660680608007977
177,0.47691358088684693,0.4736224995557022
178,0.47728398448224074,0.47401047018727827
179,0.4768671698683648,0.4769534593317202
180,0.4772298669429134,0.4722309957457605
181,0.4768148759524409,0.4736564035432585
182,0.47709173348834283,0.47512136200985383
183,0.4769371889001555,0.47480982753735596
184,0.47692343935692055,0.47252102505530347
185,0.47664776785101154,0.475680608916866
186,0.47695702738422663,0.4718719300503042
187,0.4773035766147405,0.4757436539069253
188,0.47705020011662486,0.4734562982370652
189,0.47692936328913477,0.477844196717948
190,0.4770961530941377,0.47343460447504093
191,0.4771136019012625,0.4772438101629244
192,0.4769996252301023,0.4740164664521778
193,0.47687267232760727,0.47309944880413274
194,0.4769699922282633,0.47295389000411664
195,0.4770418125734055,0.4746370657796265
196,0.4770321865066541,0.47688065999685164
197,0.47686919822490853,0.47340615725272644
198,0.47679245446940405,0.4813295793326332
199,0.47695840976173454,0.4765674176889794
200,0.4775085477925224,0.47350350692691817
201,0.47697327104356174,0.4744349104876394
202,0.47700658354827824,0.47588818449153614
203,0.4774161766735103,0.47616103827812206
204,0.4771015097935804,0.47418045028514905
205,0.4777695347698663,0.4751136934512604
206,0.477096941426313,0.47270788128863384
207,0.4773507477353803,0.47613430185494876
208,0.4771088950401492,0.4731618651933527
209,0.477358372139035,0.4744881984513862
210,0.47701716082368634,0.476381610676164
211,0.47738518506931743,0.47600863477613575
212,0.4772303800502841,0.4759519773622903
213,0.4769707169654749,0.473951761070536
214,0.4774424814158302,0.4759510678386914
215,0.4768775957975266,0.47681569166322724
216,0.47707343674439795,0.47460715422126
217,0.47753185017122257,0.47383321597054895
218,0.47679476356573053,0.47438469802006644
219,0.47741421977345416,0.47354807273647215
220,0.47675767109739026,0.47720687045482735
221,0.476765858755409,0.47475535968861055
222,0.4769791494504058,0.4794759055057095
223,0.476909136314758,0.4738076275836415
224,0.4769132047605743,0.4782125523641717
225,0.47708999183919315,0.4797932009529484
226,0.47710167714874807,0.47393108851437316
227,0.47722108863431106,0.47437697498461534
228,0.4768217491755764,0.47526961689684083
229,0.47663518311165504,0.4768607210200324
230,0.4769523613911262,0.47272720878860003
231,0.4767491238222991,0.4757818525573261
232,0.47676675032368665,0.47402468142588494
233,0.4772649393569556,0.474456477583913
234,0.47694124693540835,0.47386861854213
235,0.47686544400181985,0.47314689715922864
236,0.47683474084408545,0.47531495018088166
237,0.47681529791378,0.4729335522830439
238,0.47695235913987166,0.47448858037743874
239,0.47673655720018177,0.47357040551956375
240,0.4771363836326759,0.47649536402374154
241,0.4772507345481075,0.4743794712995862
242,0.4765404771438701,0.47416805807021817
243,0.4773568767699883,0.4745934878217958
244,0.4769200159014939,0.47324763780611184
245,0.4763301138183196,0.4770528035504477
246,0.4768554607360102,0.4760129194186255
247,0.47648994618659013,0.4778637799016114
248,0.4770404180939154,0.4732194032223091
249,0.4767421232662994,0.47381025512762304
250,0.4771709629981447,0.4734291793703562
251,0.4766004642398714,0.4722913673710616
252,0.47692080727107616,0.4750740430960998
253,0.47661965062244716,0.4764319389188205
254,0.4766236696597769,0.47579564263525215
255,0.47715306567917054,0.47377047824784346
256,0.4763942932029613,0.47282419954121535
257,0.47684073232584817,0.480801730618857
258,0.47695074004711485,0.4763789165650378
259,0.4772286294914073,0.4750847000255299
260,0.4768271276371466,0.4742906495587696
261,0.4772265484388307,0.47452619994072437
262,0.4765333164033653,0.47591992897505636
263,0.47717591939117315,0.4749983471025137
264,0.4770259889457628,0.47363833959590007
265,0.4771194481592384,0.47490733189195183
266,0.4771783221349251,0.47773358757418727
267,0.47708219842468613,0.47526720646054327
268,0.47725532395090703,0.47598476782029503
269,0.47744150676553865,0.4740004137734682
270,0.47740990555972507,0.47605786165009356
271,0.47759864248817774,0.4752834327783562
272,0.47708299964499606,0.473123988723228
273,0.47714405789745035,0.4767794325865435
274,0.47755195619724544,0.47417194403902035
275,0.4780016890365919,0.4749759964192111
276,0.478795139218787,0.4789746941641361
277,0.4794864066236978,0.47820850113008373
278,0.4793016082948918,0.4782146531809195
279,0.47936407005567727,0.481555622914878
280,0.47805573492884923,0.4750601548139938
281,0.4785505697714815,0.47559105324387646
282,0.47801138023487766,0.47395090839951265
283,0.47791202019730344,0.4744932763249082
284,0.47747557771672827,0.47472419702075275
285,0.4771367218568742,0.47483855401237085
286,0.4769116015457135,0.4735454497557507
287,0.47751188123350047,0.4762395992698685
288,0.4769303783309831,0.47444006174967435
289,0.4773069711373769,0.4766569411839287
290,0.4776509838591186,0.47717322031625536
291,0.47665574091325086,0.47513909309796676
292,0.4772663279879484,0.47437397358261324
293,0.4769452089528672,0.47372143677396855
294,0.47694028519707427,0.47309542033930135
295,0.4774602000757182,0.4750136941459674
296,0.4770243039234079,0.4740390895903346
297,0.4768531381440677,0.47378693635104296
298,0.47681014498265434,0.47451849487605013
299,0.4771037138313603,0.47333389591211017
300,0.4770188421773301,0.4751501145942435
301,0.47702442552688884,0.4742691943094123
302,0.47688374907183323,0.4747756574929184
303,0.47690352259112967,0.4735335312260355
304,0.4767835456833279,0.47401923889142844
305,0.47674676393576376,0.47843944800586896
306,0.4766371234191312,0.47581566923136964
307,0.4767899266559538,0.4742380805907517
308,0.4769986321052297,0.47471077818990975
309,0.4770125020250714,0.473369967283559
310,0.4770401878227338,0.4738847581344791
311,0.47662054398934617,0.47566557737345194
312,0.4768597417884022,0.4745034066447143
313,0.4771279123761385,0.4728924158340189
314,0.4768449860058433,0.4780364003394096
315,0.47690028716906085,0.47728885189228015
316,0.4764850571763506,0.4736387864896041
317,0.47706800272805894,0.47487243349004565
318,0.47690114063277045,0.47602117343878503
319,0.4767473701069014,0.47568724838974163
320,0.47697279864935566,0.47587053029670806
321,0.47704815858607286,0.474301274568901
322,0.4771549638322027,0.47681851046425955
323,0.4772536676588485,0.4745928712877215
324,0.47687190298220333,0.47673726023043245
325,0.4770987281839339,0.47575188454625733
326,0.4767916489967244,0.4768026995207253
327,0.47697851002263986,0.4756567156399529
328,0.47681544781874696,0.47713972942134764
329,0.47675644343705487,0.47432058438035385
330,0.47701732109157113,0.475568724412474
331,0.47651679231394395,0.4753699027231197
332,0.4773190702370507,0.4750049191144102
333,0.47695516379807684,0.47284279165064713
334,0.4768123954153366,0.47485832311360027
335,0.47720639213478916,0.4748242976586463
336,0.4774038272557689,0.4771364445797364
337,0.477177837793585,0.47371793303700444
338,0.4771594149436501,0.47458295913408755
339,0.47649517892409476,0.4757017437500942
340,0.47679252951122303,0.4775295513487276
341,0.4768913709621826,0.4774286570093626
342,0.4769198332163546,0.476398414387511
343,0.47715045399755407,0.47559592838163156
344,0.47724149433924234,0.47582993137149615
345,0.4771345899068861,0.47548498877786516
346,0.4771985866897684,0.4750499529874315
347,0.4769530962530276,0.4759805484747642
348,0.4772315141703966,0.4762663301418594
349,0.4773716717767868,0.47716751617056796
350,0.4770002988912314,0.47757008356566305
351,0.47713620618855257,0.4739178570829796
352,0.47742176836104894,0.48129926950045243
353,0.47690729485998906,0.476756253224616
354,0.4770564584494781,0.47620354873887555
355,0.47706385390411654,0.4755171735454189
356,0.4771935982550744,0.4760401632104601
357,0.47678279950559666,0.4771677070277454
358,0.4774536106059496,0.47496868061944075
359,0.476847363271111,0.4748161180384439
360,0.47725936945536723,0.47502208816882846
361,0.47722947970330476,0.4738752356456224
362,0.47739148717656504,0.4758184417882301
363,0.4775093899165793,0.4763220411026299
364,0.47690157937727196,0.4756956681456261
365,0.4770576997721891,0.4760472379571919
366,0.4769596645562388,0.475869014000648
367,0.4772747834142354,0.47368738845567016
368,0.47708170868748195,0.47627285369851974
369,0.47712691427230075,0.4775821644204192
370,0.47745271378474463,0.4747418997413828
371,0.477500204250014,0.4755348008311256
372,0.4778075258342101,0.4773997328322801
373,0.4778151062252424,0.4757132187967895
374,0.477807936586922,0.4770703486739507
375,0.4788835570156622,0.475698430635088
376,0.4781944088512759,0.4757650265706837
377,0.4783395082949639,0.47887394123879023
378,0.4792996364817631,0.4805481187593495
379,0.4816680596910602,0.48142746177920226
380,0.4823777909687669,0.47966256321370365
381,0.4830569245284505,0.4809145820874724
382,0.4836183794611078,0.48215325711840423
383,0.48364223681574914,0.48366817949602897
384,0.48349558299393963,0.48133752131048113
385,0.48247054503928366,0.48346916076322194
386,0.48242193540270856,0.48183286072423165
387,0.48189580907448115,0.4798306785376879
388,0.48191516382469357,0.480791961125906
389,0.48168620536272094,0.4798010930407207
390,0.48142229312424845,0.4806953580857452
391,0.48060271259453846,0.4797647663384041
392,0.4806107339575041,0.4788466554367363
393,0.48079024061119907,0.4793152260610976
394,0.48091855942964745,0.47705592376186606
395,0.4801710567814555,0.4790326877428776
396,0.4799577135333626,0.4785123641507872
397,0.47932727399061054,0.481691889294321
398,0.47983421585399755,0.4815072353279487
399,0.4789464489923869,0.47927997760539365
400,0.4789070496432406,0.4775685048423231
401,0.4785499767743522,0.4805370610157335
402,0.47819083587204714,0.47446897176653735
403,0.4783993011160339,0.47563423857316317
404,0.4783400802684726,0.47973984512834916
405,0.47864198383333967,0.4750090884992995
406,0.47845226448836276,0.47678534332559913
407,0.47877844185423224,0.48438355519532594
408,0.4806255368853835,0.47707847899212646
409,0.48053092416003645,0.47776463211476566
410,0.48098898958340347,0.4804277357475534
411,0.48038849892090263,0.47718102817189156
412,0.4809136749338284,0.4788642892850697
413,0.48071012434532506,0.47919843842781895
414,0.4804965781508018,0.4806650980025083
415,0.4806419164418793,0.47913718317659615
416,0.4806791534193223,0.48002868820196454
417,0.479253540531718,0.4782011385451364
418,0.4801384452983534,0.47811462847191044
419,0.479605093395872,0.4795778621673208
420,0.4790265319658984,0.47965942766596786
421,0.4799666408416655,0.4788292655111206
422,0.47960579849118523,0.47955933956527863
423,0.4796104705590996,0.4778893142115345
424,0.4797047470970977,0.47866830615519346
425,0.47938605196041456,0.478326799531762
426,0.4792173734362082,0.47743034936728773
427,0.4787931572214114,0.47837991030458965
428,0.47876977834770146,0.4792831198568879
429,0.4790132298267526,0.4783717907594712
430,0.4785248491880324,0.4749686109709194
431,0.47787458446624276,0.47847787016192667
432,0.47813391257866583,0.4775081752037193
433,0.47869680501478945,0.47737373758604323
434,0.47837274784235645,0.4778626393688506
435,0.47801842302870123,0.47468590322402676
436,0.4783879168909326,0.4795876312133545
437,0.4780619277609147,0.47543925510303375
438,0.47780300411198445,0.47565178087403104
439,0.47783744118387084,0.47623289344154573
440,0.4778094472382947,0.4788796320240048
441,0.4783222406959648,0.4762430198567066
442,0.47819819978529887,0.4750468041497888
443,0.47834851163373193,0.4768129144960628
444,0.47816148118006524,0.47537271637284295
445,0.4780400231611624,0.47506366144415896
446,0.4780648646356581,0.47691346226288
447,0.47829479943934106,0.4774747491823752
448,0.47832134952076333,0.4755402254653711
449,0.47829996586608275,0.47497745082899634
450,0.47770216946693345,0.4760729790486589
451,0.47850258856845035,0.4742817259389957
452,0.47846666714556213,0.4791802610810949
453,0.4784198663384318,0.48052255737565125
454,0.47872735214509743,0.4799634517180045
455,0.47853014213766315,0.476425065496538
456,0.47861100734471324,0.47551956318830446
457,0.478687251607577,0.47720116136952845
458,0.4781876721804281,0.47439569712343793
459,0.4783740243513426,0.47695681866737644
460,0.47929449268668106,0.47716195096909386
461,0.478562505816003,0.4810279231891918
462,0.4787113002473883,0.47600831240768404
463,0.47893556892919503,0.4766306433276859
464,0.4789199987165838,0.4758193614262714
465,0.4785887171491254,0.48024582735835425
466,0.47908121697622524,0.4781379917049935
467,0.4794512249940305,0.4760805754183594
468,0.479469752068714,0.4817638174228623
469,0.47946545204146207,0.4812058055363213
470,0.47954896953609066,0.4775176502487842
471,0.4790435789062155,0.47667379960735295
472,0.47871800005245363,0.4779870877514322
473,0.4788632029942948,0.47675142313141283
474,0.4790953066256597,0.47873137923047215
475,0.4791321725987321,0.4771592130365575
476,0.4788042927841298,0.4771268886896975
477,0.4789694932867869,0.4767997632039845
478,0.4791077973959829,0.4787574367863791
479,0.4792207988093702,0.4791763651860259
480,0.47919752705487895,0.4755201741947183
481,0.4790237937256587,0.4767910315939641
482,0.4793494492650127,0.4780089818499835
483,0.47904247214658846,0.4807600298545073
484,0.47898236952192014,0.47728681667827677
485,0.4789869871785601,0.47697711802413356
486,0.47923959846452746,0.4759161436802398
487,0.47890384296337957,0.4784174653000971
488,0.47919584794057835,0.48018391097542235
489,0.4794751187499097,0.47780547564483195
490,0.4791851520038051,0.4784109807193232
491,0.47920434180495264,0.4769190149741937
492,0.47891871565632776,0.47736372003050986
493,0.47915894776987705,0.47933334796656374
494,0.4794133130452044,0.47809785548024225
495,0.4793556896712092,0.47813384459539954
496,0.4793549806213112,0.4818122687778232
497,0.4797489636783882,0.47775509626543605
498,0.4791019059580674,0.4765875306106874
499,0.4795199888263294,0.47827002166196314
500,0.47956986362032655,0.4780093980710527
