epoch,loss,val_loss
0,0.5600023976034588,0.5583938041528066
1,0.5582011811070972,0.5578609478871027
2,0.5579822429418564,0.5583311129013697
3,0.5578557886547513,0.5577171692848205
4,0.5577377553913329,0.5576277517080307
5,0.5576818762090471,0.5575748120148977
6,0.557654045396381,0.5579208736022313
7,0.5576205027500788,0.5574502668380737
8,0.5575936032401191,0.5574759447574615
9,0.557580707748731,0.557530387878418
10,0.5575652270846897,0.5576345724662145
11,0.5575604947805405,0.5574399723609289
12,0.5575408301750819,0.5574254180987676
13,0.5575483719772762,0.5574948324759801
14,0.5575455100668801,0.5580173811117808
15,0.5575332776440515,0.5575876044432322
16,0.5575224855078591,0.5574258480072022
17,0.5575188951094945,0.5575318843523661
18,0.5575248986085256,0.5574296180407207
19,0.5575183656480577,0.5574907915592193
20,0.557506571425332,0.5574485454161962
21,0.5575127042664422,0.5574037818908691
22,0.5575031339724859,0.5574593787193298
23,0.5574980886909697,0.5574332263072331
24,0.5575002902613746,0.5580086703697841
25,0.5574938187731637,0.5575643468300502
26,0.5574927996264564,0.5573703150749206
27,0.5574921787579854,0.5575703695615133
28,0.5574845878548093,0.5574271822373073
29,0.5574935150543848,0.5574712051947912
30,0.557475598971049,0.5576071813503901
31,0.5574840659565395,0.5575409078995387
32,0.5574819767475128,0.5573715120951335
33,0.5574793490568797,0.5574032308657965
34,0.5574761078622607,0.5574212159315745
35,0.5574792994393243,0.5574453663428625
36,0.5574709264039993,0.5573803497155507
37,0.5574767462942335,0.5577980769475301
38,0.5574715961350335,0.5574133876959483
39,0.5574716260565652,0.5573716208140055
40,0.5574623470173942,0.5573799597024918
41,0.5574650042586856,0.5574105844895045
42,0.557470421353976,0.5575022850433985
43,0.5574585491683748,0.5573716864585877
44,0.5574548545281093,0.5574288640419642
45,0.5574749749369091,0.5573472812970479
46,0.5574640394316779,0.557371353983879
47,0.557461948050393,0.5575037246147792
48,0.5574561096032461,0.5574323779344559
49,0.5574629138178295,0.5574138894081115
50,0.5574605981641345,0.5573963765303294
51,0.5574564445813497,0.5573898892402649
52,0.5574599114921358,0.5575956666866938
53,0.557468404981825,0.5574207585255305
54,0.5574537952608533,0.5573832263946533
55,0.5574507844845454,0.5575843441486359
56,0.5574650986856884,0.5574856025775273
57,0.5574518061214023,0.5573900380531946
58,0.5574537518819174,0.5575133971373241
59,0.5574528537723753,0.5573627538681031
60,0.5574529934459262,0.5574098791281382
61,0.557455478085412,0.5575186998446783
62,0.5574550177388721,0.5577838228146235
63,0.5574579719702403,0.5575137495597203
64,0.5574529742532306,0.5573631522258122
65,0.5574452047612932,0.5574048119783401
