epoch,loss,val_loss
0,0.6481188805500666,0.5595463381608328
1,0.5582833262284597,0.5580876820087433
2,0.5580878388484319,0.5578680815696716
3,0.5579664693276087,0.5577337174018224
4,0.5578519120083915,0.5580006461143494
5,0.5578021592564053,0.5578806668519973
6,0.5577558110290104,0.5576480726003646
7,0.5577429857783848,0.5577020730574925
8,0.5577178151210149,0.5576282141208648
9,0.5577045552333196,0.5576801243623097
10,0.5577076194683711,0.5578212377230326
11,0.5576965071890089,0.557748181939125
12,0.5576865606572893,0.5575930884679159
13,0.5576706079377068,0.5575467102924982
14,0.5576752916839388,0.5576002736488979
15,0.5576574730210834,0.5577404739061992
16,0.5576449833975898,0.5576870543162028
17,0.5576345046096378,0.5575136750141779
18,0.5576399078898959,0.5575535967350006
19,0.557637166235182,0.5575827936331431
20,0.5576288501289156,0.5575178769032161
21,0.5576310781240463,0.5575962039629618
22,0.5576294152736664,0.5578066105445226
23,0.5576222911675771,0.5576014768679937
24,0.557632745358679,0.5576305031379064
25,0.5576247445874744,0.5575848415295283
26,0.5576281162632836,0.5579077677329382
27,0.5576171932750278,0.5574978352387746
28,0.557623013496399,0.5575906362533569
29,0.5576268359687593,0.5576477295955022
30,0.5576214675108592,0.5576969280242919
31,0.5576155425442589,0.5575923134883245
32,0.5576158836947547,0.5574988783200582
33,0.5576103046337764,0.5576500887473425
34,0.5576229588323169,0.5575333546797434
35,0.5576127561198341,0.5578262391487757
36,0.5576128257777956,0.5575114937623342
37,0.557612320833736,0.5576911194324493
38,0.5576116967068778,0.5576456385056178
39,0.5576093584563997,0.5575421373446783
40,0.557608262234264,0.5576742889086406
41,0.5576145153310564,0.55757377243042
42,0.5576063877079221,0.5575401280721028
43,0.5576038686434428,0.5579318548838298
44,0.5576058827506172,0.5575550988912582
45,0.5576002406809065,0.5581035903294881
46,0.557612726436721,0.5575556202729544
47,0.5575978158579933,0.5576203219890594
