epoch,loss,val_loss
0,0.4946202035662267,0.4306778707643495
1,0.40659201864579664,0.35708716272437657
2,0.35553368216185116,0.34167622676344295
3,0.34271110509566255,0.33318109028434134
4,0.34210892348551003,0.33493295053302613
5,0.3359416155957336,0.3287788639441797
6,0.3265023193806052,0.3129346589682456
7,0.2925339384769515,0.26555230991200324
8,0.28334290273577045,0.28719600180688176
9,0.2853809132503929,0.27552544027687764
10,0.2835576173553379,0.28041360094019385
11,0.28263097339935356,0.27627940336959883
12,0.28191007899822856,0.2710531043841988
13,0.27899966193877573,0.2783021761311425
14,0.2792608140586757,0.26060056864055114
15,0.2722439601229991,0.2567825518844578
16,0.25936090020989305,0.2437108116404177
17,0.25121511992595025,0.24198278833093048
18,0.25602676869751073,0.2606360960905859
19,0.2585802454892113,0.23867047378084857
20,0.25988514116518585,0.25967252021240006
21,0.2599017410110339,0.25225031914888896
22,0.25773924603473675,0.2549361470551966
23,0.259101557745945,0.2517554534951169
24,0.25769182805827945,0.2483816571890196
25,0.25723829649514063,0.2567225661905239
26,0.25663791985226403,0.24711881755622345
27,0.254228162463662,0.23598046850984114
28,0.25295776364992295,0.24491430676428166
29,0.25164318606078484,0.24164312314136377
30,0.2502844104166027,0.23630906272881996
31,0.24660751577302684,0.2385586245289104
32,0.24155030996084595,0.234341964367339
33,0.2392824213561103,0.23219497492181898
34,0.2350915551209469,0.21660755328163322
35,0.2308272250396333,0.21574871337520138
36,0.22910074299101452,0.21461308609153426
37,0.22218371087236344,0.21784122106947748
38,0.2206371291946945,0.2094973105293701
39,0.22294420329592912,0.223822327377539
40,0.20238278807999135,0.17593913044952708
41,0.19599635233943036,0.1917680715364068
42,0.20403798440511556,0.24213014263886315
43,0.22616055047659991,0.1974179823033131
44,0.22567787804037595,0.2222638549184954
45,0.2398735108472902,0.24451043807870473
46,0.26064998315896293,0.25320973861826596
47,0.23376225895159622,0.21217315016195046
48,0.18326808912478226,0.19012384572265018
49,0.17077102338831077,0.15751201805068726
50,0.17416719344554185,0.15086772521868627
51,0.1625302686714668,0.15021331358734225
52,0.14091258675301427,0.12720291767894787
53,0.1562009394270263,0.1600390122198807
54,0.14956760292856383,0.18233914593565492
55,0.15430314668877015,0.19908893557940666
56,0.30121121937938455,0.38990873417425037
57,0.335199563705129,0.18113878406795755
58,0.13674929760712637,0.1265886904066013
59,0.1788038776171885,0.18433719741698695
60,0.1573094463913893,0.1704501310380029
61,0.189472764163756,0.155719630861321
62,0.19814487555630214,0.20932455150605409
63,0.2146833878490713,0.18699569666617688
64,0.19978715862342125,0.1916305698690043
65,0.19270727049717434,0.17377947384471923
66,0.1895420676629671,0.17652387908582076
67,0.1833786972409921,0.1676552447899028
68,0.1847032754778194,0.17538222813161525
69,0.1823297278214398,0.161417373056491
70,0.17965176572696603,0.1690523753068066
71,0.17832471810287243,0.1496144103706608
72,0.17510477341622044,0.16283972371016106
73,0.16980797510513598,0.16787116553419892
74,0.16809936705007375,0.16454991011820666
75,0.1691303613175861,0.1483880921303984
76,0.17238772288263082,0.15638653446360515
77,0.17256927642646172,0.15570692229179087
78,0.1750032891175621,0.16648989967210256
79,0.16854952981440519,0.14751316888585675
80,0.16664597464261577,0.1622300389655605
81,0.16730471649427142,0.12796340517802443
82,0.1727908856635861,0.16106003198382918
83,0.17736572884709192,0.1646361101451968
84,0.1800239750559183,0.16732067469770312
85,0.18581811731175674,0.18162862708775473
86,0.1877608482447789,0.1606124301606431
87,0.1878235466014728,0.1551960572987094
88,0.1906781454888986,0.19128772812168093
89,0.19366079332639544,0.18242362290258246
90,0.19498523889635924,0.171316463037999
91,0.19343937371519682,0.19515090191016232
92,0.19048818171000462,0.16432253420594642
93,0.18943009985158976,0.18799362627114113
94,0.19057090625799208,0.18791426217904056
95,0.18455864364703337,0.2029127819283842
96,0.18010715005682218,0.1657127775886343
97,0.17647106025376924,0.13349501721542828
98,0.16581630846075385,0.1514698283539878
99,0.1627369188905669,0.11946299141582588
100,0.15494764969647645,0.14697126891321993
101,0.1519049144356703,0.14728112695836867
102,0.14917073345141377,0.15940581676637072
103,0.15323731670375343,0.14133280956179556
104,0.15479661770958342,0.1208134142731808
105,0.15519387213538607,0.13874816809329962
106,0.15730254018934275,0.1368455553830685
107,0.15842744104975792,0.14555865997525608
108,0.15585684501308741,0.14484438388959625
109,0.15487364481230848,0.14767829181334882
110,0.1559120122763851,0.1467825888572238
111,0.15955126581130455,0.12650163153251398
112,0.1552306152432799,0.12401414472860528
113,0.15221119966742705,0.13610968262633943
114,0.15384130839935486,0.1303362059017941
115,0.1477295112273424,0.11798213989702744
116,0.14338671080201412,0.1411065552670687
117,0.14501617896595032,0.1295476714685402
118,0.14988373206246844,0.14349803481393003
119,0.15151750691551222,0.1470879672966831
120,0.15762514972371802,0.16012704356695132
121,0.16235979100326903,0.16316173278212256
122,0.15936455466718175,0.146549263357246
123,0.15746596553105655,0.16100642437965815
124,0.16147549687217388,0.14596501576494417
125,0.15970265063001596,0.1590518946038062
126,0.1636280414728139,0.13523729653109018
127,0.16809027943256094,0.15525190448818996
128,0.1643699376081065,0.17314289159776713
129,0.16238503918361913,0.14049783292236312
130,0.1635143883389125,0.16596254603657795
131,0.1628239601403117,0.13788448088626407
132,0.15866865749784811,0.14039891909291274
133,0.15965235542902667,0.13653034996014732
134,0.13557011986656892,0.11487788746295087
135,0.12637146798859508,0.10587159066860596
136,0.12172999437018525,0.10135740803710253
137,0.11832495347512446,0.09985620084929447
138,0.11638283936845197,0.10244296683906445
139,0.11397715871803182,0.09639002809365978
140,0.11839337217762434,0.11109860572550032
141,0.1164895542282119,0.09918211197476028
142,0.11770877466082955,0.09301185344450859
143,0.120885353088021,0.10887518340822941
144,0.12901610583723117,0.11392909857623479
145,0.1326301500523348,0.1401454668374247
146,0.13403293072545022,0.11031979735146087
147,0.1304567576236158,0.11569865309578176
148,0.12932530072949427,0.11668140560823635
149,0.12829760332898296,0.09802887531938538
150,0.1242385411812507,0.11070195173380921
151,0.1229210896723217,0.1114426805590191
152,0.12561925531352303,0.11092899709529057
153,0.1278176752655052,0.10351092288601428
154,0.12440378852099108,0.10220976268747234
155,0.1239136141136563,0.11262148249492544
156,0.12873469248974773,0.11621119375646549
157,0.1350057993272097,0.12698912290616046
158,0.13699417449146198,0.12936250471479024
159,0.13238955878192563,0.10732519651392274
160,0.1311908383742631,0.11746839791028749
161,0.13421074344252376,0.14417269265782223
162,0.14416599303209562,0.12646189799104776
163,0.13623972121086284,0.13337746067977202
164,0.13416053898173202,0.11732884578026125
165,0.1296438482598222,0.1205702003843883
166,0.13323860691846898,0.11683694401337476
167,0.1292807781506625,0.1090410683796547
168,0.13301884365962255,0.11915878816194295
169,0.1297744023796317,0.1015083857744763
170,0.12498726073900063,0.09710874057103731
171,0.12632566075727308,0.11463086899227953
172,0.12873055464069877,0.1058175335944134
173,0.13147160185395096,0.1391547081413447
174,0.13234465731810435,0.13245219475040568
175,0.13470304669965927,0.11970890194951087
176,0.1348658606195278,0.11924038330713908
177,0.13310920452778105,0.10813827020480975
178,0.1252067811470971,0.08740150108208332
179,0.1253377660315594,0.1074969131931578
180,0.12365135140388941,0.10881039953434844
181,0.12943277895760785,0.12537746237166414
182,0.1279371506016287,0.09751764701834947
183,0.12430071824187751,0.12492900383443438
184,0.12174420101975231,0.11584098209284809
185,0.11990715754781368,0.1135453236654147
186,0.12121817905357402,0.11823551437763885
187,0.1262445965643116,0.10529600440948259
188,0.12512358679496546,0.10289323406667121
189,0.12905291773921684,0.11231860028397041
190,0.12542438681861512,0.1313897428757663
191,0.12269518296088908,0.09837191400253377
192,0.1257669644369136,0.11008197288516085
193,0.12722851913138997,0.10073924538379554
194,0.1295042811476106,0.10368742069889643
195,0.12940958211179063,0.10745119534898172
196,0.12553280004985434,0.10968439668320294
197,0.12506897147413823,0.11405681120798246
198,0.12755011023582222,0.10522577654198718
199,0.12453501524211312,0.12863684884919835
200,0.12457452721303229,0.11157685517660507
201,0.12414706914161472,0.1114537637297061
202,0.12169055589992968,0.12113072166018436
203,0.12356980494242177,0.10864366328725947
204,0.12209275814654638,0.13297287186808637
205,0.12244132673852533,0.09468064758101809
206,0.11777562714570326,0.10580276774011389
207,0.113891769000728,0.10040360754423767
208,0.11697932278768744,0.08910690504220667
209,0.11035042584204884,0.11081944965581438
210,0.11207450497105086,0.08628174299427097
211,0.11371132610939902,0.10287855569777794
212,0.11777060320548671,0.08426443693459952
213,0.11989374975677583,0.12308919012232322
214,0.1168155783147598,0.10166746588833238
215,0.11524885827846962,0.096870437747854
216,0.11515392781532793,0.10066634393013887
217,0.11170915354660647,0.09189613841455928
218,0.11228697068744702,0.1086665015827807
219,0.11419335371546978,0.10508110403216958
220,0.11732178082386907,0.09938202403781865
221,0.11873819735989845,0.10131644595955216
222,0.12162029223920728,0.11424007767695096
223,0.118944568316444,0.09748413981771624
224,0.11372166451773613,0.09007858143876166
225,0.11712752285602095,0.11324273708479635
226,0.12097378180110999,0.09994213982195943
227,0.11865487479693514,0.10897248928395115
228,0.11555377630780848,0.10349744930561249
229,0.11866666204195389,0.100092602568918
230,0.1164084451617576,0.09846902404219178
231,0.11926025021865999,0.11614981090041165
232,0.12173019327801929,0.09443853631168483
233,0.11926867240656605,0.08867373280015692
234,0.11797256676481666,0.09595929725520125
235,0.11552330355843704,0.09489992262745715
236,0.1153067590309392,0.08972084009226801
237,0.11415601959578794,0.09018793046498627
238,0.11269487484728842,0.08633755617876993
239,0.11237550907886869,0.08826521807633467
240,0.11221084240868723,0.11015945357562852
241,0.11404258629577078,0.10181232223352184
242,0.11522147369334658,0.09219204590920985
243,0.11314289613341312,0.10489099647997843
244,0.11337877286551856,0.08696153159317502
245,0.11387644575728331,0.10216963511724735
246,0.11653138504171963,0.10529758412593376
247,0.11642394959628344,0.09606178605208432
248,0.11220991585233672,0.09120429903027108
249,0.11469701208394942,0.09662767526272922
250,0.1132001464961289,0.08992609445123487
251,0.11351941210076845,0.10167120973559192
252,0.11385248765182361,0.10739140714679611
253,0.11487361255755799,0.09433710381134873
254,0.11521842061065501,0.10474748247199589
255,0.11198189041858392,0.08630667618398055
256,0.11035955642417873,0.10901551177031803
257,0.11455016848955563,0.11034544255805034
258,0.11539426961059185,0.12191624042713246
259,0.11231673473985888,0.08430069846018774
260,0.11328600782206098,0.0977933438795423
261,0.11085323559894288,0.08565289774926232
262,0.11064901896375862,0.10633015090604188
263,0.1140808667972672,0.1087447868634411
264,0.11529993426928624,0.10852328409944621
265,0.11521841860037026,0.0968870899405116
266,0.11678366449246223,0.09588952690048713
267,0.1283496625458984,0.12635010117113543
268,0.12848501309179802,0.11494015833394661
269,0.1277523602309038,0.10905947136207025
270,0.12156822225205702,0.10843256030712105
271,0.12246698758798279,0.1036231780888487
272,0.12350450879375967,0.09153166024765153
273,0.12358664210029752,0.11281917183769494
274,0.11998424866647601,0.11721343117473769
275,0.12896894734558628,0.12905735391383236
276,0.13501936407853737,0.12002134127338437
277,0.1258631472179802,0.10100276498101343
278,0.12192561984169568,0.10254373572108133
279,0.11939636911090323,0.10129113210137067
280,0.11853134283740774,0.08980103857688371
281,0.12322696554866001,0.11880886142005402
282,0.1218730938539589,0.11310920082425452
283,0.12108358669820263,0.08776017044582506
284,0.11645268718059584,0.0964636941533309
285,0.11398140471085631,0.08879922947333484
286,0.12023855808427374,0.09815602066767283
287,0.12252075887256092,0.11046238760225964
288,0.12778271749329337,0.10332690141883596
289,0.12619597505960015,0.11209398414410911
290,0.12191383325583559,0.11262967980739458
291,0.12143210283785558,0.09111889449929379
292,0.12397013325467884,0.10626813794719622
293,0.12317575037694149,0.09312609641753071
294,0.12407656214397558,0.10769898665574926
295,0.12468971822670309,0.10021509821107498
296,0.12277827382362108,0.09416149844266686
297,0.1200526967507491,0.10696268157802359
298,0.12059942314966475,0.10409615123576492
299,0.12083966792333689,0.09859210570000675
300,0.13685932269005227,0.13142557113468406
301,0.1503797360599709,0.14504827839372994
302,0.14330898254238864,0.1324564369285097
303,0.1434919217063056,0.13509006988610664
304,0.14279391299828803,0.135881354429571
305,0.14121546873970447,0.13801456401721307
306,0.14028265895105727,0.1310952769687576
307,0.14025351533694588,0.12832494640824085
308,0.13177466858103812,0.1222612424017159
309,0.13554544482317515,0.13054578513245416
310,0.1366691521083335,0.128690557425958
311,0.13655074324020391,0.13025382752111067
312,0.14382763093321013,0.1324044377131377
313,0.1483965498015726,0.13295664616527347
314,0.14843139808783062,0.12268837867040316
315,0.1526308410507951,0.13082250724308683
316,0.14914342896748867,0.13004540249596547
317,0.15220254486362586,0.11775936924120516
318,0.15221051001448552,0.14265875245194462
319,0.15162086920489112,0.13501851647391322
320,0.1504984252733455,0.15044068433918414
321,0.14743292864391191,0.14545363930430918
322,0.1494678491033059,0.15090099830914588
323,0.1514357543670482,0.13522422088903813
324,0.15040628440540918,0.168150192424232
325,0.15232292849352783,0.1253026663193544
326,0.14730862565368438,0.12938140286774724
327,0.14889879990592778,0.11895084304966196
328,0.14913980609135594,0.13957160386798445
329,0.15023452841681992,0.14081427435611962
330,0.14988195008521465,0.13130895854468666
331,0.14271555748507916,0.12584734156377317
332,0.1502476932407857,0.1320159372489141
333,0.1478108287310963,0.11744235047507073
334,0.14974963272794234,0.15371326890087475
335,0.14951492712390815,0.1348192985656778
336,0.157031987277005,0.1254473489687294
337,0.15643243290024628,0.14146771050524345
338,0.15746589980011372,0.1326062121735969
339,0.15813759569111493,0.17905492310783094
340,0.15990385698904697,0.1305377135553306
341,0.16150057559506334,0.1521621086277424
342,0.15899685767588853,0.15485766648472757
343,0.15353906919077648,0.13637464428856813
344,0.14697347118185938,0.13068897535741958
345,0.14570698166210905,0.12580089478331277
346,0.1479049703274802,0.136215637508245
347,0.14259840003114113,0.13259277035937692
348,0.1453430365422089,0.1369621346478818
349,0.15016968745747217,0.14142856979553814
350,0.15199416970984758,0.13577430797416024
351,0.1501098176549443,0.13049005338769568
352,0.15331118709867816,0.13050030490318548
353,0.14830448154846224,0.14305021240400861
354,0.1443223977436105,0.12484175745104738
355,0.14812522681297255,0.13670275386933475
356,0.1482532202863426,0.13161761304008604
357,0.1467572255664057,0.13155522149748078
358,0.1456242257697855,0.1447292937982498
359,0.1471536406953398,0.12305854482082265
360,0.14637985631370182,0.13192656754069665
361,0.14327065337350886,0.11499794784084337
362,0.14354784473228016,0.13300621425559245
363,0.1470133651665347,0.13417504281893264
364,0.14132867071380895,0.13274100666982028
365,0.14854794899948698,0.13954959820052618
366,0.14385221430284678,0.11423390746019955
367,0.1418038819155233,0.1316848360696945
368,0.1437766789447507,0.13311251683730183
369,0.14536252803056596,0.1351509942383855
370,0.1471376251861799,0.13197068644072693
371,0.13720437781430417,0.12167312189731187
372,0.13503197609209078,0.13254548005596564
373,0.13950024806171823,0.11809888491157777
374,0.13876755830285262,0.1334752969002685
375,0.14114207568301784,0.12659295377021676
376,0.15218254613329926,0.1448006070213693
377,0.167850778884798,0.15792491785511192
378,0.16503638270094073,0.14240551982241148
379,0.1556217788582186,0.15427947304810535
380,0.15137451539655702,0.13065540675747617
381,0.15096067943520028,0.1253194733366479
382,0.1525611749188818,0.13365324507471224
383,0.15190644579543602,0.139475271552922
384,0.14892123033515542,0.13559571704362722
385,0.14863540420086505,0.14445728380822206
386,0.14739990154142568,0.12313741400825813
387,0.15093548610520133,0.13058865551337515
388,0.14876441853202946,0.11897853080905364
389,0.14800083251883261,0.13128706214032518
390,0.14857777262671745,0.13398245398169692
391,0.1529041701783124,0.14411145427535438
392,0.15107516362201318,0.15293167758693757
393,0.15717091430440916,0.13206884237149819
394,0.1604249748655612,0.167507166385844
395,0.16445882908039516,0.16850200978267124
396,0.16515099621408458,0.1454193313868183
397,0.16272533908963585,0.12646338834887294
398,0.14906018411366342,0.1365244725034765
399,0.14774301840518836,0.1406446238926824
400,0.15198285907530804,0.13392841679384723
401,0.15007212367937792,0.12993058982242536
402,0.15220965031054232,0.14956699201757118
403,0.15229510303267582,0.1444604347693369
404,0.1576582728158101,0.15315455632149835
405,0.1550999845477273,0.14747767389086525
406,0.1494976539012668,0.11854504746749743
407,0.14164790778970412,0.1158781025652371
408,0.1381897897130733,0.13252687619792092
409,0.14109528579229447,0.12948998120603578
410,0.14126204790546,0.12420933462214102
411,0.1373084686887417,0.12192645759623126
412,0.13145988151800928,0.11620236929605766
413,0.14316168710219565,0.14899324292780805
414,0.1416312686747031,0.11709856837746194
415,0.13611174628937883,0.12307023231638028
416,0.14344749080719615,0.13772578884916198
417,0.14458760503736184,0.13492325523570603
418,0.13628541885183942,0.11367936943569322
419,0.1322296120202522,0.11768314139638021
420,0.12942084764615835,0.11159626941973856
421,0.1358441492621664,0.11816641120338285
422,0.13166422718722787,0.09891158580441642
423,0.1358765135552761,0.1207927545141323
424,0.14429020337623247,0.16202078377170864
425,0.1479316720242401,0.13506102074309276
426,0.1448503183223325,0.12878789383516212
427,0.1496686889939875,0.1337173811589811
428,0.15012624661764018,0.1557118475968917
429,0.1428871224548599,0.09909377984901994
430,0.15079737794373013,0.12642104265076884
431,0.14462590264715702,0.11510472211137789
432,0.14392256748089322,0.14596415297200016
433,0.14154218239568062,0.13445793156907118
434,0.13103272746487843,0.1417996333269984
435,0.13043574838816308,0.10433256722811461
436,0.12361509624340708,0.1093640761436337
437,0.12183062660935118,0.11760372913231815
438,0.12318404932753194,0.09597223449048238
439,0.13139698318868662,0.12972800051740582
440,0.12571240612883583,0.11607850867490506
441,0.12468459737823427,0.09883525425572755
442,0.127677263261033,0.11110308621341584
443,0.13188084092340152,0.11879694072676207
444,0.13250364474743437,0.11716046274336779
445,0.13202302462105947,0.09821978406580309
446,0.13352392629397403,0.1316476336953027
447,0.14282385263445857,0.12781141758786888
448,0.1461805155376991,0.15105136328007474
449,0.1475623743362528,0.15049480022039244
450,0.1490887320511717,0.12919289873730141
451,0.14512005691723026,0.142510787468322
452,0.1435274390743865,0.11898706754290371
453,0.1388723369452169,0.1463996205246265
454,0.14391651535757166,0.12662743699086554
455,0.1434408118299621,0.15422231706413717
456,0.1444947797092225,0.1376456273092744
457,0.14685772459885424,0.12100313179080117
458,0.14184225103359302,0.11424904044744742
459,0.13653700169417454,0.09987086243776412
460,0.14039464901276738,0.12214977276078685
461,0.1477753356355634,0.14971273627497758
462,0.14214928633420823,0.12873654303783724
463,0.15442582514521788,0.12826945796451816
464,0.1531226120537238,0.147066672655111
465,0.14311916728595717,0.11377568795539844
466,0.14575565289303338,0.11939235046107113
467,0.1443083100587583,0.1404253961299361
468,0.13923711339839465,0.11311896922427855
469,0.13297840233465688,0.11548225566539354
470,0.14158567579223025,0.1287076728296106
471,0.14696479169092624,0.12128001128210832
472,0.1457305242858523,0.11959442683621721
473,0.14427294500703045,0.11044307649498149
474,0.14196949761161048,0.10326902506101064
475,0.14699477898337251,0.1149204974723655
476,0.13369094787703886,0.16194640627525148
477,0.13990181383249567,0.1520309514409144
478,0.13599274858677263,0.14695926631188258
479,0.14193400779695775,0.11986034555060053
480,0.14762077982827507,0.13187037508659796
481,0.14177101084871518,0.13566295290176983
482,0.14684382331273477,0.1524678422659273
483,0.13162470559139935,0.10623536211803301
484,0.13234929545067423,0.11704187237771661
485,0.13937600646868908,0.12764367689012224
486,0.14228757770002795,0.13837142307417044
487,0.1589526117378898,0.16484497592687028
488,0.1688839794965006,0.1926596426954138
489,0.21881482422984153,0.166635087909538
490,0.16734056146718485,0.11156282196273092
491,0.15247609233968348,0.16380836516135316
492,0.16755267752526853,0.12797594550824803
493,0.1405195004826455,0.1414678082208467
494,0.1460672389802406,0.14153490669946794
495,0.21176668736722776,0.14546461323606996
496,0.17239180986908934,0.16322289847762045
497,0.19368620717926346,0.14327505985025651
498,0.20607049399024968,0.16985698759749182
499,0.186510092680983,0.23110107925251452
500,0.19121974011401446,0.17519749059294262
