epoch,loss,val_loss
0,0.48840534810240815,0.46213828760755155
1,0.4526251187240045,0.45194604484609857
2,0.45475341068712744,0.4587568578909534
3,0.4562074574898547,0.45007811700419864
4,0.4600732275468158,0.4658602634372637
