epoch,loss,val_loss
0,0.2539046755035718,0.25112927055358886
1,0.25114768687884015,0.2509555867513021
2,0.25095181371768316,0.25084398726622265
3,0.25087431064579224,0.25104473769664765
4,0.2508149446182781,0.25065000251928965
5,0.2507700337237782,0.2508139389952024
6,0.25074617195129395,0.25071613818407057
7,0.25072928645213444,0.25066052252054216
8,0.2507138554652532,0.2507566774288813
9,0.250691602812873,0.25062569391727446
10,0.2506896416611142,0.2506821406086286
11,0.25067762550380496,0.250935611307621
12,0.2506639226211442,0.2508392353057861
13,0.2506541255844964,0.2505792883435885
14,0.25064828083250257,0.25056015606721244
15,0.25065427933136625,0.2506188568870227
16,0.25065350049071844,0.2507128585974375
17,0.2506426273716821,0.25106219057242074
18,0.25063859248161313,0.25058716160058975
19,0.2506286156839795,0.2508465265631676
20,0.2506208942201402,0.2505702894926071
21,0.25062030848529604,0.25056162297725676
22,0.2506058294243283,0.25057293838262557
23,0.25061610130469003,0.2506071533362071
24,0.2506107003953722,0.25058956784009934
25,0.2506168361107508,0.2508719209631284
26,0.2506150619453854,0.2505670337080956
27,0.25061315445105237,0.2506199416518211
28,0.25061069371302924,0.25055190165837604
29,0.25059675354427763,0.25076005508502325
30,0.2506061179902819,0.2505656959017118
31,0.25060855886009004,0.2505531662106514
32,0.25060628054539363,0.25073865910371146
33,0.25060047151645026,0.250549780189991
34,0.2506064272125562,0.25058608478307726
35,0.2506086592078209,0.25053466751178105
36,0.2506083636879921,0.25057590077320735
37,0.2506039158238305,0.2506046899358432
38,0.25060452224148644,0.25068855239947635
39,0.2506077912383609,0.25055502758423487
40,0.2506025392413139,0.25063696096340815
41,0.2506001285380787,0.25058530312776567
42,0.2506023256646262,0.2507088588078817
43,0.25059803681903414,0.2506462963620822
44,0.2506004708607992,0.2505358651081721
45,0.2506018560859892,0.25053279095888137
46,0.25059704840183256,0.25058624502023064
47,0.25059720455937917,0.2505387387474378
48,0.2505989856587516,0.25075750597318014
49,0.25060473051336074,0.25053680382172266
50,0.2505980907479922,0.2505751772324244
51,0.25059912767012915,0.25054958766698837
52,0.2505988705025779,0.2506891022920609
53,0.2505944996078809,0.2505590837399165
54,0.2505994131631321,0.2505884623726209
55,0.250592989537451,0.2505487690170606
56,0.250593553993437,0.25052258384227755
57,0.25059439697530533,0.2505593129197756
58,0.2505917899741067,0.25053428210814793
59,0.2505988270441691,0.250528178691864
60,0.25059591594669556,0.25053962163130444
61,0.25059320889578923,0.25054956815640134
62,0.25058931602372064,0.25063836989800137
63,0.2506007636321915,0.2505463907122612
64,0.25059226516882577,0.25054322310288746
65,0.2505912486977047,0.2505875138044357
66,0.2505928851498498,0.2505588366587957
67,0.2505933005478647,0.25053232443332674
68,0.2505993467171987,0.250533482670784
69,0.2505914037161403,0.25055036665995917
70,0.250591628352801,0.25053298288583753
71,0.2505910574528906,0.25053576652208964
72,0.25058921939796874,0.2506140906612078
73,0.2505940607190132,0.2505588528315226
74,0.2505942225986057,0.2506037911375364
75,0.250593398074309,0.2505265418688456
76,0.2505925513042344,0.2505602166851362
