epoch,loss,val_loss
0,0.5025064225726658,0.5005969860951106
1,0.5007332758903503,0.5005277570088704
2,0.5006582505702972,0.5005806621313095
3,0.5005833644734489,0.5143812171618144
4,0.5077624311712053,0.5008954338630041
5,0.5006691024170982,0.5008473482529322
6,0.500588302453359,0.500464500506719
7,0.5005246156321631,0.5006423103411992
8,0.5005051773786545,0.5004212727149328
9,0.5004862119886611,0.500436161239942
10,0.5004786588615842,0.5004384742577871
11,0.5004656057622697,0.5004154347578684
12,0.5004716294209163,0.5004130665461223
13,0.5004549814197752,0.5004274912277857
14,0.500448403067059,0.5004971270561218
15,0.5004653759797414,0.5004226418733597
16,0.5004432479408052,0.5005401886701584
17,0.500623963991801,0.5006068548758824
18,0.5004601698848936,0.5004192681709926
19,0.5004479350513882,0.5004497645696004
20,0.500435362180074,0.5003847632805506
21,0.500427962647544,0.5003768080075582
22,0.500421927690506,0.5003952720959981
23,0.5004249016046524,0.5004275632301967
24,0.500426168455018,0.5004455423752466
25,0.5004180796941121,0.5004477874040604
26,0.5004193034039603,0.5012300797303517
27,0.5010441431204478,0.5004071341753006
28,0.5004302348958122,0.5003792115052541
29,0.500416733344396,0.5006673718690873
30,0.5004091036187278,0.5004248927036922
31,0.5004090560939577,0.5003795711596807
32,0.5004084637827343,0.5003446461757024
33,0.5004029367632337,0.5004424191713334
34,0.500406776269277,0.5004622464577357
35,0.5004080559015274,0.5003490881522497
36,0.5004037339422438,0.5003392577966054
37,0.5004064530134201,0.5003560765981674
38,0.5004042234553231,0.5003756603002548
39,0.5004065064456727,0.500348575313886
40,0.5004147438208262,0.5005327535867691
41,0.5004046807024214,0.5003523489634196
42,0.5004061181677713,0.5004070329666138
43,0.5004028086397383,0.5004360131025314
44,0.5004012932909859,0.5004033867915472
45,0.5004008179240756,0.5003524146477382
46,0.5004018867678113,0.500350760380427
47,0.5003956446780099,0.5003769449392954
48,0.5004011587434345,0.5003576377630233
49,0.500401924610138,0.5004596998691558
50,0.5003978250821431,0.5003579823176066
51,0.5004050401316749,0.500366225083669
52,0.5003964347839356,0.500555963198344
53,0.5004030223555035,0.5003676677544912
54,0.5003955549399058,0.5003612855275472
55,0.5003981594377094,0.500348791996638
56,0.5004000338978237,0.5003830476999283
