epoch,loss,val_loss
0,0.5638712842596901,0.5612926847537358
1,0.5616612205505371,0.561107777873675
2,0.5612361756298277,0.560754337588946
3,0.561042865117391,0.5607409916321436
4,0.5860120779938168,0.6708845318158467
5,0.6707671921253204,0.670477060397466
6,0.6706354434622659,0.6705218755801519
7,0.6705900475316577,0.6704797466198603
8,0.67055432038837,0.6703677976528803
9,0.6705332900020812,0.6704509480396906
10,0.6704931392404768,0.670615125576655
11,0.6704734394947688,0.6703995481729508
12,0.6704372745752335,0.6703221817016601
13,0.6704892902904087,0.6702581080993016
14,0.6704275127384398,0.6703104635079702
15,0.6704038085275226,0.6704995613892873
16,0.6703851734797159,0.670315632224083
17,0.670374072432518,0.6702336365381877
18,0.6703540229929819,0.6706460471550624
19,0.6703506379259957,0.6703296902577083
20,0.6703436819050047,0.670386702855428
21,0.6703388686709933,0.6702039692401885
22,0.6703296020030975,0.6703253270387649
23,0.6703173133797116,0.6703234278758367
