epoch,loss,val_loss
0,0.6741585176546103,0.6400856028561703
1,0.6400617832162286,0.640037457461653
2,0.6400469202524969,0.6400918466809512
3,0.6401002766345292,0.6400311303987505
4,0.6400866145061592,0.640062213490396
5,0.6400823386268496,0.6401058808874408
6,0.6401436180638752,0.6400212642354158
7,0.6400506307941191,0.6400291946518272
8,0.6401050787222121,0.6404475760952899
9,0.6400904751691444,0.6401757992831051
10,0.6400830717572032,0.640023060951424
11,0.6400843701828874,0.6401887159056817
12,0.6400906501031857,0.6400091400712671
13,0.6400531797652356,0.6400404545422734
14,0.640087016871397,0.6400358425201167
15,0.6400675709915812,0.6401690790531758
16,0.6400903620253645,0.640175210148814
17,0.6400396915543412,0.6400423995392889
18,0.6400900927963685,0.6400666170042986
19,0.6400373773929949,0.6400193977498266
20,0.6400556985274034,0.6400946474639472
21,0.6400631675756133,0.6400193652347369
22,0.6400582518104534,0.640014035961974
23,0.6400570278143327,0.6400154221289144
24,0.6400684524050079,0.6400391296953108
25,0.6400217553595374,0.6400909741228259
26,0.6400736194821905,0.6400190497405288
27,0.640043223680184,0.6400213722759817
28,0.6400520323334667,0.6403894205765286
29,0.6400415838408565,0.6400305955071003
30,0.6400497416717346,0.6400271978644617
31,0.6400578981641343,0.6400435761941874
32,0.6400690682575471,0.6400984394171679
