epoch,loss,val_loss
0,0.3470853224993571,0.33678502008003885
1,0.3361535101848728,0.3352077242472092
2,0.3357764036448108,0.3360433063343588
3,0.3356286812379805,0.3356453253005576
4,0.3354470649845809,0.33665157531332346
5,0.3353423895479127,0.3348719242263336
6,0.3350831185993174,0.33501339325114493
7,0.33508178951753426,0.3345752208339615
8,0.3350250096517581,0.33469053814880884
9,0.3349461755224357,0.33530569573155217
10,0.334890488468014,0.33483116309391625
11,0.33482709419290496,0.33501708253405404
12,0.3348657102727663,0.3348612062756133
13,0.33484579266426445,0.334596358336274
14,0.3347526996933189,0.33458670612168495
15,0.33477722028064366,0.3347870149902985
16,0.33471275900798786,0.3345690955169503
17,0.3347021900485364,0.33472725699248207
18,0.3346552091033438,0.33444004935383015
19,0.3346734954284284,0.3347276610524643
20,0.33467712126988,0.33449829488246174
21,0.3346382630829459,0.3345262599385299
22,0.3346082595565853,0.33456631010898924
23,0.3345922461024374,0.33447190815823435
24,0.3345961897812063,0.33473634721966405
25,0.33458589356203167,0.33508549733089077
26,0.3345648597984229,0.33442991168805225
27,0.33456750453163686,0.3344147698846205
28,0.3345602841970467,0.3343843996291856
29,0.33452764939041424,0.33451423298869976
30,0.33455720846423753,0.33454472835141447
31,0.33452983438413797,0.3344911077154278
32,0.33451806042241633,0.3347848014914983
33,0.3345185649031575,0.33472466548756863
34,0.33450478209251844,0.3345479293188504
35,0.3345349647441293,0.3345390387868178
36,0.3345193343080987,0.33481670002527314
37,0.3345420656082352,0.33446809305329794
38,0.3344727776060281,0.33445463689442195
39,0.3345070292950693,0.33446641853233067
40,0.3345110766300386,0.3343959710783932
41,0.33449172318810483,0.3343867137273689
42,0.3344735127796309,0.33440287848267763
43,0.33465503264792756,0.3343581635154867
44,0.3349247235507158,0.33588468763751617
45,0.3348521195235775,0.3347474790938817
46,0.3345847084938634,0.33449123486106147
47,0.3345453526454893,0.3347382468860851
48,0.3345047385287617,0.33437716945023704
49,0.33450433266810353,0.3343796013970425
50,0.3345003301950995,0.33438909147513823
51,0.33444747140415637,0.33468631316531633
52,0.33446689937342705,0.33442054096748997
53,0.33447453055537757,0.33434976295608254
54,0.33442945277828967,0.3346660803744712
55,0.33446421788799224,0.3346735339781852
56,0.3344317167100121,0.33432874877153396
57,0.33445296828746285,0.33463956087663554
58,0.3344495652677334,0.33463553898731374
59,0.3344127535699999,0.3344659904568334
60,0.3344431549221031,0.3348532882289917
61,0.3344616716901494,0.3350164165376537
62,0.33441185560287884,0.3343487246821375
63,0.33445961711450023,0.3343477306431194
64,0.33441772445576423,0.3344037544030579
65,0.3344023283488499,0.3344690786424126
66,0.3344066154486102,0.33435884006367755
67,0.33440125685734146,0.334397653477466
68,0.33439262629199107,0.33438224098593033
69,0.33440899510655475,0.3343515621554811
70,0.3344038683559926,0.3346167551378391
71,0.33438805446240843,0.3342845421221566
72,0.3344199073246333,0.33453420943933476
73,0.3344050624537344,0.33433108542926526
74,0.33437775090154315,0.3349769848461239
75,0.33439936007791937,0.3344246242615613
76,0.3343844102201388,0.33443477140436123
77,0.33439135550323146,0.3347711163434154
78,0.33436007160861686,0.33438666516160176
79,0.33437526999603756,0.3342816232099565
80,0.33438843125632517,0.3343041331915433
81,0.3344630389070738,0.33449661267928277
82,0.3343874811448465,0.33427034429894775
83,0.33441649068324397,0.3343077619326943
84,0.33436672146278495,0.33427426732545806
85,0.3343759456525311,0.33452769131829035
86,0.3343392930224079,0.33431758824388436
87,0.3344138385384522,0.33474193595721724
88,0.3343537453098136,0.3346129325942346
89,0.3343367629226336,0.33426380702796554
90,0.3343800558457848,0.33436689364759764
91,0.33435387270932376,0.3344067105721318
92,0.33436894061372424,0.33439540181644517
93,0.33433541754582696,0.334243908558927
94,0.3343332100357029,0.3344187242488366
95,0.33435095872737164,0.33453632500714237
96,0.33433818818479943,0.33477443246990524
97,0.33435220711903335,0.3344191469822584
98,0.3343770699018519,0.3342961534913341
99,0.33436472308142406,0.33431303675315754
100,0.334331492807208,0.33431201121760085
101,0.334395207593704,0.33441195527260714
102,0.33432317990198607,0.3342675959572612
103,0.33432818432162825,0.33464288516183543
104,0.3344243930107714,0.3353184419608832
105,0.33436769466458655,0.33426451468620194
106,0.334334300873978,0.3342515338291006
107,0.33433455096513925,0.33431952274762666
108,0.3343397997466003,0.33482795574669727
109,0.3343635491627425,0.33428379281267306
110,0.33438979890880943,0.3347365746840763
111,0.33434622738332387,0.33431916896880554
112,0.33433877616032903,0.33423419493958845
113,0.3343675426951204,0.3346624239328848
114,0.334342202657232,0.3345868725043077
115,0.33434541789698746,0.33428070856614656
116,0.33433352073181427,0.33427009207250635
117,0.33431612323485776,0.33442968302709974
118,0.33436744645614536,0.3342907905186826
119,0.33431629456309137,0.33426241064965356
120,0.33433480955713113,0.3342771729115886
121,0.3343367207333261,0.3342773241415649
122,0.3343490998268376,0.3342949733903129
123,0.3343244143910271,0.3344996797877532
124,0.33432138663334243,0.33466745576567963
125,0.3343576878174417,0.33434503335028565
126,0.3343274927047229,0.33422799121213226
127,0.3343305744414819,0.3342704724928777
128,0.33432274830940817,0.3343632764747668
129,0.3343254363600086,0.3344767824712751
130,0.33434566470415406,0.33438883859748253
131,0.334319043466424,0.33435468399243023
132,0.3343279214128635,0.334560059446449
133,0.3343298579800131,0.3345037439636533
134,0.3343472797483164,0.33428265125507106
135,0.3343552039110201,0.3343965518504228
136,0.3342981075774342,0.3342578200595928
137,0.3343347156999699,0.3342221616735084
138,0.33435676378025964,0.33441003955348725
139,0.3343184653082878,0.3342547571019521
140,0.3343296901990867,0.33445072628333994
141,0.3343315531735531,0.3343948354399592
142,0.3343326212102314,0.3349066283186538
143,0.3343148390192755,0.3346426394051823
144,0.3343111796799486,0.3342688531504153
145,0.3343109718811609,0.334270530636261
146,0.3343421083009771,0.33462975865508254
147,0.33433941081842194,0.33425705931944416
148,0.3343224192470694,0.33433301077894556
149,0.33430220427538987,0.33443076563127133
150,0.33431986536304126,0.3343015471875382
151,0.33430750748278004,0.33426422701887476
152,0.33431762945751686,0.3342049322038926
153,0.3343341735394135,0.3343655243502732
154,0.3342924071443435,0.33445648975811965
155,0.3342898933290038,0.3343612022828963
156,0.3343238551052714,0.3344491727611781
157,0.3343401953486577,0.33423122342726885
158,0.33430573609237446,0.33494836774976156
159,0.3342862958123593,0.3342651761505739
160,0.3343238817619617,0.33466684580548106
161,0.3343062661998515,0.3342835148447338
162,0.33430086937743475,0.33421155045841067
163,0.33427342044315184,0.33466196539326193
164,0.3343059880076635,0.3342576351253024
165,0.3342953416011412,0.3343163665710323
166,0.33429705514537816,0.33421683000679614
167,0.33433414964856395,0.33425151504447814
168,0.33429495802039627,0.33425951916257873
169,0.3343276218754159,0.33488682636170175
170,0.33433377323090885,0.33439104596004326
171,0.3343356437764937,0.33432433116095045
172,0.33428185690761497,0.33430298686895815
