epoch,loss,val_loss
0,0.5655976300339297,0.5571502828750502
1,0.5573285599134052,0.5572138216169801
2,0.5572813942781021,0.5591457890011443
3,0.557092990486304,0.5573651782783147
4,0.5570474644072326,0.5567203294237631
5,0.5568508890158732,0.5568361898513898
6,0.5568449843891884,0.5565396677878043
7,0.5567175523920265,0.5566860240758217
8,0.5567141330193871,0.5564162719099364
9,0.5567076785466665,0.5573062068468556
10,0.556690048260231,0.5565296003208171
11,0.5566166481891095,0.5564277014526513
12,0.556551054159243,0.5564333996312787
13,0.5360026404441248,0.445897604585181
14,0.4457037148247885,0.4457276054143609
15,0.4456436807031128,0.4459132619386118
16,0.4456372395597962,0.44572715695532455
17,0.44562526796541063,0.4459900422245767
18,0.44558618617599394,0.44540756961489936
19,0.4456490547542878,0.44543064469172106
20,0.4455971888698203,0.4455752729744826
21,0.445542460468652,0.4454579665174195
22,0.4455194656498257,0.4454215618343797
23,0.4455536943960837,0.44550472646183986
24,0.44553891313316885,0.44555931786254915
25,0.44547762215570924,0.44536176112113657
26,0.44556848408147076,0.4454001726615406
27,0.44545731428622987,0.4454860833011399
28,0.44546258119178367,0.4454112562453012
29,0.445493296481637,0.4454242518367893
30,0.4454621518172434,0.4456093117692666
31,0.4454443461949995,0.44560429081651665
32,0.4454742168621735,0.4453981068136849
33,0.44544605498478584,0.4453205686942111
34,0.44542559033703294,0.4453692361355082
35,0.4454350130856256,0.4454348989904488
36,0.44542489831562865,0.4454527246124009
37,0.44543736718813337,0.4454880723904115
38,0.44540965462009374,0.4453391896500895
39,0.4454126434223445,0.4456128413670015
40,0.4454071719434053,0.445351744602408
41,0.44544048404217523,0.4454172262873949
42,0.4453634590691974,0.44538165359159076
43,0.44539718986458326,0.44545114480870973
44,0.44537579029276825,0.44575268082052
45,0.44537570579696856,0.4453116818894542
46,0.44539346620075165,0.4453129905550153
47,0.44536896444768703,0.4453890066488659
48,0.44537198299366776,0.44528819339210557
49,0.44537149802417536,0.445621197818545
50,0.4453676868784526,0.4453022845749915
51,0.4453604054129931,0.44543794234812545
52,0.44536244702773464,0.4452771623978756
53,0.4453666393166199,0.44532831407902107
54,0.4453530656234491,0.44527600689475627
55,0.44535600049957036,0.445303151531909
56,0.44535481925825837,0.44528706897255965
57,0.4453736348345247,0.4453382368175868
58,0.44534302183912927,0.44543164470814584
59,0.4453347699306497,0.44530148244831697
60,0.44535179642727163,0.44526466035804774
61,0.44533557557248155,0.4456094625703944
62,0.44534045953474677,0.44528675320771516
63,0.4453254096803162,0.4458608183328795
64,0.44535804145779534,0.445641332360732
65,0.44533300634784967,0.4453628670737256
66,0.44535092037439117,0.44544150021809376
67,0.4453241351557656,0.4455440697311656
68,0.4453318717432154,0.44553250512765047
69,0.4453480785294909,0.4453651919195931
70,0.4453074796940688,0.4452424528681802
71,0.4453298767955068,0.44538223390300524
72,0.4453130806684296,0.4452543930900226
73,0.4453284236059734,0.445275342280201
74,0.44532495853342774,0.44525982262948877
75,0.44533256887485995,0.44532704852067423
76,0.4453206727339937,0.44533191711044073
77,0.44533967259798957,0.44534008885005966
78,0.44529409165672323,0.44522430820942854
79,0.44532490789764634,0.44529159960324904
80,0.4453146088723928,0.44534892638489076
81,0.4453265771065431,0.4452729750365723
82,0.44530381126657603,0.44569621560607037
83,0.4453226581445639,0.4453745748861621
84,0.44529378866515146,0.44530539509775285
85,0.44532418694009795,0.4452355003130332
86,0.4452866793489243,0.44525919579595546
87,0.44532959608102446,0.44560978178720445
88,0.44531830556468854,0.44521677727003806
89,0.4452919321365482,0.4452352561341189
90,0.4453101173510225,0.445304479522124
91,0.44529243902310495,0.4452763036261403
92,0.44528891172267193,0.4452820945789895
93,0.44529100928039,0.44525774816230806
94,0.44531158192794157,0.44556050417922616
95,0.44528368817474273,0.445458857812812
96,0.44531566151199287,0.44524474557158916
97,0.4452781297800697,0.4453452633146834
98,0.44527239448312567,0.4452648392778706
99,0.4452736551749429,0.4452631705966549
100,0.4452914396622949,0.4452791563527244
101,0.4452905822085993,0.4452135531289007
102,0.44526651103933607,0.4452377681326413
103,0.4452724415680701,0.44522218615065506
104,0.445271960497439,0.44540894320600305
105,0.44529169580258565,0.44541217864544486
106,0.44529265881708563,0.4452590762213505
107,0.44528261220833265,0.44534207985061885
108,0.4452808194232523,0.44523389615498377
109,0.44526192943118625,0.4454010417627005
110,0.4452862819919204,0.4452903894934228
111,0.4452735413688552,0.44554472641996556
112,0.4452697618841732,0.44530776809642236
113,0.4452621770466447,0.4452034152407569
114,0.4453012332530934,0.44524171403636514
115,0.4452835073545503,0.4453193728210956
116,0.4452684814001464,0.4453854024526725
117,0.4452659909003219,0.4452456270352332
118,0.44526961697896655,0.4452954785271931
119,0.44527030005409723,0.4452265162867368
120,0.44525452310262953,0.44542997744583623
121,0.4452808523945025,0.44522261103890803
122,0.4452539970719086,0.44545442422894604
123,0.44528291224275623,0.44536701477978025
124,0.4452700059325584,0.4452339182962722
125,0.4452565062881027,0.44561147233969284
126,0.44526957048418103,0.4456563419411758
127,0.44526485405223637,0.44553400273538224
128,0.445266836778148,0.445317682215663
129,0.4452741944792993,0.4452372731303084
130,0.4452635719050343,0.445354531265148
131,0.445253029966534,0.445218245318991
132,0.4452541508570313,0.4456689241597868
133,0.44527731482487976,0.4454501714444241
