epoch,loss,val_loss
0,0.5648584725305195,0.5575162874781909
1,0.5573563532541603,0.557190215689269
2,0.5570254974123863,0.5587155252435657
3,0.5570347946385413,0.5567784495539215
4,0.5569602480311264,0.5567939730430924
5,0.5568282443956895,0.5566789173364088
6,0.556859987443165,0.557008917260962
7,0.5567736631460027,0.5565562784767083
8,0.5567578460510179,0.5565736866331922
9,0.5566996186368093,0.5571545794074119
10,0.5566610107641109,0.5565102595612896
11,0.556643579947174,0.5565614776557113
12,0.5565994905480092,0.5565562069596056
13,0.5566107691143318,0.5564811176655665
14,0.5566020695469727,0.5563834176158414
15,0.5565485689659078,0.5564415320386089
16,0.5565945949858728,0.5568481349864594
17,0.5565165546683774,0.5566514118629655
18,0.5565217198978695,0.5565969433511716
19,0.5565262304123346,0.5564122987293312
20,0.5564646764625765,0.5566320394533611
21,0.5565028955447532,0.5564845342643733
22,0.5564683449048937,0.556358530193562
23,0.5564565626039999,0.5565219273002179
24,0.5564789518745366,0.5567677792000885
25,0.5564458611792718,0.5563282037336167
26,0.556404277717954,0.5563606507275409
27,0.5564368586415187,0.5566355052903271
28,0.5564198464463689,0.5563248645075475
29,0.5564092645951911,0.5569444451858994
30,0.5564293985209596,0.5563114804110999
31,0.5563811920965334,0.5563148207489985
32,0.5563932619714488,0.5563079795356245
33,0.5563773074964901,0.5563048062050908
34,0.5563680315301767,0.5563373634183697
35,0.5563941726333411,0.5564367430928885
36,0.5563370202685373,0.5563808564162208
37,0.5563683217528543,0.5564693186672358
38,0.5563672016480591,0.5562686245126736
39,0.5563646732855829,0.5563314678741403
40,0.5563365341031964,0.5562727403674631
41,0.5563348087818994,0.5564047675993413
42,0.5563545320374964,0.5562803072665932
43,0.5563281523943325,0.5563212137257022
44,0.5563208127198555,0.5562893737059204
45,0.5563223807327242,0.5563184608678704
46,0.5563340478890837,0.5563028047427464
47,0.5563263450522328,0.5562953698336496
48,0.5563188549535742,0.5562810894015162
49,0.5563289502709148,0.5562757125945302
50,0.5563082263753594,0.5563025858182428
51,0.5563132482301049,0.5562440481802607
52,0.5563020066630793,0.5562543822109943
53,0.5562965546657398,0.5562931661030649
54,0.556303811398879,0.5562647096872287
55,0.5562880111982537,0.5563103221707625
56,0.5562849639660287,0.5564185313272908
57,0.5562833106610693,0.5562748350964111
58,0.556278418853078,0.5563328919793599
59,0.5562968209502703,0.5564103611389386
60,0.5562706207154354,0.556272582138256
61,0.5562748533116141,0.556204569839546
62,0.5562839985915988,0.5564675606214083
63,0.5562710786237386,0.5562971092960427
64,0.5562520974916428,0.5562226402016215
65,0.556262090084613,0.5562321998061158
66,0.5562465259504021,0.5568119391261589
67,0.5562785259259883,0.5562364407046521
68,0.5562620856330072,0.5568314306815197
69,0.5562602467428156,0.5563033296956456
70,0.5562638403210666,0.5563994120865356
71,0.5562526870053979,0.5562544279548325
72,0.5562269428886231,0.556223999015983
73,0.556246245730778,0.5561928296940516
74,0.5562603864890728,0.5563890274728588
75,0.5562539561888685,0.5562476053143038
76,0.5562419267229007,0.556227924875011
77,0.5562361281836454,0.5565664815339383
78,0.5562409425170344,0.5561770929665903
79,0.5562275202857648,0.556193562760237
80,0.5562307943268147,0.5563369282801085
81,0.5562353144348928,0.5564916785624422
82,0.5562390164682685,0.5562344892216864
83,0.5562440574099977,0.5563013855719317
84,0.5562304141627795,0.5561802707020862
85,0.5562646293523235,0.5562435829908392
86,0.556236386146652,0.5561966948366055
87,0.556233929142585,0.5561970178601077
88,0.556235966343135,0.5562010415707119
89,0.5562286786068835,0.5562555348180628
90,0.5562287437446216,0.5561980713131712
91,0.5562264945146347,0.5566073372724488
92,0.5562200818246048,0.5562184171453
93,0.5562168974651296,0.5562559920023127
94,0.5562349545268646,0.5562556746120795
95,0.5562229613034348,0.556271346387526
96,0.5562163393681631,0.5562491355409925
97,0.5562186312251353,0.5562462256716716
98,0.5562054021636288,0.5561863232260382
