epoch,loss,val_loss
0,0.7017374374925447,0.6800356464608598
1,0.6800207303134876,0.6800175329002839
2,0.6800316021634205,0.6800150809270744
3,0.6801159172453889,0.6800188204292243
4,0.68014749514406,0.6802880972388761
5,0.6801557984200982,0.6801160932527476
6,0.6801228736309656,0.6800470068189945
7,0.6801527396835612,0.6800242330417581
8,0.68019649846402,0.6800463621206209
9,0.6801200695865326,0.6800594302388656
10,0.680071546627826,0.6800745656128963
11,0.6801034943446848,0.6800252210735589
12,0.68009904657256,0.6800453870109952
13,0.6801360549999272,0.6800217356185775
14,0.6800668308974126,0.6800232645266348
15,0.6800892926994002,0.6800468829084221
16,0.6800710979749561,0.6800495163765677
17,0.6801097517311064,0.6802300076651385
18,0.6800634576184564,0.6800301272308514
19,0.6800700161370993,0.6800429375663136
20,0.6800669459980818,0.6803451207013965
21,0.6800955201987857,0.6800619820952797
22,0.6800923261234474,0.6800225583303968
