epoch,loss,val_loss
0,0.5672362712023948,0.5200960288879283
1,0.5200614042414936,0.5200485364126768
2,0.5200928395244464,0.520358501251154
3,0.5201271170492943,0.5201182823474919
4,0.520134756075787,0.5204151030975323
5,0.5201415242611379,0.5200262370076014
6,0.5201930600160763,0.5200339651799004
7,0.5201391887180232,0.5200778339062131
8,0.5201490082698088,0.5202276783313763
9,0.5201944421559589,0.5201315379706916
10,0.5201097460396931,0.5200280883601418
11,0.520112707829733,0.5206315779680891
12,0.5200937440732177,0.5201084187126851
13,0.520215282603175,0.520177004142144
14,0.5201105142161546,0.5200205751254192
15,0.5200971756183403,0.5200416135955686
16,0.520128833817243,0.5201574890274555
17,0.5201103095983903,0.5200611595735446
18,0.5201178629199099,0.5200869613073955
19,0.5200805555798236,0.5201232202320916
20,0.5201283689416762,0.5204259827812453
21,0.5201374144039755,0.5200120675947538
22,0.5200584885103584,0.520055940374335
23,0.520139752734175,0.5200498007274441
24,0.5200676892022642,0.5202697219560966
25,0.5200949201636724,0.5200468071537265
26,0.5200751540063118,0.5202194932451941
27,0.5201312144281106,0.5201314799670242
28,0.520065223411649,0.5201079544419293
29,0.5201210959212491,0.5201146119287898
30,0.5201441646130537,0.5201669706893715
31,0.5200782497204319,0.5200274269658602
32,0.5200508530079607,0.520171369057275
33,0.5200795255444686,0.5200299104630782
34,0.5201593020410955,0.5200818136693368
35,0.5200933009945173,0.5201346032072095
36,0.5200695771344891,0.5200328949645902
37,0.5200597354808675,0.5201197704179179
38,0.5200736049463154,0.5200492797744627
39,0.5200638408736115,0.520032622366413
40,0.5200631898987219,0.5200344406574984
41,0.5200664282709174,0.5200794728115865
