epoch,loss,val_loss
0,0.5642298391037178,0.5593371839204803
1,0.5573301777735296,0.5567986541837162
2,0.5571433320564924,0.556782363193415
3,0.5570704109050278,0.5570124222766784
4,0.5569021091040559,0.5565934111115183
5,0.5569226633698495,0.5568722800137751
6,0.5568100513008986,0.5568325608296343
7,0.5567793450610907,0.5565790299688188
8,0.5101152409205069,0.44576506020438716
9,0.4458467094715868,0.4463747413496413
10,0.4457496315481583,0.44554577831646797
11,0.4457935374438837,0.4457766226583655
12,0.4457290092630129,0.4455473765977049
13,0.4456937056487747,0.4457491438000002
14,0.4456167744313038,0.44583946973651906
15,0.44565859705172317,0.44574375991436704
16,0.44565560169842544,0.4458626590458702
17,0.44563272903050655,0.4455263572457968
18,0.4455849665404637,0.44544441520712436
19,0.4455688992053659,0.4456955959358951
20,0.44558765009639645,0.4455490173296472
21,0.4455430004747045,0.4454141268776331
22,0.4455864510416016,0.44573745651934665
23,0.4455721787950397,0.4456092594709293
24,0.4455529645692083,0.4458879714199357
25,0.44553829727474537,0.445609903670179
26,0.4455070387047278,0.4457968186900128
27,0.4455454750712977,0.4457092879349649
28,0.44549219212970964,0.4455471191456653
29,0.4454915325479889,0.4454263582875958
30,0.44547741177391714,0.44537796436162586
31,0.445492832413373,0.44539953906702556
32,0.4454602362289748,0.4454504204518546
33,0.44547201067637743,0.44549529384944087
34,0.4454264037215247,0.4455863586813079
35,0.44549067115801766,0.44563416583666393
36,0.445437071571431,0.4454361643370186
37,0.4454370346321382,0.4456581058214604
38,0.4454500945912139,0.44543561987416064
39,0.44544750340786776,0.44535058680680234
40,0.44540328157731107,0.4454621322139327
41,0.4454797205817234,0.4455647267113996
42,0.44542689464272806,0.44578146022279724
43,0.44541139580791367,0.44564003686770215
44,0.44540961149613256,0.44559845423630656
45,0.44542448601334284,0.4454066484271792
46,0.44541790771665657,0.4454519885760426
47,0.4454079189463071,0.4453895940230443
48,0.4454006212811249,0.44532577934623463
49,0.4453885706004949,0.4454564682161179
50,0.44540295937521746,0.4454623180482756
51,0.4453766731698913,0.4455033988634124
52,0.4454115696146738,0.44563446327220657
53,0.44537567471479184,0.4465950119186197
54,0.445364126031435,0.4452961543976975
55,0.44540131703902613,0.4453063559407217
56,0.4453741120197073,0.44527719571040225
57,0.44536505820942246,0.4454477183146213
58,0.4453769596130101,0.4453758027958476
59,0.445362068493696,0.44541412776180217
60,0.44536056560091714,0.44628401106194676
61,0.44536364734402956,0.44533419586833234
62,0.4453326317416155,0.44542808120490857
63,0.44535338296026084,0.44529413096878073
64,0.44537316177974906,0.4454555026187548
65,0.4453390091032889,0.4455475970787696
66,0.44534902399099685,0.44540515761219557
67,0.44536209570171903,0.44530125223609773
68,0.44534989864119084,0.4453284401392975
69,0.4453444596379378,0.4452954961364531
70,0.4453601350940623,0.4452864277223051
71,0.4453284992352698,0.445301529097502
72,0.4453481841721833,0.4454957279870556
73,0.4453737043765713,0.4455940080358241
74,0.44532494289915636,0.44528064482227736
75,0.44534585440455615,0.4453210134736215
76,0.44534307278340285,0.4452951819969973
