epoch,loss,val_loss
0,0.4564657926116123,0.4461773193248912
1,0.44665061327326055,0.4465513104580503
2,0.44663015052164046,0.44659755889741287
3,0.44634319455822924,0.4469387328609901
4,0.4462108980514585,0.4468837020335347
5,0.4461647200824993,0.44580485405051956
6,0.44597666537750114,0.4475705474429792
7,0.44595771769386544,0.4459341891410402
8,0.4459549280794465,0.4457350862473064
9,0.4458323888002218,0.44569497593217094
10,0.44591550446515016,0.4466818286038817
11,0.4458265556350121,0.44629383950679036
12,0.44571392229351253,0.445926290736738
13,0.445770504306374,0.44570991545147914
14,0.44575100541637197,0.44549698036757684
15,0.4456696803050736,0.44554561927721376
16,0.44571551591829256,0.44602649406506634
17,0.445694441572077,0.4455903605577005
18,0.4455974438333228,0.44570639059754963
19,0.4456659005839045,0.4461819626791987
20,0.44556347145113595,0.44561879621409334
21,0.4456150810301246,0.4454487481916071
22,0.44555857450819697,0.4460971984998395
23,0.44554537437930497,0.44571428147317843
24,0.44554529865047215,0.44560647245875723
25,0.4454894617224958,0.44552844315952594
26,0.44551409396564,0.4456054076279728
27,0.4454839445754173,0.44538441119852235
28,0.4455217056878748,0.44556542948817546
29,0.4454995510316509,0.44545419460970254
30,0.4454582105746451,0.44545079986099073
31,0.44549098365849066,0.44546727267246006
32,0.4454369891680131,0.44547008748036715
33,0.4454622687823758,0.4462148311305881
34,0.4454591546849976,0.4463802920096847
35,0.4454982616394708,0.44592359747296223
36,0.44543250455277345,0.44561459306481255
37,0.4454874208158039,0.445554337015074
38,0.44541862968298146,0.44545229103070083
39,0.4454154360355617,0.44528977420173754
40,0.44543899019026484,0.4455074808285829
41,0.4454027935017188,0.4453076054357809
42,0.4454461996196207,0.4454184261101519
43,0.4454228435980872,0.44550910164289564
44,0.44546186415639233,0.4455185549194382
45,0.44540628681577166,0.4453381067811966
46,0.4453908086576994,0.4453065066941997
47,0.4453855791128797,0.44568051071928544
48,0.4454179735370308,0.44530493044836267
49,0.44538646012775474,0.4453525322064728
50,0.4453860292968772,0.44530000885080584
51,0.44538720130318954,0.44532489168811257
52,0.4453957141650029,0.4453041262568621
53,0.4453689874518863,0.4452851774224932
54,0.44538703989612133,0.4461410727863478
55,0.44537774572170935,0.4453863612678763
56,0.44539100201382864,0.4452914349413147
57,0.44538743630294103,0.44528942061351573
58,0.44537570621840983,0.44539969949871383
59,0.4453737206002957,0.4453444501650145
60,0.4453744197593763,0.44530078825909963
61,0.4453881819871622,0.4453797966935406
62,0.4453918810803319,0.44535646972912074
63,0.4453504461160018,0.4452605110636654
64,0.44534662824769056,0.44600129329749505
65,0.4453591708787724,0.4453438630026131
66,0.445378583107882,0.445492713282811
67,0.44531770695712025,0.4453973395031539
68,0.4453469388442655,0.4453186579995012
69,0.4453338586863635,0.4453624634108253
70,0.44534289498106877,0.44530386524696847
71,0.4453553392447913,0.4455279148605497
72,0.4453347526466157,0.44523988015318366
73,0.44531380128077735,0.44529382442682586
74,0.44532192466237375,0.4453992432674605
75,0.4453294590667233,0.4453558956757175
76,0.4453434541764652,0.4453635961637973
77,0.4453264666013925,0.44578473001247315
78,0.44532050229241044,0.4452623867833989
79,0.4453083772404545,0.4452686602702084
80,0.4453140600810191,0.44551526763168525
81,0.44535293750177074,0.4457461818282357
82,0.4453073576582284,0.44525108436513994
83,0.44530431530963954,0.44532321311161516
84,0.44531178776282704,0.44530559954729654
85,0.44529222173659394,0.4456754824814057
86,0.44530679837882603,0.4452579019336087
87,0.44531243217972105,0.44529018469444703
88,0.44531687971448153,0.44526295573827024
89,0.4452940091805944,0.4452494746267658
90,0.44529810674684617,0.4452184748641126
91,0.4453037483511112,0.4452711287644346
92,0.44528973379224246,0.4454492398002131
93,0.445310109666249,0.4454448024467161
94,0.4452940741990301,0.4452974698983621
95,0.44529329175199905,0.44538637239675916
96,0.44529545330313985,0.4452472350846855
97,0.44529830140894916,0.44527967792777995
98,0.44526979419608315,0.4453295710233372
99,0.4453086558562016,0.44540735412118365
100,0.44527366535094964,0.44527879575468293
101,0.44527417987215867,0.44524610870090764
102,0.4452843111030731,0.4453636404993183
103,0.44528055425197616,0.4453475250298186
104,0.44528380549778257,0.4452537559217703
105,0.44528235442816233,0.4452206605142335
106,0.4452941052988551,0.4453001836356822
107,0.4452598073719876,0.4457967714690298
108,0.4452710002819586,0.4452352405261519
109,0.44528734159271377,0.4453178304384055
110,0.44526022239352264,0.44524656541395363
