epoch,loss,val_loss
0,0.7788084299829271,0.7783862231175105
1,0.698714856200748,0.6670161406596502
2,0.6669795645872751,0.666916738152504
3,0.6669440707498127,0.6668675151666006
4,0.6669196425808801,0.6669455786546071
5,0.6669111488925086,0.6668997636636098
6,0.6668970520363914,0.6668769266208013
7,0.6668867072396808,0.6668837544123332
8,0.666878618809912,0.6669071891705195
9,0.6668722208738327,0.6668720404704411
10,0.6668705354796516,0.6668765853246053
11,0.6668692003091177,0.6668317894935608
12,0.66686346508397,0.6670812617142995
13,0.6668609383900961,0.6668423388799032
14,0.666856539024247,0.6668260920445125
15,0.6668564549684525,0.6668451883395513
16,0.6668513342804379,0.6669381698369979
17,0.6668508403963512,0.6669077579975128
18,0.6668500655227237,0.666829728047053
19,0.6668473781082366,0.6668356125752131
20,0.6668452452553643,0.666830070734024
21,0.6668462933566836,0.6668499149084092
22,0.6668435774246851,0.6668263268868129
23,0.6668424960772197,0.6669012138048808
24,0.6668411708805296,0.6668226517041524
25,0.6668407896094852,0.6668492301702499
26,0.6668402716318766,0.6668431183497111
27,0.6668369585805469,0.6668165085315705
28,0.6668357409768635,0.666845968524615
29,0.666835843178961,0.6668422107299169
30,0.6668328374889162,0.6668240110874176
31,0.6668335080544154,0.666832840402921
32,0.6668330513636271,0.6668117458025614
33,0.6668330235481262,0.6668479373057683
34,0.6668326877620485,0.6668488300244013
35,0.6668303462929196,0.666814819931984
36,0.6668312032885022,0.6668080732425054
37,0.6668293742206362,0.6668628211418788
38,0.6668287716706593,0.6668289588689804
39,0.6668274039692349,0.6668554476499557
40,0.6668269236882528,0.6668109676837921
41,0.6668289382192824,0.6668132599592209
42,0.6668263208733665,0.6668236509958902
43,0.6668263139459822,0.6668410926659902
44,0.6668267713520262,0.6668150322039922
45,0.6668257488012314,0.6668233361244201
46,0.666825403769811,0.6668260769446691
47,0.6668270670043097,0.6668079695304234
48,0.6668237701654435,0.6668197479248047
49,0.6668247236278322,0.6668360914389292
50,0.6668253164688747,0.6668203018109004
51,0.6668238260878457,0.6668119346698125
52,0.6668231581052144,0.6668178319533666
53,0.6668232844140795,0.6668013763825099
54,0.6668238061269124,0.6668353590965271
55,0.6668229508399963,0.666817031343778
56,0.6668234840631485,0.6668863753477733
57,0.6668226403527789,0.666835186680158
58,0.666821303486824,0.6668380454381307
59,0.6668214564588335,0.6668499172528585
60,0.6668203609254625,0.6668093995253245
61,0.6668205452362697,0.6668531300624212
62,0.6668207626342774,0.6668149039745331
63,0.6668206527100669,0.6668184560139974
64,0.6668206492000156,0.666820606470108
65,0.6668183334800932,0.6669054634173711
66,0.6668198417690065,0.6668087139129638
67,0.6668198443253835,0.6668167184193929
68,0.6668191217581431,0.666809400041898
69,0.6668172540134853,0.6668618264198303
70,0.6668176349401475,0.6668214834531149
71,0.6668178074359894,0.6668124643961588
72,0.6668176633384493,0.6668006778558095
73,0.6668176455630197,0.6668466157515843
74,0.6668174501525032,0.6668047654628754
75,0.6668168994188308,0.6668793997367223
76,0.6668171983162562,0.6668150763909022
77,0.6668175367514292,0.6668878806829452
78,0.6668169977797402,0.6668244466384252
79,0.6668158055411445,0.6668291193246841
80,0.6668166010379791,0.6668138497670492
81,0.6668161216311984,0.6668383824030558
82,0.6668154565360811,0.6668011392354966
83,0.6668152525027593,0.6668250757455826
84,0.6668164738549126,0.6668288270235062
85,0.6668174918757545,0.6668304742177328
86,0.6668157949977451,0.6668014929294587
87,0.6668152862522337,0.6668046585718791
88,0.6668157906532287,0.6668164248466492
89,0.6668157365719477,0.6668749454021454
90,0.6668164248201582,0.6668155794541041
91,0.6668162089056439,0.6668048347234726
92,0.6668149470355775,0.6668344909747441
