epoch,loss,val_loss
0,0.5535462823054426,0.48536546063055763
1,0.486241095012622,0.47210019169449324
2,0.4698216210994079,0.45917776512210196
3,0.4599139678588001,0.4507475743086862
4,0.44481792864654424,0.43712568681895586
5,0.4323867077203251,0.4248181079715998
6,0.42510776094096103,0.41949200973410194
7,0.4226568942551044,0.4133088821477264
8,0.417269477076393,0.4108214104745993
9,0.4099899287625634,0.4040190884473357
10,0.4046791550920332,0.4057246107737997
11,0.405112987021812,0.4027862156539648
12,0.39939225505026366,0.39043100041677964
13,0.38596951020202985,0.369472069365168
14,0.3616517804640594,0.3499035531441951
15,0.3500109040756241,0.34348303860314766
16,0.33987255549554923,0.3293614799862264
17,0.3323484213949682,0.33261598911308604
18,0.3292456398351943,0.325054691510769
19,0.3279472233248864,0.32799226712716467
20,0.3236482348009717,0.32111381972019787
21,0.3221530918243697,0.31571033841115326
22,0.31941456022598536,0.3157982517816338
23,0.3183553622330161,0.313751682554525
24,0.31820993290079225,0.31354747278750283
25,0.31805204966957806,0.31505984186352703
26,0.3177878737354202,0.321582888938118
27,0.3163746951745929,0.3147013575829632
28,0.31433148912375597,0.3137720834889841
29,0.314716349920337,0.30950355089880643
30,0.31177596697767224,0.3102066334630064
31,0.31259520706221805,0.31240863826153054
32,0.3088144516233829,0.30862725184685025
33,0.308923997849918,0.30179998283451975
34,0.30819943134454464,0.3038556179861083
35,0.3082694372623037,0.31048698572250083
36,0.31016647036644435,0.32465537205423073
37,0.309147957602055,0.30788788484637564
38,0.307610081447612,0.3001291035687353
39,0.30554926493246143,0.29864302250977365
40,0.30475576430726187,0.30092971586446304
41,0.30323249781675776,0.3007421157800948
42,0.3009166712279889,0.29361799799226107
43,0.3014075739131726,0.29919663455944573
44,0.29987953387326105,0.291211899566341
45,0.2980230444605299,0.2994686060578284
46,0.2982102689788855,0.2914250525921607
47,0.2979834063874902,0.291027679253862
48,0.29697921313792824,0.2936093470524311
49,0.29841406326040065,0.28819773546197214
50,0.2966891472295726,0.296126466187054
51,0.2956051137372911,0.2897446033486678
52,0.2951888498709238,0.2919139179483431
53,0.29640537335740935,0.29639840488596264
54,0.294475708821948,0.28721780172229683
55,0.29455949077375226,0.28962832464498905
56,0.2952825015573334,0.2868733498881913
57,0.29519372883799366,0.28775388454385437
58,0.29373358394070753,0.2875486998565779
59,0.29372111803966106,0.29192189958070414
60,0.2936352113779303,0.286636235045884
61,0.29313644998258737,0.2869929557444115
62,0.2943606755679087,0.28584051811395383
63,0.2932409769217905,0.2878536640727607
64,0.29277838190333,0.2874592447174533
65,0.29146420828001895,0.2864732901351972
66,0.2918569514806792,0.285888307455199
67,0.2917488866490875,0.28563131779939877
68,0.2911125475390135,0.2856274544225895
69,0.2900277249831214,0.2861950721739756
70,0.28985169885442963,0.28853022225581815
71,0.2896664261376505,0.2839345760033175
72,0.29009326647003714,0.28549252376745893
73,0.2882953917471956,0.28182096335816365
74,0.2888454584191569,0.28692946862807045
75,0.28919689181902775,0.2855429581312851
76,0.28911905013340966,0.2849406293394695
77,0.28985656882592253,0.2859222005149357
78,0.28866041847187773,0.2815987653637551
79,0.28887149588979655,0.2853895298175858
80,0.28872995987665756,0.281348415377753
81,0.2878311230085963,0.2849230867812813
82,0.28780263109957344,0.28519221033299735
83,0.28824632337467493,0.28629519383741026
84,0.28686200479586854,0.2822706456577884
85,0.2874462853273074,0.2818889784576056
86,0.28720557539342784,0.2800235934041906
87,0.2871657454783769,0.28181266345971984
88,0.28731516316187106,0.28123521547392916
89,0.28705467902917303,0.27725868418945687
90,0.2861266539240475,0.27960408998038455
91,0.2867849725212833,0.2845416866901534
92,0.2858986399882884,0.28484570914811463
93,0.28570839293820083,0.28182746558197125
94,0.28570633946513063,0.27966222983980604
95,0.2854768927093503,0.28223426375365895
96,0.284579166860653,0.28268263641886854
97,0.28500160638144534,0.2810237271241415
98,0.28531861840318545,0.2779503433639599
99,0.28671706679632797,0.28287902108219126
100,0.2854474051725015,0.2794531576897396
101,0.28581930477443557,0.28158194684730925
102,0.28566317882439535,0.27769451259068134
103,0.28465443327008866,0.28275968527175116
104,0.28535861353143105,0.2778875941391022
105,0.28588843502527816,0.2800144903657887
106,0.2852872758030032,0.28545547307552793
107,0.28577157841910356,0.27908289466364444
108,0.28646316543352707,0.27870703164098326
109,0.28499557497837336,0.27884478858594286
110,0.28525134772539523,0.28130354958874176
111,0.2845491839586209,0.2869344093842131
112,0.2849410073973352,0.27913926377445336
113,0.2860463206664479,0.2847812198833634
114,0.2847180171393222,0.2757410696871573
115,0.28401616373784644,0.281835603452947
116,0.2832202235515639,0.2847877688047273
117,0.2830777091560982,0.2767533099540152
118,0.28159902138028553,0.2851469382365738
119,0.2831777269490439,0.27833404959408325
120,0.28182835751075186,0.27882783547563467
121,0.28207950124008546,0.2761377855615701
122,0.2824323982525292,0.2773705166428435
123,0.2830208123947163,0.27768533154173974
124,0.2831730378077353,0.27940802184286295
125,0.2839297529778259,0.2780566596201737
126,0.2827033907938614,0.27489976908797087
127,0.2829738932731058,0.27949867230165515
128,0.28306125711091906,0.28851027465263035
129,0.2826824948859749,0.27699179641618443
130,0.28268572431597544,0.2738067355831754
131,0.2819935855768126,0.27712346426085155
132,0.2827605490712188,0.27533195674757793
133,0.2824553271071065,0.2806402325920235
134,0.2821959213579627,0.27559666473355027
135,0.28247015165080064,0.2826634753262813
136,0.2819038259985449,0.27808823683642797
137,0.28203330670384236,0.2777386680426679
138,0.28131412116406534,0.2817976284660369
139,0.2819617429406668,0.27973274708954377
140,0.2828648136235219,0.2826260320316556
141,0.2819387800305533,0.29573559064934724
142,0.2830613065806267,0.27929660612649293
143,0.281225757659961,0.27669090826580994
144,0.2811332169809849,0.28121251699311506
145,0.28118676915943763,0.2844523051987793
146,0.28145791589617253,0.27817987907445246
147,0.28083420448225915,0.27440366435370017
148,0.2822647209199454,0.274442275002635
149,0.2809278676040274,0.272223283218738
150,0.28070720396130633,0.27861912166646896
151,0.2796531632017669,0.27223646870398077
152,0.28010357210667636,0.27275762260443587
153,0.2805427091421367,0.2785993873444594
154,0.2800531756398294,0.2739451472124044
155,0.27957932818069564,0.2765391799292715
156,0.27973773906095395,0.2797441375830845
157,0.2805144937814857,0.2774893739966967
158,0.27934049597804883,0.2810086320182316
159,0.28091347274826084,0.2806002653331556
160,0.280512507292058,0.27473914950771827
161,0.28040391042697327,0.27636330475047266
162,0.2793090043543242,0.2753677448168675
163,0.27919880128961455,0.2781978271665944
164,0.2803940177798939,0.27193782302729985
165,0.27974439539414964,0.28505009690727146
166,0.28027617679036454,0.2757953283439684
167,0.2800140479106823,0.28381766465893626
168,0.2806954692849357,0.27393881143928056
169,0.27852713400788837,0.27427105635815485
170,0.2801250659758516,0.27327013760200863
171,0.27999830490546385,0.2868395317089045
172,0.27975690342169746,0.27900958373018714
173,0.2804177652140729,0.2751410058839284
174,0.2795801376752418,0.27723784588839306
175,0.2791959029600752,0.26985956717581644
176,0.2799680962371196,0.2809757853028065
177,0.28023465145960913,0.2749211620796239
178,0.2798837250273069,0.27687710505477414
179,0.27890782343377296,0.2744021343077863
180,0.2791583106709157,0.2741938184188424
181,0.2796284574642479,0.27364998382711836
182,0.27965411363695986,0.273444378789324
183,0.27890245430917143,0.2870211907981956
184,0.27984771844718437,0.2727334103928479
185,0.27946928155431755,0.2787646197707114
186,0.278873032061838,0.27336884601176126
187,0.27932519891602786,0.2761897986991949
188,0.27905448611446915,0.27154165626007276
189,0.2788839443408555,0.2731219025423927
190,0.2793268627219433,0.276364155216422
191,0.27928306734423525,0.2719528308532534
192,0.27853366638943133,0.27342276228025303
193,0.278891060814512,0.2744164449213388
194,0.278845435666074,0.27451489618031455
195,0.2788972406505679,0.27490745666108285
196,0.279923254449526,0.2720877067620253
197,0.27859571428777125,0.2764400854066244
198,0.27906399949180116,0.27681245651800074
199,0.27980341960350164,0.2765741917483708
200,0.27854901413806826,0.2725298570503767
201,0.2787858809920862,0.27082054634840624
202,0.278146754410431,0.2760281621177121
203,0.2784194402736697,0.2736421091616492
204,0.2782302107438266,0.27209112535186253
205,0.27878924537960104,0.2783449123713995
206,0.27834974053361305,0.27580551225435224
207,0.278932046971386,0.274822932283567
208,0.2786059713094019,0.274327053024531
209,0.2786065792326358,0.27274986453783384
210,0.2780519679331894,0.27835156323217514
211,0.2782263690598303,0.2765778226525631
212,0.27804821994516543,0.27993403558845165
213,0.2777477764279199,0.27775305973642356
214,0.27779687721553664,0.2783654288533057
215,0.27885288492238836,0.27828559858327173
216,0.2781170945736864,0.2717046656699463
217,0.2777192184837271,0.27828344325659626
218,0.2792980177961797,0.2706048162676702
219,0.27819112586297445,0.2779512550177269
220,0.2782928827311918,0.2739930521736083
221,0.27807671010040874,0.2733564404627219
222,0.27732021093750303,0.2708845850131614
223,0.27824591898961104,0.27099702081251026
224,0.27942278495638534,0.2725405398777415
225,0.277669187387626,0.2728866277094885
226,0.27741220936453564,0.27571583659496135
227,0.2778442557916057,0.27936929233511193
228,0.27783327161955584,0.27145421170211864
229,0.2772245938070208,0.271533275414364
230,0.27698439881026604,0.2741937274528729
231,0.2760502282586739,0.26698457347553917
232,0.276438061329868,0.27641267754252324
233,0.276825663749221,0.27605416982858433
234,0.27705668578680465,0.2724362147574684
235,0.27709766271545755,0.2730984425433554
236,0.27728694243083674,0.2685768137423855
237,0.27689545123194387,0.27116366610571513
238,0.2772197779760158,0.2712292459106793
239,0.27626226349674865,0.27922483329983716
240,0.2764567622990967,0.2706076562380462
241,0.27577718718945265,0.27370754307300604
242,0.2758464932537155,0.2722643700345976
243,0.2761028453624182,0.2727232263857817
244,0.27597987539678503,0.27245486330086877
245,0.27563471416290325,0.26931373813678267
246,0.2757896674667195,0.27315114164197724
247,0.27467873492677086,0.2763692484284839
248,0.2753383072735883,0.27299135635755745
249,0.2759874777210723,0.27440138544286063
250,0.27546333954084196,0.27050645262703893
251,0.2750337047635125,0.2722941770219068
252,0.2741781773449804,0.2703339263663868
253,0.2744175693850884,0.27984610504477564
254,0.27510541144779344,0.26784097551332675
255,0.27461104331802044,0.2681527116727945
256,0.27424441658562904,0.2746706875063787
257,0.2743480922676641,0.2684965884405138
258,0.2735135959292813,0.2710636646063078
259,0.27338150415638146,0.26963437404800794
260,0.27356039544193145,0.2755454123165196
261,0.27410598473252057,0.26853087717260854
262,0.27435436013868275,0.2737539030871349
263,0.2740388223118454,0.2689457633755406
264,0.27445756831318974,0.2638539820184383
265,0.2727160682622865,0.26590192676895724
266,0.27272734245221264,0.2727230333837183
267,0.27389189099268113,0.27383229612627363
268,0.27283741675132367,0.2658343801557389
269,0.27230146563678287,0.26599419682565395
270,0.27254411408765683,0.26731797756698206
271,0.2716816714685187,0.2679123185871098
272,0.27286081158632847,0.27239383409058093
273,0.2723401736160867,0.26541351758408915
274,0.27219947673278966,0.26732543964068867
275,0.27235861917774234,0.27181185282833287
276,0.27214863891001223,0.2694726922675448
277,0.27211402923322087,0.2660365617091542
278,0.2729169387307713,0.26952468223767073
279,0.27191064284862376,0.2670464374771567
280,0.2718563004433393,0.26747204750075343
281,0.27115945807927316,0.2657504165597979
282,0.27102003346761766,0.2640706952495103
283,0.2712000326348172,0.2654662137097299
284,0.2701536388970834,0.26963203616095865
285,0.2706279949522954,0.2691642825959276
286,0.27036782142947063,0.2629854551607868
287,0.2705380159308664,0.2632154952024698
288,0.2708229013055778,0.2670392157798459
289,0.2708036867115763,0.2692610898084594
290,0.26964157841819303,0.2649015572287644
291,0.2709068434001256,0.2695827229010411
292,0.271446687273019,0.2633953884981168
293,0.2700652501003756,0.264226531738299
294,0.27043120279681504,0.2633400261885542
295,0.27096653706412777,0.26451523412269784
296,0.26999630057830826,0.2805275659878275
297,0.26966170244235055,0.26614650746766666
298,0.2706505150748215,0.265994649601002
299,0.2696722062100307,0.26684132377886716
300,0.2697467040882004,0.26888545516150225
301,0.2711179244389431,0.2720238495095416
302,0.2699067055391635,0.26451012139289437
303,0.26999852883877806,0.2687355019363657
304,0.26995405585790655,0.2652035259973297
305,0.27088258690457995,0.2634990918061062
306,0.2702915183036589,0.2684293057216635
307,0.27043775188102065,0.2688339091807193
308,0.27082751990796283,0.263321987976413
309,0.2701333588402304,0.27077784869647664
310,0.2701384704157388,0.26124852742253524
311,0.2693090360638521,0.2618616430356265
312,0.26973050945491384,0.26477971957016067
313,0.2703303162745231,0.2655427593070128
314,0.26916629615857945,0.2612896424454591
315,0.26927636235093383,0.26286261132937183
316,0.26865671259508406,0.2615827699671503
317,0.2699363593092625,0.2663331508563963
318,0.270272776675377,0.2642012941262051
319,0.26921842186998807,0.26140034251936256
320,0.26957536957042516,0.2668269508535651
321,0.269529828931495,0.26887178436731385
322,0.26908851438779846,0.27077750667071593
323,0.2696424348054646,0.2677100794835489
324,0.27029261848418784,0.2659315679098471
325,0.2691560762645818,0.2662961807008304
326,0.2697193680750169,0.2630626420518391
327,0.2697384121885197,0.2631077035016774
328,0.26912929106345646,0.26528427605453003
329,0.26968235951409136,0.2607545829215672
330,0.2703552834862609,0.26564763923872803
331,0.2702172619758175,0.2704095702560955
332,0.26986459318736344,0.27423367515774344
333,0.2698991553450795,0.27488358533923835
334,0.2702404529727202,0.26222838820332156
335,0.26969280447646843,0.2669670086683341
336,0.27060746899049126,0.2653079143115784
337,0.27089810547373405,0.265847166512231
338,0.2702713527196975,0.26480676300237554
339,0.2699730818549856,0.2706766453513457
340,0.26968374230367265,0.26078206943672844
341,0.269385313712138,0.2625863248873608
342,0.27042643605970784,0.26875875770610613
343,0.269970707863784,0.2643926722773284
344,0.2700079283814988,0.26595468149616386
345,0.27072066218376734,0.2746400238291964
346,0.27103224017316574,0.2687166735638667
347,0.2704393949935301,0.2677131476362643
348,0.27094717830228654,0.2689958083634442
349,0.2718127150359967,0.27891143699632076
350,0.2708980147245887,0.2611274167182285
351,0.27028691095767543,0.27715711394704073
352,0.27028283467881675,0.26831765725471485
353,0.27155199486484904,0.26736690403722885
354,0.27173426017177116,0.2693924789905355
355,0.27074355739440986,0.2671633684963882
356,0.2707379770646389,0.26845792196962953
357,0.27046018192847315,0.2614383151858973
358,0.2713020727384367,0.2713979802427501
359,0.2708101918439182,0.26636204281814296
360,0.2719245789955863,0.2694052250184185
361,0.27148752663734915,0.2631341729189261
362,0.2706474489193138,0.26773577573235596
363,0.2719403688100169,0.2733071579236087
364,0.2712382651072106,0.2614371996774774
365,0.27193578302836396,0.26443664489097934
366,0.27082868972666463,0.2685111445183688
367,0.27196284596494336,0.2714816724514439
368,0.2709833413207407,0.2683963696113565
369,0.27181482872216584,0.2663464526867151
370,0.2715939962811428,0.2683769502440605
371,0.2712901375406355,0.279778827329235
372,0.2713171899247112,0.26411184374868435
373,0.2723657372321865,0.26826969039266124
374,0.2730295691397593,0.27263889863591606
375,0.2731815114366808,0.27264452343149487
376,0.27196474729465236,0.2640932411293817
377,0.2734844258742584,0.2638492156771848
378,0.273091948204178,0.2649251277840244
379,0.27318659189154954,0.26981945755224546
380,0.2741069858006423,0.26421198954644093
381,0.27378293881423954,0.26992117505390667
382,0.27467076365259574,0.26815548655180454
383,0.2752256884013681,0.27551391139469394
384,0.2753390352591407,0.27750015588717447
385,0.2751956963486629,0.26900523925156294
386,0.275770827346415,0.27365941168182956
387,0.275660258344262,0.26718816807718654
388,0.27467405070678247,0.2729252939870081
389,0.2758142949940206,0.2771678698299768
390,0.2761627840485164,0.27165572924142145
391,0.27618426179365696,0.27123957504997964
392,0.27620691231625666,0.2735988780650683
393,0.27586255034057494,0.2699994029113169
394,0.27623957066272525,0.2696408021889947
395,0.276840107388693,0.27488214349176276
396,0.2773626458952673,0.26947301122248896
397,0.27875726398011985,0.2712064889491523
398,0.2790202178281722,0.27769545004654006
399,0.2796977025697573,0.27282464556208685
400,0.28041338647981945,0.27697571724145664
401,0.2827735552198893,0.28558148899314273
402,0.28188284419125037,0.2837238974403968
403,0.2829181789170751,0.2795344125736272
404,0.2824991074583834,0.2772458417934803
405,0.2812243756398952,0.27784364301309483
406,0.2826877354239348,0.2834345985503092
407,0.28209012413950707,0.28051178866736015
408,0.2842472950347048,0.2770493855610768
409,0.28413801512019554,0.28305445413278163
410,0.2842523450966927,0.28510235326133504
411,0.28423615743080266,0.28525751570522156
412,0.28467797689599167,0.28216200228251775
413,0.28498112455046204,0.27873515602977705
414,0.28506139739810993,0.28038320728462107
415,0.28533271212187455,0.2853695319033404
416,0.28565217388735664,0.27685545891257485
417,0.2852051018523254,0.2838361453981005
418,0.28511292000619576,0.28155244210098973
419,0.28385642805010725,0.28421623056145673
420,0.28467166111219205,0.2849855595551558
421,0.28397671875951763,0.2818722588592492
422,0.28326995092764007,0.28507755498574794
423,0.28333474798284597,0.28518215824894466
424,0.2854049820199406,0.29150942291849913
425,0.2838707800933702,0.2931703050641248
426,0.28506706896021045,0.2801372130905238
427,0.2848593014493,0.28554403937791095
428,0.28475114803990903,0.28704306141255065
429,0.2850986590520967,0.2762967292748132
430,0.28307232513630076,0.27723552661268863
431,0.28375474643335047,0.2852659386439915
432,0.28477491835673585,0.28210803166648185
433,0.2844279171098128,0.28036547713857884
434,0.28311327109344486,0.2837095965071606
435,0.2841082608656849,0.279062590061023
436,0.28481892915703566,0.27874518100652673
437,0.28467519871824926,0.28283171506790444
438,0.2828250057440552,0.2764379545043178
439,0.28375828265547276,0.28681173456556314
440,0.2826097234606361,0.28109368113899075
441,0.2828455749359295,0.27799008560683414
442,0.28222053336371794,0.27295482295224655
443,0.2825282190839131,0.27803133610584635
444,0.28329194862070417,0.2809461627853468
445,0.28199737625207016,0.2895215642664941
446,0.28304797215305205,0.27859848643451424
447,0.2831862159461093,0.28556311553508795
448,0.2831527460590184,0.28614865102037024
449,0.28245479889733016,0.28133594277953095
450,0.2837736370792095,0.2819930302328147
451,0.2818473275121543,0.27743853652805983
452,0.2829499870980139,0.27990437488147907
453,0.28362825594013263,0.28117654224236804
454,0.28325744673573944,0.2770686667210091
455,0.2826098661013753,0.2773460504830802
456,0.28163271062702444,0.27631743710309825
457,0.2824026799385695,0.28523728326386005
458,0.28238646748712104,0.2788107297764691
459,0.2821932399840809,0.29573637092393873
460,0.28189908272867875,0.2753670934802231
461,0.2823245482768318,0.2840572440421204
462,0.282747737926135,0.27427081188484603
463,0.28068031753607997,0.2767956688432121
464,0.2810910224819107,0.2801417687247656
465,0.2817311917929004,0.2772456801406562
466,0.2799938670378193,0.2776399161500459
467,0.2800810319290245,0.2795072262449566
468,0.28069941507424234,0.2818703563205614
469,0.2809152700323119,0.28314661026146
470,0.2809470024070232,0.27631839827029375
471,0.28044917291288285,0.27826177348765724
472,0.28136870439788453,0.2771934239195308
473,0.28058886066305816,0.28159856463919203
474,0.27949500091081625,0.27442176246053307
475,0.27910226127736754,0.27969057282730514
476,0.2790566616124206,0.27777468620377255
477,0.2795776995875723,0.27133311093191936
478,0.2799463782182114,0.2774310629249876
479,0.27931340684215006,0.2772221774926344
480,0.28041495166247704,0.27471896915395183
481,0.2794447570168275,0.2754637310757254
482,0.2784829291345789,0.27188789684987125
483,0.278637289559488,0.27510444903315706
484,0.2786261679125939,0.27505092867872916
485,0.2790769342007973,0.2752540466728388
486,0.27908339235690044,0.273503366528443
487,0.27792664725270816,0.27279562013040975
488,0.2778452175010959,0.2785802581691201
489,0.27673138606491043,0.2698572292283407
490,0.27574322701956006,0.2730223453707165
491,0.2768799158169614,0.27175311604023755
492,0.2778746941692835,0.27396817651591643
493,0.2774418435925193,0.26995207084114725
494,0.27700872703778257,0.2710409836008214
495,0.2768717312557493,0.27524079488770126
496,0.27677795645282016,0.27363326931666865
497,0.2767131331684687,0.272793647605814
498,0.2765684556946743,0.2726458102972258
499,0.27592220146647445,0.2706212555477509
500,0.2772113509935508,0.2823520405860036
