epoch,loss,val_loss
0,0.525546396271788,0.4749965169999951
1,0.4774311863475566,0.474964717028173
2,0.47755664652533575,0.470976989830961
3,0.47796853196373185,0.47544416818170915
4,0.47773846582495433,0.47426164237269286
5,0.4779201919893376,0.4774719817768238
6,0.4779093663255088,0.47348910501930974
7,0.479715306922305,0.47781180232269327
8,0.4631405622005272,0.41222318096620036
9,0.41748524460194114,0.34570564072058724
10,0.3378269346974355,0.3269556562027408
11,0.3365928895062775,0.32634751626893865
12,0.3338059455656605,0.34584266521277723
13,0.33453530922448704,0.3245625641041133
14,0.33269490622025694,0.3246373238061109
15,0.33204205011387616,0.3287750597111146
16,0.33204631789696876,0.31858004440260196
17,0.33263372094463484,0.3331847086654654
18,0.33229365980596565,0.32043410549506296
19,0.3321266830515423,0.32891974516430517
20,0.3327455553505346,0.3311004885887667
21,0.3330083667969913,0.32719787851787496
22,0.332852696652988,0.32460022831207763
23,0.33141880690289155,0.3272116537064008
24,0.3321870754686572,0.32782011417394186
25,0.33046875548639076,0.3149073139456378
26,0.33072410590595286,0.3267634410084752
27,0.3306920764019354,0.3194391225959338
28,0.3315918911203778,0.3297730915736475
29,0.330808363062777,0.3203845041985576
30,0.3312421962916613,0.3206796702335647
31,0.33268826328021445,0.3189076406097638
32,0.33170694579704585,0.3336001502404367
33,0.33292905708773435,0.3305522832187406
34,0.33196930889841275,0.3284815909266001
35,0.33154863295414083,0.32468273915826756
36,0.3311127231871005,0.3196264423059495
37,0.3318058814790895,0.3222314738436957
38,0.33235783185318507,0.3180600885293008
39,0.3317769590279848,0.32666062508969207
40,0.33280776911597554,0.32109836802392283
41,0.3322346004293405,0.32055917640981846
42,0.33123737415202037,0.33344614199982353
43,0.33040099231888065,0.31836131958389435
44,0.33028126377567685,0.3255020566314059
45,0.330163780650456,0.32474660939274574
46,0.33009230332980627,0.3217276604324226
47,0.33130048615612284,0.317042378477911
48,0.3297616697424989,0.3305828024434027
49,0.3317327794435022,0.32221227477362707
50,0.329113577386077,0.32344420702323823
51,0.32974470403792855,0.32752839431766456
52,0.33074580578447627,0.32728208877857784
53,0.3291921137000541,0.31714330713581457
54,0.33074627054347505,0.3226545122352847
55,0.33064607994781314,0.31538691342864905
56,0.3305222970738018,0.32829374655928306
57,0.3305286382027953,0.32865508774555663
58,0.3300291743281362,0.3200913233463465
59,0.3297096535885077,0.3174940709674462
60,0.32717044071423157,0.3189662653297162
61,0.32821643356081964,0.3229295286308054
62,0.3284672912028577,0.3275515578963574
63,0.32930825032490335,0.31857711575401987
64,0.32805706685681424,0.3296738012437286
65,0.329900569671826,0.32177613208683437
66,0.3294489583689913,0.3262668107096003
67,0.32936453566753227,0.31560883554023555
68,0.3288785216929339,0.32516783052480586
69,0.32820813636556806,0.32134104607701774
70,0.3301465242243499,0.32790444865411156
71,0.33020074914494674,0.33103254079912814
72,0.32937104676029,0.32233699598741417
73,0.3283553671517628,0.320345011417002
74,0.32912730022395353,0.3221298395740581
75,0.327507478215521,0.3165876818578264
76,0.3281871264072345,0.3099948230369315
77,0.3291810332275599,0.3227332896761002
78,0.3293523409074064,0.3164614411489928
79,0.3297403680739833,0.32476253954556955
80,0.32872165614466586,0.31813642671941866
81,0.3287269963944654,0.3212076050847557
82,0.3295309412226879,0.3316159960596977
83,0.32803475836531626,0.31440751975506614
84,0.3283082740507919,0.3203255127006943
85,0.32886339624008115,0.31164543581178267
86,0.3273681306438766,0.32498053687712103
87,0.3287467989299318,0.3170478590003317
88,0.32891435220801857,0.3242064336669097
89,0.3279980664177955,0.31710808685941777
90,0.32845723605175003,0.3198935917116284
91,0.3293723154553978,0.33256795259094085
92,0.32998159651657183,0.32648537868388355
93,0.3292242759089771,0.31780172935036477
94,0.32935619426907586,0.32024278775763115
95,0.3288760886704036,0.32251875905794897
96,0.3290532776634756,0.33200100569999774
97,0.32882588594365747,0.3151455249669708
98,0.32861438481737193,0.319013545738023
99,0.3278875613717629,0.31889623570555103
100,0.32715108589255076,0.3197670509096385
101,0.32832767825713643,0.31791405703199127
102,0.3279209321589588,0.3172107494620705
103,0.3274705971864392,0.3102732643708528
104,0.3259342254685174,0.3153108650761132
105,0.32598187942966095,0.32007791524151696
106,0.32731147781074,0.3209259903562662
107,0.3264071604640459,0.31675906207680044
108,0.3271478523524831,0.3205659348332421
109,0.327883230482074,0.31531911255716805
110,0.3253262787223529,0.3157946860686756
111,0.3251579129795948,0.31880111892390833
112,0.32642916559601287,0.3287879979177639
113,0.3268646486847997,0.322513160314161
114,0.3245243382134693,0.3329929411176066
115,0.32328643252571326,0.31138478319477453
116,0.32480168884559024,0.3194333834025271
117,0.3266449711686797,0.3241703107823701
118,0.3287572906576663,0.3302781539774355
119,0.32833968239913075,0.32213258124658606
120,0.32686008031753233,0.313980480466382
121,0.32802675097442263,0.3167748894386623
122,0.32799633862160377,0.32001411044512945
123,0.32774620874227284,0.31549767532401324
124,0.32647929320947155,0.3183584486346783
125,0.32671924539321334,0.31679630841715845
126,0.32386618831174835,0.3103702157241863
127,0.3265099961170666,0.3136562988479587
128,0.3256939158236666,0.33087401770660985
129,0.3262178538252505,0.3201699919040126
130,0.3233685967542952,0.3217198570224368
131,0.3284019957676971,0.3263775958446602
132,0.3282038657237395,0.3268132252587798
133,0.328318193578701,0.31949184596209235
134,0.32741859630286263,0.32960956058543595
135,0.3272331905760449,0.3192763837802664
136,0.3281132480938086,0.3139910243492759
137,0.32731324623671654,0.31243894212153733
138,0.3252670423780604,0.3167551391314783
139,0.32953037494282833,0.3310937175340509
140,0.3269441583507257,0.33154222618526796
141,0.3281368611456393,0.31554550821609917
142,0.326757984052745,0.32427033732609195
143,0.33019795934025714,0.318703952062384
144,0.3301488178358566,0.3296057415130859
145,0.33045781324569173,0.3243848371665687
146,0.32972465250655997,0.31953206075018753
147,0.3302862272440768,0.3192031982853926
148,0.33011661238855217,0.32388699315811764
149,0.3299786311616715,0.3160727894390862
150,0.32835846390131473,0.3140691272743875
151,0.32889801238795263,0.32369524828542756
152,0.3262679584377961,0.31878549425076946
153,0.33056588928333575,0.32784095467689384
154,0.33258243931902587,0.33109454463670457
155,0.33070985459499985,0.3258668924986893
156,0.3272092209088145,0.31955443337947814
157,0.33109464726859716,0.32549442758970404
158,0.33343602364345326,0.33216827192829645
159,0.3310652818563554,0.3194042726022198
160,0.33160841609124275,0.3333434372693418
161,0.33492114656358407,0.3269880735083838
162,0.3350809054146949,0.3356295824286123
163,0.33381016241560735,0.3328644140743325
164,0.3362144280990346,0.331292325714581
165,0.336338232723262,0.32853384721721357
166,0.33600072289923494,0.32926610497950376
167,0.3329025132717084,0.32065931437706136
168,0.3343572434094503,0.322115045955262
169,0.3338344154431284,0.32687335505481774
170,0.3328519256518994,0.3324438559792601
171,0.33340881542145584,0.3258180958884103
172,0.33216585737052295,0.32731005389481527
173,0.3370640117535107,0.33000273907288097
174,0.33662988974464886,0.3325481082194418
175,0.337528243696661,0.33232184110801805
176,0.3330844786289118,0.3313543442063381
177,0.3364428324784211,0.32499375730023766
178,0.33670154101938177,0.32641427655246374
179,0.3346807959673407,0.32833682700415345
180,0.33780399835605224,0.3315328540958188
181,0.336975601270235,0.3197740127274439
182,0.3348575367701711,0.3245679717084603
183,0.33505381760503844,0.3210118299360433
184,0.3342771902978182,0.33510871881938115
185,0.3349998623466225,0.3302776789749901
186,0.33277657574458086,0.331119348895578
187,0.3337501655403468,0.32956657157042124
188,0.3349480180145739,0.33082988545380904
189,0.33576693834303667,0.3294126700254153
190,0.33837764321280706,0.32668853311813434
191,0.3391347054144938,0.3323805011579533
192,0.3407841214387537,0.32951277757876485
193,0.33932886506727844,0.339961428386354
194,0.33954556699660565,0.33445298347119373
195,0.33918346202583144,0.3380996383544302
196,0.33982720074179074,0.3318092222748164
197,0.34018372358988036,0.3362867740918636
198,0.3401189990919366,0.3298779526562228
199,0.3414864064001446,0.3340989108290744
200,0.34186173192888714,0.3240058104306953
201,0.34108519452891284,0.3325856773751687
202,0.34177827017960977,0.32464369653996844
203,0.3415508753509163,0.33063937155581313
204,0.3429929998805292,0.33611667287942454
205,0.34336379966099295,0.33863049823182156
206,0.3439699133022798,0.33276509017857775
207,0.3449353809169919,0.3375437416095101
208,0.3462364071374126,0.33124839617402513
209,0.34584700409695207,0.3331410927902363
210,0.34607868749413084,0.33783541449243476
211,0.34623407792273186,0.3333333494301941
212,0.34657541502246275,0.3391735088241881
213,0.3475543407680129,0.33244928437701904
214,0.3474041756680258,0.3417204073685403
215,0.3453545873399547,0.3342342553829338
216,0.3444092065620003,0.33392719062370113
217,0.34415590510570365,0.3345880309662296
218,0.343630314528418,0.3336302466108372
219,0.3430845258023432,0.3372113654109184
220,0.34290439558686686,0.32974482325935517
221,0.3395415106765944,0.3288078697158675
222,0.33867594179251403,0.3337991435695278
223,0.33645915461005826,0.33390897869969693
224,0.3336215490798394,0.32111031899041986
225,0.33126786681149695,0.328354412773602
226,0.33099040539144614,0.32691297365533334
227,0.3294362329202686,0.33234584352682217
228,0.33011631369828986,0.3179642086247336
229,0.3308138345523799,0.31641351642717785
230,0.3292836789056647,0.31407974384013554
231,0.33046532232317327,0.3296222413677631
232,0.3295053544161703,0.32108954093826975
233,0.3300273057034643,0.3217333889233379
234,0.3293960979826254,0.3147050742098169
235,0.32992212319497966,0.3137493920589679
236,0.3292738376594752,0.33230591834108947
237,0.32607551193018136,0.3073847896956795
238,0.3233701398642324,0.3159589295840771
239,0.3264250560439557,0.3111342837844388
240,0.32676757113348476,0.3199071287873606
241,0.3268570548577084,0.3312229025100476
242,0.3295447391857632,0.32545841088328853
243,0.3272724641527203,0.319685584391396
244,0.33001178111151447,0.3182958313679262
245,0.32631089906993627,0.306953680331818
246,0.3248818304351003,0.3171366961009877
247,0.32610045865380605,0.3194685914239831
248,0.32931929001276444,0.31732230444733517
249,0.3291469572974052,0.32497572727154445
250,0.3295389565942194,0.31845230943778413
251,0.32901114705416984,0.3155692170102858
252,0.329235820425786,0.3277159623254823
253,0.33033969601710067,0.32202778296764195
254,0.3302217278596785,0.3355187139317287
255,0.32984885790174623,0.32540547701911654
256,0.330020633842543,0.3146394850611216
257,0.3292710004712371,0.31786555094143115
258,0.32836239348403173,0.32425799763569607
259,0.3299450553911958,0.3363550631616091
260,0.32826293754777747,0.3187107953059927
261,0.3290887169248099,0.31686318012420456
262,0.32711502509437307,0.31734980747468283
263,0.3273458092761554,0.32466750593757476
264,0.3280330950693547,0.31292144433193164
265,0.3285912916147642,0.3171171283712515
266,0.3285700984352784,0.320698073767449
267,0.3278881218150365,0.31310958547580875
268,0.32845870126113236,0.30676564901196873
269,0.3260096154100508,0.321895934482588
270,0.32833318520697663,0.3295611686469442
271,0.32794718998227473,0.3281026676638256
272,0.3294175961415926,0.32791672027195734
273,0.3282937730173413,0.3201456202845359
274,0.32713017481074724,0.31202436834220915
275,0.3274374875805075,0.3134034944737908
276,0.3293447143477883,0.3166365245946675
277,0.3272361729880698,0.32155677504490565
278,0.32185757284065325,0.3154564834572522
279,0.3216599280313908,0.32151918685991365
280,0.32717882109869967,0.3173555491614172
281,0.3253942555803761,0.3314576316698386
282,0.3247776073303154,0.31960407299325516
283,0.3247670934712001,0.31431798097084335
284,0.32411842045785905,0.3118158143716434
285,0.32378591969907045,0.3176020105570061
286,0.32276710423586563,0.3212396298088986
287,0.32556284979569444,0.3174905982559463
288,0.3186957123134729,0.31093233997838743
289,0.31863488316488303,0.3099996162006586
290,0.3197437324445787,0.3059735010247957
291,0.3199960232543336,0.29763220136525037
292,0.3003433517557826,0.3004215609255793
293,0.30875762470429846,0.31903257455615047
294,0.32295526514093365,0.3115018825645793
295,0.32671424797732385,0.3252936452509572
296,0.33107459740482453,0.32993345570639543
297,0.3300219913014024,0.32901032985244666
298,0.32595026765843566,0.3126473684149082
299,0.32548057792379226,0.31926880251166384
300,0.3248989654959535,0.3172609906029118
301,0.3242110266364355,0.3210893916679163
302,0.3235089810227128,0.3247039130614702
303,0.3235654071580878,0.31995788193068925
304,0.3231775259538044,0.3136042616643958
305,0.3255423384962036,0.33036609858439114
306,0.3257622997061335,0.3178365652544252
307,0.32598881204303604,0.31526772563816907
308,0.3227305742476484,0.3180981923862057
309,0.3267900849536931,0.3182974329781325
310,0.32705265213307333,0.3177565521110017
311,0.3240796278396861,0.3046715888293973
312,0.32545112726166187,0.3217728512439562
313,0.3162680677325129,0.29388506328297487
314,0.2957436954029363,0.27713596512693633
315,0.2928896147570164,0.3028952956623041
316,0.2932134087828042,0.2920004702757547
317,0.293976726541988,0.29170410446793243
318,0.2952174725149461,0.28917261473569894
319,0.2959420889806595,0.28946051671924605
320,0.30404907688915395,0.29671971578718453
321,0.3207882326498306,0.311998301659782
322,0.3147434380938776,0.30401891295892947
323,0.31301447129745086,0.31281867660964296
324,0.3137508147983528,0.30758586998708437
325,0.31461454221575286,0.3073409997344299
326,0.3154460079521298,0.3089034318594643
327,0.3152732315728609,0.30493854442589285
328,0.31498784397384055,0.3066704156554959
329,0.31479378254245893,0.30303722413017137
330,0.3125263939110591,0.24734545375008044
331,0.21615652044971498,0.2220196604564045
332,0.2413670019411164,0.3973836632064693
333,0.24707447758895887,0.29322703922462917
334,0.2949244707977648,0.3070767223599772
335,0.2908490568959265,0.29239049420972085
336,0.30697008494517025,0.28217464205592097
337,0.2303682195721008,0.18754997314339844
338,0.20326985714199255,0.19863651209491015
339,0.2035225028935954,0.19298231205370076
340,0.20546711065309892,0.21676444248741034
341,0.20866162879623287,0.20596545742973155
342,0.21204452926544642,0.2061971913267518
343,0.21747102451434047,0.20801240293972117
344,0.21860634814277827,0.2184578698972312
345,0.2192907942225226,0.20581825093999093
346,0.21482650893959973,0.19940699445232218
347,0.21618628669247258,0.2107895923206537
348,0.21231205392179253,0.1979281396708718
349,0.21007863943763583,0.20090515689296617
350,0.21155050851934723,0.21281508097003177
351,0.20968112166074634,0.20110415616135194
352,0.20983285238917213,0.1926355210927498
353,0.23668205275309742,0.2702816025939812
354,0.24671764903479249,0.2203163447324554
355,0.21268032504905232,0.1942265796303843
356,0.21603562514916314,0.19320016003257193
357,0.2490606974843118,0.20223769418536536
358,0.26997131470748653,0.27701243158391636
359,0.23365396698959154,0.2002335738834661
360,0.22134250403046132,0.2368690060788285
361,0.23167537031866473,0.2235028196505514
362,0.39597078132257757,0.4545632517046127
363,0.4213575078524369,0.3976344834798513
364,0.38595754253587944,0.3771515384657513
365,0.3854747206615887,0.37807403957646196
366,0.33878363159110697,0.3081032088777637
367,0.298287711567063,0.30077592408741755
368,0.29698960931538393,0.28651050229475267
369,0.2965342112951618,0.2941752197875126
370,0.2952894516628709,0.2968780876805487
371,0.29309622269216107,0.28498846143131285
372,0.2944311025760157,0.28063453288179924
373,0.2950833912947767,0.2878521976855766
374,0.295712378498414,0.28469591408426964
375,0.2951812425332008,0.2864756926647207
376,0.2919307845673687,0.28990891522888884
377,0.2928238598515185,0.2854256760725941
378,0.29348152922354726,0.29140787117106765
379,0.2921268844323383,0.28969044856368414
380,0.29257636954434674,0.28370236530723586
381,0.29347887270742185,0.2980146876168044
382,0.2942853858597654,0.3025436069237123
383,0.29275515851833456,0.29699089949114077
384,0.294551784096719,0.28191918668637805
385,0.29275426471071375,0.28158036216611265
386,0.2937658289305979,0.28251043719481367
387,0.29479466927208775,0.287687671271571
388,0.29324390844618387,0.29990743888628796
389,0.29501690605966496,0.28261248733269106
390,0.29421548187423,0.28327593014479246
391,0.2943582406027807,0.29075884902533716
392,0.2953095264155135,0.287917795466831
393,0.29423366154102587,0.2831428348312438
394,0.2932674355751319,0.2869481385906757
395,0.2930214034496166,0.2838541390087629
396,0.290251394845456,0.28692261779411815
397,0.285012466682614,0.2817755760220721
398,0.2804871475477394,0.27832053472371016
399,0.27581210682789487,0.2618042850997755
400,0.269435614127097,0.2621552045526896
401,0.26654085837941854,0.2516849100142835
402,0.26594706496103204,0.24944176049145922
403,0.21325416464528305,0.2022721752489093
404,0.22914442555200187,0.2169071387825938
405,0.24998226780280602,0.254085538701552
406,0.2500079541469364,0.22843139481619765
407,0.2414965478421973,0.22944489863554887
408,0.23481379960962145,0.22294489675934331
409,0.2297764372744625,0.2211410902152404
410,0.22742045627866717,0.21417157891799637
411,0.22300140342885832,0.21565427539992163
412,0.22019923401536415,0.21491351687211924
413,0.22100574380273727,0.20833288378948853
414,0.2197310810359262,0.19473640214954668
415,0.21282573258109708,0.21203365129284155
416,0.2092455155808005,0.1879909558379001
417,0.20467365614706567,0.21422494789137084
418,0.20105475390391003,0.20188916751551836
419,0.20297680173417648,0.1965192349505594
420,0.20009904300018275,0.20712268294879746
421,0.20014804159756377,0.17512695179647975
422,0.19945577006164691,0.18936020675708481
423,0.19753420706704367,0.19481635848743858
424,0.19303466758425,0.18998540728555105
425,0.18696235301349756,0.1857446404710565
426,0.18236311389316473,0.18058506365874288
427,0.17401858791708946,0.1574748065425546
428,0.16529540107142535,0.14229222462933744
429,0.15436769701796565,0.13291985254026156
430,0.14988978550159673,0.1401379120072325
431,0.1441601813613749,0.13258937007696872
432,0.14583814122694003,0.12721258643558858
433,0.14886140462151057,0.1348621151935612
434,0.14983106419432174,0.14881652006151738
435,0.14737292325539555,0.133429939193385
436,0.14557236247509123,0.14686933580871256
437,0.15124238674029364,0.1328735169149706
438,0.15196192169265685,0.14330891762649156
439,0.16077361056070438,0.1565367625680794
440,0.16148462455919224,0.1530115502550551
441,0.16268582065268863,0.1551441965829037
442,0.16359643621160258,0.16312182969292413
443,0.16407742703870998,0.16420749225598577
444,0.1651359136453826,0.14765891348083093
445,0.16833931478045636,0.15477388059307293
446,0.1616510428833685,0.15528454241102477
447,0.1614195005231195,0.1522639469605971
448,0.16259456477422032,0.15591764602965977
449,0.1659733286524991,0.14786091416297978
450,0.16500892222737618,0.14466415964884372
451,0.1639911609855916,0.15963523003442512
452,0.16589284095642187,0.15321609934743408
453,0.16261640928096052,0.15986807082192392
454,0.1619537309717408,0.14856715009921917
455,0.1617787099517078,0.14740135155518222
456,0.15606635413188444,0.14953039843521443
457,0.15422784865831585,0.12838370971022955
458,0.15479904412032128,0.1482592764433294
459,0.15588065659661562,0.14181921467032127
460,0.15565655105929677,0.1474125800976249
461,0.15501252439120214,0.13601975989746312
462,0.1473844736534581,0.13647031525316064
463,0.14348540583150468,0.1267317001073494
464,0.1392593130433588,0.1116877637197864
465,0.13578143173889767,0.12980397292592907
466,0.1356081910592189,0.13361699699814525
467,0.13274348804728686,0.12369501563678506
468,0.1340161700406187,0.13033818275959547
469,0.14391882810220538,0.1216004993163796
470,0.14336163234367644,0.13237448528867682
471,0.1639176907418348,0.15176133019371868
472,0.17309766298801685,0.15992841710231392
473,0.1764970284363301,0.15641422588569306
474,0.18062122943375608,0.16184499434062413
475,0.1799391087213104,0.1653391458358742
476,0.1782123118126802,0.16478375608326415
477,0.18000921076960225,0.16265576029962314
478,0.17536719693697328,0.1627627010174219
479,0.17477987603925402,0.16799057199786568
480,0.1726072582451226,0.1573502029562053
481,0.17319077963261104,0.1633141477840005
482,0.16963295589724509,0.16324187545862928
483,0.16672761714775308,0.14914128107872174
484,0.16115926605739372,0.14410358683839028
485,0.15714361923906825,0.1383016376146766
486,0.15367739598790137,0.1344117079379997
487,0.14895978209069022,0.1383202175867774
488,0.14724193127166263,0.12859998712200016
489,0.14532881511224927,0.1382929478443412
490,0.13770868787043195,0.1299933442565147
491,0.13294303929396004,0.14072189857005696
492,0.13109987667150538,0.13694398676728112
493,0.12760913415516403,0.10743156809656754
494,0.12569706887304544,0.10484404629059636
495,0.12186836794042569,0.1180523149580963
496,0.11459212202867634,0.10248008923165518
497,0.11504937309345943,0.09532179758717153
498,0.11917316068193133,0.12985591142899236
499,0.12295093657158547,0.09999789631004491
500,0.12324743886157381,0.11146819446862168
501,0.12295025759797207,0.11529606902985094
502,0.12626347777476127,0.10570167051517973
503,0.12397804801507915,0.10935165764853629
504,0.13302308591983492,0.13166822768871297
505,0.12934330916947884,0.11040849253923384
506,0.11923992671638274,0.11764553012274906
507,0.11865258762995592,0.10180868109028078
508,0.12222952920076945,0.09868613020726424
509,0.1258369819264856,0.13293336173659154
510,0.12878591101542175,0.13037604666311345
511,0.12446322503219025,0.1102388217845298
512,0.12476108962897774,0.10019089019289144
513,0.1216682641804933,0.10578283472920179
514,0.115480460440941,0.1010377114637216
515,0.12019176308592733,0.11055175830693158
516,0.12105126392176684,0.13196316317911683
517,0.12903678890683953,0.11375795224800576
518,0.1226981240157172,0.10373893852956481
519,0.12478799318119015,0.1172705054306664
520,0.12246191120452637,0.09165656587201587
521,0.11975124919955298,0.09782948117959
522,0.12067279171386211,0.10512928260106597
523,0.12097580842882227,0.12150904044638305
524,0.1174822168336879,0.11703621594921848
525,0.12171260995282639,0.1141810082810642
526,0.1179061775459803,0.10711380285405699
527,0.11777377851623044,0.11103217301400703
528,0.1176003831610691,0.08983046082513672
529,0.12284126283703663,0.12778045909792396
530,0.11890426073536027,0.10372355354519086
531,0.1201462702100559,0.12378399309885248
532,0.11724249592168536,0.1138186666235363
533,0.11784459792559954,0.0995562867906118
534,0.1179921896301871,0.1214045116291238
535,0.12329477122385535,0.11059396374667829
536,0.12144545332300101,0.10172005807767727
537,0.1247112103324714,0.11355899035013277
538,0.1265347698014036,0.1359852677374349
539,0.1287937242356088,0.10341341994061842
540,0.12328799635017042,0.09928291878459392
541,0.1239042438322501,0.10539950570936926
542,0.1288024388092885,0.11990618765730508
543,0.1393131408081066,0.13034345983471002
544,0.1342557864181763,0.1183963800826784
545,0.12429663406716263,0.10524039195105139
546,0.13003783150137566,0.12809289983622935
547,0.13732476900223728,0.1261197641409563
548,0.14245445346184296,0.11960237604384358
549,0.13984411167536231,0.12677812568061259
550,0.14370416074121695,0.13418648434301578
551,0.14017696321892034,0.1265750094871871
552,0.13310616431857566,0.12471742255300072
553,0.12787247402407378,0.11211724079492624
554,0.1291244534416784,0.12871925840367457
555,0.12989180897482389,0.1312317122141489
556,0.11998281850041055,0.09054850625504916
557,0.11751231915659184,0.1265888939410942
558,0.12297435830251205,0.10725761753019612
559,0.12382433134362661,0.1360631557306438
560,0.13467422419255204,0.1319311873218443
561,0.12951935178560794,0.1171180812411169
562,0.13407269603521418,0.13718455697056245
563,0.1298976458257718,0.10630545142417643
564,0.1323157195314515,0.14361661057492928
565,0.13794207870424222,0.13700477656009352
566,0.1331499134965366,0.12311179105018949
567,0.13141894301803086,0.1369002446202942
568,0.13313510782010168,0.11438331812996515
569,0.13143220987561033,0.11604455004621889
570,0.13427257089973163,0.1256814420799524
571,0.13592500925409517,0.12849816075440176
572,0.1393129472121251,0.12571138446972704
573,0.13441252279624666,0.13475234288466476
574,0.1347240310320132,0.10954923995409599
575,0.13137975623079245,0.11519045267480513
576,0.13407082775001714,0.13579580163687538
577,0.14556902700321947,0.1608084755660797
578,0.13829818207749742,0.12418686416244168
579,0.1322484311523388,0.12495048982168429
580,0.13052797759120033,0.11666102172849492
581,0.13193685316639267,0.12560818184993355
582,0.14930694977299486,0.14526815084415623
583,0.14614039193168818,0.13820245091074926
584,0.13939396954840608,0.12230076673775088
585,0.1404812313455472,0.12718967116057825
586,0.13360702159474316,0.13455426653563365
587,0.1275843856819004,0.1230041734233275
588,0.13108103821794095,0.12040785768296461
589,0.13669959306538249,0.12783954437195832
590,0.1299360124803752,0.12221204247781396
591,0.12843333682615599,0.1152810575271462
592,0.12583457787545752,0.10658377183170514
593,0.12528345171662925,0.11991818222175363
594,0.12260311250861505,0.11753444862864389
595,0.11839253886593142,0.10417631453736712
596,0.12188567571359858,0.13093436630508895
597,0.12501395512208474,0.13032830824697686
598,0.12828878447901812,0.12279700808338792
599,0.12988649232746313,0.11983352427936109
600,0.1235584775886709,0.1115181813018004
601,0.11830451949346933,0.10712952576077822
602,0.117322380363429,0.1429312244739792
603,0.11878022405770805,0.1203530913111537
604,0.11855691135656253,0.11528271690728444
605,0.11738063042148125,0.1095424261952632
606,0.1171499598982761,0.11469889862055654
607,0.12255768189065272,0.1127623062942474
608,0.12425354095421536,0.13431077816280307
609,0.12432671067633218,0.12110661859929138
610,0.1263593283268235,0.12132579126434244
611,0.12924484397283942,0.12432432770964284
612,0.12685810500602546,0.12763589096050518
613,0.12939491666716446,0.11671440929597819
614,0.1311175350835331,0.13629469673583708
615,0.14008762255060872,0.1490705040031375
616,0.13431386681471608,0.1298910213697587
617,0.1375153470519397,0.13106712552512265
618,0.13950518686041463,0.12062275920713052
619,0.1424102245969214,0.14067751616709986
620,0.15121020094977675,0.15829109286429285
621,0.14989205798525795,0.15217593020591194
622,0.14708927839541797,0.13534740079855861
623,0.14600814019830868,0.14529007283975123
624,0.14761247535606178,0.140508914708903
625,0.1419071599954276,0.13080621893563982
626,0.13951726468037262,0.13746530819028593
627,0.13491373768837142,0.12094443083844414
628,0.13339150346797718,0.1393639502345622
