epoch,loss,val_loss
0,0.5130925612714555,0.5060564585924149
1,0.5352664916515351,0.509019723892212
2,0.5940414853625827,0.6294377701679865
3,0.6290661479102241,0.634366281469663
4,0.6292103024456236,0.628808368643125
5,0.6296204827494092,0.6285300081570944
6,0.6286753746800953,0.6286148941119512
7,0.6285889430443445,0.6285541085004807
8,0.5171681354973051,0.5045099219481151
9,0.5047712853882048,0.5047080730597178
10,0.5046483285559549,0.5048009866078694
11,0.505433255871137,0.5047295782963435
12,0.5061319691605038,0.5051080890496572
13,0.5046827496422661,0.504916191458702
14,0.5049700326257281,0.5050526692867279
15,0.5061375780767865,0.5046356021165848
16,0.5501524972385831,0.6285783947308858
17,0.6292578371365866,0.629365474263827
18,0.6287158791091707,0.628652769168218
19,0.6284926507075628,0.6283718439340591
20,0.6284364728927613,0.628263482371966
21,0.6287740824619928,0.6290110272963841
22,0.6284341667493184,0.6282884068886438
23,0.7307370612621308,0.7524074888626734
24,0.7523639516035716,0.7523530855973561
25,0.7522914255460104,0.7522095646858216
26,0.7522582785288493,0.7523319985866547
27,0.7522327715158462,0.7521602911949158
28,0.7522432903846105,0.7521106137037277
