epoch,loss,val_loss
0,0.3380440114206738,0.33414593982696533
1,0.4228827883336279,0.556731759707133
2,0.5560266743633482,0.5557713875770569
3,0.5558768478631974,0.5559076367219289
4,0.5557970081832674,0.5559884468714397
5,0.5557618630727132,0.5556675114631653
6,0.5557349280516306,0.5556890594561895
7,0.5557209068669213,0.5558109813928604
8,0.5557093337641822,0.5556641099452972
9,0.555704202387068,0.5556479661862056
10,0.5556917402876748,0.555633555094401
11,0.5556872485876083,0.5556566017866135
12,0.5556722888814078,0.555666657447815
13,0.5556736962265438,0.555642659664154
14,0.5556709576845169,0.5556856870253881
15,0.5556646831035614,0.5557924489974976
16,0.5610868200858434,0.5556895096699397
17,0.5580358092652427,0.5557432086467743
18,0.5557084770997366,0.5556841132640838
19,0.555683302614424,0.555646447579066
20,0.5556655052105586,0.5557376851240794
