epoch,loss,val_loss
0,0.6692254619465934,0.6675261027812958
1,0.6692004619836808,0.6668425166606903
2,0.6691673810084661,0.7216016064484914
3,0.6670437665250566,0.666806546330452
4,0.66713598604997,0.6668382295370102
5,0.5393706601527002,0.4449004675547282
6,0.44468544387155107,0.4445673895875613
7,0.44466772574186325,0.444727143963178
8,0.44464697918627,0.44457065053780875
9,0.44463996201091344,0.4447690243522326
10,0.44464031016164357,0.6534015462597211
11,0.6011542858944999,0.6670220824480056
12,0.6669161779085795,0.6668292297124863
13,0.6668263002766504,0.6668113823334376
14,0.6667977930572297,0.6668160503705343
15,0.6667797843880123,0.6667994451125463
16,0.666769726726744,0.6667634168068568
17,0.6667616178989411,0.666765714208285
18,0.6667613520754708,0.6667348839044571
19,0.6667510671085781,0.6668077395757039
20,0.6667539868752161,0.666877616405487
21,0.6684356515010198,0.6668255262374878
22,0.6667955237229665,0.6667685800393423
23,0.6703552197615306,0.6667858697573343
24,0.6667729836967257,0.6667515027125677
25,0.6667615821758907,0.666737940231959
26,0.6667565867635938,0.666784670829773
