epoch,loss,val_loss
0,0.8893877062135273,0.8889615520238876
1,0.8890052156580819,0.8889262140591939
2,0.8115138848490185,0.778174017071724
3,0.7780273521608777,0.7779113205671311
4,0.7779149169392056,0.7780031710068385
5,0.777891133957439,0.77794253997008
6,0.7778756829367743,0.7779305083354314
7,0.7778650348583858,0.777876347621282
8,0.7778558314508862,0.7778129639228185
9,0.7778530601527955,0.7778212085167567
10,0.7778459303379058,0.7778124459584554
11,0.7778511990441216,0.7778163367509842
12,0.7778421436813142,0.7778248778978983
13,0.7778365980519188,0.7778850924173991
14,0.7778455272515615,0.7778421285549799
15,0.7778357284201516,0.7778521057764689
16,0.7778341789510514,0.7778330929676691
17,0.7778335193792979,0.777827972372373
18,0.7778317771752675,0.777869297305743
19,0.7778273879422082,0.777814990123113
20,0.777829149948226,0.7778457651138305
21,0.777827201684316,0.7778136047124863
22,0.7778291945457458,0.7778049556016922
23,0.77782700823413,0.777812765399615
24,0.7778281372785568,0.7778099143505096
25,0.7778227430714502,0.7778408364454905
26,0.7779243266450034,0.7778136982520422
27,0.7778225272231631,0.7778066347042719
28,0.7778247028721703,0.7778166163365047
29,0.8758558844460381,0.8889494863351186
30,0.8889312717252308,0.888921217640241
31,0.8889172043535445,0.8889067014853159
32,0.888914126528634,0.8889132903019588
33,0.8889143072499169,0.8889096031188964
34,0.8889107043610679,0.8889049622217814
35,0.8889118300543891,0.8889193118810653
36,0.8889112747112909,0.8889045981168747
37,0.8889087442027198,0.8889052773316701
38,0.8889092431995603,0.8889052729606628
39,0.8889094740019904,0.8889088482062022
40,0.88891056491269,0.8889050309260687
41,0.888908705883556,0.8889062951405843
42,0.8889080450005001,0.8889463947216669
