epoch,loss,val_loss
0,0.44809030332167943,0.445733194510142
1,0.36995371893379425,0.33460027368863426
2,0.33405103371540706,0.3339326984286308
3,0.42841352507803176,0.44468075068791707
4,0.44477415131198034,0.4452557213306427
5,0.4447307243214713,0.4446408798297246
6,0.444668157643742,0.4445796474615733
7,0.44465006402466034,0.4445713770985603
8,0.44463034355640413,0.4448295118411382
9,0.4446220519344012,0.44456152425209683
10,0.44460398366716175,0.44520815179745354
11,0.44459479642576644,0.44461324165264765
12,0.44458486530515884,0.4445710689028104
13,0.444598868045542,0.4445220219890277
14,0.4445890817575984,0.4447103467384974
15,0.4445791329012977,0.44455617944399517
16,0.444570401708285,0.44453062023719153
17,0.44462518350283303,0.44453103870153426
18,0.444575947549608,0.44453193932771684
19,0.44456704222493704,0.44454725197951
20,0.444562796096007,0.44451600734392804
21,0.44456064036157394,0.4445598874290784
22,0.44456436415513356,0.44451894785960516
