epoch,loss,val_loss
0,0.8540280876730422,0.7381835460469477
1,0.5538596668608003,0.16451879787135684
2,0.16811612596790537,0.1619575337626928
3,0.16684890825978463,0.16159046574859046
4,0.16741581115606216,0.16207759285350207
5,0.16666270924316015,0.16472925048771664
6,0.1681908489084893,0.1638533413796916
7,0.16725301531980857,0.16167140484387954
8,0.16646703749036101,0.1611454411555574
9,0.1628717328007933,0.15578079244782067
10,0.15986060534564375,0.16260680773832503
11,0.15955180437076655,0.16642344532125092
12,0.14179310128033112,0.11420866707453182
13,0.12956812486553593,0.15211808424071385
14,0.11335505343514313,0.11524926335078763
15,0.11148791916495424,0.1064410904620299
16,0.10694856220502869,0.09128254856264698
17,0.08545845288118188,0.07790782541604614
18,0.08212729901958218,0.0837081893553409
19,0.0821690784381021,0.08074521105691174
20,0.08216318142286437,0.07445377545296808
21,0.08362876550049138,0.07533257172140086
22,0.08129996115310464,0.08309791648619946
23,0.0828625323300103,0.07857162743468452
24,0.08232428381492415,0.07721757308095814
25,0.0822869207817402,0.0737036062406024
26,0.08247605325867406,0.08110206625564062
27,0.0823972048513812,0.07535903966424433
28,0.08304915933446994,0.07601725531852255
29,0.08119722320627365,0.0741729862377688
30,0.08101224260713406,0.08729729294438529
31,0.08169995286196971,0.07572836309236332
32,0.0812509298112819,0.07237566852547826
33,0.08010433954421618,0.07155622406851346
34,0.08004835597705469,0.07328199865319143
35,0.08104144951240648,0.0738909107127619
36,0.08047853014003142,0.07382710946350686
37,0.08120541302285927,0.07596766293677294
38,0.08027368590378876,0.07323532177789464
39,0.08028169515862572,0.07464548895272992
40,0.08098498600168978,0.07565788779972726
41,0.07946476662267533,0.07621538584382671
42,0.08035837537687335,0.08513329404089766
43,0.08014059139995741,0.07700512830442949
44,0.07940607830386957,0.07565327408358709
45,0.07993764486954248,0.07287734215784537
46,0.0798071309390237,0.07510833356707733
47,0.08000945408431123,0.07100296851975688
48,0.07969879335593327,0.07280114761403395
49,0.07950350161853602,0.07516478576726868
50,0.07965399122075904,0.07901316033396795
51,0.07957453107993731,0.07924411825636297
52,0.08035690676990608,0.07323919144811808
53,0.07945771572337425,0.07745348611681904
54,0.07903328665895305,0.07152500458587405
55,0.07948438751342012,0.07552671300463336
56,0.07980400790796698,0.07552576545755842
57,0.07860446529831287,0.07504094145521341
58,0.07993734206518142,0.07407966918717626
59,0.07919486577483155,0.07588678909600119
60,0.08032103654912846,0.07350264487837933
61,0.07958904328980476,0.0739937249936665
62,0.08002396567677669,0.07288973732260022
63,0.07905810624003123,0.07485802630861407
64,0.07927765667862038,0.07307392356060717
65,0.07951455489039612,0.07723423341003648
66,0.07959548360686765,0.07474684851532629
67,0.07824607226726196,0.07636773535817112
68,0.07836595700652577,0.07140098625472283
69,0.07890492385690263,0.07316778875458366
70,0.07885831527805644,0.07903273325392317
71,0.07960927047974782,0.07722992236391374
72,0.0788595896345482,0.07421767006160666
73,0.07990956383707334,0.07611123261866005
74,0.08021120187208307,0.07349491700082897
75,0.07971163770203307,0.07205092083339466
76,0.07895574429250651,0.0754219285255511
77,0.07938742040066694,0.07070830168575652
78,0.07877855792677431,0.07414927429369284
79,0.07920664076278026,0.07504305048012579
80,0.07920836830277554,0.07674878866193455
81,0.07949677875207319,0.07194053320046469
82,0.07936531621172392,0.07684187230027892
83,0.07987701537473808,0.07952953096772246
84,0.07978763382992236,0.07238758067749229
85,0.0788573661224068,0.07356704387508653
86,0.07934875384098392,0.07421262638714385
87,0.07980512317905339,0.07536786279224905
88,0.07967951423000154,0.0731398121356384
89,0.07947371057491956,0.07529219091905391
90,0.07877854364003249,0.07261711378964775
91,0.07957409899398458,0.07613797208773151
92,0.07941300115340037,0.07429718709605937
93,0.07907288172263637,0.07830075081211227
94,0.07921600808874905,0.07060183539672393
95,0.07871021281739919,0.07269438646812315
96,0.08012820356148925,0.07700959562542278
97,0.0792777274651013,0.07386101418856866
98,0.07897340023578454,0.07500221406238793
99,0.08088532048579547,0.07465237949801865
100,0.07927299629422643,0.07262711570766624
101,0.07922919024172738,0.07566001887727054
102,0.0789417474179434,0.07357225746568972
103,0.0798755250468528,0.07136779621738974
104,0.07946833658715885,0.07519748845626355
105,0.07878890863692073,0.07369109077586068
106,0.08008360393566069,0.07347597874586213
107,0.07831661594514135,0.07234289396224908
108,0.07898382065270403,0.07597215679101797
109,0.07830467838808906,0.07470210531948547
110,0.08055132844025274,0.07477726959544087
111,0.07957404155770333,0.07118833160808874
112,0.07818366193009005,0.07609623048185625
113,0.07851716334386478,0.07594418764682388
114,0.07837718624988492,0.08046285560942237
115,0.07945969554068472,0.07208449466324685
116,0.07808116354268965,0.07204773627215541
117,0.07942584663289513,0.0746425483753453
118,0.07901927645655991,0.07574093390168549
119,0.07944054914723404,0.07711980901265764
120,0.07972776829999528,0.0730301411150194
121,0.07882180581506106,0.07228034092694981
122,0.07898722264656217,0.07179694997701139
123,0.08017954562423084,0.0743210497527517
124,0.07849492257337173,0.07634118330473834
125,0.07859771565241132,0.07409664035592732
126,0.07831325276856951,0.07752243920689372
127,0.079392077693577,0.07241345301197973
128,0.07783420030191672,0.07479620478678697
129,0.07835207029347949,0.07219256855553471
130,0.0795589067307327,0.07699268892564526
131,0.07856597591958063,0.07217286166410956
132,0.0788564300201863,0.07254084211450133
133,0.07825503593461336,0.07143684060577929
134,0.07873155702027776,0.07127094337684975
135,0.07974296511174012,0.07483208770444504
136,0.07901120678878862,0.07996438288666906
137,0.07808307769169227,0.0724527742819436
138,0.07864622001627906,0.07193823919509933
139,0.07868516687795914,0.07422129050900272
140,0.07923295675926775,0.07253363023044516
141,0.07842810568753913,0.07426636135515312
142,0.0784119422226142,0.07435664614633826
143,0.07842059574836345,0.07412465929453294
144,0.07884216098020895,0.07122774373525444
145,0.07915822609817628,0.07402966955536183
146,0.07928489183364294,0.0768412016543642
147,0.07859154699222626,0.0748162514591304
148,0.07889789557479639,0.07452745085456752
149,0.07866377540654522,0.07838904460633758
150,0.07893355385071521,0.07123141400727526
151,0.07849279431263813,0.07242305129645611
152,0.07875068681545741,0.0786161610625521
153,0.07924661045973067,0.07375279535741122
154,0.07875056484426328,0.07521061729171463
155,0.0780245011047519,0.07568062563326333
156,0.07904430623319122,0.07340281234339592
157,0.078431621633822,0.07203717135793294
158,0.07907870413662435,0.07165718695567279
159,0.07893074828060605,0.07712371912932164
160,0.07911723991595,0.07662410382105873
161,0.07861997203989397,0.07798230816932683
162,0.07779582635498791,0.07259864069140741
163,0.0791264881071947,0.07561839242909173
164,0.07833060705728584,0.07245490523259135
165,0.07853907026690517,0.07218415093429187
166,0.07903653326883518,0.07206714497720527
167,0.07863159319631952,0.07386231284349891
168,0.0776111808858269,0.0711238145864503
169,0.07934531989433558,0.07306490487450037
170,0.07839065881742774,0.07159029485752982
171,0.07880514389346895,0.0733762795508923
172,0.07854831715474565,0.0725007863822548
173,0.07836240964134136,0.07396231149682067
174,0.07842988421390351,0.07351941339798507
175,0.07867544554800296,0.07320893178214315
176,0.07924215000919145,0.07941841955590519
177,0.07967786909080296,0.07382963910481355
178,0.07901089334990188,0.07280260529625929
179,0.07842138764993538,0.07399568197053812
180,0.07880409051469557,0.07225743636174697
181,0.07845679812097521,0.07481291816121954
182,0.07955123367365166,0.0757682889953727
183,0.07830682168718431,0.07568602215888437
184,0.07914422096474301,0.07266541265875753
185,0.07840341325995442,0.07262076592467127
186,0.07881227280016992,0.0717679643421906
187,0.07894160368705722,0.07768244650109164
188,0.07833447867782237,0.0730262661061196
189,0.07855788841575169,0.07618930947642837
190,0.0791033209548343,0.07280270756801646
191,0.07890454313462023,0.07429811390175727
192,0.07872546716086906,0.07244241448528672
193,0.07918191369208362,0.07612349450684909
194,0.0774926418487767,0.07074300365919808
195,0.07873944926550619,0.07503071224916687
196,0.07837775350064397,0.07380127007955956
197,0.07849408975922412,0.07885415910079241
198,0.07962719139436467,0.07714783402109958
199,0.07801034770536126,0.0764220429936368
200,0.07865829841704298,0.07565388111858376
201,0.07940968170499592,0.07490198313887779
202,0.07927181451522512,0.07279436268812742
203,0.07809619188720317,0.07832707810334238
204,0.07991087415797697,0.07876397151158578
205,0.07772765169032007,0.07237427748455715
206,0.0800669531287958,0.07474876362875721
207,0.07874266108761939,0.07811150175956624
208,0.07832783842392212,0.07704585344384864
209,0.07887096971935563,0.07405819352006197
210,0.07817171365649009,0.07349548198204164
211,0.0786727596509805,0.07328548946169364
212,0.07922931952928428,0.07686781389857827
213,0.08001339156255186,0.07468337019405419
214,0.07855492700383461,0.07168697883939221
215,0.07801540393391258,0.07167494935432973
216,0.07866572496519268,0.0714766455984947
217,0.07872416254124039,0.07366838458765355
218,0.07867693236534647,0.07368165890581223
219,0.07914189999703887,0.07385410638548742
220,0.07720666950951824,0.07582194198584614
221,0.07794799088978405,0.07233695725140683
222,0.07868913443888828,0.07450789227078625
223,0.07883989808110116,0.07736809628457435
224,0.07888929151278959,0.07365160294342409
225,0.07864490852618905,0.07122502799258422
226,0.07935767349532788,0.07256027841026572
227,0.07929847374546518,0.07052365335162249
228,0.07817465074217204,0.07740327325518888
229,0.07868275814969317,0.07284923356452418
230,0.07919818766003518,0.0764888805478497
231,0.07910148723362635,0.07324476346724032
232,0.07850942749968522,0.07431348754034135
233,0.07864060939801894,0.07244645886951023
234,0.07822868433311951,0.07148372603690634
235,0.07918145692347286,0.07446781146156527
236,0.07911366805601254,0.07109487411435407
237,0.07936729084524372,0.07276524458343385
238,0.07829411220315506,0.07492040645177057
239,0.07820234790122252,0.07467514248708353
240,0.07866004272830114,0.07294428151551051
241,0.0788107756510365,0.07258727859829561
242,0.0785283356564965,0.07788132594268397
243,0.07808685034149594,0.07545447772231319
244,0.07839114732855411,0.07400955157377134
245,0.07803691492182575,0.0713657782430438
246,0.07735857498899902,0.07197436612984656
247,0.07831463669601968,0.07463561776732393
248,0.078969192793302,0.07441242615671924
249,0.0773932101507727,0.07901744608558105
250,0.07865258302238343,0.07792222674781969
251,0.07864814556186632,0.07502013692648934
252,0.07821910897846981,0.07297164920811139
253,0.07840638666199722,0.07155459898690915
254,0.07773157217360144,0.07427799927081312
255,0.07870413743711119,0.07251593400780881
256,0.07829811934193819,0.07204514357283265
257,0.07866933625236189,0.07291571060852703
258,0.07840551250130295,0.07227455111883659
259,0.07819900603396736,0.07403212507457049
260,0.07786188347099589,0.07387599589217028
261,0.07836102125040285,0.07271744993372556
262,0.07886558852409772,0.07377743352709122
263,0.07825501046305279,0.07593143202926411
264,0.07820936365931438,0.0711224266484271
265,0.07818991443167647,0.07136854194014032
266,0.0785081684246385,0.07561317838831152
267,0.07814986413841347,0.07273419010728621
268,0.0786019249724521,0.07651462784189571
269,0.07870831316243036,0.07325328387386511
270,0.07804123096740703,0.07391397236254964
271,0.07876492116310961,0.07122996951916405
272,0.07891500374679569,0.07370437983505047
273,0.078856515918103,0.07210625936213008
274,0.0786219335185756,0.07385786319421929
275,0.07859327445616476,0.07552490742621824
276,0.07868634264251058,0.07135993348312204
277,0.07909008740090293,0.07480239392910078
278,0.07867440741637452,0.0738855120994072
279,0.07828084828318645,0.07125570973727341
280,0.07876058434955686,0.07074621154202355
281,0.07773884588791381,0.07902969475850669
282,0.07877955210057376,0.07739855203738275
283,0.07779317411532204,0.0717603671519329
284,0.0789479647619162,0.07300748773348206
285,0.07906486433867314,0.07439673982034925
286,0.07964423545200029,0.0757851903081327
287,0.07837965353440532,0.07276630940010947
288,0.07753734398868868,0.07478600390865758
289,0.0786181108040319,0.07306392631657416
290,0.07815866378263486,0.07609072548472486
291,0.07948396948753021,0.070965147076442
292,0.07961414242275149,0.07863179256192379
293,0.07941782650492304,0.07567689087414103
294,0.07911877081340986,0.07207770247106038
295,0.07908475122677745,0.07253772689260705
296,0.0784825872066166,0.07185318485953802
297,0.07894070280955924,0.0726431485534391
298,0.07764745111598836,0.07310348260310831
299,0.07720707850702244,0.07149761993761287
300,0.07809485472124324,0.0761896186150967
301,0.07850387951193617,0.0746222159735381
302,0.07882649127134474,0.07357241321787153
303,0.0787585687408264,0.07137753598434309
304,0.07856606569340985,0.07482061252626383
305,0.0779002692783065,0.073385733467529
306,0.078081221857352,0.07178625401293758
307,0.07760609321302181,0.07216767920218922
308,0.07750508940224651,0.07330185635693655
309,0.07857714429068222,0.07327965209796868
310,0.07974085509568286,0.07046099170583202
311,0.07804198629163904,0.0720109296275268
312,0.07825529795166872,0.07286714648243285
313,0.07861790735367015,0.07231552777426667
314,0.07873614892077217,0.07465496838443278
315,0.0781294441624605,0.07380964397924854
316,0.07824441233129383,0.07325571475116972
317,0.07764776939715597,0.07602964511438781
318,0.07890736823193162,0.07152971900872651
319,0.07913076591113503,0.0804075720294742
320,0.07858749751815851,0.07749484647714985
321,0.07869318161484859,0.07566983352165249
322,0.07974632412308545,0.07094738623376601
323,0.07872160636425447,0.0745062282443385
324,0.07791447154491592,0.07176053019758655
325,0.07766711165616998,0.07186157338242655
326,0.07937723825170433,0.07089518255343402
327,0.07797066465443711,0.07238608647956658
328,0.07863107930907638,0.07224638978229339
329,0.07815799638450002,0.07244377834035048
330,0.07820981067178057,0.07309640074165391
331,0.07776357458115483,0.07340261695146658
332,0.07850738372459852,0.07173270826127504
333,0.07881322445972763,0.07307446368238062
334,0.07891639295646292,0.07344598431270101
335,0.07778118209416766,0.07878253121602757
336,0.07878818225750836,0.07260074171283723
337,0.07844918396762364,0.07572076707739997
338,0.0787172648128125,0.07478123861278158
339,0.078537489177944,0.0801155135543097
340,0.07865615066340725,0.07089895601569397
341,0.07798420179864948,0.07182528200013213
342,0.07767967139635447,0.07438347091035735
343,0.07814426112135617,0.07515551414210818
344,0.0784546437653138,0.07607402080867896
345,0.07834937520850124,0.07632119879912093
346,0.07884651804275757,0.07372820904872714
347,0.07881212203626971,0.07528745316252995
348,0.07854322897787806,0.07392560345002142
349,0.07897422409909453,0.0756764903767314
350,0.07867998751200993,0.07461262420605376
351,0.07794255528411119,0.07486421662622221
352,0.07799453556603246,0.07126379484992054
353,0.07850617011807698,0.07216227166082738
354,0.07803495682692461,0.07273167675090629
355,0.08006123968625994,0.07093317820014551
356,0.07767312642070558,0.07111983679216853
357,0.07878622590594764,0.07359076644213143
358,0.07834627611593928,0.07184553049377862
359,0.07808726655842782,0.07199338200560258
360,0.07770066100319592,0.07363214941403774
361,0.07865410165382539,0.0745659788371051
362,0.0779773209249978,0.07539936707982761
363,0.0786402976338724,0.07868026328082019
364,0.07826597523466171,0.07285365266521482
365,0.07909962712817664,0.07110205761006666
366,0.07839436824168798,0.07799173034395228
367,0.07870172906675942,0.07384948081972148
368,0.07777991522852186,0.07823414841647179
369,0.07911439474859984,0.0716883773671498
370,0.07919286744739171,0.07295910999879833
371,0.07834117507951273,0.07408396678539378
372,0.07772113504656274,0.07564122385714755
373,0.07822644978976422,0.07421593190399689
374,0.07887711889707776,0.07417440921406579
375,0.0787158349843575,0.07717019105020424
376,0.07833037064153495,0.07460322196006969
377,0.08018684416734953,0.0749069698312035
378,0.07798325646671656,0.07195289330881781
379,0.07784047057394317,0.07480508254331877
380,0.07853834174895544,0.07170116903814763
381,0.07813849008744292,0.07137415157170288
382,0.0790634832312886,0.0781708574836465
383,0.07833563603365346,0.07537690058821889
384,0.07881587680676777,0.07523535401390417
385,0.07886318893755695,0.07290780260880982
386,0.07897913357238467,0.07355708503205895
387,0.07899539011140601,0.07489782186271887
388,0.07776006592886509,0.07295241174254104
389,0.07804775482910074,0.07125719741216445
390,0.07747021427838872,0.07238992896997533
391,0.07819611909057352,0.07525972693566375
392,0.07888380450168975,0.07005482147669077
393,0.07836129125640143,0.07339722059503959
394,0.0781303120014952,0.07325228346573659
395,0.07816671895338975,0.07501823273211694
396,0.07768036099262625,0.07345307583332256
397,0.07840565068302773,0.07344589570034159
398,0.07829871119333326,0.07192465434242146
399,0.07830344796556535,0.07305003114086965
400,0.07847295255900574,0.07211854254459812
401,0.07777515172308164,0.07548318572783509
402,0.07840302190762029,0.07550264133891244
403,0.07839847651211093,0.0725831319121017
404,0.07838525969215972,0.07134950948034663
405,0.07865784159772772,0.07362651026717841
406,0.07812345111138636,0.07215687660054762
407,0.07826671958136693,0.07264287853787221
408,0.07858613605578964,0.0738933725616406
409,0.07833192433962066,0.07586061071365806
410,0.07794356289162362,0.07374099874378025
411,0.07936149647383331,0.07448525230391956
412,0.0791283213004792,0.07376107341169537
413,0.07847962354878792,0.07784179411073187
414,0.07903092587031156,0.07198603602922359
415,0.0781653991924991,0.07819462686910053
416,0.07841759694336031,0.07438464189931714
417,0.07841626924423097,0.07747087449089164
418,0.07866662984238185,0.0731670440409547
419,0.07797794462031751,0.07154916196348507
420,0.07799813344334965,0.07254812404187057
421,0.07765729774574073,0.07623867721078556
422,0.07871302522068696,0.0708630455345133
423,0.07862925314433199,0.07459635902966606
424,0.0793752926196739,0.07295550326518382
425,0.0776873555815845,0.07153899617197063
426,0.07809493719958802,0.07434189970705535
427,0.07825807295292259,0.07369971375335356
428,0.07842444923010657,0.07485527031588922
429,0.07851003155446319,0.0741719625412886
430,0.07838900547453745,0.07295016912382402
431,0.07852575058986942,0.07292071803920847
432,0.07802420656970017,0.07515908366511821
433,0.07899051925705804,0.07551960627467576
434,0.07852702513575745,0.0765453463228418
435,0.07813812468239696,0.0715812858608034
436,0.07819061522469747,0.0718722246188462
437,0.07862975907991465,0.07359750858913663
438,0.07911060326952664,0.07230468281973017
439,0.07942750472560513,0.07170676464473244
440,0.07821614504325762,0.07114106499788632
441,0.0787251828711113,0.07580781298397231
442,0.07784872338044538,0.07344090756684518
443,0.07721411155237018,0.07197055918831508
444,0.07871998010204734,0.07383821863267157
445,0.07813240450809153,0.07552249385806863
446,0.07789451095034734,0.07491319449520266
447,0.07769508042885027,0.07100930061593157
448,0.0785306152478278,0.07450600474806984
449,0.07853137869820345,0.07450701622028033
450,0.07789044875093848,0.07873434362221518
451,0.07873673979237711,0.0710919139648441
452,0.07842762178008417,0.07377091919684546
453,0.07893424665479301,0.07535923129160618
454,0.07790881345828501,0.07233396859874304
455,0.07782277448462237,0.07522609022907484
456,0.07914222666980315,0.07464921965421648
457,0.07849077859205948,0.07307062104090577
458,0.07814625470494155,0.07618026600943671
459,0.07855886980604897,0.07351748673101798
460,0.07834432644842623,0.07400122843229567
461,0.0778243440979595,0.07883343107496832
462,0.07790017718996546,0.07654021916018205
463,0.07872701333828265,0.0787175788641556
464,0.07842005136384785,0.07260115249180639
465,0.07827744263860346,0.0713229253465145
466,0.07769781573443674,0.07472350212404714
467,0.07844175144976334,0.07139109413155384
468,0.07829942167986384,0.07317885177305145
469,0.07871347243000594,0.07335585178407053
470,0.07729702000711278,0.06986599249972238
471,0.07854066768868434,0.0728654207001589
472,0.07790544664291882,0.0735661863664351
473,0.07760848668966892,0.07205928299826814
474,0.0782377189286262,0.07219390877479474
475,0.07797405836258152,0.07274087235959971
476,0.07849667016401875,0.07270830737038637
477,0.07713449990795888,0.07209152666079931
478,0.07809656569279366,0.07243010870634978
479,0.07807782169333022,0.07390937249312919
480,0.07862670800452523,0.07608312101005928
481,0.07841718064440642,0.08028490501489953
482,0.07851608662312035,0.07122164496068827
483,0.07793702813740774,0.07138959840786041
484,0.07727331838744272,0.0710625890355379
485,0.07741207546078033,0.0759992611210035
486,0.07788462498731571,0.07261557832348182
487,0.07850699386208224,0.07135506345311124
488,0.07847771067634594,0.07574836124831452
489,0.07868215517313171,0.07229418017798
490,0.07781669788593479,0.07322059176251933
491,0.07904690445018253,0.07708289271820297
492,0.07943008044768897,0.07391204536927974
493,0.07780352632572547,0.07398922345922038
494,0.07749086956204988,0.07241248912257289
495,0.07902356391225317,0.07704481349567621
496,0.07842238293177753,0.07302787938643933
497,0.07913281146386225,0.07204919398157265
498,0.07844943154284102,0.07379912378059493
499,0.07790828771811661,0.07417461408086164
500,0.07880447139505675,0.07402920352849454
501,0.07782651635977007,0.07202885531354318
502,0.07718090935676598,0.07127774418282586
503,0.07827576556898433,0.07058378438626182
504,0.07820658548902855,0.07308036923130547
505,0.0783617419628404,0.07663059223440248
506,0.07855144120138392,0.07477660558434976
507,0.07773522655662295,0.07133005813839759
508,0.07755972743869496,0.07331154636573424
509,0.0773180518269515,0.07302678393053506
510,0.07797388696343638,0.07919483529124334
511,0.0780539401472092,0.07849212364872973
512,0.07825698274776065,0.07560166904803997
513,0.07850473188311219,0.07281841732265498
514,0.0788783020972967,0.07686414787453649
515,0.07826684833801775,0.07189814989294159
516,0.07786242761541072,0.07209612718886799
517,0.07854749218041034,0.07278601870254975
518,0.07860684076441919,0.07461678540667961
519,0.07803844831722846,0.07497160613464322
520,0.0785564765023937,0.07134873719413108
521,0.07802940084874105,0.07690868788041531
522,0.07835622223540008,0.07332428301543312
523,0.07878527152027676,0.07215528055687118
524,0.07854425842263062,0.07400961168297693
525,0.07947410750325867,0.07268952291280587
526,0.07777308801813923,0.0733115470122972
527,0.07880542073413742,0.07496673798389485
528,0.07808528490233316,0.07282546148102939
529,0.07821256669314267,0.08031120801469899
530,0.07942941769349088,0.07215092161372727
531,0.07806724083987926,0.07479055299267282
532,0.07998676341865137,0.07505660070845101
533,0.0789334258307711,0.07289385523976394
534,0.07794043109763422,0.07505678782800011
535,0.07829601409359634,0.07356965034861732
536,0.07839230187177611,0.07209885032169237
537,0.07894992168763096,0.07354119961170384
538,0.0792638740857975,0.07605074573571084
539,0.07846601680965067,0.07264530469587153
540,0.0788680771641654,0.0742701906756183
541,0.07880432567625546,0.07698342850354756
542,0.07925190203774682,0.07207779397482517
543,0.07821306591783408,0.07159627029568029
544,0.07899546895841296,0.0767573471070061
545,0.07957973465430822,0.0762339033947809
546,0.07849810096182472,0.07561872520356379
547,0.07870452010256944,0.07286587933687205
548,0.07855424621523477,0.07143604031492808
549,0.07841177432655429,0.07782157282107068
550,0.07869230511130763,0.0753446400757737
551,0.07769461425753524,0.07311301530072192
552,0.07886220049485862,0.07590569978744541
553,0.07853007336722029,0.07251729256347342
554,0.07836658408562597,0.07327885142340954
555,0.07760490820533615,0.07121641946909685
556,0.07835135760428526,0.07314454095509124
557,0.07908444106280565,0.0726685966640735
558,0.07851828773728936,0.07777432131143672
559,0.08021773083852805,0.07418471301051532
560,0.07826167651809293,0.07224957344317862
561,0.07918643978557842,0.07856821101717802
562,0.07889239649602277,0.07513833189472278
563,0.07958227720520228,0.07412266180777298
564,0.07892170598099621,0.07475173167902478
565,0.07806527866326493,0.07628026536974787
566,0.0789262276467941,0.07252048662677105
567,0.07816800228159747,0.07767316467896865
568,0.07803469024198928,0.07279491899814532
569,0.07925322887191685,0.07136477696477449
570,0.07879655943472115,0.07546401293064556
