epoch,loss,val_loss
0,0.6756138462225596,0.6712776058514913
1,0.6712795621554056,0.6709821578264237
2,0.6709776695436902,0.670707170287768
3,0.6708745845821169,0.6705042682886123
4,0.67072044342094,0.6705767962932586
5,0.6706679940091239,0.6704501858949661
6,0.6707228244807986,0.6708099299669266
7,0.6705945792065726,0.6704130035638809
8,0.6705851060284509,0.6703962862094244
9,0.6705230827993817,0.6703902666568756
10,0.6705019312699636,0.6707102837959925
11,0.6704976210991541,0.6704299719731013
12,0.6704629750119315,0.6703210049072902
13,0.6704618419408799,0.6703574965000153
14,0.6704371517101924,0.6703095989624659
15,0.6704421401951048,0.6704647605419158
16,0.7847099862496059,0.7803140883445739
17,0.7803593001365662,0.780495338400205
18,0.780317307247056,0.7801904942194621
19,0.780287805557251,0.7803354941209157
20,0.7802872785329819,0.7804360619783401
21,0.780277927796046,0.7802084549665451
22,0.7802800091505051,0.7801917249361674
23,0.7802749634451336,0.7802855285803477
24,0.7802695721387863,0.7807779566049576
25,0.7802690523465474,0.7803401506344477
26,0.7802653242084715,0.7802440146605174
27,0.7802586905823814,0.7803350604375203
28,1.3819196420378155,1.0005592278639475
29,1.0001574220657348,1.0
30,1.0,1.0
31,1.0,1.0
32,1.0,1.0
33,1.0,1.0
34,1.0,1.0
