epoch,loss,val_loss
0,0.4858959115582337,0.3557474854895475
1,0.33714323611952385,0.32533987310004253
2,0.29744230840113567,0.2889087724182921
3,0.24952491961592574,0.18974631326235317
4,0.20357878886765723,0.1990971117365776
5,0.2061111991337722,0.1952555349515109
6,0.20637276329642967,0.19794693870797742
7,0.20877993295940042,0.2019020067248418
8,0.2081210890097366,0.19684199561022783
9,0.20741352872599403,0.20158159631302178
10,0.20688884590176032,0.1932550665090844
11,0.20725121470190602,0.20125062909922944
12,0.20512327615669768,0.1910700735191166
13,0.2032985622592694,0.1910590722443897
14,0.20481161169522852,0.19007042621995798
15,0.20262563480936688,0.19718814662386513
16,0.20352048221065866,0.19312821477289038
17,0.20279602247705641,0.19158872377070005
18,0.20371655849598236,0.19618766042437866
19,0.20418992337940023,0.1976678692535569
20,0.2025383365474003,0.1983211064425698
21,0.20407145745378194,0.19185595906853967
22,0.2022094924548705,0.19102680096999475
23,0.20405145090899532,0.1883882694701692
24,0.20198442417087317,0.19602424505756622
25,0.2020805895006399,0.19232160529757744
26,0.2033644561067498,0.1926549453732451
27,0.20018117305180663,0.194006551138676
28,0.20156894601565348,0.1980453842264409
29,0.20190341168160053,0.1962341767979751
30,0.20217160437348558,0.19537091945257984
31,0.2010946164520575,0.18857038361892792
32,0.20157323491940793,0.1906467283511684
33,0.2009956060921411,0.19698831587667304
34,0.20131667959895297,0.19228372312568592
35,0.20223721249806012,0.20679740845818687
36,0.20221527643185602,0.18926433035733733
37,0.2019406743377471,0.18824564109028402
38,0.20243240554061673,0.1918623494067428
39,0.202021507750615,0.20004699014834243
40,0.2028507618390149,0.18672949789939425
41,0.20285341435308166,0.19313439851308004
42,0.20101338027834034,0.1892571483239447
43,0.20038730988772607,0.19151978309523837
44,0.2019865858831627,0.20178334411333368
45,0.20217333954749248,0.1956901133592208
46,0.2004258937006287,0.18592953571969673
47,0.1999738821036535,0.18924118096230963
48,0.19954790805486605,0.19216131889665408
49,0.1979439625497147,0.18309729172268827
50,0.19979562542384105,0.18895993582958723
51,0.2000786395873233,0.19119706927569824
52,0.20070019844558545,0.19150000272827813
53,0.20011291144083174,0.18630448110637293
54,0.19994046176381833,0.18449345238307388
55,0.19935958339177293,0.18622572421544176
56,0.1981024160396585,0.20153972751854496
57,0.19906111667044551,0.19153363428653397
58,0.19916761708292988,0.19677576671648297
59,0.19931114741188702,0.19186789098302234
60,0.1980773351782317,0.1855101679653437
61,0.19834117352771607,0.19459888511862294
62,0.19859352970333266,0.2060310982608834
63,0.19935988264980078,0.18567117922980902
64,0.19907634192294746,0.18843960021195716
65,0.19882719052300823,0.20523714433089563
66,0.2000018187744127,0.19082564426116216
67,0.1981074469651672,0.1934892956744532
68,0.19984236570765632,0.1879163718354093
69,0.19984339743112925,0.18522234642931049
70,0.20034409901373285,0.1939760467093453
71,0.20087510229851172,0.18924303480936858
72,0.200087787379161,0.19718683866930511
73,0.20121758101318626,0.19246066607601353
74,0.19958454677111823,0.19441257417201996
75,0.20149934491078506,0.18331885279820204
76,0.20123401766805482,0.19184371267066966
77,0.20048073441195813,0.18655201344352762
78,0.2010913205156334,0.19328350175567885
79,0.20204411129101074,0.19311438184246627
80,0.2014396995234432,0.18735477920479632
81,0.20070272836210826,0.19620424974332085
82,0.20101601850566528,0.18852431170600079
83,0.1995905738493936,0.1890374775688917
84,0.1988012130865104,0.19646054920827288
85,0.19900234796411043,0.18941130019597474
86,0.19952643101362347,0.18293050613136477
87,0.19874335397735798,0.19104789969694874
88,0.1998545470072614,0.19041290212141626
89,0.20063416148014696,0.19357132690521342
90,0.19865634551851916,0.19697674673839208
91,0.19911851587178137,0.19456155293614324
92,0.19882885490158636,0.19010508244151714
93,0.19918296701484342,0.19181132993365532
94,0.19919184355543937,0.18689416654691982
95,0.19764040226192833,0.19151329089013522
96,0.19896245673835708,0.18841166915152968
97,0.196277190193689,0.18728817716567187
98,0.19188141694562352,0.1886581502498308
99,0.19218995242571238,0.18148095827226415
100,0.19431565154352792,0.1875867521434128
101,0.19344992395803584,0.18720105453564304
102,0.19149122989063172,0.18474047620752818
103,0.1889400862938791,0.17462914958535802
104,0.184810492404706,0.1758583543485292
105,0.1884627546533477,0.1932877058409523
106,0.1915074588956119,0.1770150212258318
107,0.1937524517230075,0.18483268227262026
108,0.1955673038553867,0.18716267494534633
109,0.19675155578134917,0.18543835250178875
110,0.1968836594668267,0.18462562573120445
111,0.1975045673089852,0.18363689210051362
112,0.19614932253610812,0.18323948242175125
113,0.19702675542514547,0.19245139749332452
114,0.19714015534369825,0.1901978373116627
115,0.19961694928648188,0.199984692454048
116,0.19837667061697492,0.19849362406224036
117,0.1974064841914215,0.19202897219713974
118,0.19663744503922992,0.18424213892158608
119,0.19639196632813224,0.18955061101903783
120,0.19761837008383104,0.19264974964167755
121,0.1984936407237076,0.1898722738535155
122,0.19730245381641426,0.1848863726791481
123,0.19761309904561605,0.1877290968694826
124,0.197862302915777,0.1855441836907626
125,0.197962334655446,0.18747450976911254
126,0.19804960993932094,0.18418918528260975
127,0.19734770243314861,0.19520863581264492
128,0.19682943626486654,0.1843779093955265
129,0.19629645887449132,0.18191496267709323
130,0.19696763847425902,0.1950186600021879
131,0.1973058105028086,0.18649397291309544
132,0.19829315064643457,0.1991000291011436
133,0.19864033889159669,0.19423785526532036
134,0.1976574657379006,0.19035304485784732
135,0.1980531869696273,0.1942357360736587
136,0.19977225716396557,0.19111266401078966
137,0.19978316521363032,0.18797773114327773
138,0.19871205782250848,0.1867323548616864
139,0.1974295762906655,0.18740448181646585
140,0.19881536981002915,0.18986924118320825
141,0.19750770271492538,0.19173448091102438
142,0.19875306237617238,0.19665927604892247
143,0.19914346441232844,0.1877638369992025
144,0.1976556690980951,0.18881022667894495
145,0.19822859158031075,0.18848579202303534
146,0.19871016978334674,0.19152633982369885
147,0.19789472695371454,0.1854311013647143
148,0.197136572670278,0.20038678199173662
149,0.1974300428497209,0.19208763391142053
150,0.19846465782201986,0.18865977172095508
151,0.19685613288222742,0.19198228070770737
152,0.19705041423976852,0.1856491940348301
153,0.19797077575166097,0.19434602278234123
154,0.19703339098142184,0.18896834283994643
155,0.19719216860443042,0.18577604797054673
156,0.1969691973099048,0.19068848816051004
157,0.19756528651050992,0.18917225191289588
158,0.19839646697068233,0.1865921150545521
159,0.19674636650863317,0.19167164805596762
160,0.19800562950804101,0.18554257912695746
161,0.19759662083094362,0.18674215024211788
162,0.19747419932706534,0.19576975547339215
163,0.1962974689799466,0.18890229625278435
164,0.19545803553133226,0.18222131585552745
165,0.19495796086527617,0.18273400841016452
166,0.19292568493547965,0.18381281343303071
167,0.19203589671105742,0.18168914596046362
168,0.19209252206610145,0.1853353017268873
169,0.19271937354480484,0.18850290071935258
170,0.1946327638587921,0.1849486167751863
171,0.19316368529780376,0.18511576772896332
172,0.19226808639599668,0.19276838622147344
173,0.1899039784939982,0.18402465738035853
174,0.1894165938011735,0.17604001745013617
175,0.1879148627038571,0.18562944975454249
176,0.1903563958046148,0.1799304868908114
177,0.19026420717004588,0.18121499951931874
178,0.19044914629289492,0.18093940459753766
179,0.18750736483031985,0.17020641112607954
180,0.1830753354225949,0.18126714153446422
181,0.1831198517110846,0.17735840725831065
182,0.18345686677005216,0.17343956444772007
183,0.18252883683606755,0.1706582521604312
184,0.1837736897832685,0.17919684535637195
185,0.18278627663111094,0.17015834080186784
186,0.18264545241983726,0.1735734462568843
187,0.1813637693945745,0.17234434745752608
188,0.18054911478148927,0.17627861669222128
189,0.18048772140681218,0.17228456946136694
190,0.17865528453221982,0.16762356411753296
191,0.18109056762784267,0.16769967333920488
192,0.17990852411004235,0.1641787690958741
193,0.18012692538307035,0.17266407275431928
194,0.17961189908991823,0.16861155675082118
195,0.1801335720764436,0.1726515323576266
196,0.17909711077391768,0.17296583092464052
197,0.17987667721471756,0.17037114163819891
198,0.17903162497845146,0.17374818337611425
199,0.1800896765424119,0.16991549359282535
200,0.1800025557522014,0.16794247627379152
201,0.18084170112760664,0.17269572166050728
202,0.183468624060635,0.1830130897685946
203,0.18270035027216872,0.16998326978423398
204,0.18111996622897797,0.17118376466866345
205,0.17948273009806276,0.17390737501905879
206,0.18205181513432028,0.1655895193466208
207,0.18094082934866915,0.17506472983934585
208,0.18375585199571592,0.17334130305467538
209,0.1839930473970737,0.18597236269630268
210,0.18215011761153194,0.1676170195347878
211,0.18278706546804255,0.17367121307760935
212,0.18207407472513504,0.16996683596066123
213,0.18320340433533044,0.171932360128668
214,0.1818276714202497,0.17283906722977602
215,0.1831599243575807,0.17239759607423347
216,0.18215819533833796,0.16924759939566725
217,0.18192718574722067,0.16781854061508025
218,0.18354019018007908,0.16984902676391292
219,0.18223621274491517,0.173818632646102
220,0.17971988811528233,0.17239769810428487
221,0.18229903006930653,0.1747080026751887
222,0.18285882400216055,0.17793082679710248
223,0.18625337254103896,0.1748350727683823
224,0.18643134502504616,0.17690644593907873
225,0.18695958133479706,0.17740504922222916
226,0.18605509110457236,0.17837338328409852
227,0.18579184013404687,0.17013092594038445
228,0.1825682890651415,0.16996487652443332
229,0.17849689165802837,0.17419214088648002
230,0.17753260673357069,0.16853243005005017
231,0.17768872168371447,0.17049114870183948
232,0.1773729118480503,0.1750000734954758
233,0.17857426279683034,0.17758515443341671
234,0.17762175664079008,0.17426059929848878
235,0.17917979366665748,0.17643877912225128
236,0.1789800347424775,0.16233582684085898
237,0.17825947352368132,0.16501615567484815
238,0.17744619110293441,0.16584111371252078
239,0.17899009338419755,0.1706365069913748
240,0.1796546965849409,0.17412650958609988
241,0.17827566822855065,0.17174960527831912
242,0.17676703301403787,0.17566885613660357
243,0.17761226794760737,0.16957365436855604
244,0.17856410142776963,0.17446986538118592
245,0.17903766487602046,0.17145874823193577
246,0.17831463008832701,0.17304168410738213
247,0.17960809194464222,0.17014396400323073
248,0.18073011545823803,0.1700339988417869
249,0.1788829452364897,0.176743542341952
250,0.181069451220948,0.17669743369578927
251,0.18016934761101958,0.17208861646039256
252,0.18023818878052805,0.1726435866306588
253,0.18399553968488358,0.18215972681840262
254,0.18737855096093362,0.17834018245762379
255,0.18716293952768567,0.18119492961300743
256,0.18529609400477765,0.16734909942405357
257,0.17927249448241186,0.17158118286755447
258,0.18143148931433814,0.1703095072449849
259,0.18051613446733683,0.17322795436281743
260,0.18090910914304068,0.17934975581544255
261,0.1823528652803434,0.17301017668367108
262,0.18458217562581178,0.17751081431675808
263,0.1849399220595081,0.17836658939392896
264,0.18635051642015898,0.16941128297733854
265,0.18403813788731446,0.17225737957962142
266,0.1855749695109214,0.17282428176105263
267,0.18503192108902958,0.17588544022427857
268,0.18613369238553187,0.17922570455490044
269,0.1850891939705138,0.17361724062460956
270,0.18271374476967667,0.17533040079322174
271,0.17956620979132512,0.1689101556030503
272,0.17930315437318803,0.16801875586178083
273,0.18089060941107088,0.17515265900529892
274,0.17883942138442427,0.16863195167889172
275,0.1800014476736991,0.16692475534051004
276,0.17953628175753988,0.17208825911048556
277,0.1789356871449155,0.16350998148164997
278,0.1763035692364049,0.16593280663020418
279,0.1756686995013224,0.16855690137023183
280,0.17725604103268194,0.16326352469290745
281,0.17491571257432237,0.17242949094022084
282,0.17625398692295396,0.16653384267075316
283,0.17407939510287238,0.16547710036999408
284,0.17717370971309557,0.17120257847838932
285,0.18007277138382077,0.17522897918777358
286,0.18198249163367064,0.1855468224048228
287,0.1834289423160977,0.1738455853963517
288,0.18502034402017692,0.16854352896182592
289,0.18406849343768114,0.1782013490034716
290,0.18531094184868616,0.17022265351263371
291,0.18508487435772097,0.17347171644031373
292,0.18497111570773075,0.18087223338964792
293,0.18701063730627943,0.1812996966318686
294,0.1837947712159806,0.16768880430170896
295,0.17298298807825158,0.16155787989412587
296,0.17272419517962717,0.16026841205547035
297,0.17167994286044777,0.16364160432674396
298,0.17310563057625264,0.1630886808001502
299,0.1711222063824594,0.16090056836750097
300,0.17050657830565716,0.16041199890753166
301,0.17038009628904066,0.16472763478127517
302,0.17004445967696208,0.17221787685508758
303,0.1711293575976542,0.16376851294839276
304,0.1723499822290875,0.1648549897609836
305,0.17170229626057432,0.16192998990283589
306,0.17175644556816527,0.16088378732753592
307,0.17077729235395037,0.15582441753690454
308,0.1695459848784322,0.162778312816237
309,0.16814683579367767,0.15533810979645135
310,0.16829202791230025,0.16233524200351665
311,0.16977142541109322,0.1653762300954248
312,0.17212589716820645,0.1638632946906782
313,0.17076737965771063,0.15990198543181966
314,0.1712705649680095,0.1612162167887715
315,0.16921611671582806,0.15932168490090992
316,0.16698998543586704,0.15829646226021687
317,0.1684873796659436,0.15397327118353057
318,0.16656525738781885,0.16650953869556664
319,0.16898902846847752,0.15937336475648053
320,0.16874152939435574,0.15983680615749962
321,0.16665950601247906,0.15403234100593172
322,0.16711829617929708,0.15735183554094978
323,0.16668498921122332,0.1605156842809524
324,0.16709428996420364,0.16023697476269072
325,0.1666744051544403,0.15740854000643995
326,0.16661980154039002,0.16260124552037208
327,0.16617346290138074,0.1691948472003287
328,0.1661059052420197,0.1643910581323062
329,0.16743852043624302,0.16518105364677294
330,0.1662256996735656,0.16903380290676884
331,0.16636812326918132,0.1601796589991182
332,0.16569699169851668,0.1538098506321292
333,0.16651780754506731,0.1538921940379866
334,0.16648165425889677,0.15647158012192905
335,0.1656035917689554,0.1659016066320718
336,0.16544831140910843,0.15802815285815713
337,0.16753887042725343,0.1735428471393152
338,0.16589296457646274,0.15635855201652935
339,0.16612248955439146,0.1590071496012147
340,0.16532214742311963,0.15865738813169392
341,0.16572879056175582,0.16138784436317158
342,0.16658004298150014,0.15564360131795874
343,0.16489632383549663,0.16010759053004048
344,0.16599928526233157,0.15372690620068505
345,0.1666654395856697,0.16723672121110625
346,0.16574463630028016,0.15381770500639833
347,0.16618800512235388,0.16027962454479106
348,0.16672712294839687,0.15531134044046047
349,0.16650097086142787,0.1568139495157364
350,0.1659103891520714,0.15871257333134792
351,0.16656043495926215,0.16446277899221975
352,0.16706542445837355,0.1603782146153949
353,0.16626328995244039,0.1545044780865203
354,0.1676938428377227,0.16588472489747977
355,0.16782102407552033,0.15290869761557474
356,0.1663421519977556,0.162956277879872
357,0.16692992043886498,0.1580052204061502
358,0.16572362423134002,0.15910885053394486
359,0.16642187133109312,0.15363754464399496
360,0.1655880631782037,0.15752421800479208
361,0.16573524860750208,0.15528499464967438
362,0.16650305042346064,0.15563725876498782
363,0.16661657454420606,0.15627228886807534
364,0.16608243686459465,0.15834646348728945
365,0.1658084762929152,0.15920854387057087
366,0.16686989805453104,0.15345484851002208
367,0.16672734062286546,0.15950795492068212
368,0.16755353314898985,0.15697390291860988
369,0.16610685467505285,0.15816022882907255
370,0.1659109323047656,0.15520349002933465
371,0.16588687497057658,0.16689314375973677
372,0.16684827848588876,0.15789036499298595
373,0.16521232602021713,0.16242651786392331
374,0.16720243593494447,0.15887223862093441
375,0.16675816636213406,0.1545021227301859
376,0.16714623035956994,0.1676209053539785
377,0.16773931830047703,0.16337017901090714
378,0.1677309085933374,0.16256774622351777
379,0.16648992616310418,0.15589141810051524
380,0.16666161562439152,0.15678036556143346
381,0.1664312548094315,0.15714650641634323
382,0.1658175487975009,0.16505727153769956
383,0.1681623044695923,0.16467425328681648
384,0.16822250377688053,0.1599056954402703
385,0.1671290362329842,0.15960262418518392
386,0.16631791806870025,0.15451276492680946
387,0.16889829396175518,0.15989536016768588
388,0.16671988274380148,0.1640721932597404
389,0.16575722087971012,0.156118359939412
390,0.17001936280484004,0.16162512267109638
391,0.16980049751991266,0.16026330692127094
392,0.1673176764600796,0.15765461033181455
393,0.1678704413010465,0.16352167487482858
394,0.16902365076770964,0.15953396114506377
395,0.16799225662950518,0.15984572378339945
396,0.16616089458318592,0.1585210590273601
397,0.166671861198733,0.16984667234418843
398,0.1698339639710273,0.16005039648949762
399,0.1677567954417512,0.16374867371399038
400,0.16667170587590066,0.15564347926258365
401,0.1664901549418608,0.15646698519841307
402,0.1662251392157198,0.1541683020165367
403,0.1668378170773542,0.16550214444827183
404,0.16780631029434068,0.1626110571434318
405,0.1696855980303404,0.16505306914436652
406,0.16955016629756978,0.15898878621020554
407,0.16937825787034008,0.15865802625911757
408,0.169158899200688,0.1598745716942681
409,0.16825705343146052,0.16124185844832867
410,0.16750944451129943,0.16177495151443977
411,0.1689182753749997,0.16003372271855673
412,0.16825412875943607,0.16027599250458163
413,0.16668664860882884,0.16492160706987055
414,0.1677412924120386,0.1566474399765816
415,0.16772800926163828,0.15939121279451582
416,0.16696757857230685,0.15712492654986818
417,0.16681782245111046,0.1631302409484342
418,0.16679072992695723,0.15263694669184216
419,0.1670310137818774,0.16703180656960992
420,0.16605460325821197,0.16174621994864719
421,0.1687341009179433,0.15994890501295175
422,0.17096008133110377,0.1596263756693038
423,0.16920823110543412,0.16020470655795915
424,0.16924625209229197,0.15515781242917054
425,0.16653543324161282,0.16169364986652682
426,0.16620206485112443,0.1575567806796726
427,0.16679116791849427,0.16036736379042932
428,0.16566601984972376,0.15816678033064557
429,0.16567812408145377,0.15578419849917063
430,0.16734074968233215,0.15816202489032266
431,0.16506385546120955,0.157979957034263
432,0.16565719699029258,0.15683803022125342
433,0.16705420846231372,0.1641939023489983
434,0.16693183844737572,0.15507883280032259
435,0.16626569554150056,0.15959979820957246
436,0.16718550584166406,0.15129144384623153
437,0.16610241606771897,0.15671490175107197
438,0.16656349698086087,0.1640966555159554
439,0.16933231679402036,0.16791648064216558
440,0.16778197518890622,0.16058124737196208
441,0.16933636255174564,0.16035908367560342
442,0.16881305940323968,0.16590078694735325
443,0.1696724442539929,0.16404823251884348
444,0.16744290997950528,0.1541225204043338
445,0.16658189701284762,0.16668770939039199
446,0.16757847369910242,0.15803961061841573
447,0.16738805173038004,0.15690620807932337
448,0.166480597057898,0.16053662032783272
449,0.1667139406761138,0.1609291390780985
450,0.16774810902517828,0.15726319253928084
451,0.169269063759795,0.16752336157934508
452,0.16992422041771793,0.16318578347382465
453,0.16859103994872018,0.17080953439270105
454,0.16726501534780186,0.15933420879514065
455,0.1696989719895385,0.16692368352645215
456,0.17080168809601554,0.1767832242006803
457,0.16931432931780147,0.1619968185532122
458,0.17031444315079025,0.1691851692768199
459,0.17026464113767287,0.16321501956417225
460,0.16859127192186107,0.1650900659479944
461,0.17104291265086236,0.16545714998718983
462,0.1696960044572886,0.1634440549255771
463,0.169096633022408,0.15757805568265026
464,0.16909755261136208,0.15592807948903542
465,0.1676768911204594,0.15856672183513063
466,0.1677574358456988,0.1547228848653795
467,0.16844742263169935,0.15549002307416557
468,0.16709050555840982,0.1680787972145127
469,0.16809906627687576,0.1592298163779364
470,0.16803470815273167,0.1589309882254786
471,0.1669042127801954,0.17217421275469122
472,0.16700932967533963,0.15739048466340178
473,0.16720177865534233,0.16300226186023722
474,0.1689817318387085,0.16845662316605026
475,0.16937901351669485,0.16997243845888202
476,0.17045633005108043,0.1711319600264425
477,0.16940997499790642,0.16024931911182713
478,0.16792221451468997,0.1630185725165883
479,0.16808778140321076,0.16600267270040628
480,0.16948748111510106,0.16277701591367366
481,0.16855182321525938,0.15809203350776013
482,0.16891571814962344,0.1607389483368213
483,0.1701330158104889,0.1599772568408397
484,0.1694289473138207,0.16247593861040022
485,0.16833716083625205,0.16021449223390363
486,0.16941710911076768,0.16418684279396586
487,0.1689116698477247,0.15541353300878505
488,0.16801653991492868,0.15744721831486463
489,0.1683100803618769,0.163779921497355
490,0.16680999260076626,0.15538096462360554
491,0.16610310804113756,0.15748658944873045
492,0.16788305699515094,0.1604438220231589
493,0.16829901976023223,0.16602947852375638
494,0.1685259017088205,0.16698536705845077
495,0.16954561082528438,0.15931451163539437
496,0.16848403554233768,0.15689332111280135
497,0.16885758915526852,0.1541359644664175
498,0.1679004980527085,0.17021790154078872
499,0.17105760550599178,0.16252173916025076
500,0.17184108286928998,0.16411656402323369
501,0.16922664676335833,0.15947522023588492
502,0.1693649238066448,0.16097038908161387
503,0.16721890453365537,0.16604865403409325
504,0.16723419051823185,0.16419661543592629
505,0.16723662550994356,0.1711612635043609
506,0.16962008035664944,0.16382410154290442
507,0.1691456578844924,0.15570501457455674
508,0.1678368392988765,0.16064321087176298
509,0.16828073647090966,0.16081009770155147
510,0.17053934253507658,0.16323080133202592
511,0.16876367149685173,0.15782139386863894
512,0.16886466833426533,0.16384077628066843
513,0.16993221852352755,0.16436838933296158
514,0.1684942129906938,0.16245998212552515
515,0.16734528311605068,0.1599153523414191
516,0.16804630463544706,0.16826910787206883
517,0.16741937586218955,0.16135031226584318
518,0.17011277666919417,0.15854710072206465
519,0.1699429785935663,0.16245049780834428
520,0.170552118282446,0.16132981458864654
521,0.16774847942461865,0.16613372562140444
522,0.17052463563778,0.16191450687123815
523,0.16864380230299467,0.16394744815859288
524,0.17081085522118522,0.16612224802918676
525,0.1688993998838244,0.16335241387795357
526,0.1688295291592065,0.16236695735462295
527,0.16889385108331187,0.16644145229292032
528,0.16920975075544023,0.1577359764426584
529,0.1690810734601475,0.15862423399069014
530,0.16966599333372184,0.15949894112005333
531,0.17013923228502847,0.1625003083899847
532,0.1713634994599798,0.16061735999168464
533,0.16868209760126063,0.16282218654805436
534,0.16916894809521132,0.16203891992303093
535,0.1707087331731096,0.161387835552996
536,0.17053067356682092,0.16267098612110498
