epoch,loss,val_loss
0,0.560257147219446,0.5576884480317433
1,0.5577192027966181,0.5573755952914556
2,0.5575040973822276,0.5574203315973282
3,0.557401881787512,0.557501626610756
4,0.5573330995109346,0.5572014717260997
5,0.557286250617769,0.5571313034296036
6,0.5572446280320486,0.5571293021440507
7,0.5572267265452279,0.5571233027378718
8,0.557192815290557,0.5571242499351502
9,0.5571833896769418,0.5570860267877579
10,0.5571638922161526,0.5570749603907267
11,0.557167141781913,0.557052247563998
12,0.5571556635167864,0.5570383811394374
13,0.5571427457597521,0.5571189126968383
14,0.5571459316942426,0.5570359986623128
15,0.5571379383934869,0.5573510574499766
16,0.5571343694660399,0.5570645702282587
17,0.5571215555005603,0.5570352636575698
18,0.5571189810964796,0.5572821562290191
19,0.557123387561904,0.5570235768556595
20,0.5571092950900396,0.5571084613800049
21,0.5571054105758667,0.5570604908863703
22,0.5571144992378023,0.5570209360122681
23,0.5571039366059833,0.5573447078466416
24,0.5571075547801124,0.5572527126073837
25,0.5571043108304342,0.5571856019894282
26,0.5570992528862423,0.5572211167812348
27,0.5571038219398923,0.5574189766248068
28,0.5570879385868708,0.5569951009353001
29,0.5570918276839786,0.556985747774442
30,0.5570968367391163,0.5574112926721573
31,0.557098992480172,0.5571015459299088
32,0.5570900512271457,0.5570329134066899
33,0.5570936636659835,0.5571302397251129
34,0.5570906774997711,0.5571622738838196
35,0.5570855896340476,0.5570173749923706
36,0.5570851903359095,0.5571107105414073
37,0.5570852045483059,0.5570036498308182
38,0.5570856487618552,0.5569946247339249
39,0.5570791177749633,0.5572556163867315
40,0.5570795161061817,0.5570609591801962
41,0.5570942240026262,0.5569859813849132
42,0.5570714926454756,0.5570844558080037
43,0.5570789054632187,0.5570292837619781
44,0.5570778741836547,0.5570006572405497
45,0.5570748047033945,0.5569877460797628
46,0.5570721041626401,0.5572391319274902
47,0.5570722818242179,0.5571746235291163
48,0.5570720494588216,0.5570106830596924
49,0.5570728303723865,0.5572007062832515
