epoch,loss,val_loss
0,0.6842397935787836,0.5555879269838333
1,0.5556387474007076,0.5555818662643432
2,0.5556355901029375,0.555720453898112
3,0.5556209956010183,0.5556010666688284
4,0.46151970975266565,0.44451626898845037
5,0.44451760158273906,0.4446419288714727
6,0.444511138982243,0.44448353664080303
7,0.4445077564650112,0.44447967288891477
8,0.44450771564245223,0.4444912808338801
9,0.44450636633899476,0.4445174469749133
10,0.44450498696830537,0.44448264624675116
11,0.44450296736425826,0.44448766074577967
12,0.4445021285944515,0.44449667378266655
13,0.44450080579519274,0.4444840414325396
14,0.4445001843108071,0.444487095673879
15,0.44449989416864183,0.4446144392490387
16,0.44450171500444413,0.44448742308219275
17,0.4445003614359432,0.44449202076594035
18,0.4445008173187574,0.4445028467774391
19,0.44449938704570136,0.44454158075650535
20,0.44449987780385547,0.44457148522138595
21,0.444498982793755,0.44451372408866885
22,0.44449921080801225,0.4445190127690633
23,0.4444980705976486,0.4444888828794161
24,0.4444959967003928,0.4444994096159935
25,0.44449724956353504,0.4444896874626478
26,0.44449650977055233,0.4444831538995107
27,0.44449698176648883,0.4444819576740265
