epoch,loss,val_loss
0,0.41379296411570315,0.2890615152766974
1,0.2886458680474406,0.2879432311609399
2,0.28849446827130354,0.2924811274589472
3,0.28808577465925284,0.29023998472383855
4,0.28875931445881425,0.2878842692537014
5,0.2882226959025736,0.29090458159382737
6,0.28874052742974077,0.28798904210540754
7,0.28829263329362986,0.2883153539900716
8,0.28157347247754927,0.27315939452437404
9,0.27413845342173754,0.27266576572158907
10,0.2743987591801692,0.2733304829652044
11,0.27420437952978527,0.2726035536088243
12,0.25767855840525944,0.25593492572196563
13,0.25752970147475923,0.25449268417557863
14,0.2524188827398679,0.2523861362906827
15,0.25159472409936545,0.25003944772524256
16,0.25089280527653834,0.24941303942649498
17,0.25100777143959424,0.2561757682036864
18,0.251328344932563,0.2523566719906106
19,0.25095716692942033,0.2518184375085507
20,0.2510418702039025,0.25150083969828646
21,0.2511723236226254,0.25106518920849136
22,0.2513197163443009,0.25043365031175
23,0.25173265023602187,0.2505465446256142
24,0.250477972660038,0.24910592588271885
25,0.2464852021347514,0.24674753927064863
26,0.24505505551227466,0.24589938260526664
27,0.24433597320799444,0.24438600273892555
28,0.2434486160449368,0.24282861943779352
29,0.24353366149820202,0.2430766113955107
30,0.24318298178730155,0.24557266933012875
31,0.24357160155793173,0.24253016834947755
32,0.24363622885885283,0.24338841324211954
33,0.2433935602506002,0.242417060609116
34,0.24371655870208161,0.24344460467419102
35,0.24324400305485935,0.24504109570240543
36,0.24366646281463636,0.2439042332022794
37,0.24325345089729075,0.2428373801679995
38,0.2438465459324378,0.24196762788596826
39,0.2431762276126517,0.24301103798300616
40,0.2435763453979858,0.24582764431069756
41,0.24376004867607073,0.24441116267334503
42,0.24351748202940066,0.2422010612798283
43,0.24317147745360002,0.242505588772359
44,0.24330666408145266,0.24379914169859115
45,0.24351098577824715,0.2437323244919246
46,0.24358659815326106,0.2429264130654444
47,0.24332529722119597,0.2450906823447302
48,0.24338037697531337,0.24223793859592835
49,0.24348178152128946,0.24252481717431085
50,0.24347834686319128,0.2464567740060442
51,0.24357119615343834,0.24646038555590863
52,0.24292964907549172,0.24287867736609414
53,0.2428848512953134,0.24213513125089933
54,0.24316204834780056,0.24160592654321544
55,0.24295451953042324,0.24668494651377812
56,0.24335150088337684,0.24384396439146225
57,0.24336057873390657,0.24311649514731218
58,0.2428702343162968,0.24307260386522303
59,0.24311738016960813,0.24397131106753753
60,0.24306121534652275,0.2417530378513479
61,0.24320720405958826,0.24235208466613772
62,0.24254211164016326,0.2425041023139043
63,0.24312877166661903,0.24177234334652126
64,0.24311085055462367,0.2421208067658198
65,0.24305767368831985,0.24356347464771844
66,0.24294654113783254,0.24322503446450644
67,0.24263617631009252,0.24361799392722777
68,0.24265904429790786,0.2418656380819164
69,0.24287174369910544,0.2435111708309863
70,0.24271188959848586,0.24191514263260336
71,0.24282477962837326,0.24152710833884453
72,0.24287495847871834,0.24400821703338396
73,0.24259599294069764,0.24217482342810356
74,0.24273060349156436,0.2418954792743418
75,0.24271429440290998,0.24128006611551558
76,0.24284207113355183,0.24458146600998004
77,0.24205990338759076,0.2434880391363093
78,0.24159012917729972,0.24231085411751468
79,0.24172306659934428,0.2411450690515604
80,0.24160364952137905,0.24158667680684656
81,0.24152111199548204,0.24117266575511084
82,0.24161981810911667,0.2407105777592008
83,0.24133546901144665,0.24080419888530272
84,0.2414422922318788,0.240627910339089
85,0.2413678852131041,0.24086133871101073
86,0.24123083149119437,0.24102360461768713
87,0.24128205367891814,0.24000273155667412
88,0.24126597449814768,0.24366660498453108
89,0.2414010762930107,0.24133797067540222
90,0.2411057974854343,0.24084936951499525
91,0.24130191095917822,0.24196132447132465
92,0.24118759602212983,0.24147979888091806
93,0.24109523252045795,0.2423555844043688
94,0.24143578134757057,0.24033896352187234
95,0.24110785942021415,0.24139100873009275
96,0.24115207450066825,0.24013501767954115
97,0.24113559292303285,0.24094879192071536
98,0.2407405026298728,0.24103996065910538
99,0.24128362871140693,0.2404359927211301
100,0.2414534746897783,0.24002828903572712
101,0.2409725291766137,0.2414610437525476
102,0.24083762387815807,0.24098181486976553
103,0.24090587501998523,0.24112454064972494
104,0.24095435438158033,0.2402464190193679
105,0.24082565532742645,0.2396132594596333
106,0.2407319507986712,0.2415024281583062
107,0.24114034276047674,0.2411858374054449
108,0.24114137126220692,0.241286228739472
109,0.24048442959928398,0.23990824655133527
110,0.24070995994847266,0.24145697605308813
111,0.2409062374243252,0.2408824759434788
112,0.24067921594654818,0.23951530957560702
113,0.24097212935261111,0.2402465942814864
114,0.24054145369884208,0.24082826023837572
115,0.24088045363303281,0.24021629331708425
116,0.24086239428924236,0.24021793073947353
117,0.24053419571962478,0.24195551608807475
118,0.24080287255972124,0.24008632807065486
119,0.24069639433511822,0.2419700046035372
120,0.24083326558629387,0.2406193636234294
121,0.24104336907061266,0.24251748476803725
122,0.24084124487819528,0.2429344189289337
123,0.24052918054979386,0.24065819540264669
124,0.2410121107880446,0.24043059826555832
125,0.2406152019100033,0.23998634334897656
126,0.2408490353327194,0.24243416636594187
127,0.24102276759586935,0.24033189500845975
128,0.24082617445005405,0.24053690531353547
129,0.24046688072448916,0.240446764084892
130,0.24072707484332587,0.24074722573619803
131,0.2409109222791273,0.2397484632228055
132,0.2405493598785713,0.2414451803903271
133,0.2405603596632429,0.24102256003099817
134,0.24088370339047138,0.2402326857352125
135,0.24055737192086654,0.2404377275949966
136,0.240488483006958,0.23941288804951483
137,0.2406148617918924,0.23987178524460676
138,0.24051885206183846,0.24119384132837252
139,0.2408787008348129,0.2404057843979645
140,0.24051389700884251,0.24080949006771232
141,0.2405762919704977,0.24238422178996297
142,0.24041024148225976,0.24206960198911232
143,0.2402003890306925,0.23898606363392855
144,0.2401714389570516,0.2405170331037976
145,0.2400519356465073,0.24172224053832236
146,0.24013886581078994,0.24022366981527046
147,0.23980499402605754,0.23966836274234724
148,0.24130726292979518,0.24088149307841095
149,0.24003792059221427,0.23928745170936117
150,0.2398808344090871,0.2397735016075005
151,0.24002919654003818,0.24184599335304657
152,0.23997611955677767,0.24016019272681946
153,0.23979375858625157,0.23954402383096404
154,0.23977887138521833,0.2391668874843909
155,0.23987557160720932,0.2410247917004053
156,0.2399268362412064,0.24122946254832592
157,0.23985319551851728,0.23901540451428038
158,0.2396774545526333,0.24092502447452335
159,0.2397338789429882,0.24088318916456664
160,0.23973063392628677,0.2405446657371408
161,0.23980042332415577,0.23966687447270166
162,0.23954583832519136,0.2394762632290773
163,0.23965745152448484,0.24013093064503116
164,0.23932516122226424,0.240794926387829
165,0.23954228198618815,0.2397953661977539
166,0.23956894949019003,0.2400607406011038
167,0.23938021119192635,0.2439417391545018
168,0.23976829011353562,0.23936060274456464
169,0.24001778693174383,0.24003009128824593
170,0.23917255954419395,0.240703804411094
171,0.23965686453070095,0.2419098521793745
172,0.23995178925405017,0.24106173617169907
173,0.25473828940130444,0.2579610436543199
174,0.2625503782197821,0.247566190966491
175,0.244279283753259,0.24423191652301737
176,0.2450255057234749,0.2475315242794055
177,0.24651423107972628,0.24513116456574122
178,0.24556787670563926,0.24927745516034874
179,0.24868198492520338,0.24589102614697453
180,0.24847765263321875,0.26639500574371244
181,0.2466987522183467,0.24473511683442223
182,0.24462708892772714,0.24607343850591187
183,0.24432240758868431,0.2439446032941106
184,0.2435663779088252,0.24407431438577015
185,0.2428014501452827,0.24278627107862233
186,0.24217901674868297,0.2428261006123077
187,0.24190018880519745,0.24389879758327893
188,0.24140749762741495,0.24131699171043702
189,0.24125614809951812,0.24147674341369257
190,0.24060980326456607,0.24092403073054933
191,0.2406806466247824,0.2404856903282977
192,0.24063727952879396,0.24064889286763103
193,0.24080091200882106,0.24093637592508366
194,0.24111968484952104,0.24125211659433715
195,0.24049757482955972,0.24040914990813506
196,0.24060747687884276,0.24056192660952705
197,0.2406114923963539,0.2407004786295127
198,0.2404241735140959,0.24338502693853703
199,0.2399973105564773,0.23951864801200243
200,0.24020299272571535,0.24003587665525872
201,0.23998934954261894,0.2416082755989603
202,0.24006071417547054,0.2420984930119932
203,0.240060738319878,0.23978345662990516
204,0.23972772432864903,0.2396980728233717
205,0.2396303558175703,0.240894627775747
206,0.23994885540480237,0.24068472783162825
207,0.24046165615820483,0.24062994140146657
208,0.23979162936397402,0.2426408676764301
209,0.24033330191525337,0.2413338861342199
210,0.24048658433577996,0.24346425587159964
211,0.24037161576662133,0.24050087444690052
212,0.23972418386754182,0.24155461939894127
213,0.23982810317207393,0.24053787792302908
214,0.23966174556625833,0.23990724977302852
215,0.2394897656606065,0.24034127023809052
216,0.24041791038094856,0.24068640484147497
217,0.23934911622060576,0.24100677959544506
218,0.23929148768301872,0.2406648845421393
219,0.23989653171037884,0.24091931498935115
220,0.23992350646893945,0.24175044316754346
221,0.23984299996178404,0.2426501643427169
222,0.2404874571257358,0.2434068804146647
223,0.23968826670297902,0.24177875059885404
224,0.23976826542120377,0.24183464922957656
225,0.2399295238520411,0.24029338702077271
226,0.23951000136008366,0.24052115851438413
227,0.23971127400057113,0.2403837551187133
228,0.2394074002544371,0.23940691831738534
229,0.23934039103089094,0.238948214202296
230,0.23898163337191994,0.2394751546861811
231,0.2393114321011243,0.24142019680003624
232,0.23872998884494165,0.23841715796358864
233,0.23875991903025087,0.23852062559353618
234,0.23827200887991276,0.24063651124934277
235,0.23825553428235766,0.23894344359612785
236,0.23831863707299236,0.2381852979183009
237,0.2388010170998619,0.2394077181816101
238,0.2386408466086399,0.23954417793508018
239,0.2383569081922134,0.23879364319880741
240,0.23762510621028363,0.24032156016521786
241,0.23803616070347153,0.2377170448756726
242,0.23739716367755861,0.2369725104500764
243,0.23710102714199147,0.23623331398030578
244,0.23654287275102595,0.23732244726138127
245,0.23625682199077544,0.2361896972935691
246,0.2364139038857987,0.23769599649740564
247,0.2359587187461144,0.2366638926182004
248,0.23549445561891932,0.23626454811963682
249,0.23601545112953484,0.23611945680680008
250,0.23558956132137138,0.23675807387271827
251,0.23538479220262057,0.2371495555918708
252,0.2359031196013629,0.23842589385460566
253,0.2355547191368209,0.23527727549529584
254,0.23625462983461687,0.23694317101632503
255,0.23516940787065324,0.23429305430416433
256,0.23512062401198847,0.2350992400907774
257,0.23489716124358317,0.23540780773855327
258,0.23529540955853595,0.23498827121393268
259,0.23446035028385412,0.2344668418074934
260,0.23515447695478262,0.2348399781037619
261,0.2347435166986345,0.23533591214088162
262,0.23514313340115606,0.23531482256390301
263,0.23467858817032297,0.23509649538391672
264,0.2349058055072475,0.23492933365192203
265,0.23482770194038213,0.23676279472994258
266,0.2347535136387312,0.23391229548177667
267,0.2344752839214796,0.23562004518913487
268,0.23460431049148336,0.23553648078262854
269,0.23457750355859072,0.23540350170284158
270,0.23454897667316318,0.2367659960333155
271,0.23476199558574995,0.23396965248573456
272,0.23502998986094595,0.2344587391158588
273,0.23514331650915002,0.23662403395256848
274,0.2350729145258546,0.2357752887677657
275,0.23530034578556447,0.23568196753488344
276,0.2353262786063359,0.23595874540760656
277,0.23482076609901767,0.23475913515265945
278,0.23487267827244399,0.2356392879865258
279,0.23496711173717924,0.2346497710967685
280,0.23532279706496795,0.23676174081679677
281,0.23497272947494932,0.23651954063582628
282,0.23498278239266954,0.23713046207659436
283,0.23538888428660987,0.23679309047246977
284,0.23525923939584065,0.235261762257439
285,0.23512273414029206,0.23497252970722216
286,0.23541330400226024,0.237076120070331
287,0.23499338389586488,0.2367163610063205
288,0.23541221662248066,0.23605733657080824
289,0.23540321073467307,0.23607322280813411
290,0.23558280445474514,0.23461898793220143
291,0.2352943504504639,0.24114817696099405
292,0.23523319963452152,0.23651086852460182
293,0.23585005125982297,0.23535971583441287
294,0.23529608718616118,0.23683289230904808
295,0.23532384818644642,0.23563773357313075
296,0.23528697091541131,0.2367752629090409
297,0.23598876264955787,0.23874871972610184
298,0.23568872963305382,0.23569386203691728
299,0.23558642836711963,0.23794678663915786
300,0.23544464617681732,0.23789107644285098
301,0.23587114661098194,0.236345205858832
302,0.23575812733645063,0.23670330217906407
303,0.236014174257251,0.23830608677798212
304,0.2359582129821217,0.23828562287335897
