epoch,loss,val_loss
0,0.3354547673596276,0.3334081151485443
1,0.3335439201394717,0.3334302431344986
2,0.3335225205288993,0.3334172200361888
3,0.33346262588103615,0.3333798800309499
4,0.33344334332148234,0.3336395729382833
5,0.33343850465615593,0.33343364093701044
6,0.33343469043572743,0.3333969801863035
7,0.33342971107694835,0.33338083744049074
8,0.3334229398568471,0.3333814755280813
9,0.3334179371065564,0.33340973605712254
10,0.33341354266140194,0.3333750513394674
11,0.33341377335124545,0.33340417383114496
12,0.33341561768452327,0.33341400770346324
13,0.33340918713145784,0.3333971080382665
14,0.33341075186596975,0.33338149112462995
15,0.33341029298967784,0.33337785096963246
16,0.33340809114111797,0.33339769089221954
17,0.3334081640707122,0.33344587500890094
18,0.33340819516446857,0.333403515736262
19,0.33340565255615445,0.33344138381878535
20,0.33340552820762,0.333444231847922
21,0.3334037197497156,0.33339774028460184
22,0.3334015358553992,0.33338609590133034
23,0.3334007329609659,0.3333858721256256
24,0.3333989820016755,0.33339229971170425
25,0.33340060524145765,0.33337855484088263
26,0.3333985562059614,0.3334082438548406
27,0.3333986711435848,0.3334447364211082
28,0.3333989351656702,0.3333823286692301
29,0.3333988059163094,0.33338492341836296
30,0.3333987156682544,0.33337814650932945
