epoch,loss,val_loss
0,0.556678839498096,0.5556231561501821
1,0.5556991760598289,0.55562621986866
2,0.5556602664523654,0.5556020365556081
3,0.5556450165112813,0.555607936501503
4,0.5556350178983477,0.5555889373620351
5,0.5556292594538794,0.5555912729501724
6,0.5556232414775425,0.5555854116280874
7,0.5556181498765945,0.5556021471818288
8,0.5556172281371222,0.5556506763299306
9,0.5556184060706033,0.5556294708251953
10,0.5556154665417141,0.5556032460927963
11,0.5556135259866715,0.5556012015342713
12,0.555611657500267,0.5555855534871419
13,0.5556089991463555,0.5556177054246266
14,0.5556088543468052,0.5555916924476624
15,0.5556068628231684,0.5556071482102076
16,0.5556048441860411,0.5555899499257405
17,0.5556038553449842,0.5555856401522954
18,0.5556018615166346,0.5556896966695786
19,0.5556024455096986,0.5556020877758662
20,0.5556015550825331,0.5555940297842026
21,0.5556019734806484,0.5556515228350957
22,0.5556002795828713,0.5555909748077392
23,0.555600710577435,0.555635753273964
24,0.5555994257132212,0.5555888953606287
25,0.5556006686157651,0.5556534110307694
26,0.5556009743743473,0.5555989197889963
