epoch,loss,val_loss
0,0.5630242680973477,0.5557258935769399
1,0.5557430454625024,0.5556713345448177
2,0.5559762204355664,0.5557169113953908
3,0.5558624691830741,0.5558643488089243
4,0.555767701321178,0.5556638901631037
5,0.5557408465279473,0.5556545751889547
6,0.5556605773369471,0.555728003581365
7,0.555875648856163,0.5556864577929179
8,0.5558393167389764,0.5556683615446091
9,0.5556676654948128,0.5557504188617071
10,0.5558749789926741,0.5556286619901657
11,0.5394825393160184,1.6300735236008963
12,0.8618410322931078,0.7778405094146729
13,0.7778308305607902,0.7778205739657084
14,0.7778220869170295,0.7778071768283844
15,0.7778407972123887,0.7778054669300715
16,0.7778168252838983,0.777809421300888
17,0.7778856633901596,0.777876834154129
18,0.7778124930461248,0.7778322721719741
19,0.7778180394172668,0.7778329203526179
20,0.777815138830079,0.7778049861987432
21,0.7778123919963836,0.7778036823272705
22,0.7778116484085719,0.7778324854373931
23,0.7778334510591295,0.7791786848306655
24,0.7778165624406602,0.7778066635131836
25,0.7778110885355207,0.77780233335495
26,0.7778175032801098,0.7778071714639664
27,0.7778938225905101,0.777816983183225
28,0.7778272165854772,0.7778042835394542
29,0.7778193199369643,0.7778061778942744
30,0.7778108815219668,0.777841107169787
