epoch,loss,val_loss
0,0.7818434882164002,0.7780117711226145
1,0.7778998468981849,0.7778424556652704
2,0.7779208520121045,0.7778538836240768
3,0.7779953521490097,0.7778423833052317
4,0.7778317891889148,0.7782517272233963
5,0.7780548674927817,0.7778338137467702
6,0.7778449825313356,0.7778157183329264
7,0.7778356083234151,0.7778184545040131
8,0.7778656948275037,0.7778465925057729
9,0.7778656778732935,0.777829665740331
10,0.7778472086323632,0.7778588783740997
11,0.7779185674190521,0.797637204448382
12,0.7831130134661992,0.7778255365689596
13,0.7778443027999666,0.7778144623835882
14,0.7778289860486984,0.7778178065220515
15,0.7571217828989029,0.6667494282722474
16,0.6676609119839139,0.6667499140501022
17,0.6667281797991859,0.666747895916303
18,0.6671133584578832,0.6667427533864975
19,0.6669113074143728,0.6667190258900324
20,0.6667237204975552,0.6667254690329234
21,0.6667290440665351,0.6667106882333755
22,0.6668364180591372,0.6667223935921986
23,0.6668496000766754,0.6669086326758067
24,0.6667110851075915,0.6667062835295995
25,0.6667303765085009,0.6667151582241059
26,0.666718162589603,0.6667404333353043
27,0.6667274080647363,0.6667205262581507
28,0.6667124203443527,0.6667139712174733
29,0.6667395764191946,0.6667168372074763
30,0.6667114288409551,0.6667049545447031
31,0.6667441306908926,0.6667120518684387
32,0.666716777033276,0.6667820245424907
33,0.6667151395479838,0.6667575178146362
34,0.6667122407489353,0.6667023405234019
35,0.6667389698161019,0.6666980405648549
36,0.6667461709446377,0.666727346142133
37,0.6667209955718782,0.6667119351625442
38,0.6667340575191709,0.6667806871334712
39,0.6667161024279065,0.6667087917725245
40,0.6667443147765265,0.666712352514267
41,0.6667117902040481,0.6666987752517064
42,0.6667123859458499,0.6667037881215413
43,0.6667107304334641,0.6667146402597427
44,0.6667153439521789,0.6667078662316005
45,0.6667189507087071,0.6667091586987177
46,0.666708996521102,0.6667228657404581
47,0.6667120584117042,0.666706551472346
48,0.6667280218601227,0.6667285415728887
49,0.6667216966152191,0.6667164323329926
50,0.6667139629920323,0.6667303487459818
51,0.6667462700605392,0.6667192622025808
52,0.6667232277790706,0.6667157642841339
53,0.6667228100034925,0.6667087688048681
54,0.6667413992351956,0.6667320377826691
55,0.6667288462453418,0.6667062852780025
