epoch,loss,val_loss
0,0.5905440626409318,0.5869527263243993
1,0.5392222752836016,0.5038769491116206
2,0.505547554175059,0.5040451831420263
3,0.5035837350553937,0.5037538570165634
4,0.5033441514836418,0.5031231925487518
5,0.5032524033122593,0.5034215048551559
6,0.5032112036016252,0.5035097279548645
7,0.5031581205262078,0.5029357324441274
8,0.5031479401323531,0.5041710767348607
9,0.5031261037720575,0.5030771706899008
10,0.5030888623926375,0.5029066447019577
11,0.5030936399433348,0.5030398408969243
12,0.5030474936299854,0.5028276217778523
13,0.5030340116818746,0.5036707535187404
14,0.5030392547051112,0.5033554958502452
15,0.5030259441667133,0.5032644253571829
16,0.5030140345626407,0.5029923985799154
17,0.5030044988923603,0.5028758238951365
18,0.503044005393982,0.5028046091000239
19,0.5029937287833955,0.5029259692827861
20,0.5029812258614434,0.5036464818716049
21,0.5029850112994512,0.5029991037845611
22,0.5029901305437088,0.5027739246288936
23,0.5029822085830901,0.5046858521699905
24,0.5029758684105343,0.5028488658269247
25,0.5029664387040668,0.5034238280455271
26,0.5029847432639863,0.502861460407575
27,0.5029567236502965,0.5030293160676956
28,0.5029509371254179,0.5029176824490229
29,0.5029775774081549,0.5029842491149903
30,0.5029604122506247,0.5028400175571441
31,0.502950721833441,0.5027838498353958
32,0.5029624521864785,0.5028318123817443
33,0.5029441211885877,0.5027827926476797
34,0.5029492519431644,0.5029442082643509
35,0.5029477708339691,0.503328001499176
36,0.5029455897543166,0.5027242738008499
37,0.5029504680898454,0.5030246783097585
38,0.5029481356011497,0.5027454124291738
39,0.5029499561124378,0.5028752911488216
40,0.5029439316325718,0.502790224870046
41,0.5029295583168666,0.5028720186551412
42,0.5029454487827089,0.5028888765176137
43,0.5029412350787057,0.5027797719637553
44,0.5029468953741921,0.5028110250234604
45,0.5029353455570009,0.503128807981809
46,0.5029287633630964,0.5029309061765671
47,0.5029383174975713,0.5034094454844793
48,0.5029231854279836,0.502789644519488
49,0.5029248778687583,0.5037670747041703
50,0.5029209799634086,0.5026884830395381
51,0.5029357511599859,0.5028350258668264
52,0.5029276288747787,0.50344542324543
53,0.5029375673797396,0.5027740689516067
54,0.5029400974644554,0.5027216928005218
55,0.5029277966419856,0.5027581454515457
56,0.5029324675401052,0.5030834338267645
57,0.5029212349918154,0.5027616733312607
58,0.5029205536444982,0.5029204601446787
59,0.5029188582764732,0.5029901426235834
60,0.5029355467425453,0.5028330772717794
61,0.50292661427127,0.5027185170253118
62,0.5029247733619479,0.5028506362040838
63,0.5029363490078185,0.5027989237705867
64,0.5029282714393404,0.503853918949763
65,0.5029256476428774,0.5028399823109309
66,0.502926102121671,0.5028060641288757
67,0.5029258524444368,0.5028747455676397
68,0.5029211462603675,0.5027593224048614
69,0.5029217008219825,0.5030055955648423
70,0.5029219130674998,0.5032180419762929
