epoch,loss,val_loss
0,0.6856011112398571,0.6835469187498092
1,0.6834041245248582,0.6826863208611806
2,0.6831763146056069,0.6845285263061524
3,0.6830650783909692,0.6824592912594477
4,0.6830214880175061,0.6827167112429937
5,0.6829046699735853,0.6823245998223623
6,0.6829263640509712,0.6825502568483353
7,0.6828096210824118,0.6832599016030629
8,0.6828695489035712,0.6822832498550415
9,0.6828270871639252,0.6827800997893015
10,0.6828288004928165,0.6824090178807577
11,0.6827862229479684,0.682283792535464
12,0.682751272784339,0.6822790087858835
13,0.6827361315091451,0.6823340306679407
14,0.6827161042690277,0.6835389406283696
15,0.6827136781215668,0.6839384551843007
16,0.6826683619154824,0.6822439985275268
17,0.6826996033191681,0.682376743276914
18,0.6826987958086862,0.6831140572627385
19,0.6827176047166189,0.6824149171908697
20,0.6826820811033248,0.6823293500741323
21,0.6827033873001734,0.682269845644633
22,0.6826881866719988,0.6822570057312648
23,0.682699667625957,0.6824113934834798
24,0.6826701266765595,0.6823500806093216
25,0.6827011145220863,0.6823957448005676
26,0.682657129102283,0.6836851603587468
27,0.6826589679188199,0.6823218779961268
28,0.6826778729226854,0.6824511527220408
29,0.6826997674968508,0.6824883592923482
30,0.6826481322712369,0.6822067385117213
31,0.6826764593256844,0.6822525674502055
32,0.682650692542394,0.6825541719198227
33,0.6826651229196125,0.6823216153383255
34,0.6826727227899764,0.6826351328690847
35,0.6826620744731691,0.682229474067688
36,0.6826366024414698,0.6824833548466365
37,0.6826586909956402,0.6823158590396246
38,0.6826558831002977,0.6829376669327418
39,0.6826598209804958,0.6826718182961146
40,0.6826395595206155,0.6822670418818791
41,0.6826338123083114,0.6822164651552836
42,0.6826468263467153,0.6825110929012299
43,0.6826491243309445,0.6822099530696869
44,0.6826568569077386,0.6822487474679947
45,0.6826407551765442,0.682251245657603
46,0.6826472507052952,0.6824329560200373
47,0.6826359280082914,0.6823751739660899
48,0.6826562811401156,0.6822380669116974
49,0.6826485127740436,0.6821898603041967
50,0.6826352551778158,0.6823863175710042
51,0.6826410771343443,0.6822418638070424
52,0.682654367407163,0.6822388626734416
53,0.682637457450231,0.6824154076178869
54,0.6826572845379512,0.6822848923206329
55,0.6826499235630036,0.6827099856932958
56,0.6826408263577355,0.6825566296180089
57,0.6826371885670556,0.6827440245946248
58,0.6826201341549556,0.6822771566311518
59,0.6826263303491804,0.6822512406508128
60,0.6826432219081455,0.6832188178698222
61,0.6826313649415969,0.6824991545677185
62,0.6826340697606404,0.6822701278130213
63,0.682630711250835,0.6822838209470113
64,0.6826519670486451,0.6821986058155696
65,0.6826189234256744,0.6827751241525014
66,0.6826548890007866,0.6825184426705042
67,0.6826407048569785,0.6824312302668889
68,0.6826347059143915,0.682586643298467
69,0.6826515532069736,0.6822269571224848
