epoch,loss,val_loss
0,0.7668666461043888,0.754056837439537
1,0.7531941029098299,0.7527427794933319
2,0.7526489037937588,0.7528744066953659
3,0.7523950726191203,0.7521779087781906
4,0.7522750713162952,0.7521519463857015
5,0.7521823304626677,0.7523843955596288
6,0.7521397516727447,0.7523862906694412
7,0.7521084730890062,0.7520219974915187
8,0.752070560865932,0.7521172306934992
9,0.7520609086354574,0.7520416837533315
10,0.752023564365175,0.7519940189520518
11,0.752026478237576,0.7519152762889862
12,0.752002799683147,0.7518927412827809
13,0.7519851747353872,0.7518637677828471
14,0.7519681443240908,0.7520809175570806
15,0.7519597966273626,0.7518010356028875
16,0.7519329232507281,0.7520347772041956
17,0.7519232879612181,0.7520061181386312
18,0.7519091833167606,0.7520198189020156
19,0.7518979534573025,0.7519266965786616
20,0.7518843370411131,0.7517821607192358
21,0.7518754417631361,0.7517777262528738
22,0.7518664525879754,0.7517759368817012
23,0.7518649209870233,0.751721161087354
24,0.7518457281854417,0.7518007955551147
25,0.7518474181228214,0.7518992974360784
26,0.7518457083569633,0.7518568777243296
27,0.7518417573902342,0.7517047274112701
28,0.7518383053673638,0.7520911962588628
29,0.7518404165108998,0.7519140774408977
30,0.7518271957768334,0.7517613710959753
31,0.751823869201872,0.7517525122960409
32,0.7518145134978824,0.7516800274451574
33,0.7518145770364337,0.7517713557084401
34,0.751808016512129,0.7517824367682139
35,0.751799642139011,0.7517284992138544
36,0.751792104906506,0.7517563143173853
37,0.7517920163737403,0.7517085594733556
38,0.7517836487690608,0.7517325342098872
39,0.7517663023206923,0.7516673305432002
40,0.7517444995376799,0.7516185216903687
41,0.7517341505289078,0.7516132773558298
42,0.7517234969006644,0.7516110438108444
43,0.7517079689105352,0.7517197882334391
44,0.7517066224018732,0.7516744838953018
45,0.7516992009215885,0.7516888607740402
46,0.7516885083383984,0.7517074201901753
47,0.751687477906545,0.7516146147251129
48,0.7516828836732441,0.7515798109372457
49,0.7516687250799603,0.7516510244210561
50,0.751667879846361,0.751834034562111
51,0.7516576917568842,0.751840239961942
52,0.7516699489090177,0.7519657837549846
53,0.7516638624535666,0.7515477186441422
54,0.7516603078842163,0.7516955152750016
55,0.7516584361659155,0.7515467879374822
56,0.7516466552681393,0.7515584911505381
57,0.7516497993336784,0.7517514719963073
58,0.751647235499488,0.7514932610988617
59,0.751640449947781,0.7515990912516912
60,0.7516439864767922,0.751518884062767
61,0.7516360389524036,0.7515438051223755
62,0.7516372607151667,0.7515403850873311
63,0.7516342306931814,0.7518123334248861
64,0.7516389783091015,0.7515810798803966
65,0.7516284791760974,0.7516943273941675
66,0.7516323411067327,0.7516142529249191
67,0.7516261834038629,0.7514920304616293
68,0.7516294073528713,0.7521172039111456
69,0.7516261140770383,0.7514947556654612
70,0.7516246554586622,0.7515233212709427
71,0.7516222403976652,0.7515563100973766
72,0.751618810945087,0.7514993963241577
73,0.7516176585223939,0.7516605843305588
74,0.7516192816760805,0.7517185155948003
75,0.7516239428387748,0.7517614459991455
76,0.751625095764796,0.7515260592699051
77,0.7516218316952388,0.7517206567923228
78,0.7516252945926455,0.7515743800799052
79,0.7516214029524061,0.751538092136383
80,0.7516106503274705,0.7516268569628398
81,0.7516121702326669,0.7517695557276408
82,0.7516094313727485,0.7518023672103882
83,0.7516188351313273,0.7515125637849172
84,0.7516153882079655,0.7515444521109264
85,0.7516111759609646,0.7515512173175811
86,0.7516176779535082,0.7515123424530029
87,0.7516077382697,0.7515031700134277
