epoch,loss,val_loss
0,0.6857356070942349,0.6826343646446864
1,0.6833920248614417,0.6825082159439723
2,0.6831100443336698,0.6824817671378454
3,0.6830391217470169,0.6839879966974258
4,0.683030558374193,0.6822913648287455
5,0.6829017667108112,0.6841572456757228
6,0.6828973310258654,0.6822602626482646
7,0.6828415590922038,0.6826572706302007
8,0.6828163318766488,0.6826287949879964
9,0.682785991801156,0.6829571890433629
10,0.682805992907948,0.6824019985596339
11,0.6827784564495086,0.6823319104909897
12,0.6827518549097908,0.6825381071567536
13,0.6827214646074506,0.6823238722085953
14,0.6827111088434855,0.682241687377294
15,0.6827050827874078,0.6845667725006739
16,0.6827283162673314,0.6832167568206787
17,0.6827116787830989,0.682318368156751
18,0.6827087201277415,0.6823064455588659
19,0.6826857574648327,0.6822941276232402
20,0.6826868180566363,0.6823229073286057
21,0.6826866768731011,0.6822581680615744
22,0.6826824219359292,0.6827593793869019
23,0.6826542816691928,0.6823187918265661
24,0.6826678045458264,0.6822248946825663
25,0.6827020066711638,0.6833139915466309
26,0.6826230437755585,0.6823529005845388
27,0.6826569077041414,0.6825603548288345
28,0.6826776778565513,0.6826000977754593
29,0.6826711486048168,0.6828102368911108
30,0.6826668787532383,0.6830195461511612
31,0.6826744576692582,0.6822115016380946
32,0.6826417999002669,0.6823872319459915
33,0.6826870442363951,0.6822825122674306
34,0.6826795366207759,0.6822284971872965
35,0.6826455361180835,0.6831465117534001
36,0.6826517827510834,0.6822763294378916
37,0.6826573093467289,0.6822889315684636
38,0.6826376034286287,0.6827380623022715
39,0.6826673864656024,0.6822786015272141
40,0.6826294820043776,0.6822757658163706
41,0.6826641688479318,0.6822270706097285
42,0.6826241079039044,0.6825379117727279
43,0.6826506648593479,0.6846344605286916
44,0.6826435302495957,0.6823430133660634
45,0.682653205593427,0.6822160261074702
46,0.682637766427464,0.6824064389069875
47,0.6826710971196492,0.6825928788185119
48,0.6826703408294253,0.6828776804606119
49,0.6826391629113091,0.6832299087047576
50,0.6826592762867609,0.6824588245550791
51,0.6826522127124999,0.6822389925718307
