epoch,loss,val_loss
0,0.42755467606253095,0.4218472455739975
1,0.3739777045779758,0.3389361935456594
2,0.338972393002775,0.3387639221350352
3,0.3386411453021897,0.33804012614488604
4,0.3383901003797849,0.3387059883077939
5,0.3381482796801461,0.3377884577711423
6,0.33799781131744383,0.3375316826105118
7,0.3395818677941958,0.33784392521778744
8,0.33789079854223464,0.33753227601448693
9,0.33781023585134085,0.33734307686487836
10,0.3377289475401243,0.33809975898265837
11,0.3376953179438909,0.3375401060382525
12,0.3376392366555002,0.3375346816579501
13,0.3376034239530563,0.3372467098633448
14,0.33759415283468036,0.337469186882178
15,0.33755093095699945,0.33739586518208187
16,0.33752217624584835,0.33752082765102387
17,0.33751334429449503,0.33717298177878063
18,0.3375099889503585,0.3379965312083562
19,0.33747356995609074,0.33730542987585066
20,0.33746630528238086,0.3371917759180069
21,0.33746184726556144,0.33785468675692876
22,0.33745331809255813,0.3376840669314067
23,0.33744313410255644,0.33729602656761803
24,0.33743715842564903,0.3378264907002449
25,0.3374416222572327,0.33719838013251624
26,0.3374507788883315,0.33734042185544966
27,0.33742049315240646,0.33711915600299835
28,0.33741811273495353,0.33728560821215314
29,0.33741640098227393,0.33720331289370853
30,0.33739750138256286,0.33739159305890404
31,0.33740042071210014,0.3372354771296183
32,0.33738496546612845,0.3371884535153707
33,0.3373950115442276,0.3370394630630811
34,0.3373785310718748,0.33837032492955527
35,0.3373668591313892,0.33740922856330874
36,0.33737035516235564,0.3373255929350853
37,0.3373843646314409,0.33717955865462623
38,0.3373662306335237,0.33716279158989587
39,0.33735911285214953,0.3374969036181768
40,0.33736427576674355,0.33712167515357333
41,0.3373503260016441,0.33706426636377973
42,0.3373742286165555,0.33709087439378105
43,0.3373627622856034,0.3373943069577217
44,0.33737575764788524,0.3373729575673739
45,0.33734674470954473,0.33701266103982924
46,0.3373480190369818,0.3372293487985929
47,0.3373665902680821,0.3371766767501831
48,0.3373502160045836,0.33767412320772805
49,0.3373310530450609,0.3373680962522825
50,0.3373510261575381,0.3370713762839635
51,0.3373364430136151,0.3371041467785835
52,0.33733717265394,0.3370790936549505
53,0.3373528430528111,0.3371640895009041
54,0.3373296972049607,0.33742403642336527
55,0.33735515330897436,0.33702533553044
56,0.3373296698861652,0.3373708877166112
57,0.3373451376491123,0.3371607475280762
58,0.33733896497223115,0.3374261894027392
59,0.33732474552260505,0.3375689361492793
60,0.337342199060652,0.33710404674212135
61,0.3373336589203941,0.3371639560858409
62,0.3373216781616211,0.3370572312672933
63,0.3373533193932639,0.3375428511897723
64,0.33732160898049673,0.3372881896694501
65,0.33733419263362885,0.33743866433699926
