epoch,loss,val_loss
0,0.7878832575612598,0.7528124699989954
1,0.7409242261913087,0.752488162000974
2,0.7525036581489775,0.7522211555639903
3,0.7523160524103376,0.7524811333815257
4,0.7521491190459993,0.7519460314909617
5,0.7519872070153554,0.7518464584350586
6,0.7518675630887349,0.7519450663725535
7,0.7517903403838475,0.7517476360797882
8,0.7517434288660685,0.751787281314532
9,0.7517313598129485,0.7516934898296992
10,0.7517097321351369,0.7515328076680501
11,0.7517073953416612,0.751637428243955
12,0.7516810406446457,0.7516068766911824
13,0.7516692573361926,0.7518014043569565
14,0.7516545244057973,0.7517763223250707
15,0.7516588958501815,0.7517000683546067
16,0.7516512020296521,0.7516183849175772
17,0.7516392648087608,0.7516751730044683
18,0.7516307529343499,0.7515597695906957
19,0.7516265297200945,0.7515598370631535
20,0.75162033700943,0.7515981171528499
21,0.7516199601491292,0.7515185523033142
22,0.7516063998805153,0.7516172474622727
23,0.751607091665268,0.7515120865106583
24,0.7516005809174644,0.7515241116285324
25,0.7515997540023592,0.7515506021579107
26,0.7516008755763371,0.7514685010910034
27,0.7515975902875265,0.7515157086849212
28,0.7516025121212005,0.7515888222058614
29,0.7515936073859533,0.7515271963675817
30,0.7515920369890001,0.751535185456276
31,0.7515865268972185,0.7515741020043691
32,0.7515925384362538,0.7515822551250457
33,0.7515864869621065,0.7519169721206029
34,0.7515808709462484,0.7515699379841486
35,0.751579118291537,0.751607473731041
36,0.7515809120204714,0.7515074985822042
37,0.7515771206087536,0.7515059429009755
38,0.7515742336379158,0.7515229555368423
39,0.7515845201147927,0.7514725002845128
40,0.7515772236320708,0.7516428844531378
41,0.751565456310908,0.7517071932951609
42,0.7515728480021159,0.7515649235248566
43,0.7515679565403196,0.7516332275470098
44,0.7515702622334163,0.7514641706148784
45,0.7515644226339129,0.7515427808364232
46,0.751567785832617,0.7515701987743377
47,0.7515606692234675,0.7515378911097844
48,0.7515700350999832,0.7515252847671509
49,0.7515576767788993,0.7515043082634608
50,0.751559541106224,0.7514886306921641
51,0.7515578229957157,0.7514446449677149
52,0.7515547042820189,0.7514875942866007
53,0.7515599844455719,0.7514863178332647
54,0.7515644478797913,0.7515123256842295
55,0.751552342693011,0.751513046781222
56,0.7515644090572993,0.7514932243824005
57,0.7515512598090701,0.7516304487784704
58,0.7515547948678335,0.75154150334994
59,0.751550344520145,0.7518318236271541
60,0.7515557872056962,0.751465939561526
61,0.7515566193262736,0.7520394891103108
62,0.7515610711707009,0.7515222915808359
63,0.7515603243642384,0.7517027539014817
64,0.7515513133472866,0.751804756363233
65,0.751545182161861,0.7515252373218536
66,0.7515606796079212,0.7514426996310551
67,0.7515511598719491,0.7515457555850347
68,0.7515475795931287,0.7518632761240005
69,0.7515516959958606,0.751524809161822
70,0.7515486150979995,0.7514341212511063
71,0.7515485001802444,0.7514447526931762
72,0.7515556062989764,0.7514705306688945
73,0.7515498309797711,0.7514381438096365
74,0.7515572939183977,0.7514890188773473
75,0.7515430471367306,0.7516030519008636
76,0.7515467403729756,0.751468337615331
77,0.7515453504588869,0.7514503257671992
78,0.7515499358971913,0.7514789031744004
79,0.7515455644792981,0.7514928963979085
80,0.7515425591071446,0.7515114264488221
81,0.7515539023478826,0.7518162769873937
82,0.7515373357534408,0.7520625403722128
83,0.7515458306206597,0.7514596885840098
84,0.751541494568189,0.7514392240047455
85,0.7515431309541066,0.7514810407559077
86,0.7515473727782568,0.7514777847131093
87,0.7515487272739411,0.7515087565183639
88,0.7515458488331901,0.7514652095635732
89,0.7515423835118612,0.751445122162501
90,0.7515385787751939,0.7514699174165725
