epoch,loss,val_loss
0,0.6854893047677146,0.6857847077051799
1,0.6834055689043469,0.682672447403272
2,0.6831988622744878,0.6829818375110627
3,0.6830566999382442,0.6824548090696335
4,0.6830037386682298,0.6831118791500728
5,0.6828807085884941,0.68397299238046
6,0.6829139245483611,0.6824373238086701
7,0.6828315267430412,0.6823044095834097
8,0.6828553045855628,0.6831267228126526
9,0.6828157470093833,0.6822772090037664
10,0.6827783232662413,0.6826614939769109
11,0.682761417945226,0.6823420410553614
12,0.6827740571763781,0.68266675055027
13,0.6827540364132987,0.6827758618593216
14,0.6827319778998693,0.6823527381420136
15,0.6827142329216004,0.6825754382212956
16,0.6827182335721121,0.6824626011848449
17,0.6827143392960231,0.6823428638776143
18,0.6827116579744551,0.6822495200236638
19,0.6826800900167889,0.6823021958669027
20,0.6826830951902602,0.6830024464527766
21,0.6826568433311251,0.6823810004790624
22,0.6826976931624943,0.6823155785004298
23,0.6826760189003415,0.6822720675865809
24,0.6826481517685784,0.682395255168279
25,0.682696086300744,0.6821951350768407
26,0.6826585938400692,0.6822932394742965
27,0.6826582430203756,0.6828158379793167
28,0.6826357801357905,0.682400618950526
29,0.682654891093572,0.6823306981722513
30,0.6826704253620571,0.6823814762036006
31,0.6826388932598961,0.6829232279856999
32,0.6826466220087475,0.6823277136087418
33,0.6826282054185867,0.6823877139488856
34,0.6826437581247754,0.6823735921382904
35,0.6826456008884642,0.6826729847590128
36,0.6826207254197862,0.6822144006490707
37,0.6826478604873022,0.6822706663211187
38,0.6826476690636741,0.682230034828186
39,0.6826186068190468,0.6823315780162811
40,0.6826222321722243,0.6825827947060267
41,0.6826713426775403,0.6821843379338582
42,0.68262214340104,0.6825545071363449
43,0.682651557246844,0.6829797391096751
44,0.6826346032884386,0.6832238621314367
45,0.6826217844883601,0.682272986849149
46,0.6826240876250796,0.682254568974177
47,0.6826533559163411,0.6822627076705297
48,0.6826230877505408,0.6821941194534302
49,0.6826123149262534,0.6823974492549896
50,0.6826445971727371,0.6823608833948771
51,0.6826279603507783,0.6823390753269195
52,0.6826524356603623,0.6822960690259934
53,0.6826341559092204,0.6822531570593516
54,0.6826309736172358,0.6824069976011912
55,0.6826156638728248,0.6822247562805811
56,0.6826467938555612,0.6822600926955541
57,0.6826062559949028,0.682251958211263
58,0.6826262862814797,0.6822379502455393
59,0.682620826681455,0.6824009499549866
60,0.6826116582552592,0.6822983628114064
61,0.6826168668932385,0.6826489355961481
