epoch,loss,val_loss
0,0.6069304347832998,0.601779984553655
1,0.6019154237243864,0.6015567963520686
2,0.6017648247215482,0.6017761615912119
3,0.4273097739948167,0.4020291412075361
4,0.4023190040720834,0.40196346199512484
5,0.40226131518681846,0.4019649536212285
6,0.4021622682346238,0.40217926768461865
7,0.40211088902420467,0.4018732987244924
8,0.40214576590061185,0.40211857910950977
9,0.4020746959116724,0.4020898161927859
10,0.402033390349812,0.4021081659197807
11,0.40202981114387515,0.4018019206325213
12,0.4019912014073796,0.40182535511255263
13,0.4019798212382529,0.40187422682841617
14,0.4019799360964033,0.4017832521597544
15,0.40204800704452726,0.4023419953783353
16,0.401930539045069,0.4018899622956912
17,0.40194224591387645,0.40175149325529735
18,0.401932453473409,0.4019548098444939
19,0.40190958552890355,0.40205529415607455
20,0.4019080287880368,0.4020048720041911
21,0.4018945496678352,0.4025211784442266
22,0.4019770759476556,0.4019369676709175
23,0.401894274102317,0.40178387427330015
24,0.4018795817229483,0.40194498002529144
25,0.4018763207660781,0.40179374678929647
26,0.40187932321098113,0.40182761241992315
27,0.4018624544607268,0.40173174182573956
28,0.40186584126287034,0.4018839457829793
29,0.4018541031016244,0.4018102139433225
30,0.4018671421474881,0.40196214254697166
31,0.4018592217763265,0.4026155622998873
32,0.4018559457129902,0.40169197595119477
33,0.40184723373916414,0.40376410937309265
34,0.4018517308500078,0.40199584742387134
35,0.40184712876876194,0.4020661272207896
36,0.4018593379192882,0.4017792306939761
37,0.40184286275837156,0.4016992470026016
38,0.40183605366282993,0.4017697391907374
39,0.40184641727474,0.4016621446808179
40,0.40183319302399956,0.4022336777448654
41,0.40183500591913857,0.4016712911526362
42,0.40183931403689915,0.4017036810517311
43,0.4018396663069725,0.40174883349736534
44,0.40183650486336814,0.4021526624361674
45,0.4018499453531371,0.40197551069657006
46,0.4018268687592612,0.40174366054932276
47,0.4018273763987753,0.40222575424114865
48,0.4018313483463393,0.4020005219777425
49,0.40181550843848124,0.4018156427741051
50,0.40183051157659955,0.4017583500345548
51,0.4018363480766614,0.4026177683075269
52,0.40182747046815026,0.4017678134441376
53,0.40184400089581807,0.4018025501966476
54,0.40181770484977297,0.4016811498006185
55,0.40180451387166977,0.4027369619011879
56,0.40182151988479825,0.4016660079956055
57,0.40181830399566226,0.4016885356704394
58,0.40181821630398434,0.4016425510843595
59,0.4018214868174659,0.40178066917260485
60,0.4018313078681628,0.4018304109573364
61,0.4018157340288162,0.4017162126104037
62,0.4018107693460253,0.40181966453790663
63,0.4018134258058336,0.4019543761014938
64,0.4018168981273969,0.4017812765240669
65,0.4018158883386188,0.4027612310051918
66,0.4018324479063352,0.40166454267501833
67,0.4018074111806022,0.40254718204339346
68,0.40181696967946157,0.4016831877032916
69,0.4018199898534351,0.40184381673733394
70,0.4018043949140443,0.40175643970568975
71,0.4018035268783569,0.4017056703964869
72,0.40181059046586354,0.40165206489960353
73,0.4018254070613119,0.4016311894655228
74,0.40181171964936785,0.40166895963748295
75,0.40179924335082373,0.4020049326618512
76,0.40180528594387904,0.40220093534390133
77,0.40179416530662115,0.4017008896271388
78,0.40179778732856114,0.40177240057786306
79,0.40180687563949163,0.4018537915945053
80,0.4018061941663424,0.40167154133319855
81,0.40179272785451675,0.4016042096217473
82,0.4017842786510785,0.40183969628810884
83,0.40178969775968126,0.4018449067274729
84,0.40179197516706255,0.4018191221555074
85,0.40180816694100696,0.4016916659673055
86,0.40180021285348466,0.40186344339450203
87,0.40179404365354116,0.40179804050922396
88,0.4017889974117279,0.40163870322704315
89,0.401786409219106,0.40171309703588487
90,0.4017977917989095,0.40166452872753144
91,0.4018018838233418,0.4019058639407158
92,0.40179539892408583,0.4016315394043922
93,0.4017916501628028,0.4016506078044573
94,0.4019552662372589,0.40163299117485685
95,0.40178324358993106,0.40180229049921035
96,0.4017931041121483,0.4016702111164729
97,0.401780957268344,0.40163416010141373
98,0.40178850526942145,0.401800560494264
99,0.40179298630687926,0.40165176399548846
100,0.4017799548506737,0.4021851153175036
101,0.4017936462495062,0.4017367273569107
