epoch,loss,val_loss
0,0.6051154072946973,0.60160369348526
1,0.6020678003629049,0.6014845986366272
2,0.6015998668670655,0.6013574718634288
3,0.5741668604214987,0.5016670778989792
4,0.444146994193395,0.40228899715344113
5,0.4021126823888885,0.40320572290817897
6,0.4020669840508037,0.4017735899488131
7,0.40211130960120095,0.4018415085275968
8,0.40194141711129083,0.4017470746835073
9,0.4018903000553449,0.401714421192805
10,0.4018812732828988,0.4015659953157107
11,0.40182902296384176,0.4022884046435356
12,0.40181437138054105,0.4018039732376734
13,0.40192452365159986,0.40167163836956027
14,0.40179819131559796,0.4016764692266782
15,0.40178094500965544,0.4016301259199778
16,0.40195274370246464,0.401562950193882
17,0.40176938897371295,0.4015608139832815
18,0.4017610037922859,0.4019950358072917
19,0.4017617185049587,0.4015178163647652
20,0.401750176164839,0.401575922091802
21,0.401716441988945,0.40154207491874694
22,0.40172312842475044,0.40149030421177545
23,0.4017133471104834,0.40176525894800824
24,0.4017211714718077,0.4019254980882009
25,0.40170455116033554,0.4016498170296351
26,0.4017166478700108,0.4017152536114057
27,0.4017012739313973,0.4015308667023977
28,0.4016986795200242,0.40179353566964465
29,0.4016911212073432,0.40152407787243527
30,0.4016971019970046,0.40152733282248176
31,0.4016921801302168,0.4015550848444303
32,0.40169990472661127,0.40154938654104866
33,0.4017048350241449,0.40186910007397336
34,0.40168510166141724,0.40161556510130564
35,0.40168915521436266,0.4014746288259824
36,0.40169604820013044,0.4017922998269399
37,0.4016975924770037,0.4015624944170316
38,0.40168745721048776,0.4015512983401616
39,0.40168605644173094,0.4015495819449425
40,0.40168293878767225,0.4018764683008194
41,0.40168295823203193,0.40189640671014787
42,0.40167857252226935,0.40165005572636925
43,0.4016803010834588,0.40148666870594024
44,0.4016876953177982,0.4015269318819046
45,0.40167449761099283,0.401787949303786
46,0.4016766443120109,0.40199499162038166
47,0.40237329206201766,0.40164996004104614
48,0.4017384058369531,0.40162554156780245
49,0.40171332219574185,0.4016918638149897
50,0.4016928031709459,0.40177214990059534
51,0.40168503970570035,0.40153374620278676
52,0.4016745841304461,0.40162492460012433
53,0.4016680713163482,0.40179137867689135
54,0.40167000850041706,0.4019474416573842
55,0.40166811066203645,0.4014970986445745
