epoch,loss,val_loss
0,0.8022346470885806,0.8012422875960667
1,0.7801225444078446,0.7080619342724482
2,0.6615191929737727,0.6052690379222234
3,0.6037456002500322,0.6026615463097891
4,0.6023924231264326,0.602101742307345
5,0.6021597672171063,0.6019900910059611
6,0.6018552189138201,0.6016096223195394
7,0.6017859721713595,0.6018253705501556
8,0.6017187189790938,0.6016441858609517
9,0.6016588498751323,0.6014755750894547
10,0.6016155231263902,0.6015480886697769
11,0.6016018358733919,0.6013991164763769
12,0.6015814036793179,0.6015106244881948
13,0.601573010192977,0.6017213164965312
14,0.6015635331074397,0.6013938767115276
15,0.6015483018292321,0.6016305836041769
16,0.6015415386358897,0.6016243094205856
17,0.6015362227095498,0.6014016411304474
18,0.6015249513520134,0.6014702537059784
19,0.6015220060745875,0.6014062685966491
20,0.6015251379675335,0.6013938741286595
21,0.6015265358156628,0.6013746043841044
22,0.6015161835749944,0.6013620365063349
23,0.6015200019942389,0.601554209192594
24,0.6015143823623658,0.601478457570076
25,0.6014935418632296,0.6018533513943354
26,0.6014931365913815,0.6014589997529983
27,0.6014968670474158,0.6015042555332184
28,0.6015039268864526,0.601595108906428
29,0.6014993950128555,0.6015166563193003
30,0.6015017934905158,0.6013944660027822
31,0.6014851276874542,0.6018013381560644
32,0.6014889293909073,0.6018495370149612
33,0.6014857374827067,0.601336139122645
34,0.6014854962163502,0.6014046564499537
35,0.6014857231113646,0.6016135028998058
36,0.6014772332376904,0.6014558737277984
37,0.6014871642854479,0.6024194600582122
38,0.6014919155041377,0.6014079704682033
39,0.6014728428522745,0.6015995655457179
40,0.6014832309616936,0.6015481952826182
41,0.6014786699480481,0.6014574426809947
42,0.6014716700580385,0.6014088493188222
43,0.6014626486036513,0.6013877127567927
44,0.601471932888031,0.6015686030387879
45,0.6014795472886827,0.6018128076394399
46,0.6014672045177883,0.6019031440019608
47,0.6014751782284843,0.601659867922465
48,0.6014857223033905,0.6014267124732335
49,0.6014845043950611,0.6015716251134873
50,0.6014935966465208,0.6013121294180552
51,0.6014763465589947,0.6014648029406865
52,0.601564473801189,0.6015396887461344
53,0.6014779342148039,0.6013886518875757
54,0.6015529940128327,0.6015229221185049
55,0.6014587181806564,0.6014283407131831
56,0.6014928787681791,0.6014316824674606
57,0.6014729490677516,0.6014150113662083
58,0.6015061488019096,0.6017612124284109
59,0.6015112324025896,0.601411469300588
60,0.6014412126673593,0.6014816284577051
61,0.6014399769306182,0.6013808167378107
62,0.6014370222621493,0.6018043067852656
63,0.6014354221291012,0.6014245434999466
64,0.6014401728577085,0.6014813030560812
65,0.6015898078282674,0.6015761043230693
66,0.6015171769062678,0.601455557902654
67,0.601458327293396,0.6014645665486653
68,0.6014419254991743,0.6013468483686447
69,0.6014368901517656,0.601301795522372
70,0.6014351399739584,0.601553365667661
71,0.6014222930007511,0.6014259501695632
72,0.6014244748883777,0.6013694695631663
73,0.6014316336578793,0.6020946917931239
74,0.6014399326377445,0.6013354578018189
75,0.6014330549637477,0.6013327623208364
76,0.6014318610297309,0.6013808187643687
77,0.6014420667886734,0.601383205016454
78,0.6014244830475913,0.6014119908014933
79,0.60142222085264,0.6014858686923981
80,0.6014318955474429,0.6424092721541722
81,0.6021683539152145,0.6014448958237966
82,0.6014719600147671,0.6014350988467534
83,0.6014578510125478,0.6013262599309286
84,0.6014419276184506,0.6014018348058064
85,0.601424129486084,0.6013405296802521
86,0.601428531381819,0.6014252574046453
87,0.601422217183643,0.6015254695415497
88,0.6014322883155611,0.6020619105100632
89,0.601430811047554,0.6014386951526006
