epoch,loss,val_loss
0,0.5053694294161267,0.5020413394769033
1,0.41529366978671817,0.4022698436975479
2,0.4024335554705726,0.4021534520785014
3,0.4021487458613184,0.4021126876870791
4,0.4020790184736252,0.4022101542154948
5,0.40198583635356694,0.40238464339574176
6,0.401927938580513,0.40213289894660315
7,0.4019127638273769,0.40216800026098887
8,0.40184303848610986,0.4016073503494263
9,0.40184164971775477,0.4016122004588445
10,0.4017772759596507,0.4015863630970319
11,0.401755046930578,0.40206726735830306
12,0.40173910558886,0.4015823859969775
13,0.4017224757936266,0.40155324520667396
14,0.4017198631564776,0.40196376127004624
15,0.40169715186622407,0.4015642078320185
16,0.40171757618586224,0.401812032699585
17,0.4017298318611251,0.40158843296766283
18,0.40168221876356336,0.40167851197719573
19,0.4016897926595476,0.4015926246444384
20,0.40168360290262434,0.4014896056453387
21,0.40166425020164914,0.40151180841525397
22,0.4016540447539753,0.4016896269520124
23,0.4016540940403938,0.40163720440864564
24,0.40165147815148033,0.4017457725207011
25,0.401651474542088,0.4015743800799052
26,0.4016393404867914,0.40165193740526833
27,0.40165708772341413,0.4016576124628385
28,0.4016419096125497,0.40144451689720156
29,0.401644958515962,0.40179133117198945
30,0.40166461463107,0.4016639256477356
31,0.4016360223028395,0.4015676384369532
32,0.4016349605653021,0.4017556849519412
33,0.4016336431635751,0.4016860388716062
34,0.40162147003412246,0.40174524664878847
35,0.40161954302257963,0.40143739865223566
36,0.40163110321760176,0.4015851488908132
37,0.4016293567352825,0.4014665065407753
38,0.4016142233212789,0.40153027353684106
39,0.40164520239830015,0.4015238744417826
40,0.401615396976471,0.40154546123743057
41,0.4016066038741006,0.4014734146793683
42,0.401607841471831,0.4014331661860148
43,0.4016184274156888,0.40141207085053127
44,0.401607455306583,0.4015037626226743
45,0.4016117022037506,0.4015158522526423
46,0.40160930540164314,0.40148529613018036
47,0.4016136446197828,0.40148280360301336
48,0.40161512004004585,0.4014752225677172
49,0.40161099551121393,0.4015597853263219
50,0.4016118255522516,0.40158653565247854
51,0.4016069191959169,0.4016534385085106
52,0.4016159487432904,0.4016935037771861
53,0.4016095754173067,0.40156423435608546
54,0.40161624783939787,0.4013928419351578
55,0.40162482979562547,0.4016605148514112
56,0.401593263844649,0.4020858974258105
57,0.4016010673244794,0.40149312617381416
58,0.40160401835044224,0.4017645109693209
59,0.4016101287206014,0.40141100068887076
60,0.4016005562345187,0.401461110552152
61,0.40159248521592883,0.40211957051356634
62,0.40158869125445684,0.40183976300557456
63,0.4015955172114902,0.4016192005077998
64,0.4016079079641236,0.4015792823632558
65,0.40160772426923114,0.4015134044686953
66,0.40159146877792146,0.40153924584388734
67,0.40159401490953234,0.4017685562769572
68,0.40160656803184086,0.4014555236895879
69,0.4015947146813075,0.40161998790502546
70,0.40160638676749333,0.4014444737037023
71,0.40160177093744276,0.4014610229929288
72,0.401603376991219,0.4014801537195841
73,0.4016142365667555,0.4021452507972717
74,0.40160095953279074,0.4015777752598127
