epoch,loss,val_loss
0,0.5871948804325527,0.6774468160470327
1,0.5639015990628137,0.5567627833684285
2,0.5569046218395233,0.5568452919721604
3,0.6303053339454863,0.6792681053082148
4,0.6678519222736359,0.6675177274147669
5,0.6674056576357947,0.6672947609821955
6,0.6677580208778381,0.6673864185810089
7,0.6673599528074264,0.6672437794208527
8,0.6672730969323052,0.6672818956375122
9,0.6677600609593921,0.6679925940831503
10,0.6700379717217552,0.6673257481654485
11,0.6673109837638007,0.6672217122713725
12,0.6672719888554679,0.6673424719174703
13,0.6672391998900308,0.6672792848348618
14,0.6672268857558569,0.6671701331535975
15,0.6672238377862506,0.6697414997021357
16,0.7473967833783891,0.7782365924517314
17,0.7782719904581705,0.7783438995281855
18,0.7781777735153834,0.7781836805740993
19,0.7781511498424742,0.7781259254614512
20,0.7782377110587226,0.7786960066954295
21,0.7781929556926092,0.7781096320152283
