epoch,loss,val_loss
0,0.5610214700301488,0.557109626253446
1,0.5577553464571635,0.5569344253142675
2,0.5572336932155821,0.556540518561999
3,0.5571012981997596,0.5566844114859899
4,0.556515519618988,0.5566689232587815
5,0.5564431026379267,0.5563967761596044
6,0.5576241815619999,0.5565065897703171
7,0.5566843058268229,0.5562633741299311
8,0.5563467457294464,0.5562177888949712
9,0.5563263163169225,0.556674430847168
10,0.5562792291111416,0.5562181566953659
11,0.5562607838842604,0.5564350865284602
12,0.6055419862800174,0.7783692625761032
13,0.7782175434033076,0.7781472752491633
14,0.7781550221708086,0.7783593798478444
15,0.7781344096528159,0.7781564296086629
16,0.7781309812598758,0.7781246818304062
17,0.7781227660973867,0.7781512456734975
18,0.7781593553092745,0.7965860261122386
19,0.7781731315056483,0.7780852780342102
20,0.7781179454459084,0.7780932631095251
21,0.778114951411883,0.7781045702695847
22,0.7781107891135746,0.7780730188290278
23,0.7781110701958338,0.7780874979098638
24,0.7781081779400507,0.7780817747910818
25,0.778106368581454,0.778171562631925
26,0.7781041638851166,0.7780885132948557
27,0.7780996858014001,0.7780768192211787
28,0.7781035695738263,0.778072426199913
