epoch,loss,val_loss
0,0.7789488030672074,0.7782430474360784
1,0.7782145398722755,0.7781085020701091
2,0.7781620012389289,0.7780670035282771
3,0.7781370982064141,0.7783160866896311
4,0.778140276643965,0.778069160580635
5,0.7781144910256068,0.778163782676061
6,0.7781109851996104,0.7780398117701213
7,0.7781003045903312,0.778056036512057
8,0.7780992396275203,0.7780508370399475
9,0.7780894885725446,0.7780374038616816
10,0.778090062631501,0.7781991386413574
11,0.7780867464939754,0.7780718568960826
12,0.7780846384233898,0.7780406303405761
13,0.7780829529894723,0.7781041843096416
14,0.7780795835653941,0.7780418141682943
15,0.7780753154489729,0.7780785791873932
16,0.7780782933235169,0.7781129518349965
17,0.7780773176882002,0.7780818784236908
18,0.778078813791275,0.7780716861089071
19,0.7780758244726393,0.778139010945956
20,0.7780737169318729,0.778023909886678
21,0.7780700880156624,0.7780405828555425
22,0.7780746573607127,0.7780330490668614
23,0.7780725115935008,0.7780465220610301
24,0.7780691508319643,0.7780664115349452
25,0.7780688148207134,0.7780705026785533
26,0.7780676765441894,0.7780395950078964
27,0.7780673294729656,0.7780835107167562
28,0.7780650978220833,0.7781670407454173
29,0.7780690120326148,0.7780518399874369
30,0.7780671945148044,0.7780276612440745
31,0.7780637029012044,0.7780535439650218
32,0.7780662556754219,0.7780234245459239
33,0.7780642055273056,0.778020046154658
34,0.778065756837527,0.7780864163637161
35,0.7780626201497184,0.7780376413265864
36,0.7780644620127148,0.7780287140607833
37,0.77806127846241,0.7781066643397013
38,0.7780645367569393,0.7780542398691177
39,0.778065382109748,0.7780285046895346
40,0.7780620048708385,0.7780372664531072
41,0.7780627086162567,0.7780579086939494
42,0.7780641531017092,0.7780653665860494
43,0.7780588081280391,0.7780362688700359
44,0.778062590903706,0.7780395850340526
45,0.7780636589659585,0.7780235828955968
46,0.7780624408986834,0.7780167900323868
47,0.778058311396175,0.7783171129624049
48,0.7780598636733161,0.7780774625937144
49,0.7780584114922418,0.778017400542895
50,0.7780611940887239,0.7780218545198441
51,0.7780563816229502,0.7780406834681829
52,0.7780602178706063,0.7780300370852152
53,0.7780580665138033,0.7781983618338902
54,0.7780610167847739,0.7780172097682952
55,0.7780684556033877,0.7780336147944132
56,0.7780628881057103,0.7780425632397334
57,0.7780620797342724,0.7780319066047668
58,0.7780615447494719,0.7780307705402374
59,0.7780584888723161,0.7780472953716914
60,0.7780620419449277,0.7780166204770406
61,0.7780603169467714,0.7780522892077764
62,0.7780626283221774,0.7780302055279413
63,0.7780604561567307,0.7780286243756612
64,0.778059870256318,0.7780247955322266
65,0.7780603925387065,0.7780427153905233
66,0.7780580135054058,0.7780194875399271
67,0.778061380982399,0.7780348076025645
68,0.7780585714975993,0.7780206110477448
69,0.7780592252943251,0.7780809420744578
70,0.778057292011049,0.7780543049176534
71,0.778059223373731,0.778033404191335
72,0.7780593712859684,0.7780238701899846
73,0.7780554271803962,0.778087737083435
74,0.7780594499640995,0.7780189048051834
75,0.7780578991572062,0.7780376524130503
76,0.7780611971086926,0.7780243347883224
77,0.7780547874503666,0.7780399304628373
78,0.7780555094877879,0.7780197749932607
79,0.7780575411849552,0.7780194582939148
80,0.7780574885871675,0.7780667233467102
