epoch,loss,val_loss
0,0.33711446420351665,0.3344295633037885
1,0.33479794616831676,0.3344594920873642
2,0.34091201740503313,0.33537925424178444
3,0.3345362247427305,0.3344035100340843
4,0.33450004898177255,0.3346202559073766
5,0.33440586844417786,0.33426681876182557
6,0.3343669230606821,0.33420727465550104
7,0.3342989565332731,0.33421567410230635
8,0.33430157226986357,0.3342831060489019
9,0.33433481014437144,0.33487863820791247
10,0.3343422847390175,0.3341633139848709
11,0.33429823560847177,0.3342965099811554
12,0.33427635086245006,0.334247551937898
13,0.3343579570055008,0.3341806924343109
14,0.33448619328604806,0.33527850250403085
15,0.3344787329634031,0.3342831014196078
16,0.3342867913444837,0.3341783463756243
17,0.3342581984996796,0.33456540054082873
18,0.3362873701453209,0.334274877846241
19,0.3354639900856548,0.33440552337964374
20,0.33424262893862194,0.33416557639837263
21,0.3342525419327948,0.33418568774064383
22,0.33423513488637074,0.33418748048941294
23,0.33422995124260585,0.3341668136517207
24,0.3342156820429696,0.334277434527874
25,0.3342215332057741,0.33414220827817914
26,0.3342115544411871,0.33419600864251453
27,0.33421138205130896,0.3341603093147278
28,0.33420720451407965,0.3342349725961685
29,0.33421166190836166,0.33415148317813875
30,0.3342036950720681,0.3347611316839854
31,0.3342063319153256,0.33419474577903746
32,0.3342031877372,0.33417030680179594
33,0.33419530598984826,0.33414250216881436
34,0.33419243864880666,0.33421932921806974
35,0.3341965375542641,0.3341291468342145
36,0.33419850996467804,0.334146243194739
37,0.33419454095098705,0.33415527937809625
38,0.3341940668357743,0.3341424788236618
39,0.33419756270779505,0.3341097130974134
40,0.3341918643977907,0.3341550558408101
41,0.33418789249658587,0.3341465183297793
42,0.3341936071515083,0.33412686530749003
43,0.3342123672299915,0.33412715675433474
44,0.33420296381579506,0.3341566193501155
45,0.33419068947103286,0.3344144644935926
46,0.334185468395551,0.33424830621480944
47,0.33418335622549056,0.33420021363099417
48,0.3341939404275682,0.33413727633158363
49,0.3341844908131493,0.33420789043108623
50,0.3365230184197426,0.33440102805693944
51,0.3341935518251525,0.334122773428758
52,0.3341929401556651,0.33428274023532867
53,0.33419418870078194,0.3342440533041954
54,0.33418263386355507,0.33415293258428574
55,0.3341868301762475,0.3341929279565811
56,0.334184056089984,0.33420522544781367
57,0.33418772753079734,0.3341336111227671
58,0.33418490501244863,0.3342452448606491
59,0.334182304084301,0.3341173196236292
