epoch,loss,val_loss
0,0.5578661176231172,0.5565070471366247
1,0.5566023760239284,0.5562321011622747
2,0.5563548647430208,0.5564187471469243
3,0.5563007468647427,0.5561396759351095
4,0.5562707248793708,0.5563917985757192
5,0.5562598104344474,0.5561429251829784
6,0.5562306176821391,0.5561241739590963
7,0.5562209775712755,0.5562470427751541
8,0.556223505947325,0.556072905421257
9,0.5562039039002524,0.556420863866806
10,0.47825900626182555,0.4451033681631088
11,0.44522605254915026,0.44510129539171855
12,0.44523143741819593,0.4451178172032038
13,0.445208065032959,0.4452955234646797
14,0.44532461702161363,0.44528160864114763
15,0.44524249997403886,0.44516196006536485
16,0.4452064538266924,0.4454635542035103
17,0.44518502074480054,0.44508318209648134
18,0.4452037156555388,0.4451773663163185
19,0.4451859146025446,0.44521260195970536
20,0.4451823362575637,0.4452011791070302
21,0.4454224484894011,0.4451740004221598
22,0.44518602308299804,0.4450703208843867
23,0.4451812684006161,0.44532602433363594
24,0.44517199924919343,0.44507050756613414
25,0.4451671222713259,0.4451576952934265
26,0.4451649305489328,0.4450711263815562
27,0.44516365406248304,0.44507550277312596
28,0.4451690140697691,0.44509249172608056
29,0.44516526932848827,0.445160796046257
30,0.44517446464300153,0.44512170674403506
31,0.44516327690415913,0.44507711120446525
32,0.4451617453893026,0.44510375954707465
33,0.4451569284200668,0.4450603466828664
34,0.44514942861265605,0.4451526212096214
35,0.44516445976495744,0.44512515991926194
36,0.44514436314503353,0.4450528948505719
37,0.44515416949987413,0.4450672834118207
38,0.4451611082686318,0.44505444685618084
39,0.4451681866380903,0.44512921357154844
40,0.4451507869958878,0.44510025654236474
41,0.4451606018079652,0.44515480162700016
42,0.44516033209694755,0.4453157313068708
43,0.4451548597017924,0.44503521198034285
44,0.4451488832036654,0.44511560797691346
45,0.44515638096465004,0.44504091785351435
46,0.44515702478090924,0.4450439810156822
47,0.4451441744234827,0.4452064826687177
48,0.44515485080745487,0.4450738111535708
49,0.4451575297779507,0.44507467287778857
50,0.4451340494553248,0.4450496970216433
51,0.4451556485626433,0.4451922234694163
52,0.4451450014511744,0.4450946271022161
53,0.4451512113147312,0.44504241102933884
54,0.445141013873948,0.4450892332792282
55,0.445149523668819,0.44505594146251676
56,0.4451564796765645,0.44505108044544855
57,0.4451542033751806,0.44505572579304375
58,0.44515940017170375,0.4450993122061094
59,0.4451423048708174,0.44520453306039176
60,0.44515367244349585,0.44511577304204303
61,0.44515530091524125,0.4450488583644231
62,0.4451400556564331,0.44507984310388565
63,0.44514911199940577,0.44504997140169145
