epoch,loss,val_loss
0,0.44744266590807175,0.44601514254013697
1,0.4456094484064314,0.4453694912195206
2,0.4454756978948911,0.4452518317103386
3,0.44539967328972285,0.4452979290088018
4,0.44538210864861805,0.44516411765416464
5,0.44533571502235203,0.44518511547644934
6,0.4453490449786186,0.4452621170481046
7,0.44526042050123216,0.4451162931919098
8,0.4452538109752867,0.4454170605738958
9,0.4452396007113987,0.4457471073071162
10,0.4452196677525838,0.44519466718037926
11,0.4452001912858751,0.44514246948560077
12,0.4451841034491857,0.44511803915103276
13,0.4451879078944524,0.4453476016918818
14,0.44517375471856857,0.4451158900856972
15,0.445177562740114,0.4453401661713918
16,0.44517560844288934,0.4451415393948555
17,0.4451683156159189,0.44515676273902255
18,0.4451617861787478,0.4450948321819305
19,0.44515992858012515,0.44515252248446147
20,0.4451631035672294,0.4451027028958003
21,0.4451882619924015,0.449850140273571
22,0.4458294418586625,0.44512245859702426
23,0.4451612012253867,0.445116514980793
24,0.4451615231434504,0.4451353931625684
25,0.44516157342990237,0.4451057192881902
26,0.44513995975255966,0.4451520182689031
27,0.44515485137701033,0.4451098328034083
28,0.4451401582095358,0.44514081058899563
29,0.44514559291468725,0.4450887992183367
30,0.4451446226636569,0.44511025947332383
31,0.4451412233710289,0.4452925839225451
32,0.4451404043369823,0.44510418019692105
33,0.4451406809224023,0.4450991201400757
34,0.4451537528567844,0.44512157889207205
35,0.4451600117882093,0.44532061727841693
36,0.4451527211864789,0.44510222985347114
37,0.4451559231281281,0.445100198328495
38,0.4451530365347862,0.4451115275422732
39,0.44514726397064,0.4451606570879618
40,0.44515133842494753,0.44508570949236553
41,0.4451499969893032,0.44509075248241425
42,0.44515056477652654,0.4450890099406242
43,0.445149639096525,0.44521508167187374
44,0.44515521764092975,0.44511058431863787
45,0.4451453342106607,0.4451690037846565
46,0.44514638387494615,0.4450911749402682
47,0.4451452512807316,0.44526290078957875
48,0.44514429754018786,0.4450896126230558
49,0.44515049121777217,0.44511138993501664
50,0.44514697910017437,0.4450898696581523
51,0.4451498174203767,0.44513701532284417
52,0.44514861979749465,0.4451680056254069
53,0.4451467575563325,0.4450828288992246
54,0.4451454593274328,0.4450951657493909
55,0.44514940362506444,0.44510350877046584
56,0.4451417738265461,0.4451476336717606
57,0.44514633299244777,0.4451173486908277
58,0.4451478555070029,0.44508348898092903
59,0.4451437095337444,0.44517103374004363
60,0.4451480225390858,0.445292371014754
61,0.4451452500025431,0.44520014107227324
62,0.44514263672298854,0.44507712092002233
63,0.44515995144844056,0.44527907903989156
64,0.44513937087191474,0.4450781567295392
65,0.4451469494634204,0.44508859439690907
66,0.44514248259862266,0.4451398673852285
67,0.44514825462632707,0.4451138149499893
68,0.44514374695883857,0.4450872887571653
69,0.4451412380139033,0.4452558073798815
70,0.44513843217160964,0.4451151788632075
71,0.4451429558330112,0.44509284460544585
72,0.4451373108691639,0.4450762212276459
73,0.4451364495025741,0.4450683482090632
74,0.44513887672954133,0.44508361542224884
75,0.44513801628351213,0.44527116558949154
76,0.4451343479487631,0.4450947371125221
77,0.4451380523840586,0.4451811598936717
78,0.44513964264260397,0.4450898104111354
79,0.4451338736017545,0.44507657118638355
80,0.44513644678062864,0.445255863904953
81,0.4451403170824051,0.44516036546230314
82,0.44513510935174094,0.4453577130238215
83,0.4451381589902772,0.4451188787619273
84,0.44513349154260423,0.44520080894231795
85,0.44513266205125385,0.44507638212045036
86,0.44513581770658495,0.44515537401040395
87,0.4451347823805279,0.44514368804295856
88,0.44513762386639916,0.4451335201660792
89,0.4451332957016097,0.4450759486953417
90,0.4451308983167013,0.4450920620759328
91,0.4451355804933442,0.4450743894577026
92,0.44513495883014464,0.44507478521267574
93,0.4451264860894945,0.44507701543966927
