epoch,loss,val_loss
0,0.6061379799313016,0.6035131627718607
1,0.5717342730230756,0.5041859903732936
2,0.5042492929299672,0.5037723052104314
3,0.5038217230637868,0.5037527740001678
4,0.5242473001347647,0.6026379610300064
5,0.6026202635765076,0.6023428375323614
6,0.6025269491275151,0.6024335262775421
7,0.6024672273927265,0.6023126988013585
8,0.6024358901315265,0.6022793584267299
9,0.8474566040436426,1.0
10,1.0,1.0
11,1.0,1.0
12,1.0,1.0
13,1.0,1.0
14,1.0,1.0
15,1.0,1.0
16,1.0,1.0
17,1.0,1.0
18,1.0,1.0
19,1.0,1.0
20,1.0,1.0
21,1.0,1.0
22,1.0,1.0
23,1.0,1.0
