epoch,loss,val_loss
0,0.3957257123920653,0.405721148788929
1,0.3945293507774671,0.30589741297562917
2,0.30587514984607694,0.3051856586138407
3,0.4137846829228931,0.9025695843696594
4,0.90178199145529,0.9007825955152512
5,0.900783914592531,0.9007026921113332
6,0.9278212454451455,1.0
7,1.0,1.0
8,1.0,1.0
9,1.0,1.0
10,1.0,1.0
11,1.0,1.0
12,1.0,1.0
13,1.0,1.0
14,1.0,1.0
15,1.0,1.0
16,1.0,1.0
17,1.0,1.0
18,1.0,1.0
19,1.0,1.0
20,1.0,1.0
21,1.0,1.0
22,1.0,1.0
