epoch,loss,val_loss
0,0.31070571462313334,0.30577969807386396
1,0.30860126436418955,0.3060486179590225
2,0.2947159069445398,0.2058233295281728
3,0.20654105451040797,0.20575796981652578
4,0.20550467130541802,0.20549279799064
5,0.2053510240183936,0.205719175974528
6,0.20532602004210154,0.20479199008146923
7,0.205091196431054,0.2049049171904723
8,0.20523606441087194,0.20466826404134433
9,0.20494933117760553,0.2050907537639141
10,0.21046258892615635,0.20513567332426708
11,0.2052620382838779,0.20477589548627537
12,0.2051366341544522,0.20542828625440598
13,0.20501051208045748,0.204753597954909
14,0.2049326246711943,0.20721474941571555
15,0.20502982356150945,0.20483209254344303
16,0.20489989160166847,0.2045609369377295
17,0.20487454124622875,0.20461484816670417
18,0.20485363831453854,0.204603047033151
19,0.2048277463151349,0.2046148463388284
20,0.20481200685103734,0.20576179924607277
21,0.20477239057752822,0.20499635769923527
22,0.20475754714343283,0.2050699200530847
23,0.20476246536771456,0.20449757931629817
24,0.20473041003611353,0.20523321210344633
25,0.20473222479224204,0.20480274775624274
26,0.20470603391859266,0.2046781402627627
27,0.20473847578962645,0.20456923673550287
28,0.2046809469229645,0.2044044148226579
29,0.2046702574027909,0.2050489423573017
30,0.2046747903327147,0.20454157613714535
31,0.20462621910042234,0.20470179225007692
32,0.20462548270159298,0.20443515739838283
33,0.20460749068525103,0.20464394002159436
34,0.20459185330073038,0.204548583984375
35,0.20456615932451355,0.20497711339592933
36,0.20456467124157482,0.20436432551344236
37,0.20457521704501577,0.2042849565545718
38,0.2045168761180507,0.2043704292078813
39,0.27146370280782384,0.40373644572496414
40,0.40365733795695835,0.4037248203754425
41,0.40348960026105246,0.4032542800505956
42,0.403430856804053,0.4034331855773926
43,0.40341860753297804,0.4032151630918185
44,0.4033939748737547,0.4032535674770673
45,0.40339351223574743,0.40321982206900914
46,0.4033989657296075,0.403229828675588
47,0.4033738242255317,0.40328224472204843
48,0.4033750878837373,0.40348967667420704
49,0.4033701285190052,0.40332502780358
50,0.4033752154575454,0.40327650447686514
51,0.4033548889226384,0.403376544435819
52,0.40335910815000536,0.403165984193484
53,0.403351152671708,0.40325157962242764
54,0.40335719294018213,0.40321999867757163
55,0.4033525188763936,0.40343141098817187
56,0.4033363225592507,0.40327081656455993
57,0.4033432196908527,0.40318787497282027
