epoch,loss,val_loss
0,0.5269674766746113,0.4826675023814091
1,0.4764204524797473,0.46435172516257417
2,0.46563219792657706,0.4609727605222592
3,0.46442289842520834,0.46428976154192036
4,0.4634974587073414,0.46184722222357577
5,0.46423893020427925,0.4597729137537446
6,0.4640236609549022,0.4605549377391518
7,0.4640013532723495,0.4606650920776652
8,0.4637364245372548,0.45988129116806287
9,0.46411616565753594,0.46012588629660717
10,0.46377050455471724,0.4584521879921671
11,0.4637889407509513,0.4620713067074085
12,0.46464919214777417,0.46163074564663065
13,0.46417810766099454,0.45828572739843226
14,0.4634625889044747,0.4608111799681757
15,0.4640057182746281,0.46081839005152386
16,0.46417644143915826,0.4600361898384342
17,0.46351723167732106,0.45945170586996703
18,0.46406281494302115,0.46093373306379604
19,0.4644746824896173,0.4608634309805416
20,0.46357660510952325,0.4617660133846388
21,0.464496908555802,0.46214437968152766
22,0.46381810694050085,0.4592139280287115
23,0.4645128439577987,0.4599138602239759
24,0.4643826773159021,0.4599081051368976
25,0.46381442692634867,0.4603217878142509
26,0.4641583960971611,0.46337736066240465
27,0.4641920512466072,0.4600386222686984
28,0.46410481964616035,0.4616728283869766
29,0.4640412590234541,0.4591142925322781
30,0.4641825348210392,0.4596130030723674
31,0.46397338818320283,0.45927803113222704
32,0.4647403390074463,0.4639486145025719
33,0.4645509592311873,0.4626005064977057
34,0.4640934313293263,0.46022674397830543
35,0.4645914974763357,0.46155049555783145
36,0.4643056924530179,0.46053167974571824
37,0.46416093058305513,0.4615097826849805
38,0.4640714226244353,0.4622928655592291
39,0.4643709348548976,0.459855537489963
40,0.4639446490688072,0.4617454023595177
41,0.46426562295616675,0.4593677622751791
42,0.464314401054306,0.4597181138089297
43,0.4644266615351073,0.46148049077268355
44,0.46427470636520507,0.46011591704512456
45,0.4638560973734165,0.4602755056535531
46,0.4640328296906858,0.45947762465728365
47,0.46443392486692525,0.46214585628629407
48,0.4645517236404747,0.4599579274412683
49,0.4644134375240633,0.4596246558287621
50,0.46406651113489517,0.45960845279190854
51,0.46417789164784434,0.46374021967252094
52,0.4645431844996299,0.46357675238730744
53,0.46403347306532133,0.4626504074047952
54,0.46463639154922876,0.46127821100212557
55,0.46410640812903237,0.46023180106743894
56,0.46451600109509605,0.460273077163093
57,0.46559580074872275,0.46268620768022656
58,0.4650494539446598,0.46304386457774277
59,0.46574404144926584,0.4623005819194992
60,0.46721594703731967,0.46417937199951476
61,0.46824907173243785,0.4635069816216935
62,0.466009939714276,0.4610970690544311
63,0.4638582303392305,0.46034444640152644
64,0.4633816552577351,0.4589394759039326
65,0.46019315253122983,0.4537786505421486
66,0.45875670586088546,0.4562919552453823
67,0.4587111810357977,0.45975020063764566
68,0.4582301782573863,0.4552498968123229
69,0.458048785348431,0.45321546909486193
70,0.4581718434683316,0.45622183226610913
71,0.4581342607116203,0.45539359544122116
72,0.457981332241773,0.45750478630325025
73,0.4589694996563504,0.4556319664042845
74,0.45867433672766383,0.4531018834286169
75,0.4582962744755207,0.4545689736646264
76,0.4585388737310878,0.45754522184289187
77,0.4587447523975296,0.45749036338110816
78,0.4589510216676683,0.4585784485885407
79,0.4596581210891565,0.45547207723472144
80,0.46045152502980013,0.4601386166015294
81,0.46275400115643817,0.4561254869170626
82,0.46261599143330245,0.4548466366331266
83,0.4590629287678495,0.4553124062771345
84,0.4586600788218007,0.4559517595116336
85,0.45866412821533775,0.4545511754179813
86,0.45873228628173457,0.4551144296428776
87,0.4587215157248098,0.4540413806859981
88,0.458923984769347,0.4563878225487418
89,0.45890089861147876,0.45429876018904713
90,0.45863143874226425,0.4535444609681862
91,0.45867248319739623,0.4548429491939529
92,0.459224147437285,0.45449863189328327
93,0.45920268418170435,0.4566919493510872
94,0.4587861638459518,0.4556203038104646
95,0.4594359426402015,0.45599353282024296
96,0.4595686377788945,0.4543540778192967
97,0.459566269257815,0.4541855686724138
98,0.45976160020471285,0.45820028341502944
99,0.45952876645913593,0.456998145130719
100,0.4598876483279099,0.4544918129865657
101,0.45957432445093954,0.45449857427062584
102,0.4589654925802023,0.4554237695796066
103,0.45924192026341026,0.45631577440711996
104,0.45947370024993,0.4559862258370485
105,0.45924977465473815,0.4548126183818823
106,0.45954871069106035,0.45388587707440636
107,0.4590125572356918,0.45594279689220324
108,0.45919213226263383,0.4558766684392943
109,0.45904622192951655,0.4562886910813665
110,0.4595295987170252,0.4564637983125685
111,0.45917279729612165,0.45490261980023505
112,0.45943686900566444,0.4535311292751185
113,0.45877569033395205,0.4538110208917418
114,0.4590591630690378,0.45547200351445927
115,0.4590004149964564,0.4537685877263594
116,0.4590072459321293,0.4552608549788244
117,0.45933863408475806,0.4557933479861718
118,0.4592858493876896,0.45391158137201587
119,0.46014052058001154,0.455537747123429
120,0.4600278489631686,0.45607594102741933
121,0.4596347183561783,0.4558296645451443
122,0.4594091428600377,0.45652485930716613
123,0.45959861895100795,0.4557106114942082
124,0.4600830537567528,0.4566619080783677
125,0.460046136935202,0.45507408984289455
126,0.45966822159490744,0.45462370494082993
127,0.45968883722614917,0.4544219585907527
128,0.4592273924186575,0.45516069295052486
129,0.4592010631286401,0.4566198829606792
130,0.4597320114616588,0.45626774519706104
131,0.45924407790144317,0.45617955086778456
132,0.45889703925845143,0.456179432915365
133,0.4591609373438158,0.4591415189236813
134,0.45941669266638135,0.4534551881719003
135,0.4587543626682008,0.45468798042890607
136,0.459161804307452,0.45691269628903003
137,0.4593755268664051,0.45522608862402764
138,0.4590680260745118,0.4565956816137659
139,0.4586511132977694,0.4570323982958086
140,0.45883393721927923,0.4562972548620931
141,0.45846645973079964,0.4558820050853302
142,0.45796219510636965,0.45388207042594314
143,0.45766180911190135,0.4528498009318563
144,0.4579065680694733,0.4539660415993603
145,0.45756429123630327,0.4547738427324983
146,0.45799557278879743,0.45628494275650744
147,0.4575846324547278,0.45519611304693847
148,0.4578766737154143,0.45375635760737354
149,0.4581778334488002,0.4573017579698988
150,0.458487510168142,0.4550112046947928
151,0.45786402779545565,0.452958853116194
152,0.4580694359598206,0.4545578852187108
153,0.4580728706715105,0.4557977293626332
154,0.4583620697713261,0.4520168692864544
155,0.4585361366896175,0.45410941349038825
156,0.45938873102514144,0.45639870832436275
157,0.45838142318235003,0.4547315236764136
158,0.45839785514257736,0.4539244682297703
159,0.4583602974637209,0.45363378544116734
160,0.46038485729427125,0.45806610941983583
161,0.46000360996366213,0.4549823361059948
162,0.4584407257952625,0.45961222415132824
163,0.4584496413544715,0.4539612781585761
164,0.45803403474981064,0.45305718170948756
165,0.4584248875908321,0.454411530581704
166,0.45814312953916525,0.4537293331853181
167,0.45856004910434695,0.45463162679935215
168,0.4581232976207168,0.4528876551746452
169,0.45813004071231456,0.4533568686425734
170,0.4586111157774639,0.4564261042240279
171,0.45868111998916533,0.4545827102873834
172,0.45882790755805636,0.4527128363467771
173,0.4589468601396124,0.4537587231818197
174,0.4590036243057136,0.4542151446131701
175,0.4588622337250446,0.45543593530817333
176,0.4589106464166466,0.4538436917541284
177,0.45928426326705135,0.455317637273575
178,0.4594724252521753,0.454361157889107
179,0.45978832583698487,0.4545142220126258
180,0.45937026793762054,0.4592738234213669
181,0.4599565155416417,0.4562997098193358
182,0.4601787698326157,0.45522506848062233
183,0.45989398997101044,0.45566410988883477
184,0.46038662850427287,0.4552810682770883
185,0.46055464250884887,0.457243468832989
186,0.4611682062439197,0.4611531114394551
187,0.4610134105714824,0.45779270895689556
188,0.46155270764692197,0.4593117939004643
189,0.46177985908700714,0.4584283149058705
190,0.46227680406778504,0.4577520998241644
191,0.4625339652534673,0.4596755350399868
192,0.4630305480489357,0.46044729068718204
193,0.463623692027276,0.4596285791486042
194,0.46399180704445914,0.4593144763028438
195,0.46460413226516273,0.46001927952213395
196,0.46410718250026506,0.459783671739521
197,0.46472425853089394,0.4608046528970141
198,0.46473028223881063,0.46047156921075016
199,0.46508661493527786,0.4648354010715392
200,0.46522215769899855,0.4618857004056592
201,0.46574700670876057,0.46087801362186165
202,0.4652253642881079,0.461047598601161
203,0.4662190799096568,0.4624550947791082
204,0.46740441383410686,0.46781294771741294
205,0.4678959540122027,0.46360963353372064
206,0.46786032374903525,0.4629253254416312
207,0.4685884541731247,0.46435175075921603
208,0.46870531870709886,0.46438692037593227
209,0.4698082784636675,0.46675476915258174
210,0.46730360215763933,0.46101855750694953
211,0.4641842749879492,0.46029601296272493
212,0.46406579870668,0.45930770515718794
213,0.46398741330167026,0.4614066554585416
214,0.4646106926654223,0.4614416790607975
215,0.464190038253633,0.46584004175827354
216,0.46473539662991076,0.45951154605702277
217,0.46446888567544253,0.46160089592573994
218,0.4640923162357057,0.45865921447746943
219,0.46431505315011745,0.45879959335002296
220,0.46415541151029954,0.4605358716006793
221,0.46411261437319107,0.46359827394226366
222,0.46414665282488443,0.46037809010549763
223,0.46411797082166467,0.4610475924618343
224,0.46402370824729855,0.4598207171139249
225,0.4637255625929042,0.46045421831315836
226,0.46388139000074496,0.46327895566591476
227,0.464033614155099,0.4595485994560585
228,0.46383769779180506,0.4610554013712466
229,0.4640007757062049,0.4605666419788772
230,0.46392619006150815,0.46133938941739
231,0.46365076116173626,0.46109939339387157
232,0.4637253843397021,0.4593292020339842
233,0.4639111544916017,0.4594002170767711
234,0.4638763762789788,0.4613375743278525
235,0.46424144647234056,0.4601909800312525
236,0.46421188079089143,0.4600760273979818
237,0.46377388402831565,0.4592645555517099
238,0.46378224748101016,0.4603681521790838
239,0.46369528323054027,0.4617973064515809
240,0.46395347887177385,0.4594234879531226
241,0.4636489737740128,0.46109826349187266
242,0.46394147865289304,0.4625003392969025
243,0.4638932596167342,0.4591081673694836
244,0.46389588690978034,0.4622953750452953
245,0.4639546581990629,0.45933253762205734
246,0.46384548688765237,0.45847196996647077
247,0.46361566306926233,0.45965363804344617
248,0.46378937374362,0.45968113311499187
249,0.46391574960884996,0.4594201816114486
250,0.46404939169307247,0.4605111524233079
251,0.46408875947527356,0.4609026372771097
252,0.4640308359296347,0.46257891127082845
253,0.46404346742565106,0.45978126157035887
254,0.46407068439060634,0.45981632551330914
255,0.4637724801933794,0.46063966779619914
256,0.46412170800664504,0.45953378107909354
257,0.46409492119490575,0.4621867672612004
258,0.46373998343324163,0.4596478239076464
259,0.4639621970293711,0.4587518067158825
260,0.4640749433071161,0.4598255490057853
261,0.4636628606182943,0.4602656613881281
262,0.4642214301207048,0.45993679578190205
263,0.4639783808118921,0.46163694436049324
264,0.46424814458605385,0.45895759022922317
265,0.4641648188674803,0.4608675531758976
266,0.4640767056408455,0.46009918056361965
267,0.46428701355516483,0.4607943429370673
268,0.4644255778902144,0.461615926278672
269,0.4644583440046486,0.46069210119974485
270,0.4640648046357809,0.46293276120566396
271,0.4645005203157162,0.4607610666258782
272,0.46424519315397766,0.4586087373438059
273,0.4647376627636681,0.46007548953011473
274,0.46412681138591827,0.46023185716734993
275,0.46441949034233493,0.46090409988711156
276,0.4640693397308179,0.4610267975952987
277,0.4645997081235278,0.4607102878675747
278,0.46406782972659943,0.46007203772990374
279,0.4643939980823961,0.4584882949197186
280,0.4646108602050593,0.46028738776456024
281,0.4644419356309671,0.4604556307692114
282,0.46410547652609163,0.45936021116914927
283,0.4641666607655364,0.4662203063398285
284,0.46467703388775705,0.46033636733756644
285,0.46414347398605604,0.46225436985347684
286,0.46441199663307686,0.4613367714779414
287,0.4643053160227233,0.45977325069159874
288,0.4644453245415699,0.46077858988386
289,0.4644339534404089,0.4602530956364993
290,0.46406822388557745,0.461309269977022
291,0.4646415622640935,0.46171564784653285
292,0.46428128355164067,0.46017707974951344
293,0.4638879865145473,0.4641095860064368
294,0.46423971466869235,0.4606484875433443
295,0.46414943676504544,0.46010606004180504
296,0.4640777636829427,0.46138030382451833
297,0.4643661427655346,0.4598686440340987
298,0.4645284156593158,0.46351299663916506
299,0.46452762512229173,0.46128615637861997
300,0.4642503287574594,0.4620623129321034
301,0.46396653502105806,0.46130433806731075
302,0.46423465890393817,0.4624183078606923
303,0.46441987387126116,0.460558745934532
304,0.46384240394596865,0.4604328451413791
305,0.464070325963396,0.46066438530580067
306,0.46412322763875546,0.4600852001322447
307,0.4643452365795453,0.4594038753420574
308,0.4641816751349917,0.46028325389481517
309,0.4644100310637342,0.4608747960587198
310,0.4643825182230402,0.4614089742870903
311,0.4643536061883641,0.46262589952661465
312,0.46478188914762103,0.46093852014340525
313,0.46455234958468866,0.4660090082366585
314,0.46462049387138876,0.4594235988960746
315,0.46462592751002485,0.4610618949178168
316,0.4644845027843411,0.46154495367941967
317,0.464425344076798,0.4623555790478876
318,0.46446513157305097,0.4601375423402005
319,0.46446865591838704,0.46039798490805833
320,0.46461679666542455,0.45983883985057655
321,0.46423504610745026,0.46062725083864714
322,0.4644815266561852,0.4625095200316266
323,0.4646360814762268,0.4633710451563103
324,0.4642963629541061,0.4596589846477601
325,0.4647101762773897,0.4611149212981469
326,0.4647639492471472,0.4626430248402041
327,0.4644394732647843,0.4620345945727603
328,0.46479992575651174,0.4631099647269052
329,0.46448241975948845,0.4613335208494491
330,0.464781229022601,0.46142398059029743
331,0.4647085016445697,0.4626966368736335
332,0.4647718303746658,0.4594725372099045
333,0.4644035720367065,0.46152780835259183
334,0.4642793064813217,0.459983384425526
335,0.4645808230193736,0.4600168352482866
336,0.4646806526389286,0.4599390424854467
337,0.4644627125979997,0.4593615784262219
338,0.4647685541712446,0.46140873357230633
339,0.46437936207597214,0.46010141926670306
340,0.4646570605812691,0.45990502711050124
341,0.46425646735583426,0.46224634911312096
342,0.46450958463599723,0.46011891134463956
343,0.46446935116672056,0.466016650151549
344,0.4643524354271549,0.4610094414768621
345,0.46450000422730076,0.46229287194026164
346,0.4647522659374295,0.46395824558350096
347,0.4646630200435869,0.4614332232258712
348,0.46491612268505905,0.4595321421688974
349,0.46481103875381263,0.46310617272581206
350,0.46454371039489445,0.46277137036644533
351,0.46472332519803455,0.4621687180997875
352,0.46464781464339255,0.4611821621293859
353,0.46443137404821316,0.4624924797501297
354,0.4644368877641863,0.4618054083325664
355,0.46445374663254085,0.4591975261405147
356,0.46467413486625025,0.46006465531033613
357,0.4646733071538713,0.46127002326724786
358,0.46492637405164533,0.4637423208208463
359,0.46432984650755427,0.46007702733478406
360,0.4646234645950403,0.4604345147965502
361,0.46469854249106685,0.45951089238791765
362,0.46471701208069577,0.460294879628504
363,0.4644430401661188,0.4614499874068583
364,0.46492035782413543,0.46230419544504603
365,0.4648643908284014,0.4606355429420796
366,0.4648718241456034,0.4593600807930528
367,0.46469654666604376,0.46291935864446226
368,0.46464573343197185,0.46320747234235427
369,0.4652209506094981,0.4596197153384958
370,0.46462367614619343,0.46265692502526085
371,0.4649326752862327,0.46168595076284075
372,0.4648461585000957,0.4651225678870471
373,0.46506332430102715,0.4610122679842263
374,0.464982777643051,0.46006331780724474
375,0.4643961271230844,0.45999925238566003
376,0.4607153811556898,0.4577031688581901
377,0.4588949309887172,0.4557978754737758
378,0.458702327109414,0.456200004905003
379,0.4582681917161155,0.45501965390698074
380,0.45821386476675924,0.4566074400922678
381,0.4581168857190588,0.45323302723098746
382,0.4582788674377078,0.45504280707261857
383,0.4586060771806609,0.4541186344932949
384,0.45831811559305274,0.4546455363625931
385,0.45863781435142237,0.4552196738977115
386,0.4585737016102712,0.45748403898024115
387,0.45879567252864256,0.4572508906022572
388,0.4587826864708892,0.45543978164472526
389,0.4589928696043879,0.45809483813350027
390,0.4594285119477036,0.4561824271665389
391,0.45911867518106203,0.45962902729528665
392,0.45977894786456,0.4559708876234675
393,0.4595788110486024,0.45837704845781935
394,0.4595738941903492,0.45652331241435956
395,0.4595162430889994,0.45467208788729446
396,0.459195746742696,0.4566462940543237
397,0.4598345690674549,0.4548123925320037
398,0.4593861488889369,0.45531113973885945
399,0.4593211409208582,0.4539553179116338
400,0.4598967992157054,0.4562300711942705
401,0.4594734703377784,0.45571883782949857
402,0.459080706413886,0.45894926085475973
403,0.4593262942530233,0.4576949817275769
404,0.45918733876547496,0.4566099300726777
405,0.4595383111241343,0.45501447647254056
406,0.45936120453598595,0.45470424814622573
407,0.4588830607284824,0.45412413878645824
408,0.45953216516465734,0.4583644734246887
409,0.4597604036617508,0.45522309567806496
410,0.45923763908463733,0.4544162414514815
411,0.4593710477133576,0.4576807843652665
412,0.45908047838674915,0.4556856377039706
413,0.4594865229079206,0.45621631736206214
414,0.45927556907777506,0.45660475010032686
415,0.4594689903138064,0.4577170158679758
416,0.4594678595793352,0.4565651845564614
417,0.4594276397465896,0.45671397628865396
418,0.45965758134261236,0.45584816632479647
419,0.45915898965825264,0.45562671800502796
420,0.4590243223049433,0.4563002375597308
421,0.4591269043085573,0.4555010279309721
422,0.4589841219307996,0.4554176044628471
423,0.4585770404486775,0.4547674718999515
424,0.45905972908648424,0.4580575901613135
425,0.4591698145584835,0.4568383453439525
426,0.4595897873465398,0.4583201404518938
427,0.4594013238544937,0.4572461728196945
428,0.45936988495749603,0.4573171291038068
429,0.4597283194812419,0.456170151824402
430,0.458911045956268,0.4551858303755739
431,0.4591268232529215,0.45729579897982653
432,0.459463829513165,0.4553660810332132
433,0.4596657790333104,0.45538492146683046
434,0.4592235622952899,0.45417506003031766
435,0.45942502703258187,0.4554053371211715
436,0.4595826288119996,0.4556892603176547
437,0.4592055598433443,0.4571563359546352
438,0.45962824898543025,0.4552393986602576
439,0.45909860931796204,0.4563617617109396
440,0.4593836181611419,0.45636138080680455
441,0.45924128724442564,0.4551306980369735
442,0.4593664185465384,0.45469502172910964
443,0.45918371148401493,0.4588956610274721
444,0.4585055511316554,0.4582394359804031
445,0.45818932001308216,0.4540669554534813
446,0.4586410608598955,0.45835973881940384
447,0.4591533021033526,0.4566037054721263
448,0.45859174898044885,0.45599620932500146
449,0.4587363743896576,0.4599177199268573
450,0.4589735565541552,0.4546551481795717
451,0.45871381191991634,0.4553183077654023
452,0.45910733824877664,0.4614489103175718
453,0.45883211733294643,0.4564226875194958
454,0.4590745372496384,0.4557810010749542
455,0.45899458619668254,0.45450122331760806
456,0.4584122690871012,0.4545502542047508
457,0.45848399165680737,0.45484628574884917
458,0.45842198868863004,0.4556273779343128
459,0.4585219947240943,0.4541420423201401
460,0.4588565925916163,0.4558828848701904
461,0.4586233395018322,0.4568255686798622
462,0.45892300878504544,0.45395938797105356
463,0.45864338029900775,0.4546075808934245
464,0.4587283239210005,0.45680724740608475
465,0.45840101692082885,0.4547230199837433
466,0.4590484794256113,0.45662691386753435
467,0.4592442642435062,0.4547019701417829
468,0.4585813132761191,0.45396265380283923
469,0.4588521727330213,0.45630117197009673
470,0.45879350170743666,0.4551543520894944
471,0.45862302695922225,0.45613172275693264
472,0.45854392017814233,0.4544133741683527
473,0.458734260011521,0.45778461497968903
474,0.4581149397156924,0.45404546660131684
475,0.4584856956982441,0.45661119064082
476,0.459048333026773,0.4552626712285496
477,0.45847701589711864,0.4560413196960892
478,0.4586061939799948,0.45854383083445605
479,0.45906992074105146,0.45708384341277053
480,0.4591273794396578,0.4567443968219092
481,0.45871954050371416,0.4565457201110379
482,0.4589755028080616,0.45277898529633603
483,0.45869991393257276,0.45558650493138414
484,0.45914802080493056,0.45628022388626865
485,0.4586019126819171,0.4602570934500621
486,0.45911386980115176,0.4554889285989825
487,0.45951202765906496,0.4564066229317117
488,0.45955206799783926,0.45621334326915014
489,0.45967409892784683,0.45458317097859563
490,0.45937706639854503,0.45581021677741945
491,0.4598116575836467,0.45435007814459943
492,0.45941412955928174,0.45483150809930767
493,0.46042178703652464,0.4565722108467362
494,0.4601205784239895,0.4566021762480121
495,0.42057352877550835,0.22817478932603433
496,0.267303107647871,0.24838767538492212
497,0.22236143676541728,0.21079387523638748
498,0.21345894454454212,0.20985446655208853
499,0.2140200841572401,0.20322243646935342
500,0.21269281096965242,0.20232301842895642
501,0.21272017114800965,0.21193036046679775
502,0.2134474094232337,0.21172801220890766
503,0.21498529144746958,0.19825049097568934
504,0.21534983998685,0.21129931509494781
505,0.21876084580242014,0.2287484931201347
506,0.22576235961303223,0.22273632818765013
507,0.240933086654489,0.2543158249601734
508,0.2761384241634889,0.268946017033669
509,0.2667706619390399,0.24061654109299327
510,0.2642248737170183,0.249571615967534
511,0.27075601177061914,0.2645882429601889
512,0.27244962902785874,0.26164369091742035
513,0.2773405376126806,0.2615772914277376
514,0.28296378652771725,0.2759549479753335
515,0.2785814857964901,0.2863598875610788
516,0.2567165270626688,0.24154713187919627
517,0.23397044206949308,0.2079960471691393
518,0.20983227739651933,0.18935751316756227
519,0.18604705171335975,0.16253429889944832
520,0.16398618899112802,0.15816977678738467
521,0.1560781588397616,0.1260345894405248
522,0.16990414303276327,0.15419337763137578
523,0.16633375332332115,0.15160389302565813
524,0.15561533367948785,0.129597572031199
525,0.15863345736701837,0.1408460347370123
526,0.15595363205175003,0.14007032400983577
527,0.1514170942358297,0.16257082662467345
528,0.16710470833355565,0.14677349554747948
529,0.15922483598128903,0.15787557075034286
530,0.158039581188686,0.15087298030110752
531,0.15374003634679975,0.14476768521400166
532,0.1563158232101304,0.12312042600772097
533,0.14530950926059336,0.13198794741168413
534,0.14596962039653447,0.1234268052662086
535,0.1439547564586799,0.13990685473054962
536,0.13782227602157238,0.1282694080583177
537,0.13818253111168802,0.1392225180930078
538,0.1400167559049099,0.12106811644967165
539,0.14693708322029575,0.14800064842800542
540,0.14208551817793574,0.11319126747095382
541,0.1493345679755541,0.1509105675436091
542,0.14689149658044307,0.1543507465529229
543,0.14604771008686698,0.09125364689037072
544,0.16622327731920777,0.2045131088366667
545,0.18352466211725083,0.1516869954903824
546,0.16878903500312228,0.12963811916035553
547,0.16918832590405325,0.2730760010441241
548,0.18007427630565756,0.14146608223614418
549,0.21503416501623904,0.1780508151406306
550,0.19276460204377854,0.20154466456450396
551,0.22908157582362715,0.18263117498918366
552,0.187280087007748,0.13871007486392306
553,0.21834125083455858,0.20323553745425627
554,0.21939926678009086,0.4108034223680659
555,0.208578945963,0.11887570492929303
556,0.22180555345978234,0.3070293654055491
557,0.2531627652893742,0.3385809787095125
558,0.3153044696601989,0.4497981092017159
559,0.26822362405608136,0.204126896250567
560,0.28853393310876346,0.3679560470513377
561,0.3066149890017185,0.41066895673068093
562,0.3971308649982139,0.1729821226916851
563,0.18279772191595517,0.2145591191494262
564,0.21142941227166342,0.18992071373377598
565,0.21188629532547545,0.20865299452975428
566,0.2123281984948654,0.18803710957561579
567,0.20665612380751808,0.1930964646282374
568,0.19423365423543823,0.18715142871389906
569,0.20630108486947488,0.19355011527749066
570,0.19979962726251138,0.21582057354223988
571,0.2018113690879557,0.17455431834672971
572,0.17267144085754385,0.15591225344672593
573,0.14298316802057007,0.1416864931849281
574,0.14060054036726752,0.13236274472940093
575,0.18211657732271785,0.22920127893403017
576,0.2361897801617988,0.2250627764143406
577,0.23725062083778045,0.23282702634562735
578,0.2551859144130356,0.24005889916748702
579,0.2698501035917082,0.2607797575813914
580,0.26367104050514695,0.25612249244110236
581,0.2492462747496925,0.23838842676503816
582,0.24709371061588498,0.24677550355206634
583,0.33505610185112356,0.2736892862621595
584,0.24105637452547984,0.24142884957964403
585,0.22692710769663246,0.23890051963555553
586,0.2010786534339977,0.12703643124082276
587,0.1773492942830388,0.23560595522058367
588,0.18603390081523893,0.1906232087837422
589,0.2150247032620651,0.2678863563290091
590,0.2362160662098156,0.1904620239624432
591,0.31182353917935834,0.2999725597642441
592,0.32642356151218316,0.4020340622003158
593,0.37167776507244193,0.34467188778294844
594,0.3531377441864953,0.35152463502547454
595,0.3627557268946337,0.35583351870329516
596,0.35986470788407077,0.3464475913881192
597,0.355626689006177,0.35020197155701854
598,0.3520655300948408,0.3403374071007131
599,0.34864345597352286,0.3421926062617569
600,0.34689796469610534,0.33366895657386225
601,0.3428979376920039,0.3394937969423945
602,0.3433707558197246,0.34033969240467044
603,0.3428885424084621,0.3336002709221666
604,0.3428856739647585,0.3388188975860893
605,0.34300956477204547,0.3378567288101735
606,0.344208482626059,0.34081707296580294
607,0.3482094355661264,0.3405078484435828
608,0.3504898373225482,0.3450599763805269
609,0.3495500641550609,0.3396063929685034
610,0.350518417725857,0.34084111577789666
611,0.3503408824996628,0.34455831980956636
612,0.35353186437852674,0.3500387741604764
613,0.35453001283902563,0.34409982067535105
614,0.3552060036348094,0.34713905368118103
615,0.3562960218700817,0.3570014312077806
616,0.3571385530422362,0.3531120696497079
617,0.3570012485055183,0.35153469056591985
618,0.35787687566969467,0.35157931385152436
619,0.35894371681303094,0.356514405256737
620,0.3582392150254322,0.3596696194989451
621,0.3583481765752606,0.34706535014502904
622,0.3578619927501946,0.35037296614024277
623,0.35706927868917143,0.351608976153755
624,0.3571530295501622,0.3451083219351076
625,0.35565079939518096,0.3475228816101634
626,0.3546671688652115,0.3448862551385952
627,0.35152548596895244,0.3394643025773382
628,0.34889625960154186,0.341527651043704
629,0.35047016681147347,0.33646054339911624
630,0.3472226362785785,0.3428586443458644
631,0.345041647052364,0.3340686819510835
632,0.34410814085514474,0.33468532436568854
633,0.34122928770615446,0.34083070998160897
634,0.341010306349652,0.32827003596279547
635,0.34020785666447434,0.32786330310000894
636,0.33812976023070423,0.32891073327478315
637,0.3399441287195902,0.33412696122639757
638,0.34106323182630577,0.32967637130040417
639,0.3394030485036757,0.3294649272794561
640,0.3389930417530054,0.3267556416824013
641,0.3394513545964984,0.32930327590557973
642,0.3367799740490482,0.33188399278527825
643,0.33625241492489416,0.32562718406887625
