epoch,loss,val_loss
0,0.45956632911454975,0.454199713965257
1,0.4458320133212044,0.4414881509981414
2,0.4369740403425975,0.4273651305788247
3,0.4288604859644034,0.42297180603409923
4,0.4267120204689934,0.4391826598565708
5,0.4597055594048162,0.44516584023024686
6,0.44573288657299176,0.44680239462344223
7,0.4421109159396389,0.43127556641896564
8,0.4372899892527287,0.43547237306371217
9,0.4381538806116487,0.4332848008750945
10,0.43470055123013773,0.43632188433593555
11,0.4399736098299815,0.43168119196743926
12,0.4384249241685304,0.4375202524107556
13,0.44742628978932,0.4458264467097068
14,0.45131513106776033,0.445049374371536
15,0.44849398157258674,0.44933674946542856
16,0.4519288528153277,0.4534616930655731
17,0.44800867333890887,0.44278971325288446
18,0.4473264798756659,0.4455312833536503
19,0.446346380696522,0.4452636285807735
20,0.4459554687963696,0.4430254928247873
21,0.4431420740649456,0.4439943160775096
22,0.4542907364373132,0.45776747871738993
23,0.45623052079142545,0.45402298082214915
24,0.44970942493968125,0.4531485635873883
25,0.4501990369689746,0.4510784389436707
