epoch,loss,val_loss
0,0.5059879956775242,0.5025262717008591
1,0.5025084810786777,0.5027554851373036
2,0.5023121014965906,0.5022880965471268
3,0.5022308441797892,0.5022010711431504
4,0.5021189453734292,0.5020869537591934
5,0.5020822169515822,0.501923402428627
6,0.5020188740756777,0.5021402982870737
7,0.501967382338312,0.5018377747535706
8,0.5019319740136464,0.5018461378018061
9,0.5018946889373991,0.5017435037295024
10,0.5018690868616104,0.5021729303598403
11,0.5018244487709469,0.5016547265052795
12,0.5018133073912726,0.5016322575012843
13,0.5017831374804179,0.5018717873891194
14,0.5017698438829846,0.5020180745124817
15,0.50177148326238,0.5019518104791642
16,0.5017585268947813,0.5019897822539011
17,0.5017570612563027,0.5016225913365682
18,0.5017498997979694,0.5017108365694681
19,0.5017406266795265,0.5016052528619767
20,0.5017459485398399,0.5015844995975495
21,0.5017425243457159,0.5016880418459574
22,0.5017300151189168,0.5017011992931366
23,0.5017187277608448,0.5015686079263687
24,0.5017280281252331,0.5016168225606282
25,0.5017193060451084,0.5017473291158676
26,0.5017127360900243,0.5015488109985987
27,0.5017267583873537,0.5015613154570262
28,0.5017169909079869,0.5018557959000269
29,0.5016992695066664,0.5018751978874206
30,0.5017087168693543,0.5016256122589111
31,0.5017052351898618,0.5015399956305822
32,0.5016953557729721,0.5015895936091741
33,0.501697319481108,0.5020043387810389
34,0.5016960047483444,0.5019008605877558
35,0.501695976946089,0.5015626810391745
36,0.5017053653928969,0.501799298842748
37,0.5016989374690586,0.5016847686767578
38,0.5016951413154602,0.501496731877327
39,0.5016931442419688,0.5017032719055812
40,0.5017021244366964,0.5015742403268814
41,0.501689874039756,0.5017697506745656
42,0.5016814899577035,0.5015394409894943
43,0.5016791278653675,0.5015298173824946
44,0.5016855159335666,0.5015426933765411
45,0.5016833766169018,0.5015553221702576
46,0.5016826938390732,0.5019419232209523
47,0.50167464975516,0.5016781627337138
48,0.5016883561213811,0.5015672716697057
49,0.5016844678057565,0.5017577240864436
50,0.5016835842662387,0.5015494664907455
51,0.501668991777632,0.5016340308189392
52,0.5016921023792691,0.5015542919635773
53,0.5016625855498844,0.5015405565102895
54,0.5016831291781532,0.5017303675413132
55,0.5016776722404692,0.5016558584372203
56,0.5016581633090973,0.501609048128128
57,0.5016718893580967,0.5016733413934708
58,0.5016687919696172,0.5015737075805664
