epoch,loss,val_loss
0,0.6320125916931364,0.6292969274520874
1,0.6284360660447015,0.6274589964548747
2,0.6279126686122682,0.627007084051768
3,0.6277402180565728,0.6273319089810053
4,0.6275916765928269,0.6269843095541
5,0.6275242980453704,0.627064619143804
6,0.6274683134688271,0.6276912529865901
7,0.6274650714132521,0.6270435256958008
8,0.6273914273315006,0.626898817896843
9,0.6273689725663927,0.6279156196117401
10,0.627349079436726,0.6268830179770788
11,0.6273435079786512,0.626912872672081
12,0.6272897410657671,0.6278689812024434
13,0.6273152681456672,0.6277387085358301
14,0.6272810474369261,0.6269812300205231
15,0.6272632248799006,0.6270242413679759
16,0.6272575782537461,0.6270428290367126
17,0.6272282513512505,0.6274770758946737
18,0.6272246428595649,0.627048499862353
19,0.6272283862166934,0.6293333035707473
20,0.6272058444420496,0.6270575337807337
21,0.6271765985753801,0.6269290421803793
22,0.6271885173718135,0.6269596196810404
23,0.6271905984348721,0.626914104660352
24,0.6271714311440786,0.6271227649450302
25,0.6271831817626953,0.6269747482935587
26,0.627166682680448,0.626972695906957
27,0.627146784265836,0.6271840928792953
28,0.6271453123092652,0.6268986207644145
29,0.6271238943073485,0.6268938700755438
30,0.6271489111582438,0.6283960657914479
