epoch,loss,val_loss
0,0.3398976013792886,0.33854043447971344
1,0.33642703484164344,0.33589628382523856
2,0.3361169527769089,0.33592982282241185
3,0.3359983207186063,0.33622710867722827
4,0.3359458269874255,0.3357857882579168
5,0.3358743066655265,0.33569932224353155
6,0.3358485390941302,0.3357245019276937
7,0.3358114184141159,0.3357460156083107
8,0.33579465767410066,0.3358234566450119
9,0.33575352198547787,0.335881330927213
10,0.3357322667837143,0.33560299573342006
11,0.3357150593598684,0.3357303248047829
12,0.33570063559214275,0.3355984771251678
13,0.3356991674701373,0.3357564552426338
14,0.3356825277540419,0.33553971670071286
15,0.3356758736504449,0.33561543039480846
16,0.3356767194602225,0.3355744017958641
17,0.33565405121114517,0.3355458538532257
18,0.3356519146296713,0.3355525172948837
19,0.33565172794130116,0.33587090627352395
20,0.33564367687039903,0.3355130917827288
21,0.3356488231420517,0.3356199379165967
22,0.33563984345065223,0.3355191533366839
23,0.3356274738046858,0.3355240789651871
24,0.3356416909098625,0.3356459089318911
25,0.3356293342643314,0.3355336605509122
26,0.33563761923710506,0.3355493923226992
27,0.335620745241642,0.33547812670469285
28,0.3356310627394252,0.3355235824386279
29,0.3356182278725836,0.33592602547009787
30,0.33562140256166456,0.33572271557648975
31,0.335626364880138,0.3355661674141884
32,0.3356254336966409,0.3356390439470609
33,0.335618299735917,0.3356809438268344
34,0.3356132583816846,0.33548028419415155
35,0.3356170791718695,0.3355373323559761
36,0.3356030631727642,0.335519806543986
37,0.33561670042408837,0.33558136290311813
38,0.335607097307841,0.33554583764076235
39,0.3356040395696958,0.3355680631995201
40,0.33560767294300925,0.33556110566854475
41,0.3356105336017079,0.335487558722496
42,0.3355965650810136,0.3355599072178205
43,0.33560053947899077,0.33559624578555425
44,0.3356064438356294,0.33551022138198217
45,0.3355927139321963,0.3360571965575218
46,0.3355974353816774,0.3356007461349169
47,0.3355992331703504,0.335733392516772
