epoch,loss,val_loss
0,0.559640777958764,0.5576975620190302
1,0.5293760073979695,0.44666309374570845
2,0.44676203771432244,0.4469014145930608
3,0.4466861372987429,0.446525525311629
4,0.4466309921277894,0.44649798144896824
5,0.44660214147965116,0.44642424499988553
6,0.44658121318949595,0.44644235452016195
7,0.4465523479249742,0.44652859367926917
8,0.4465444339050187,0.4464335900743802
9,0.4465227841999796,0.4463883740504583
10,0.4465133249229855,0.44642778142293293
11,0.44650885314411587,0.4463683899243673
12,0.4464813669456376,0.4465808237592379
13,0.4464796870814429,0.44635305913289386
14,0.4464736001690229,0.44654070208470026
15,0.44646107727289197,0.4464047584136327
16,0.4464482999112871,0.4464545710484187
17,0.44644774188597997,0.4470775556763013
18,0.44644438407818476,0.44645510172843933
19,0.44644886740711,0.44635042097171146
20,0.4464431932701005,0.4463474373221397
21,0.4464357853796747,0.44635816806554796
22,0.44643701004981995,0.4463244602282842
23,0.44642964977025984,0.4463775790731112
24,0.44643316107988357,0.4464174213608106
25,0.4464312110543251,0.44633564007282256
26,0.44642994695239596,0.44688561763366064
27,0.4464240647819307,0.44635368857781094
28,0.44642854942878085,0.44640514143308
29,0.44643002057737774,0.4463520602385203
30,0.44642492628097535,0.4463289756178856
31,0.446420382115576,0.446327167391777
32,0.4464227749109268,0.44647730521361034
33,0.44642820158931945,0.44641208297014234
34,0.44641619661781523,0.4462893766562144
35,0.4464117420713107,0.4463338427742322
36,0.44641486622889837,0.4462848763267199
37,0.4464113797545433,0.4463882207075755
38,0.44641200768947603,0.4463893001874288
39,0.4464199098216163,0.44644928407669066
40,0.44641120127836864,0.44644729483127593
41,0.4464039785861969,0.44657593820492425
42,0.4464082640475697,0.44636411301294965
43,0.4464274941417906,0.4462938756545385
44,0.44640502304501006,0.44647756548722584
45,0.4464114550352097,0.4463085410396258
46,0.44639814149008855,0.4464275508324305
47,0.44641192542182073,0.44631714196999867
48,0.4463924099869198,0.44631685040394464
49,0.4464007434580061,0.44635351055860517
50,0.44639241993427276,0.44632462443908055
51,0.44639354952176413,0.446371895134449
52,0.4464016143414709,0.4463074752688408
53,0.44638974169227813,0.44630994031826654
54,0.44640938232342403,0.4463426233927409
55,0.44639814118544263,0.4463166014353434
56,0.44639438783460195,0.4466960857709249
