epoch,loss,val_loss
0,0.34032730530367955,0.337605429927508
1,0.33671477133697936,0.3362483931382497
2,0.33625215204556785,0.3358617821931839
3,0.3360680253240797,0.3359660049478213
4,0.3359719547099537,0.33611779163281125
5,0.33589889201190737,0.33597539861996967
6,0.33585110582907995,0.335703699251016
7,0.3358111894395616,0.33584340969721477
8,0.3357908191548453,0.33564731194575625
9,0.3357595320410199,0.3356424890756607
10,0.3357446632517709,0.3356686781048775
11,0.33573316133684583,0.33564248396952945
12,0.3357243119279544,0.3355804407596588
13,0.33570465633604263,0.33561099783579507
14,0.33570042642619874,0.3355865699450175
15,0.3356934778955248,0.3357312767505646
16,0.3356852861709065,0.33577656269073486
17,0.3356765947540601,0.3358712095220884
18,0.3356789720720715,0.33569789459307986
19,0.3356771286725998,0.3357313657005628
20,0.3356698693235715,0.3355654573837916
21,0.3356653808554014,0.3357872850696246
22,0.3356650810374154,0.33560970014333724
23,0.33565359301037256,0.3355401348670324
24,0.33566175290611056,0.33560456756750745
25,0.335644000503752,0.33638323058684666
26,0.33564471153418224,0.33566863141457237
27,0.33564029790957767,0.33558056910832723
28,0.3356428269942602,0.335537772556146
29,0.33563434453143015,0.3356965446074804
30,0.33564459933174984,0.33554152989387515
31,0.3356267340514395,0.3355929202636083
32,0.33562189282311333,0.3358045726219813
33,0.3356285016205576,0.33550266685088476
34,0.3356169410149256,0.33546727267901105
35,0.33561850855085584,0.33557625631491345
36,0.3356135020520952,0.3355458962519964
37,0.33559983201821647,0.33572091166178386
38,0.3356087595423063,0.3354342373808225
39,0.33561396951145595,0.3354845645825068
40,0.3356131482389238,0.3354602035284042
41,0.33560728726122113,0.33558137295643486
42,0.33559128556648893,0.3356401338179906
43,0.33560533289776906,0.3356983361442884
44,0.3355920036567582,0.3355241947571437
45,0.33560153677728444,0.3362182332078616
46,0.3355943768488036,0.33562198452154796
47,0.33559702711635164,0.33547591453790665
48,0.3355965921084086,0.3355611773133278
49,0.3355900903675291,0.3355192757844925
50,0.3355952812433243,0.3364928423961004
51,0.33557860802279577,0.335491735180219
52,0.33559183539946874,0.3354210751056671
53,0.3355918606917063,0.3355108688275019
54,0.33558635369936624,0.3354396467208862
55,0.33557968778742686,0.335634508172671
56,0.3355788901713159,0.33568484816948574
57,0.33558532632059523,0.3354778167804082
58,0.33559723640812766,0.33547071389357247
59,0.33558150748411814,0.3355982160568237
60,0.33557393972741234,0.33543083401521046
61,0.33557624930143354,0.3354581095178922
62,0.3355843097236421,0.3358505024115245
63,0.33558513009548185,0.3354195898373922
64,0.3355760820971595,0.3354626751144727
65,0.3355868246687783,0.3358166668613752
66,0.3355842232637935,0.335425523797671
67,0.3355922558175193,0.3354789595802625
68,0.33557806456751293,0.3354681845108668
69,0.3355739607347382,0.3356046688556671
70,0.3355737073024114,0.3356748886704445
71,0.33558006876044805,0.335503670891126
72,0.33556767120626235,0.33550029891729355
73,0.33556445735030704,0.3354800825317701
74,0.3355665756927596,0.3354166924357414
75,0.3355853249563111,0.33543368049462635
76,0.33558006460136836,0.3357256802121798
77,0.3355755794313219,0.3354766533176104
78,0.33557089518838457,0.3354215198556582
79,0.33557409108347364,0.33542389915386833
80,0.335573124077585,0.33549775811036425
81,0.33556865863667595,0.3354892319242159
82,0.3355661508772108,0.3355267261068026
83,0.3355685908463266,0.33574455988407137
84,0.33556960213184356,0.33540847911437355
85,0.3355662839677599,0.33556108591953915
86,0.33557387693723045,0.3354143272638321
87,0.33557335605886246,0.3357726852695147
88,0.3355750186112192,0.33542840639750165
89,0.3355672587421205,0.3354849789142609
90,0.33557137719127866,0.3354897372921308
91,0.33557523043288123,0.3354073230624199
92,0.3355586159361733,0.33560774151484174
93,0.3355676033033265,0.33551023252805073
94,0.3355703613559405,0.33591419424613317
95,0.33556133474906286,0.335412247300148
96,0.3355610165066189,0.33557024705410005
97,0.33556463731659786,0.335573857486248
98,0.33557014970646964,0.3354344154993693
99,0.3355699479315016,0.33545172345638274
100,0.335561904516485,0.33541851925849914
101,0.33556543863481947,0.33547346939643224
102,0.3355804386602508,0.335469566822052
103,0.33556977239582275,0.3355510436892509
104,0.33555421840482286,0.3355488364100456
105,0.3355788597994381,0.3354096016685168
106,0.33557021524508795,0.33581216750542325
107,0.3355659763879246,0.3354735865990321
108,0.3355665667653084,0.3354961199363073
109,0.33556837253438104,0.33555999032656353
110,0.3355634863972664,0.33578624320030215
111,0.33557885647482344,0.33538489800691607
112,0.3355676130188836,0.33548180709282555
113,0.33556684513224494,0.33559168301026027
114,0.33556767982906766,0.33549357428153354
115,0.3355636596083641,0.3355698479612668
116,0.3355696699221929,0.3356692039569219
117,0.3355581887827979,0.33558194011449816
118,0.3355675229695108,0.33552874386310577
119,0.335567330274317,0.3354662996331851
120,0.33556546752320393,0.3354775114655495
121,0.3355777208738857,0.33544193212191264
122,0.3355597185095151,0.3355044268965721
123,0.33556759383943346,0.33567946594953535
124,0.33556785621907975,0.3355638409256935
125,0.3355672334565057,0.3356737971504529
126,0.33557144614722995,0.3354223300814629
127,0.3355644975370831,0.33552714266379674
128,0.33556387821833294,0.33565592193603516
129,0.33556635316212974,0.3354244729479154
130,0.3355813579691781,0.3355561713178953
131,0.3355556498501036,0.3356047721107801
