epoch,loss,val_loss
0,0.4498441849417157,0.44742949883143107
1,0.4471085717876752,0.4467657786607742
2,0.4467783992886543,0.4474227362275124
3,0.4467001882394155,0.4465322500069936
4,0.44664175824986563,0.44674865823984145
5,0.4466030646165212,0.44659799500306446
6,0.4465678903394275,0.44646428861220677
7,0.4465593702197075,0.44658827408154805
8,0.44653255668613645,0.4465286359389623
9,0.4465084094338947,0.4463723004857699
10,0.4465030201342371,0.44645825431744257
11,0.44648506911595665,0.44686371930440266
12,0.44647183548079594,0.4464423970778783
13,0.4464677566554811,0.4463244087100029
14,0.4464509372711182,0.4464355444510778
15,0.4464513796435462,0.4469384772181511
16,0.4464435875945621,0.44635443232456845
17,0.44644812824991015,0.4463974507252375
18,0.44644314186440576,0.44651099119583765
19,0.4464298160804643,0.4463183724482854
20,0.4464232419398096,0.4463088534871737
21,0.4464287055598365,0.4463230891426404
22,0.44641698288255266,0.44628543392817177
23,0.44641701444652343,0.4467843142946561
24,0.44640550618701513,0.4463080719312032
25,0.44640673821502264,0.44630691967407865
26,0.4463995137413343,0.44628517349561053
27,0.4463950922754076,0.4463291695713997
28,0.446408821993404,0.44628597525755564
29,0.4463973263104757,0.44631333390871686
30,0.4464024685819944,0.4466261154611905
31,0.4463869339492586,0.44643139602740606
32,0.4463878637022442,0.4463068218429883
33,0.4463903975354301,0.4467125694155693
34,0.44639508767260444,0.446300052245458
35,0.4463808977736367,0.446734815577666
36,0.44638684963517716,0.4463703681627909
37,0.446380556318495,0.44784245679775875
38,0.4463905702630679,0.446458303352197
39,0.44639083029164206,0.4462719176808993
40,0.44638539781835346,0.44632130551338195
41,0.44638952743344834,0.4465030974348386
42,0.4463870778083801,0.44628900853792824
43,0.44638681564728416,0.44632360504070917
44,0.4463849152326584,0.4462811111609141
45,0.4463811342583762,0.44634413355588914
46,0.4463787520395385,0.44627841329574586
47,0.44637841842571896,0.4463533396323522
48,0.4463773292634222,0.44630314471324284
49,0.4463753002617094,0.4464058551589648
50,0.44638759904437597,0.4464003750085831
51,0.4463805409669876,0.44646114428838096
52,0.446376780933804,0.4463734676639239
53,0.44637331646680833,0.44629931916793186
54,0.44637161842981976,0.44631752890348436
55,0.44636995055940415,0.44630897223949434
56,0.4463823936515384,0.44626110714673994
57,0.4463738712204827,0.4463049720327059
58,0.4463651804857784,0.44634240194161734
59,0.44637231497632135,0.4464493921995163
60,0.44637617026435006,0.4462931014696757
61,0.4463820360104243,0.4462892652551333
62,0.44636880481905405,0.4462842679818471
63,0.4463660307923953,0.4462801978389422
64,0.4463810775478681,0.4464060237209002
65,0.44637198248174453,0.4465819531083107
66,0.44636910076936087,0.4463227253754934
67,0.446383527788851,0.44627722569306694
68,0.44636483387152354,0.4466817901134491
69,0.44637184935145907,0.44627541238069535
70,0.44637101174063154,0.4462702407638232
71,0.4463744966056612,0.4462831641038259
72,0.44635829210281375,0.4463006803592046
73,0.44637522553073034,0.44644677674770356
74,0.44637291678455143,0.446844795525074
75,0.4463761900332239,0.4465497639775276
76,0.4463623358805974,0.4463777112364769
