epoch,loss,val_loss
0,0.45063617106278736,0.4478178719878197
1,0.44729371262258955,0.44681270150343577
2,0.446844602074888,0.44666110128164294
3,0.4466794233057234,0.4468741343021393
4,0.4465985694196489,0.4466122903426488
5,0.4465657943089803,0.44650855733950934
6,0.44651331959168117,0.44655384184916813
7,0.4464880469772551,0.4463761427402496
8,0.44646083117855917,0.446421805024147
9,0.4464574169119199,0.4464337191780408
10,0.4464447170760896,0.44631401854753494
11,0.44643187020884617,0.4463362330595652
12,0.4464246042768161,0.4463250711162885
13,0.44640898517105315,0.44655575082699456
14,0.4464083075324694,0.44627218568325044
15,0.44638432615995405,0.4466149205565453
16,0.4463918489946259,0.44626644178231556
17,0.4463878882262442,0.4463925115267436
18,0.4463769375085831,0.4463667635520299
19,0.4463717589245902,0.4463389438589414
20,0.44636186724238924,0.446239728252093
21,0.4463655795653661,0.44663825490077336
22,0.4463603891531626,0.4463185979525248
23,0.44635270243883135,0.4463574267625809
24,0.4463539921243985,0.44636008036136626
25,0.4463412345382902,0.446247197051843
26,0.44635597670078275,0.44636536516745884
27,0.4463575492898623,0.4462934273084005
28,0.4463503278228972,0.44624470396836596
29,0.44634259984228347,0.44640743402640026
30,0.4463501379556126,0.446435290714105
31,0.4463551100558705,0.4462397636771202
32,0.4463387465543217,0.4462810200850169
33,0.44635060290495554,0.44625925419727963
34,0.44633746792872747,0.4462909716963768
35,0.4463339581290881,0.4463233559926351
36,0.44633275820149315,0.44632137219111123
37,0.44634287819597457,0.44645730370283127
38,0.446331097026666,0.4462867011626562
39,0.44633436324861314,0.44627393794059755
40,0.44633475040727194,0.4463004786769549
