epoch,loss,val_loss
0,0.5594619744486279,0.5579685252507528
1,0.5576871394581265,0.5574436761538187
2,0.5574787304798762,0.5576141983270645
3,0.5573990609380934,0.5574267715613047
4,0.5573305501672957,0.5572738551696141
5,0.5572987326251136,0.5573157085577647
6,0.5572592291567061,0.5571572133700053
7,0.5572371653318405,0.5573201456069946
8,0.5572117693954044,0.557196389079094
9,0.557208922902743,0.5571398948033651
10,0.5571973822116851,0.5571416584253311
11,0.5571863250599967,0.5570827947457632
12,0.5571779308054182,0.557133880575498
13,0.5571730672915777,0.5570799284378688
14,0.5571683879560895,0.5570939377148946
15,0.5571665672063828,0.5572349807818731
16,0.5571596388154559,0.5570907749732336
17,0.5571562985579173,0.5572942101558049
18,0.5571493266688453,0.557139132976532
19,0.5571469275554021,0.5572370724280675
20,0.557143210530281,0.5572400135199229
21,0.5571384023030599,0.5570804485082627
22,0.5571304525534312,0.5570703510840734
23,0.557131458706326,0.5570602813164394
24,0.5571356984509362,0.5571117380857468
25,0.5571330865886477,0.5576225366195043
26,0.5571358083221647,0.557113191485405
27,0.5571349559227625,0.5571020168860753
28,0.5571259472767512,0.5573157013654709
29,0.5571277023156483,0.5571047496000926
30,0.5571232471995884,0.5571466803948084
31,0.5571278786261876,0.5570257096687953
32,0.5571177396112018,0.5570970356861751
33,0.5571244824992286,0.5570324202775955
34,0.5571269272300932,0.5571966126362483
35,0.5571232753594716,0.5571977695624034
36,0.5571271687878503,0.5570454976161321
37,0.5571157365375095,0.5571303515831629
38,0.5571191152996487,0.5570439466635386
39,0.5571146295865377,0.557120442867279
40,0.5571203231414159,0.5570364536444347
41,0.5571178902387619,0.5570922948519389
42,0.5571159067948659,0.5570640158255895
43,0.5571203968657388,0.5571130587259928
44,0.5571135949691136,0.557081108212471
45,0.5571188157267041,0.5574851510922114
46,0.5571104108757443,0.5572151401837667
47,0.5571133262978659,0.5570554541349411
48,0.5571079929669698,0.5570410281817119
49,0.5571190927426021,0.5571701427698136
50,0.5571152327193154,0.5570639752149582
51,0.5571205982367198,0.5571641557614009
