epoch,loss,val_loss
0,0.452259656820324,0.2926570994527187
1,0.2685082197738133,0.2554026953301967
2,0.1914118873753292,0.1708466533302584
3,0.1754928739984528,0.18653016344667545
4,0.16305907934104757,0.1545645825486307
5,0.16689942721381867,0.17065860547385173
6,0.17401680715376133,0.166463214248443
7,0.17901019396795761,0.1715043859446039
8,0.18201980402796053,0.16958320129961862
9,0.18519598932219467,0.17284307008290425
10,0.18564522698271074,0.17831525679100652
11,0.18422953819958948,0.16574307708167876
12,0.18640342582049993,0.1659726378208046
13,0.18639212422627655,0.18740467281237136
14,0.18664770811987075,0.17807858624621706
15,0.18763574740414718,0.1707605046355328
16,0.1860894117537167,0.1634034370310115
17,0.1840907005165175,0.16773810999623567
18,0.18072633505213537,0.18840207444732013
19,0.1832755516448004,0.17820685251713378
20,0.1747907559462697,0.15945482497546892
21,0.16886246635066307,0.16013660612429242
22,0.165410975824961,0.15219234657041059
23,0.16099406056422247,0.13437394435243305
24,0.1568341241438118,0.13683317188363875
25,0.1541942472907426,0.13779982387270273
26,0.15257553869874788,0.14453756333074236
27,0.1534770418277638,0.12537396674415296
28,0.14748774752844038,0.14307373046681635
29,0.1454695515197406,0.1082809013099276
30,0.14612669589592991,0.1374112841615035
31,0.14794561329534095,0.13876498341922922
32,0.14849431218923903,0.12539180763978255
33,0.14765082714889793,0.13507097260988735
34,0.14719563387662435,0.12750431000944665
35,0.15425865301449265,0.14734614748637656
36,0.15084318750149445,0.13638947455745737
37,0.15145082163025705,0.14546022113995735
38,0.15220445607176677,0.13852852408299093
39,0.15218636797990104,0.14157927527552394
40,0.1573590320662511,0.15411056921985802
41,0.15422075935859408,0.13546590573499576
42,0.156001406460046,0.13191639486963153
43,0.15611631764446476,0.14004145576546856
44,0.15446466038986337,0.1358074509362718
45,0.1518859151658342,0.14226535320378664
46,0.15656392928287446,0.15188089605278826
47,0.15734555489354557,0.14021282371160756
48,0.15693561364117387,0.13340157274057104
49,0.15617568689205344,0.14353449018453063
50,0.15814089200334897,0.14221887017954488
51,0.15725443205289882,0.1355442573034657
52,0.15769007174466684,0.1395797319619615
53,0.1564452650638415,0.13795901031897306
54,0.15536537314888188,0.15821774403012484
55,0.15377392686957164,0.13258112836493194
56,0.15546212810053647,0.1420696696262
57,0.15588922279359724,0.14562774727548514
58,0.152409754085054,0.14718473224091705
59,0.15291800460009408,0.13761104595607987
60,0.1519176552118398,0.13187927268113148
61,0.15106962600333676,0.1322262646979369
62,0.15295531386263472,0.13936129524784174
63,0.15087617559729813,0.14465425501291285
64,0.14805646229973787,0.14295603780246613
65,0.1483831159066591,0.13182150660760986
66,0.14294427288494843,0.12402593041109246
67,0.14550195628101584,0.14000031084958267
68,0.1434440201221465,0.11994545317624317
69,0.14232392735880695,0.13155921298439485
70,0.1364277623611703,0.13471340980843036
71,0.13396511918561663,0.12475590504530669
72,0.1324885179988855,0.12505014147685006
73,0.13392766862749766,0.11366119491357873
74,0.13385647010979793,0.11520787932141854
75,0.13827989785204992,0.1398788588627605
76,0.13187783765640138,0.1064196361254505
77,0.1338809493950026,0.1428601455248572
78,0.1331720147117841,0.10885591588050296
79,0.1287921322397798,0.1175783156853136
80,0.12950150787925796,0.11185274960810057
81,0.13220443570310828,0.11519230401864017
82,0.13109331099007776,0.11248246142874863
83,0.12794616993209473,0.1173519740683319
84,0.12677158166268904,0.10851953422767016
85,0.12673499419975032,0.11318471082104771
86,0.12985360142800978,0.11169574729379173
87,0.13232206449723893,0.12397726497704288
88,0.13340039410776763,0.11595263880196376
89,0.13653810063989952,0.12614700508161183
90,0.1356531586184847,0.1316944657245595
91,0.13420047277541425,0.12445434477763358
92,0.13525234898022884,0.11004338817729857
93,0.1333783866317154,0.1148213934083828
94,0.13432056010604573,0.11719581985125577
95,0.1343694651116124,0.12263577587944845
96,0.13542677797049021,0.10882765318162056
97,0.13222807118470808,0.12475632410874139
98,0.1338936173714238,0.10973430381421626
99,0.13062784146126794,0.13003685451071145
100,0.13267761208206486,0.1123613831432293
101,0.1339180309167378,0.10885437861967164
102,0.133374515682268,0.10812990679817285
103,0.12828849249476906,0.09524300587510831
104,0.12539729067654587,0.10595743472341203
105,0.12574860683565525,0.11325662442923366
106,0.12929335527951188,0.10774722442768109
107,0.12870662346529999,0.10830465013528393
108,0.12704323924141372,0.11139148932376337
109,0.12707954315577535,0.1209363496748297
110,0.1328236325662598,0.12075463766405858
111,0.12965183259488297,0.1304730076678188
112,0.1287743735751264,0.1074498170882536
113,0.12791715818550511,0.10876069647552324
114,0.1264781115876378,0.11132485443682373
115,0.12302520877724175,0.10458036676496388
116,0.1272285609655947,0.10602414791093835
117,0.12482514117268012,0.10797205070050286
118,0.12182474726314445,0.11155656800097019
119,0.1229284457456741,0.11388329258800423
120,0.12070236184758792,0.09656630044943515
121,0.12169118189484812,0.10868250090396221
122,0.12136313065683679,0.10114266360231464
123,0.12092714177204476,0.09522333723060115
124,0.12085775047051515,0.0944966367368087
125,0.12224931780210106,0.12178723213760619
126,0.12440236450864182,0.10169054340610442
127,0.11739527506886528,0.10496215606886299
128,0.11901362176188189,0.09364102742146015
129,0.1156546554212765,0.09521914055965243
130,0.11805600362767975,0.10577703071554212
131,0.11787568347109519,0.10566904411529586
132,0.1145645970161005,0.10665104335773697
133,0.11442635380167117,0.09377364613061404
134,0.12058694562535462,0.1112902478737166
135,0.1162549556077147,0.08155356039688148
136,0.11201557972795778,0.09054179979671044
137,0.10986548655325647,0.09009617115676838
138,0.11067561329371506,0.09482075724167642
139,0.10877548892787688,0.08795950833076592
140,0.1124229838399051,0.09393600442137838
141,0.11397612488286508,0.08680347853248814
142,0.11457738636420954,0.10002498840497745
143,0.11692826023654904,0.10515128360685061
144,0.11716933085846366,0.09323026610286084
145,0.11397516980671807,0.09161982588645219
146,0.11270421250962658,0.11402584697570824
147,0.11134681229988894,0.09346979536835198
148,0.11082449504394261,0.09176430075949803
149,0.11165672806415966,0.08961410628328068
150,0.11182386837332987,0.08452575432630641
151,0.11230776750380464,0.09254085891921639
152,0.11430811882317304,0.0885383680414496
153,0.11438653307308475,0.1026720248543433
154,0.11947389369050535,0.09579803038989734
155,0.12041597234143363,0.11583749639340174
156,0.1280441838350174,0.11263775555998547
157,0.12671611249578105,0.1087369050374383
158,0.131694113201886,0.11502620270241593
159,0.1308142826873794,0.10440605330157841
160,0.12707762599731084,0.12595183425866194
161,0.12493069145121605,0.11255288672756587
162,0.12131879532081877,0.10317818027681581
163,0.11990483397479244,0.10987146883381158
164,0.1188624779834711,0.11504937630427725
165,0.12109105010107578,0.0969802563207863
166,0.11987546192194291,0.11146047350022238
167,0.11660062612367689,0.11931934862700498
168,0.12021166528519198,0.10053873605367525
169,0.11765604464708565,0.09636753418053057
170,0.12323096481631335,0.11236157610299427
171,0.12204520058056847,0.10983803874940672
172,0.12104073281976296,0.11221382770587639
173,0.12580085246025133,0.10864510153331895
174,0.1271103812371186,0.11410718213008461
175,0.12417495566262925,0.09514367157428708
176,0.12094168302366694,0.11497504675620374
177,0.1191149133535697,0.116376346383555
178,0.1188474607507022,0.11110213543956877
179,0.11887971463324644,0.0900866867308199
180,0.12267796148816712,0.11222844625258968
181,0.12741037386896803,0.10652051566339371
182,0.1276838409813573,0.13187744887205807
183,0.129102278831866,0.10941559881793708
184,0.12872193280676061,0.10712833359342035
185,0.1290132932907777,0.11850799934973295
186,0.12886102219001114,0.11596514650190737
187,0.130154749788672,0.11476970389062374
188,0.1294679040785691,0.11450993631032068
189,0.13285291067259708,0.12007339339815111
190,0.13455617917273596,0.12519906030398312
191,0.1361487834446663,0.11972314267383778
192,0.1411089587589805,0.13168255566027912
193,0.1427986179444912,0.1318809974270919
194,0.1481602187689731,0.13731008145085022
195,0.14967454592283483,0.12327182929832957
196,0.15103412900057384,0.14169958956533588
197,0.15082794773557168,0.14645879022589758
198,0.15340276077103385,0.14669641347818035
199,0.1569531569399053,0.1394860363850145
200,0.1577568706617153,0.1401629797926978
201,0.1596050195133476,0.1554385610196712
202,0.16081003394959162,0.13755151111593308
203,0.16289560927497185,0.14356438774503738
204,0.15698446946336422,0.13540787298748963
205,0.15535579666232852,0.14848922987658128
206,0.15787469863509826,0.15852625254127714
207,0.1589758719792597,0.15020944374490344
208,0.15733076151523046,0.14919071178656715
209,0.1543821774995785,0.14100838295468834
210,0.152926153402695,0.1352056179857312
211,0.15291076522168395,0.12893816507259037
212,0.15137530836143237,0.13284791919001698
213,0.14802559369129598,0.12227841980290045
214,0.14998755460266497,0.14346226189355007
215,0.15035106654199148,0.13932922031709263
216,0.14739257865865008,0.13990928878024256
217,0.14469662314359907,0.13898471095701204
218,0.14380423070264875,0.12477480721662225
219,0.14482381801196248,0.13429745193646386
220,0.14262410961658215,0.13621547080377014
221,0.13672603644711004,0.13190819471107684
222,0.13997951798361716,0.12211298485137734
223,0.14312773303474016,0.11301331188218533
224,0.13731456393774172,0.13250433996211003
225,0.13871649286752227,0.1236963213420649
226,0.14098046394326003,0.12537915077716089
227,0.141900722882908,0.14857518196782732
228,0.14096221452753385,0.11527073318675003
229,0.13898338236994415,0.12041578086550798
230,0.14119049825901694,0.1272257925082974
231,0.14179973025396883,0.12326193153737332
232,0.13857992568774352,0.11001346323152722
233,0.13476438032950852,0.10990206028326488
234,0.13468332404645086,0.11107521336178226
235,0.13013877369183077,0.1038489523015173
236,0.12882340615622706,0.12027057382336305
237,0.12812719763733083,0.10433346085063055
238,0.12769729465401297,0.10825290628206605
239,0.12464219247631496,0.09832924195933129
240,0.12693549973891677,0.10037187338237925
241,0.12465396557477496,0.09709395902096887
242,0.1250365584390797,0.10221246845675791
243,0.12544561340343102,0.09722654284593639
244,0.1242243373711363,0.1099754977919953
245,0.12466704626504281,0.10869829195331773
246,0.1216710989174841,0.1065959951508751
247,0.1201579530147002,0.12614094569904477
248,0.12231467228779513,0.09988955966070814
249,0.12387363169136478,0.10731453030987281
250,0.12470194273251739,0.09336796100194727
251,0.1265741564136586,0.11570238213856242
252,0.1297412387746348,0.10586318677020866
253,0.13345293860861643,0.10920577769417736
254,0.1313954184951784,0.1183275592370625
255,0.13573788885799667,0.12165126495746123
256,0.13155706165682038,0.10895341959240373
257,0.12957498397502162,0.10862741432630812
258,0.12943505642233227,0.10816980676615229
259,0.13072424750324724,0.11316831783970874
260,0.13006174833692008,0.11567398129274278
261,0.126880103559662,0.11389462266114313
262,0.12446250110041436,0.13324401479906312
263,0.1256325591662772,0.10741510108077033
264,0.12335864355186638,0.10117614368355961
265,0.12203076565034204,0.10982525476163128
266,0.11984893230436515,0.10901605949373817
267,0.1161397138030363,0.10610433368183014
268,0.11871200006267278,0.11218155239499496
269,0.1196026152746977,0.10473583869497077
270,0.12120213389122267,0.09415856554850464
271,0.11982073247122517,0.1049246319840811
272,0.11994548502853147,0.10827158237992508
273,0.12106438783751286,0.10722312365038456
274,0.12116573396339428,0.11728988889988515
275,0.1247025161080832,0.11161682418179725
276,0.12469160795104418,0.11101760143612037
277,0.12622515950277388,0.09459672274561984
278,0.12711738238783718,0.11466331797480486
279,0.12558708776584904,0.1037014982416102
280,0.1251714176373829,0.10223277248532812
281,0.12204337892256038,0.10943752897046778
282,0.12310085892438698,0.11258511501458826
283,0.12122620232969976,0.11424641716630113
284,0.12352207008066227,0.10372545269211424
285,0.12808277281679756,0.10589676019822497
286,0.12889561560258472,0.11690773931539648
287,0.12519026582567,0.10728908678862686
288,0.12351228716411145,0.11017647978984914
289,0.12180737676240617,0.10982589146299084
290,0.12373179697794758,0.10159771635052835
291,0.124785484222649,0.11774481660161479
292,0.11834335099276397,0.11426252762984185
293,0.12072728157604189,0.10475332399910287
294,0.12536853326975203,0.11152355385595285
295,0.12231209051248738,0.1156182268699397
296,0.1243551065765017,0.1210231839559084
297,0.12160302952582164,0.10623294571890449
298,0.1201020188874202,0.09469669868766246
299,0.1240358433698873,0.11646714539471817
300,0.12652252216915114,0.1032488509734665
301,0.125566957704872,0.10258153868901082
302,0.12368357056875626,0.10903536570647433
303,0.12494482839699265,0.11503218425572256
304,0.12561023001185506,0.10584806829739274
305,0.12421543502492653,0.11863019306511774
306,0.12438707964552985,0.10199528997227707
307,0.12575244998709978,0.12440932495557286
308,0.12353215995934412,0.10499427823496367
309,0.12711657363298037,0.11980565762432822
310,0.12527875060005317,0.10732941312559813
311,0.1219229736865712,0.09676387403326506
312,0.12228388469621504,0.11042456090788674
313,0.12208948142414956,0.10710438870237982
314,0.12318712714507735,0.10915369326543344
315,0.12370020064642374,0.10726277280027849
316,0.12341723204243651,0.10265573028351171
317,0.1255676671534514,0.1008692678224238
318,0.12104362580743286,0.1123861248777924
319,0.12276382351501453,0.11387988680253064
320,0.12224222024122747,0.08798235954243964
321,0.11889892348570763,0.11503853015027583
322,0.11908443222304074,0.11231681251322846
323,0.11485914203574697,0.11312802422969978
324,0.1164162987626916,0.09629194235424636
325,0.12013907882692912,0.12471359146385781
326,0.11980492524128614,0.09656201944734058
327,0.1202511197542123,0.10667655862330037
328,0.1216747023946672,0.10379390758126128
329,0.12023646491553613,0.11061959459302102
330,0.12123295730703158,0.10499891782570736
331,0.12101458264492435,0.09857511980230985
332,0.12117826479902451,0.11687868787013508
333,0.12181328703239978,0.10799652735029694
334,0.12208318013885767,0.09933057542216556
335,0.12253091240628325,0.1147117384581767
336,0.12287047170728946,0.11584309160419334
337,0.11963443181889834,0.10838247110518806
338,0.12015201974573662,0.12295422382163305
339,0.1221506777133724,0.10018044096830891
340,0.12375010059083147,0.11100423010330518
341,0.12468956570156677,0.11564236295025038
342,0.12425733800288484,0.10947460345833261
343,0.12168484914293282,0.10982543668752749
344,0.12365040659987993,0.1069904820448194
345,0.12581887776501852,0.10527630167841814
346,0.12309442020004228,0.09474741839724446
347,0.1246890857624855,0.11003735993852097
348,0.12638022189585565,0.11792480691796092
349,0.12292690355602123,0.09842753642376902
350,0.12486281059234977,0.11033093872489914
351,0.12331670846303909,0.115383872875622
352,0.12423609759065034,0.10183012052246544
353,0.12368400460235876,0.09990261100528691
354,0.1238862452350014,0.11649251221063557
355,0.12513051795854485,0.10999593718184365
356,0.12467676583674547,0.1006858391749211
357,0.12830626572653042,0.10228115164305462
358,0.12840228888382904,0.1100815717623375
359,0.12277428376629317,0.10265657917837351
360,0.1255282794503425,0.10966859629796176
361,0.12329748315845517,0.1026178932924727
362,0.12221040581766847,0.10118751611563605
363,0.12362437447409233,0.10845796225497323
364,0.1255240562984092,0.12241843119203223
365,0.12412518795260531,0.10697411528251467
366,0.12366299320749037,0.11249851138729056
367,0.12511178872602477,0.1063070336276694
368,0.12611924943993624,0.10011162993778375
369,0.12756417301879394,0.1095196752954767
370,0.1270991120460608,0.10143062820399765
371,0.12368775917600403,0.11496369635560894
372,0.12439478009497766,0.11863600230637548
373,0.12160015017617408,0.1041344162998215
374,0.12250181547611404,0.10106917774638603
375,0.12573013039793465,0.13858129548185352
376,0.12813619821905803,0.11413128529611102
377,0.13031205231304452,0.10900207956390273
378,0.1289449617493334,0.11781794428583672
379,0.12931194748159788,0.0904988041698981
380,0.12921834232999957,0.112349728543828
381,0.128522652336318,0.10860987820353628
382,0.12425406770803052,0.12065542935237397
383,0.1269511163019962,0.10476189239036718
384,0.12359050993589137,0.10835719613142354
385,0.12466001758177439,0.1140373443515438
386,0.12347762872449296,0.10520495952915972
387,0.12402395861710998,0.10351765268789688
388,0.12464286477638303,0.10536278410839628
389,0.12860198570094747,0.1077477550262469
390,0.12545268517956912,0.11698606785534846
391,0.12359553750595444,0.10809424602927373
392,0.12193203311834076,0.09601014780012071
393,0.1227972247392488,0.10148972634223062
394,0.1216061308449082,0.1091724007729583
395,0.12231365703732323,0.10778452672324138
396,0.12291154473888768,0.10350096843296787
397,0.1239474751442981,0.1038639591002213
398,0.12380939917124396,0.10487284045439857
399,0.12250533741149452,0.12180705494810098
400,0.12211776003420496,0.11424501828807017
401,0.12126655077294791,0.11383343671070108
402,0.12475305333363713,0.11314221449190295
403,0.12047886167219679,0.10660691410665675
404,0.12122686387444612,0.10163790372480538
405,0.12405218859259085,0.10922834751500604
406,0.12480330382219498,0.10620679431394746
407,0.12600477675409963,0.09940135186509398
408,0.12499466654751375,0.11596365416813748
409,0.12671337494130036,0.12117070188052463
410,0.12565965223923217,0.11357572622180274
411,0.12405101516193824,0.09728425362926137
412,0.12673992322410366,0.1141510447313509
413,0.1268119415591916,0.10804474978599718
414,0.126749372260393,0.1085577698640483
415,0.1294366406609384,0.12047736184174514
416,0.12748428295143516,0.11787996199420092
417,0.12578578475859759,0.11148219509088017
418,0.12339535363621001,0.10968768786388206
419,0.12626391016036342,0.10770273026734567
420,0.1264862627584377,0.11029805085906534
421,0.1236011600725836,0.09535288812542773
422,0.12282298921978026,0.09617578108634102
423,0.12472241138927549,0.11439603308498231
424,0.12375606162797173,0.12203400896896895
425,0.12507584047696893,0.10189932193803478
426,0.12404821823843963,0.1352957560222321
427,0.12412712305450173,0.11482597572089982
428,0.12288253807766233,0.09646659276152857
429,0.12152608756044563,0.09823197176542499
430,0.12208380971291811,0.10120543768661155
431,0.12312798725487328,0.09162717427988895
432,0.12319282246671552,0.09769751361155066
433,0.12181975142217523,0.11071162560874626
434,0.12399589012655093,0.10782294984474863
435,0.12443781360458908,0.11327813527662389
436,0.12595056500241125,0.09884436599553743
437,0.12731642154357833,0.11921400860834198
438,0.12570523798131675,0.11394916632532204
439,0.12896824907287777,0.11028077573623488
440,0.12881871037561002,0.1121894721204637
441,0.1275356761735377,0.11081301160489072
442,0.12784947396768295,0.11400962590760365
443,0.12816288623156502,0.12192150157636873
444,0.12715659499931947,0.10171992623602967
445,0.12885051386489021,0.10569353859693367
446,0.13097401643343407,0.12253927720434184
447,0.13096632452023993,0.11556029004941408
448,0.13005324793730477,0.12931108601022714
449,0.13001493051994123,0.11451728287887883
450,0.12426915800898336,0.1101082004516084
451,0.12547642530036793,0.10930581831366476
452,0.1244917301993498,0.10346125375059496
453,0.12368859939450164,0.09530068608869505
454,0.1220764453240258,0.11639413541516731
455,0.12210950872497715,0.10288741668597141
456,0.12225078551875676,0.10303692494285657
457,0.11921675654472687,0.11590764730177754
458,0.12108670038471611,0.12048202863043145
459,0.12285225458138938,0.13506449067727977
460,0.12386212419506738,0.10417527822658287
461,0.123324257532676,0.11295915159358305
462,0.12336560418968014,0.11414993492114477
463,0.12272946322090728,0.11697607359940311
464,0.12410967141759692,0.100157187772735
465,0.12376772805308704,0.10536900263004736
466,0.12757467857306246,0.10171141144302157
467,0.1269960641962371,0.11285317129631499
468,0.12471220354803855,0.10573547474272543
469,0.12545201767256872,0.1085297791385496
470,0.12342375910895362,0.09860372757244575
471,0.12041841512374443,0.12191251663540982
472,0.12318341576272818,0.10572454848742929
473,0.1254231380947453,0.11433761017600985
474,0.12303206550958062,0.11328572493472529
475,0.12433667887178204,0.11330029691077786
476,0.12301232943757236,0.10751272156073229
477,0.12290037477954184,0.101114228682023
478,0.12006045809631542,0.11297776811701055
479,0.1219286415174162,0.10432982407903052
480,0.12087327275004646,0.11297705836007968
481,0.12479226957496593,0.12002490944284205
482,0.12547607167517308,0.1127895713396316
483,0.12266883971669179,0.12019277779145253
484,0.12230583498056075,0.11549687595238844
485,0.11881851921494814,0.11282121734535026
486,0.12127580086561181,0.11839487438074284
487,0.12178901066963342,0.11523681080810248
488,0.12299855253856787,0.11156050147849761
489,0.12458299283233522,0.1119069576396366
490,0.12232054826364315,0.10248353551629107
491,0.12484553796026686,0.11895407203340182
492,0.12529236308222202,0.1085307281358592
493,0.1270087037662013,0.10049449985987369
494,0.1253527756765473,0.11284391266586137
495,0.12563407562189907,0.11811721051188862
496,0.12588437376103942,0.10712945255219018
497,0.12347092411761956,0.1127869630563288
498,0.12308154692105334,0.10387816159877947
499,0.12387725928599974,0.09577931197237795
500,0.12484692063949125,0.10392351970620399
