epoch,loss,val_loss
0,0.6730275815460417,0.6707110936244329
1,0.6532749396297667,0.559684066216151
2,0.5597045141855875,0.5594428618351619
3,0.5593467455440098,0.5591202523708344
4,0.5595275020202001,0.559184954047203
5,0.5622378004524443,0.560207913796107
6,0.5592510055038664,0.5590730249087016
7,0.5590534964270062,0.5599372226397197
8,0.558993989944458,0.5589194824695587
9,0.5848408124314414,0.6705976778666178
10,0.6694716123474969,0.669074166337649
11,0.6691946525706185,0.6690924070676167
12,0.6691572954257329,0.6694531115293503
13,0.6691249015861087,0.6692885194619497
14,0.6691139256424374,0.6691002652247747
15,0.6690978533559375,0.6695281546115875
16,0.6690726414256626,0.6700051271915436
17,0.6707513366672728,0.6692341799736023
18,0.6691505008008745,0.6690732865730922
19,0.6690684407684538,0.6690286523898442
20,0.66950630513827,0.6690515631437302
21,0.6690409440199534,0.6691720250844956
22,0.6690622840325038,0.669486563762029
23,0.6690506644248962,0.669005513827006
24,0.6691136925485399,0.668936791976293
25,0.6690170209540262,0.6693836441834767
26,0.6690253551271227,0.6691157419284185
27,0.6690249918699265,0.6688786455790202
28,0.6690089883936776,0.6689908314545949
