epoch,loss,val_loss
0,0.6726083518796497,0.6701245249907176
1,0.6703787256346808,0.6696549483935038
2,0.6697641660239961,0.6695764089425404
3,0.6696000693506665,0.6693885993957519
4,0.6694821342229843,0.6696718087593715
5,0.669768707619773,0.669689355413119
6,0.6693642237451342,0.6691994827191035
7,0.6693835087219874,0.669296296676
8,0.6701537221140331,0.6691490958134333
9,0.6692499938673443,0.6690652867555619
10,0.670991181506051,0.6692280780474344
11,0.6692240361107721,0.6691128266652425
12,0.6691996566984388,0.6690523376464844
13,0.6691555696460936,0.6690835586388906
14,0.6692171596950954,0.6694543637832006
15,0.6691148472362094,0.66897654235363
16,0.6691803512043423,0.6690106839736303
17,0.6690758766730627,0.6690396778186163
18,0.6690628350443311,0.6689297293821971
19,0.6690611221260495,0.6690731425285339
20,0.6690828125211927,0.6690990843772888
21,0.6690244265794754,0.6689801153739293
22,0.6690222152603997,0.6689348958333333
23,0.6690219256083171,0.669304299434026
24,0.669097530192799,0.6690195188522339
25,0.6690193983978695,0.6689248662392299
26,0.6690147308773464,0.6692421032985052
27,0.6690060953431659,0.668911986152331
28,0.669014345129331,0.6688553618987402
29,0.6689920707013872,0.669006335179011
30,0.6689784073962106,0.6688889295260112
31,0.6689932484096951,0.6688839515447617
32,0.7653552703724967,0.7793405259052912
33,0.7793656736744775,0.779411077062289
34,0.779358177807596,0.7792889696359634
35,0.7793339725335439,0.7794097666343053
36,0.7793312145736483,0.7792989021142324
37,0.7793311185571883,0.7792660834391912
38,0.780106083591779,0.7795737030903498
39,0.8671851363182068,1.0
40,1.0,1.0
41,1.0,1.0
42,1.0,1.0
43,1.0,1.0
44,1.0,1.0
45,1.0,1.0
46,1.0,1.0
47,1.0,1.0
48,1.0,1.0
