epoch,loss,val_loss
0,0.2842400231195821,0.23218784191211064
1,0.23181730490260655,0.22979664657513302
2,0.22980582966076002,0.23818876020113627
3,0.22912096701727974,0.22851571789383887
4,0.2287221837838491,0.2285740141570568
5,0.2286996522711383,0.22804661226272582
6,0.22837613359093667,0.2285381054977576
7,0.22827034187316894,0.2279569936990738
8,0.2285670769678222,0.22836742725968362
9,0.22812532806396485,0.22794992211461068
10,0.22809228664305475,0.22804369003574054
11,0.22832008357511627,0.22912793193260828
12,0.22909048332770665,0.22810067201654116
13,0.22801285760270223,0.22805186011393866
14,0.2287553900314702,0.22818709715207416
15,0.22800122955441474,0.2276289416352908
16,0.22808274335662523,0.22785118766625723
17,0.22791495393051042,0.22786712735891343
18,0.22790103153387706,0.22759595594803492
19,0.22785374144713083,0.22766879231731096
20,0.22806575667526988,0.22771357651551566
21,0.2278278578188684,0.2274062978227933
22,0.22882373587621582,0.22756056512395542
23,0.2278536355594794,0.2275451077322165
24,0.2277795898914337,0.22744677712519965
25,0.2278043955332703,0.22918774344523749
26,0.22918546341856322,0.22882099266846975
27,0.2278871719274256,0.22750824928283692
28,0.22782560603817303,0.22750431409478186
29,0.22774358178509607,0.22872381306687992
30,0.22788819431265195,0.22741292675336203
31,0.2277435602347056,0.22871648726860683
32,0.22774627329905828,0.2275242423315843
33,0.2277275211347474,0.22784300356109938
34,0.2280373869968785,0.23615640860795975
35,0.853930324955119,1.0
36,1.0,1.0
37,1.0,1.0
38,1.0,1.0
39,1.0,1.0
40,1.0,1.0
41,1.0,1.0
