epoch,loss,val_loss
0,0.5649353839556376,0.5622409911553065
1,0.5602265831364526,0.5597432015736897
2,0.47697976266675524,0.45015028582016625
3,0.4502265296843317,0.44950413741668066
4,0.45010097603003185,0.4492374492486318
5,0.4492691025270356,0.4492914855281512
6,0.4495701955159505,0.4490302812854449
7,0.44901867091655734,0.44868829582134884
8,0.44893545934226775,0.4490802331169446
9,0.44884778792328306,0.44855487380425135
10,0.4490582896868388,0.44860918682813644
11,0.44882284168402353,0.44857083463668823
12,0.44873615147007834,0.4484494824806849
13,0.4487057488626904,0.4484855540394783
14,0.44866373573409185,0.4486795179446538
15,0.44867029117213353,0.4484303955634435
16,0.44865710771746103,0.44852071473995847
17,0.448614378326469,0.4483924971620242
18,0.4486311960286564,0.4484543691476186
19,0.44898221837149727,0.4483790307044983
20,0.4485665960510572,0.44836409453550974
21,0.4485850740406248,0.44854998723665873
22,0.4487203224102656,0.4483856633504232
23,0.4485810495350096,0.44836647111177447
24,0.4485547558996412,0.4484106601079305
25,0.4908424925274319,0.5592422810395559
26,0.5588831877973345,0.5590790161689122
27,0.5588151133590274,0.5592395436366399
28,0.5588123791085349,0.558675129810969
29,0.558910530421469,0.5587109589179357
30,0.5588098873959647,0.5588288291295369
31,0.5588092719448937,0.5587598326206207
32,0.5588017081287172,0.5588052123387655
33,0.5587853116856681,0.5588154217004776
34,0.5588126546939214,0.5585773958365122
35,0.5587915872202979,0.5585936077435811
36,0.5587623531156116,0.5586315258344015
37,0.5588308864169651,0.5585807970364889
38,0.5587492493655947,0.5585930338700612
39,0.558750172773997,0.5586497513453166
40,0.5587287431160609,0.5589413437048594
