epoch,loss,val_loss
0,0.5632358229425218,0.5601291636228561
1,0.5601611264546712,0.5599946629603704
2,0.5595476104153527,0.5592539093097051
3,0.5592889157401191,0.5591794191598892
4,0.5591618252860175,0.5589599441687266
5,0.5590845897462633,0.5589880336125692
6,0.5589816501273049,0.5587436038653056
7,0.559188383936882,0.5589409106175105
8,0.6381025197373497,1.0
9,1.0,1.0
10,1.0,1.0
11,1.0,1.0
12,1.0,1.0
13,1.0,1.0
14,1.0,1.0
15,1.0,1.0
16,1.0,1.0
17,1.0,1.0
18,1.0,1.0
19,1.0,1.0
20,1.0,1.0
21,1.0,1.0
22,1.0,1.0
23,1.0,1.0
24,1.0,1.0
25,1.0,1.0
26,1.0,1.0
