epoch,loss,val_loss
0,0.7785357352892558,0.7780113061666488
1,0.7779812886979844,0.7778986684481303
2,0.7792127574152417,0.7779677300055822
3,0.7779439962175158,0.7779066997766495
4,0.6927012565003501,0.6668336660861969
5,0.6668740167750252,0.6668710028727849
6,0.666863959285948,0.6668578325907389
7,0.6668644841512045,0.6668587768475215
8,0.6668705298900605,0.6668282629648844
9,0.6668572262525558,0.6669127053419749
10,0.6668549538718329,0.6668761070966721
11,0.6668511838912964,0.6668168033758799
12,0.6668494219912423,0.6670116544564565
13,0.6668467132250467,0.6668284380833308
14,0.6668423209720188,0.6668176304499308
15,0.6670703569518195,0.6668643190463384
16,0.6668678356541528,0.6668278224070867
17,0.6668545408116446,0.6669217056830724
18,0.6668453674448861,0.6668985871473948
19,0.6668436163134045,0.666820322116216
20,0.6668555768330892,0.6668205413420996
21,0.6668404150936339,0.6669256111383438
22,0.6668381389114592,0.6668317745923996
23,0.6681878743436601,0.6669038223028183
24,0.6669269862572352,0.6669482788642247
25,0.6671272428830465,0.6669044577280681
26,0.6668869767189026,0.6668456256389618
27,0.6668651293913523,0.6668250016768773
28,0.6668517569833332,0.6668509583075841
29,0.6668534616894192,0.6668522221644719
30,0.6668489972352981,0.6668638031482697
31,0.6668433947298262,0.6668250891367594
