epoch,loss,val_loss
0,0.7786029152340359,0.7779265859524409
1,0.7779827799267239,0.7779261626402537
2,0.777953859117296,0.7778958987792333
3,0.7779430040253533,0.7778855348825455
4,0.7779234349595175,0.7779083794752757
5,0.7779260477224986,0.777969373424848
6,0.7779075372748905,0.7778856257200241
7,0.777904182765219,0.7778772721290589
8,0.7779011657370462,0.7778977446158727
9,0.7779260382254919,0.7778874910672505
10,0.7779094508753882,0.7778804725408555
11,0.7778998288313548,0.7778815360864003
12,0.7778998367124134,0.7779441807667414
13,0.7779039955933889,0.7778845586379369
14,0.7778976866934034,0.7778918378353119
15,0.7778964458174176,0.7778831269343695
16,0.7779013957315021,0.7778894855976105
17,0.7778975354168151,0.7778942336241405
18,0.7778940678702461,0.7778895432154338
19,0.7778957846164704,0.7778878390391668
20,0.7778936820957396,0.7778806173801422
21,0.777893075744311,0.7778876843849818
22,0.7778955756823221,0.7778781802654267
23,0.7778939221037758,0.7779516274531683
24,0.7778943751520581,0.7779212930202484
25,0.7778938244051403,0.7778841560681661
26,0.7778936112324397,0.7778792170286178
27,0.7778940674198999,0.7779018276929855
