epoch,loss,val_loss
0,0.4475991422865126,0.4447707280913989
1,0.4448972051077419,0.44485764668385186
2,0.4448932724065251,0.44510333877801894
3,0.4449087382687463,0.4448419298728307
4,0.4447966459194819,0.444814305861791
5,0.44477723804447383,0.44469473747412364
6,0.4448097490403387,0.44472371619939804
7,0.4447695500188404,0.4448590503136317
8,0.44493276143074034,0.4447968897422155
9,0.4448144424623913,0.44472572175661723
10,0.4447850908173455,0.4448615675568581
11,0.44476862876282797,0.4446972158352534
12,0.44476049037774407,0.44495530728499094
13,0.4447567908366521,0.4448759046991666
14,0.4447493399646547,0.44475131648778915
15,0.44475091960695057,0.4447481584151586
16,0.4447399909363853,0.44469884033997853
17,0.44474971164597404,0.44488384888569515
18,0.44474557385842006,0.44470596237977345
19,0.44474290866321986,0.44470769063631693
20,0.4447361073030366,0.4446897698243459
21,0.44473237240314484,0.4447323601047198
22,0.4447339639266332,0.44469065537055336
23,0.4447278247144487,0.44470938088496526
24,0.4447276579406526,0.4447377710143725
25,0.4447320996059312,0.44474212354421616
26,0.4447273258831766,0.44469094796975456
27,0.4447304532461696,0.44472449584801993
28,0.4447251130077574,0.4447510531147321
29,0.44472349496020214,0.4446934799750646
30,0.44472555719481577,0.44468964451551435
31,0.7318117202255461,0.8889521681865057
32,0.8889492422209846,0.8889572656949362
33,0.8889559945000542,0.8889919587373734
34,0.8889590725236469,0.8889525798559189
35,0.8889556374284956,0.8889906940460205
36,0.8889490774207645,0.8889499622583389
37,0.8889485241042243,0.8889643718401591
38,0.8889469431506263,0.8889395480950674
39,0.8889456431998147,0.8889412324825923
40,0.888944968952073,0.8889776567618052
41,0.8889444725248549,0.8889378629128138
42,0.8889454217619366,0.8889516415198644
43,0.8889442274967829,0.8889678279956181
44,0.8889445572561688,0.8889546413421631
45,0.8889433152013355,0.8889667676289876
46,0.8889425633218553,0.8889385246435801
47,0.8889422676298353,0.8889438451925914
48,0.8889425249232186,0.8889906262159347
49,0.8889423634078768,0.8889386960665385
50,0.8889426533778508,0.8889389976263046
