epoch,loss,val_loss
0,0.557057138244311,0.5558480736414592
1,0.4699126512143347,0.33397544743617374
2,0.3338649913602405,0.33372724997997283
3,0.3338133293390274,0.3336981202761332
4,0.33379215376906923,0.33380042944351834
5,0.33375737704171077,0.33625956920782724
6,0.3363021438982752,0.3337743677695592
7,0.333779031223721,0.33368345300356544
8,0.33374806055757733,0.3337217398881912
9,0.3337273165053791,0.33366333891948063
10,0.33369726381699244,0.3336321852008502
11,0.3336916258003977,0.33364709522326785
12,0.33368821361992096,0.33363032950957616
13,0.3337078458070755,0.33368720042705535
14,0.33367655928267376,0.3336479405562083
15,0.33368283720148934,0.3337123734354973
16,0.33367613542742197,0.33364150631427764
17,0.3336722736557325,0.33363552784919737
18,0.3336728716691335,0.33364893730481465
19,0.33367723747756745,0.33363697938124337
20,0.3336731549832556,0.3336843990882238
21,0.3336712202164862,0.3336536243756612
22,0.3336659664048089,0.3336879471739133
23,0.33366508477926254,0.3336117233832677
24,0.33366563503609764,0.3336242180466652
25,0.33366707056098516,0.33373706897099814
26,0.3336610538694594,0.3336215238769849
27,0.3336573269764582,0.33366138408581414
28,0.3336639673974779,0.33364933303991956
29,0.33365872938103147,0.3336874245603879
30,0.333658812324206,0.3336520150701205
31,0.3336603500975503,0.3336147890686989
32,0.3336561997466617,0.3336247286200523
33,0.33366211516327327,0.3337096459666888
34,0.33365451886256536,0.3336895979642868
35,0.33365268539057835,0.3336228326757749
36,0.3336591153078609,0.33377514412005743
37,0.33365373488929534,0.33394369423389436
38,0.33365697622961465,0.3336164188981056
39,0.3336553062796593,0.33368985136349993
40,0.3336532122559018,0.3341200424432755
41,0.3336529212064213,0.3336163667241732
42,0.3336500527328915,0.3336061330040296
43,0.3336562853720453,0.3336288604338964
44,0.3336495516631338,0.3337505503296852
45,0.3336493001712693,0.3336497060060501
46,0.33365026311741935,0.3336301502386729
47,0.3336488739053408,0.33370436882972715
48,0.33365280422237187,0.33370208541552226
49,0.33364993245071833,0.33362111216783524
50,0.33365168868833117,0.33360307617982227
51,0.3336489321457015,0.33360252823432285
52,0.33364829815096325,0.33367394345998763
53,0.33365097637308966,0.33365576616923015
54,0.333651514172554,0.33396664150555927
55,0.3336496292617586,0.33368794061740237
56,0.3336483733654022,0.33367710882425305
57,0.3336501606967714,0.3336503866314888
58,0.3336490671303537,0.3336383216381073
59,0.3336458437376552,0.33360366813341774
60,0.33364985528919433,0.3336077018976212
61,0.3336464798980289,0.3336439946293831
62,0.3336481641398536,0.3336078099807103
63,0.3336492002209028,0.3336500456134478
64,0.3336493715842565,0.33364274515708287
65,0.33364881783061556,0.3336022323767344
66,0.3336479899353451,0.33362362478176755
67,0.3336456655727492,0.3336098660826683
68,0.33365200950702034,0.33360143162806827
69,0.33364667569928697,0.33364349553982414
70,0.3336500804622968,0.33363886789480846
71,0.3336485506825977,0.33362247711420057
72,0.33365234407451416,0.3338318436543147
73,0.3336493413183424,0.3336345968842506
74,0.3336482349501716,0.3336552627086639
75,0.3336495730280876,0.33366154712438584
76,0.3336511745121744,0.3337020632624626
77,0.33364537796047,0.33374497532844544
78,0.33364881668488183,0.33360637511809665
79,0.33364893175495997,0.33361833983659744
80,0.33364426120122276,0.33367071457703906
81,0.3336467198332151,0.33367401746908826
82,0.3336452860898442,0.3337436437805494
83,0.33364554029040866,0.3336287246545156
84,0.3336472542881966,0.3336511234641075
85,0.3336478565666411,0.3336228985786438
86,0.33364944593111673,0.3336961226662
87,0.3336507533656226,0.3336414874792099
88,0.3336485367284881,0.333677971859773
