epoch,loss,val_loss
0,0.5210377306247158,0.4305933242103286
1,0.38513654613609405,0.3579885951165542
2,0.37090635770936314,0.3637066286507411
3,0.37334916261647394,0.3711239895439689
4,0.37527040855659305,0.36924870361763584
5,0.3782647872944657,0.3836633183563616
6,0.38009104566921514,0.37179417817552013
7,0.38246874981302564,0.3823539262753817
8,0.38568546461333647,0.38343177524312955
9,0.39294968955845144,0.4014611981404282
10,0.39881523451011025,0.4000794313974914
11,0.39874436625773857,0.39659623353344003
12,0.39976341404420457,0.3980770264325447
13,0.40091470444651006,0.3997045225083876
14,0.40359753249787256,0.40242708667158017
15,0.40557239634738723,0.39823942421803316
16,0.40869505956375285,0.4018300655211072
17,0.4096319312043339,0.40649495553602943
18,0.4115824189254816,0.40872625275443264
19,0.4130713201051144,0.4123996368338205
20,0.4140628762155461,0.4115791764572589
21,0.4154820814430475,0.4155286110859041
22,0.417249028447917,0.41362965394593987
23,0.41857310758532285,0.4160253809703044
24,0.4186076389564525,0.4106633805783899
25,0.420464846828253,0.42114211852146377
26,0.4218190059817439,0.41557671580484795
27,0.42099315164278184,0.4178613457656545
28,0.4217968787476003,0.4199423850404472
29,0.4235102483112398,0.41419744278876064
30,0.42382109300006,0.4220748808890557
31,0.4244989576914293,0.4212192022645754
32,0.4241019813440818,0.4183365265625043
33,0.42408510459194765,0.4181454027946268
34,0.42510935938577826,0.4217183120300977
35,0.4270704847703083,0.4253113992022772
36,0.42919030152052473,0.4231417847665847
37,0.4313940756840168,0.4203810105696985
38,0.43141555573770385,0.43106968622331393
39,0.43301714966304783,0.4271103557734014
40,0.43277017416669616,0.42930706470165425
41,0.4340916169558266,0.43182958059454
42,0.43548965322866356,0.4305487231133145
43,0.435272791929203,0.42804759196991465
44,0.4362579373787459,0.43170970736338854
45,0.43847199442913476,0.4366263797248367
46,0.43938327998853477,0.43098500506334547
47,0.44009123103107045,0.4368547214450434
48,0.4406612538356033,0.44219468015533875
49,0.4414293926963814,0.4357087336607513
50,0.4408667339884443,0.4353124867680589
51,0.4428463761237643,0.44210932316184526
52,0.4425746470069389,0.43991543912152786
53,0.4427188070561048,0.44290595804397787
54,0.44269037849193005,0.4427059003471458
55,0.44284548219725833,0.44044769878611756
56,0.44321662791258243,0.44123706356935744
57,0.44337169314213426,0.44059744706892523
58,0.4439091358163817,0.44217301534136816
59,0.44419116467786274,0.44530163153051266
60,0.4453244570067064,0.44319597703600355
61,0.44454216299723204,0.4425355650647713
62,0.4449676796614981,0.4399738846420758
63,0.4455301835238218,0.44597063384593644
64,0.44535390613936154,0.44187319370565237
65,0.4451095314504052,0.44192220960703693
66,0.44620043098974266,0.442303084930751
67,0.44524871958218354,0.44523052797507
68,0.4454676994831682,0.440950388915154
69,0.445587331564833,0.44298415186921464
70,0.4451187705759815,0.44243952230718786
71,0.44562827464673305,0.44610991977330444
72,0.44457970175435774,0.44252574110263165
73,0.4432831585192509,0.44202488293419595
74,0.443328283852439,0.44255666201518784
75,0.44442453159629297,0.43799853979912795
76,0.4446213849789625,0.43839860576396056
77,0.4446156917332267,0.44020838589563854
78,0.4449797348679305,0.44259327611397264
79,0.44512821010964887,0.4412976282211406
80,0.44441619725395337,0.44139472225383347
81,0.44421360645893576,0.4428344769441105
82,0.4438311332364002,0.43844163947151815
83,0.4436928163274371,0.4374608499241958
84,0.44269299803016854,0.4392839288769557
85,0.44295722893994743,0.4368519306617932
86,0.4427389821665491,0.4422368669983631
87,0.44228894592190476,0.4390576858880166
88,0.4431404135554576,0.4365794026841986
89,0.44134553195573123,0.43882767042781123
90,0.4413349279243532,0.43651274530653633
91,0.44164919774469324,0.4423233282488725
92,0.44091121129411237,0.4373675126518936
93,0.439977080107117,0.4390359988371144
94,0.44008758512614155,0.4373105484010336
95,0.4400827285406397,0.4344582543175876
96,0.4383772249289567,0.4315686930705161
97,0.4375416864458325,0.4346327385521476
98,0.4355892364004309,0.43739698811555816
99,0.435299203503695,0.4331601438779514
100,0.4354765387990171,0.43147383991625865
101,0.4343648746764784,0.42859444843978295
102,0.43392102196037147,0.431853051289058
103,0.43361062565453057,0.4263732109675055
104,0.433181090938081,0.4287696315907697
105,0.43194010137938993,0.4308375987403294
106,0.43089636053153285,0.42698309872078877
107,0.42960545999274624,0.4247545144563754
108,0.42861221208154343,0.42581226324416327
109,0.42753866351872466,0.4230342577940453
110,0.423927914819496,0.414630959624695
111,0.41543950405332736,0.4113881035926181
112,0.41093706009720116,0.40228333793707427
113,0.40986371116699266,0.40502978983393356
114,0.4087299296171595,0.40516867037237125
115,0.40749348679764735,0.40373466750614445
116,0.40810697121893147,0.4053081745600565
117,0.40822776363457175,0.406560638476849
118,0.4072657800417504,0.4023675586475363
119,0.4079757011872086,0.40365934333275316
120,0.40796668621136534,0.4090741199395179
121,0.40744801462173846,0.4044332160325139
122,0.40627513856912634,0.399397663995684
123,0.40656268114658045,0.4006358845052154
124,0.4066877560414153,0.3997060781992845
125,0.408103898012514,0.4035855217233288
126,0.4091693870514464,0.41077711155814844
127,0.4109449063877376,0.40564646004470306
128,0.4120551657686241,0.41466117927627844
129,0.4125635338912877,0.40756198693752677
130,0.4114364106670392,0.4076268386038357
131,0.4110534787535954,0.40902658818412
132,0.41035203644043927,0.40269649224559756
133,0.40913086511594376,0.40192507783861925
134,0.40975108234475766,0.40480464696884155
135,0.408267306925966,0.4042293068024557
136,0.4084525514689324,0.40965954344251343
137,0.4083002224457178,0.40180325068213163
138,0.4084085658777228,0.40420932259292786
139,0.40835045931862296,0.40427074078032377
140,0.4075248410956587,0.4021887690046408
141,0.40624434468123893,0.4024381075607309
142,0.4061693242781634,0.39878370925264445
143,0.4052571881118061,0.3996266950365981
144,0.40582005579391417,0.3983161116845223
145,0.4054834333847197,0.39721596796920605
146,0.40578767391230414,0.4019272879962503
147,0.4063643027511571,0.40105649807157306
148,0.4056690930365753,0.3994949353920766
149,0.405418779071662,0.39822946028407763
150,0.40494801884321713,0.3971503962613854
151,0.40436688688299577,0.3968366409160215
152,0.4040445122149012,0.4000773263093619
153,0.4037290555272129,0.39463219015170964
154,0.40311773394564804,0.3957661235129456
155,0.40314253603963496,0.40256204069965945
156,0.40490677833461686,0.40135445366617345
157,0.4034258041551726,0.3978182241284354
158,0.4037307649015712,0.39592670347762127
159,0.4027857596607949,0.3968991420178131
160,0.40294403839913057,0.40018584258364936
161,0.4024598924301451,0.39871990501832305
162,0.40264801614231066,0.40140111073670304
163,0.40341958570613967,0.39784733541400474
164,0.4019692115205302,0.39702787946997287
165,0.4023696438038798,0.3969771683167754
166,0.40363723602745416,0.39838199031033944
167,0.4040776216883579,0.39779825886864056
168,0.40349691252025055,0.3970554604920931
169,0.4033639560445392,0.3995340134637296
170,0.403658843283848,0.3997431002249103
171,0.4030239487811028,0.3970586121420694
172,0.40317605687581226,0.39921405585142816
173,0.4029089783171447,0.4006035496380304
174,0.4023708283567161,0.395023523842718
175,0.4018369591455635,0.39541354236424886
176,0.4023279995561314,0.3968622458000446
177,0.40191569394641535,0.39836099760762483
178,0.40272837105371934,0.3975002402130028
179,0.40174559144089944,0.39667904231960177
180,0.4012653532030107,0.39497194878472996
181,0.40052771815259136,0.3973173087724127
182,0.4015140030100596,0.39425758213795786
183,0.4008648058621763,0.3940853844158841
184,0.4007338473351122,0.3947732020033537
185,0.39998178513313504,0.39570518005986766
186,0.40031963667934467,0.39246222011847703
187,0.4000234359903656,0.3956311255910971
188,0.4000992153982242,0.4001466085634286
189,0.4004626078568429,0.3958096868703739
190,0.4005409036878589,0.3956199112406419
191,0.39992597359146853,0.39672496196997425
192,0.3989528287545121,0.3969728980282894
193,0.399060978256673,0.3920166551196662
194,0.40004619784217726,0.39484788633321033
195,0.40129036009550284,0.39522004405464084
196,0.4012554854130726,0.39498575393107493
197,0.4012040641543577,0.3985486770439999
198,0.4015866687075437,0.39496690503775544
199,0.4015558656928442,0.39346471097734237
200,0.40118012447849666,0.3940224677493489
201,0.40097552663188063,0.3961408342033117
202,0.40111142668941674,0.39570167680049656
203,0.4010367380608741,0.3943522356190724
204,0.40150565223945817,0.39435397790682963
205,0.40173281889089685,0.39713438110243277
206,0.40121044624176283,0.3967607260378801
207,0.4018306572667306,0.39885961538103665
208,0.4020125916640791,0.3931005321328271
209,0.40162485469284775,0.3991717634554907
210,0.40158975556242266,0.3977895755402363
211,0.4017405793774691,0.3966209724340029
212,0.40176490394233033,0.39455331167068697
213,0.4010053439270123,0.3953380208139195
214,0.40145708503629607,0.39585290964019076
215,0.40006121315413995,0.3948463084295525
216,0.400179128667371,0.39732599604062113
217,0.4003865728624541,0.39557698888693604
218,0.40092965544129106,0.3937198156664648
219,0.4008927471380982,0.3958180656253276
220,0.4006371017071225,0.39988744348311756
221,0.4004489590135739,0.39816765485985534
222,0.39988634399503015,0.39736807203737584
223,0.4002447027125485,0.3949699903636663
224,0.40080771971646073,0.39410352482122807
225,0.4005662592126428,0.39595568107572493
226,0.40036228726251877,0.4017502132075063
227,0.40046817871978324,0.39618877265285113
228,0.4003496339933886,0.39555708511709103
229,0.4004122720922443,0.3955611664641706
230,0.40059242172657344,0.39450020262698093
231,0.3999631504496161,0.3964517776161698
232,0.39978548105331874,0.39495232897083254
233,0.4003256776029344,0.3994040131955638
234,0.4002769480856826,0.39933197641411355
235,0.3994838557809329,0.39592734875953595
236,0.39918333101119874,0.39371189013401475
237,0.4001629842434815,0.3939940496517794
238,0.4002509390334304,0.3963578693864796
239,0.4001380465954566,0.39254797633740346
240,0.40030026080323944,0.39655861345520854
241,0.4011361841872943,0.39584786282355283
242,0.4015690920303305,0.3962093061629293
243,0.4033092720519074,0.3993077351857469
244,0.4043925030528306,0.4008863748860185
245,0.40483253639492633,0.4000261045527091
246,0.40511678486131875,0.398202918161731
247,0.40566747797260866,0.40077978882573045
248,0.40634407975179276,0.3995098109566286
249,0.40683639144973816,0.4014507484262007
250,0.4072271957933855,0.40394099836221864
251,0.40783004510440857,0.4023526144868846
252,0.40788905001621995,0.39829232072984894
253,0.4081173436798221,0.4020997112298147
254,0.4082022700742114,0.405798009059725
255,0.4090926794050406,0.40805883552132827
256,0.4088199943232479,0.40627548671406843
257,0.4089382780228165,0.4047506216668735
258,0.4095708233318489,0.40381096174150394
259,0.40975187288178166,0.40474684716527864
260,0.4099191060488085,0.4066496831512219
261,0.4098797533467257,0.4044397490979788
262,0.40975203494533147,0.40174888865984465
263,0.4099013161740368,0.4052640997290321
264,0.4102350472091579,0.40500295652863655
265,0.4101093336760855,0.4068407107443705
266,0.4106705442154474,0.40727274976700956
267,0.41088570174787215,0.4087232302961945
268,0.4112234689098439,0.4023514769711537
269,0.4106086940050507,0.4030175742973473
270,0.410373057421443,0.40536403955721023
271,0.4106135862149459,0.40647750157509405
272,0.41121205778194486,0.4039843314465525
273,0.4106282906426345,0.41700530293890836
274,0.41182641483384,0.4092991242830287
275,0.4120827154386893,0.4067401687304179
276,0.41127259548517875,0.40778082459319054
277,0.41204574051573334,0.40434132580436155
278,0.4119972853516463,0.40533658098323694
279,0.4115314954896275,0.4056484531263752
280,0.4117604966422288,0.4080462865440805
281,0.4119343968918077,0.4050818963062444
282,0.4116772037563179,0.41040514115869564
283,0.41218840512778876,0.40628267187755085
284,0.4121849264761655,0.4073778565637677
285,0.4126915870856246,0.4062036085157789
286,0.41203554029508627,0.4070105560891336
287,0.41212333786525757,0.40719599365607956
288,0.41245202732095726,0.4049889262333597
289,0.4125592847219747,0.40980494807913165
290,0.4122029867551153,0.4079779251648562
291,0.41245281295455677,0.4078466757128902
292,0.412675904669315,0.4110192346408516
293,0.4129278003048,0.40599155940858694
294,0.41229369716228154,0.40554077810904693
295,0.4099961863316184,0.40670445404300243
296,0.40675087981790997,0.4042688354378489
297,0.40572366460835674,0.4014841342301071
298,0.40645288056235396,0.40003114022671066
299,0.40602789575858916,0.40345397968651897
300,0.40717447978005206,0.40093857878992833
301,0.40713936227669806,0.4031340510305697
302,0.4068301025631907,0.39912473633341544
303,0.40574566672762646,0.40215863670552543
304,0.4059361937262708,0.40296771307834645
305,0.4053838798840395,0.407243220378786
306,0.4060530560053855,0.40424559769935947
307,0.40580786894663895,0.4004220433913878
308,0.4058103746323704,0.4013374992869099
309,0.4051561655761529,0.4001628771992302
310,0.40496170550608657,0.399936261379129
311,0.40500123129547644,0.400425618775763
312,0.4062715580551218,0.4027743647713441
313,0.40534066510878153,0.3990952354664737
314,0.40576281547069165,0.40293557355777093
315,0.40509250306720446,0.3976638758462904
316,0.40472653915015483,0.3981207595882818
317,0.404676537224061,0.40069250695993525
318,0.40470717470344303,0.4022027601194111
319,0.4046553405071851,0.40671646145428475
320,0.4059109843736462,0.4038238717546718
321,0.40535559628704626,0.407328377215725
322,0.4054439388173785,0.4021523143833281
323,0.40508582109542157,0.3991772911457733
324,0.40541216925538187,0.3999613348971705
325,0.4046040734856295,0.4002582997881293
326,0.405610746412491,0.39764932967837224
327,0.40552460259681133,0.3993803201800715
328,0.40594085858906626,0.399007911326338
329,0.40581684156930187,0.40039921096931697
330,0.4054746558491567,0.40292640954908665
331,0.40498026783128466,0.40530987638626653
332,0.40479066021877635,0.4023813081048701
333,0.4052605234426532,0.4019447529547986
334,0.4049184399666645,0.4001447497493159
335,0.4056070720295223,0.3981740457298112
336,0.4054167198481037,0.4009587657664331
337,0.4053209965543044,0.40005179224513165
338,0.405582767173803,0.4005005154683159
339,0.4061371576700142,0.40228649664485927
340,0.4058685700734965,0.4002835624651124
341,0.40676214754151957,0.40151442943891663
342,0.4060343143532427,0.39937515340485613
343,0.4058083130107869,0.3988822227508579
344,0.40597206856414164,0.40089652377323515
345,0.40625621069422524,0.4001455695186315
346,0.406667078264338,0.40435172978785594
347,0.40615816672054456,0.4036464999820387
348,0.40626332792546677,0.4023302807280037
349,0.40609894980422206,0.4040490755537904
350,0.40655874988859037,0.4039844384255297
351,0.406596118206974,0.40296967140272777
352,0.4065943454460109,0.4077592680875789
353,0.4071139640408196,0.40135740646480644
354,0.40729675236179697,0.40060423801608525
355,0.4063901368310873,0.4028061219617205
356,0.4070122103222472,0.40249993587449034
357,0.40675598867327045,0.4043824639826989
358,0.4073964141553836,0.4005399454877518
359,0.40763268576229544,0.4014793574229934
360,0.40771797428234186,0.40270740124914384
361,0.40867166515824505,0.4034713299556757
362,0.40866264249917694,0.4036594392899469
363,0.4073621594757915,0.4054039850625582
364,0.4077843170914295,0.40570675004621104
365,0.40828842503295315,0.4038634218293675
366,0.40854964185181,0.40361794278279417
367,0.4079779527419276,0.40633557300594697
368,0.40874978521759747,0.40840833545311234
369,0.40833205296050273,0.40559068636399215
370,0.4092195272875176,0.4049480876493338
371,0.4081864118623772,0.40435436848983086
372,0.4080900376300224,0.408691543007129
373,0.40692207340100367,0.4049946911578631
374,0.4072138598387102,0.4056529074738109
375,0.4085881111142729,0.40809008754662934
376,0.40773022389583724,0.4046842930815806
377,0.4082421119495618,0.4028444438326775
378,0.40874040230595654,0.40642401982107884
379,0.40817152038872767,0.4036999462778164
380,0.4086303452642752,0.4069074138527659
381,0.40854324795323627,0.40369868561299177
382,0.4076466428174125,0.40258716410577344
383,0.407406978195815,0.40077216337100335
384,0.4072120194081023,0.4041330492892888
385,0.40763350771225576,0.40151831531853377
386,0.40772755702941105,0.4086726851706957
387,0.4071573735214024,0.40507759394340176
388,0.4079978617670252,0.4048545887242075
389,0.4080258718579172,0.4039056782111441
390,0.40808079011732334,0.4012169810880613
391,0.4070506893676982,0.4008744295689505
392,0.4064865787211564,0.403548406616808
393,0.4076174736929665,0.40540388891199985
394,0.4084474253859684,0.40641851219237574
395,0.40757674102882463,0.4047789514451518
396,0.4072339515790069,0.4042310261039935
397,0.406707692089035,0.4019437899506392
398,0.40698313191712043,0.4011924669497011
399,0.40702097419741823,0.40063677001850256
400,0.40738439469264925,0.40198227349859084
401,0.40748213366377917,0.40244819435373325
402,0.4075093681188084,0.40114366696408776
403,0.4083140363828767,0.4090069712706919
404,0.4075294851397781,0.4021108922732137
405,0.40746148551006717,0.40456749792516666
406,0.40845361782656947,0.4042448857791619
407,0.4079939141642866,0.4055711190485896
408,0.4079526995925354,0.40654996702174107
409,0.4084235712038793,0.4031442068547421
410,0.4077003783374142,0.40178014107187493
411,0.4079946663806303,0.4019236650200076
412,0.40792680279410676,0.40447859793587226
413,0.40801420638425717,0.40381097841920255
414,0.4085133442337557,0.40347196102529065
415,0.40841087063042236,0.40346839381057076
416,0.4084000436781501,0.4042258691662033
417,0.40890930346052967,0.40486976105511335
418,0.4087146319705453,0.40676337705331417
419,0.4093256953408758,0.4057554724442698
420,0.4092883723224994,0.4078352322253578
421,0.408641639533188,0.4073540450882738
422,0.40907296374905483,0.4034446121132287
423,0.4090297278926504,0.403526055866011
424,0.40937247163682483,0.40390522385262323
425,0.40855855665939916,0.40536826121449376
426,0.4098593574151504,0.4043460606755228
427,0.40973637945610014,0.40336321198833924
428,0.409474939943028,0.40684491422537955
429,0.4090316932472446,0.4029293879443615
430,0.4089650383846964,0.40503195046605084
431,0.4102079995972715,0.4068257794182956
432,0.40932427017425327,0.4025203035502345
433,0.4086528684588983,0.40384283521652997
434,0.40906934296970276,0.40370323973657246
435,0.40898106022297237,0.405449351424235
436,0.4091670136627338,0.40650069022314006
437,0.4095769134925021,0.40445228101079866
438,0.4098750215897663,0.4065372177187447
439,0.4094798882619394,0.406789431896813
440,0.40958091191905704,0.40458541697635947
441,0.40949751317405625,0.4047075203783804
442,0.4082140630727009,0.4088259069105521
443,0.40871425231902286,0.4053285445320055
444,0.409047349368791,0.4038940060216048
445,0.40902432641857045,0.4073330136159524
446,0.4089872316898013,0.4035041899528333
447,0.4096475579769159,0.4026162220952188
448,0.40895808492306235,0.4041172607053322
449,0.410204328447461,0.4047234261654686
450,0.4098979381082342,0.40513940449178654
451,0.41001233716217206,0.4044764955306769
452,0.4094235770004668,0.40541486121828924
