epoch,loss,val_loss
0,0.026424464890940323,0.02080748434116443
1,0.022056090585887433,0.023082628052681683
2,0.021874777066003947,0.023387911398584645
3,0.021684551231356132,0.020457990711554883
4,0.021573515114064017,0.021282645968099437
5,0.02143064788294335,0.02064589948641757
6,0.021296779299154876,0.02173969120408098
7,0.021334145228274995,0.021197814793636402
8,0.021285941045110425,0.021409789585818847
9,0.021294219939038156,0.021679504996786513
10,0.021233519559105237,0.02115083390660584
11,0.021184454239077038,0.02046625374443829
12,0.0212605351102021,0.020564515666415293
13,0.021201722795557643,0.02073998162522912
14,0.02113994961956309,0.021256568767130377
15,0.021165982131328847,0.02505477799164752
16,0.021154609718049566,0.02082016150467098
17,0.021136840977602534,0.02267210726129512
18,0.021133087128193843,0.02064190530590713
19,0.021112623115587564,0.020365206591164073
20,0.02109260988338954,0.020999950038269162
21,0.021065880767173237,0.02065788262958328
22,0.021031932862889437,0.021852015790219108
23,0.021024625042246448,0.020578411489725112
24,0.020987919588469798,0.021111564240728815
25,0.021022784906542965,0.020586985564480225
26,0.021039679845174155,0.02031559847667813
27,0.020984376721291078,0.020685756771514813
28,0.02105588472634554,0.022557289639487863
29,0.02100142042711377,0.020681773075213034
30,0.02101540683913562,0.023130317849417527
31,0.021006716571334336,0.020350062436113755
32,0.02097760605853465,0.021565932892262937
33,0.02093088714281718,0.021168554745614528
34,0.0210054017185337,0.020361646441121897
35,0.021013292060751053,0.02035068996436894
36,0.02095748744904995,0.020319246576478083
37,0.020956238207924697,0.02101004941513141
38,0.02098594492322041,0.02291056706259648
39,0.020918138052440353,0.02172703711874783
40,0.02095351240473489,0.021310568901399773
41,0.02091545326842202,0.020790116945902506
42,0.020953093491287694,0.02234010783334573
43,0.02089152002748516,0.020281896158431966
44,0.020931691760404242,0.02047773297689855
45,0.020904948748441204,0.020313183532406888
46,0.02094024065654311,0.020309939547131457
47,0.020870872226440244,0.021194482260694106
48,0.020920946326106787,0.020920822309950987
49,0.020933908086890975,0.020280245436976353
50,0.02092508797740771,0.020397079314415655
51,0.020874156998677385,0.02045522146175305
52,0.020975524654611947,0.020414051221683622
53,0.020941391051229503,0.020311037907997768
54,0.02086102311147584,0.02035363342302541
55,0.020996930469241407,0.02034523160941899
56,0.020905234183909164,0.02041413741807143
57,0.02091228606344925,0.020527279547726113
58,0.020968014947035245,0.02133030726450185
59,0.020954642653051348,0.020394138078515728
60,0.02091004232586258,0.020681543335318565
61,0.020957854981430702,0.020279608712842068
62,0.020926927159436875,0.025477378393212954
63,0.020903274475493366,0.021622590893879533
64,0.020874927403198348,0.020442020886267225
65,0.020910162932963834,0.02061481580324471
66,0.02092199298222032,0.020414531153937182
67,0.020874700602764886,0.020526964460810027
68,0.02093931760162943,0.02035560022232433
69,0.020903293199009364,0.020329869077230493
70,0.02087339571573668,0.021813673127442597
71,0.020924906795016594,0.021583180210242667
72,0.020904369017730157,0.023053616417571903
73,0.020903908606618643,0.020338287692517044
74,0.020908244577546916,0.020321955737347405
75,0.020873593426619968,0.02339127602117757
76,0.020896980112211572,0.020332312039410074
77,0.020964716088233724,0.02124610321596265
78,0.020909208112706742,0.020676584413275124
79,0.0209003457909243,0.02030627197958529
80,0.02084485601551003,0.021427022341017923
81,0.020908091504540708,0.022907080857704085
