epoch,loss,val_loss
0,0.5871598613527086,0.5851720825433732
1,0.5852435228692161,0.5847272084156672
2,0.5847077309687932,0.5845204267899196
3,0.5845434579451879,0.5843635788758595
4,0.5844607133467992,0.5849861394166946
5,0.5844017478227616,0.5845936866998672
6,0.584366621322102,0.5843849266767502
7,0.5843143876923456,0.5843493439356486
8,0.5842923119862874,0.5843394800424576
9,0.5842431378099654,0.5843031137386958
10,0.5841842277977202,0.5840668420791626
11,0.584154944313897,0.5840969686508178
12,0.5841419998937183,0.5842256718873977
13,0.5841057738198174,0.5840453540086746
14,0.5840824471844567,0.5839801853100459
15,0.5840551641517215,0.5840009427467981
16,0.5840354098081588,0.5840065523386001
17,0.5840240952968597,0.5840192560752233
18,0.5840246165063646,0.5839393311738967
19,0.584017824848493,0.5839378834565481
20,0.584023070719507,0.5840987394650777
21,0.5840095188485251,0.5839397775332132
22,0.584009107099639,0.5839622803926467
23,0.584009234852261,0.5840490167935689
24,0.5840031547016568,0.5842852297623953
25,0.5840133837593926,0.5840185206333797
26,0.584005674176746,0.5839556497335434
27,0.5840005569855372,0.5839396005074183
28,0.5839999339845445,0.5839672967592875
29,0.5839976770877838,0.5840014629364013
30,0.5839989256461461,0.5840110200246175
31,0.5839984679487017,0.5840868294239044
32,0.5839943424065908,0.5840325562953949
33,0.5839971632560094,0.5839718584616979
34,0.5839945870372985,0.5839390660524368
35,0.5839945581091774,0.5840189098914464
36,0.5839927149746154,0.5839576083024343
37,0.5839964342647128,0.5840080537796021
38,0.5839942301776674,0.5840283837715785
39,0.5839933411280314,0.5839149542649587
40,0.5839961885213852,0.58399272274971
41,0.5839873015615675,0.5839909279346466
42,0.5839926812781228,0.5840253852208456
43,0.5839924150705338,0.583960777759552
44,0.5839906207323075,0.5839526299635569
45,0.5839905585050583,0.5839595189889272
46,0.5839936529795329,0.5839771380821864
47,0.5839894928667281,0.5839570457537969
48,0.5839876875612471,0.5840189263820649
49,0.5839892980655035,0.5841368732452392
50,0.5839887742731307,0.5840676345825195
51,0.5839865588744482,0.5839332078297933
52,0.583983846227328,0.5840811607837677
53,0.5839866749842961,0.5839753687381745
54,0.583977953420745,0.5839114559888839
55,0.5839842296308941,0.58390485227108
56,0.5839791734483507,0.5839524836540222
57,0.5839827501111561,0.5839162061214447
58,0.5839781035052406,0.5839231270949046
59,0.5839856164058049,0.5839227580229441
60,0.5839786558416155,0.5840261524518331
61,0.5839789004723231,0.5839041692415873
62,0.5839829434951146,0.5839768882592519
63,0.5839841221570968,0.5840772508382798
64,0.5839813949929343,0.5839573009411494
65,0.5839830324782266,0.5839338344335556
66,0.5839737135966618,0.58390598098437
67,0.5839806596040725,0.5839467755953471
68,0.583978173189693,0.5840668016672135
69,0.5839821686082416,0.5839357931216558
70,0.5839777848058276,0.5841658230225245
71,0.5839832237296634,0.5839207967917125
72,0.5839770197735893,0.5839843974113464
73,0.5839794863197538,0.58399183344841
74,0.5839790498680538,0.5840669117371241
75,0.5839784488677978,0.5839771359364192
76,0.5839816641145282,0.5839685167074203
77,0.5839766340388192,0.5839563233455022
78,0.5839818103578356,0.5841553520758946
79,0.5839737283786138,0.5839494702021281
80,0.5839743795659808,0.5841012033224106
81,0.5839731892612245,0.5839128925402959
