epoch,loss,val_loss
0,0.6758002974059847,0.678948790192604
1,0.6739860989915,0.6739705739418665
2,0.673912552661366,0.6735703191359838
3,0.6738633179267247,0.6734550788005194
4,0.6738275222910776,0.673576291402181
5,0.6738441458543142,0.6735073179403941
6,0.6738395907746421,0.6734876132806142
7,0.6737867038779789,0.673797097881635
8,0.6738006106217702,0.6735845388571421
9,0.6738012369738685,0.6735273863871892
10,0.6737414908276664,0.6735835966269175
11,0.6737541490130954,0.6735733445485433
12,0.6737401734722985,0.6736806611220042
13,0.6737154545651541,0.6734831658999125
14,0.6737279900047514,0.6735018300215403
15,0.6737175167534086,0.6737072614828745
16,0.6736979935963948,0.6741152520179748
17,0.6737153588930765,0.6735324009656906
18,0.6736937935219871,0.6736798442999522
19,0.673714430835512,0.673758885661761
20,0.6737086262040668,0.6741161125500997
21,0.6736879338290956,0.6737402212222418
22,0.6736859151257409,0.6737853839397431
23,0.6737011013031006,0.6734841413497925
