epoch,loss,val_loss
0,0.35093413604630364,0.34696886972586316
1,0.3481801267200046,0.34761924280722933
2,0.3478803976244397,0.3469355299671491
3,0.347744660642412,0.34723216432332993
4,0.3477049131128523,0.34751396950085955
5,0.34764868852827285,0.34707601654529574
6,0.34755815744400026,0.350132459739844
7,0.3475469151271714,0.3469674751559893
8,0.10966334081772301,0.021390853231151898
9,0.02126738550513983,0.0203941691921403
10,0.021225057013746766,0.02108377113752067
11,0.021240915735148722,0.02041063159580032
12,0.021296436152731378,0.02109917912756403
13,0.02116651654119293,0.02240297862390677
14,0.02119704392200543,0.020580774935583274
15,0.021196227312088013,0.02041281205539902
16,0.021155328998135197,0.023379029801736274
17,0.02121312793199387,0.02261487438281377
18,0.02116940519006716,0.02098107977087299
19,0.02115807275950081,0.02131577800462643
20,0.021221897088612118,0.020631947241102656
21,0.021131083787315423,0.020722672291720905
22,0.021160624213930633,0.02050031980437537
23,0.021168565439681212,0.022032241070022187
24,0.02111898739139239,0.020450400116542974
25,0.02113841913247274,0.023348754096776246
26,0.021151936153570812,0.02052272466632227
27,0.021131729778109325,0.021699415389448404
28,0.021114488265994522,0.020643687142059206
29,0.021121368481053247,0.02050929413549602
