epoch,loss,val_loss
0,0.7412740306456884,0.7403525995413462
1,0.7404816024833255,0.7402102624972662
2,0.7403591360251108,0.7408424576918284
3,0.7403110810253355,0.740159319361051
4,0.7402568464544085,0.7400641730626424
5,0.7402294759485457,0.7402280265490214
6,0.7402271708382501,0.740059185743332
7,0.7402064863708284,0.7406441092888514
8,0.7401876243485345,0.7400583264430364
9,0.7401981683042315,0.7401344205538432
10,0.7401711905267504,0.7401164453824361
11,0.7401450330813726,0.7403874205350875
12,0.7401322522958119,0.740010732293129
13,0.7401234311262767,0.7403689109881719
14,0.7401186909543144,0.7400374231735866
15,0.7401180118984646,0.7410908657312393
16,0.7401184352636337,0.7402121519247691
17,0.6963580436574088,0.6881507970492045
18,0.6881206628216637,0.6880855625867843
19,0.6881095188193851,0.6881094073057175
20,0.6881127993530697,0.6879769003391266
21,0.6880859388113022,0.687969606757164
22,0.6880879188113742,0.6880581299861273
23,0.6880983405775494,0.6879904489119848
24,0.6880780620177587,0.6880888494253159
25,0.6880893842644161,0.6881717010736466
26,0.6881169924073749,0.6880907071828842
27,0.688095521039433,0.6880477464993795
28,0.6881061293813917,0.6881727685133616
29,0.6881101627349854,0.6882345396677653
30,0.6881187525722715,0.6882134293715159
31,0.6880674241251415,0.6880236543814341
32,0.6880520004034042,0.6879712730646134
33,0.6881081094741821,0.688034308274587
34,0.6880907456874847,0.6881132763624191
35,0.6880686905384064,0.6879838071664175
36,0.6880587753719754,0.688127873301506
37,0.6880721515152189,0.688194330573082
38,0.6880515601899889,0.6881029074589411
39,0.6880521360370848,0.6880212621291478
40,0.6880373056332271,0.6879622217416763
41,0.6880354804197947,0.6880719661712646
42,0.6880442958937751,0.688038160721461
43,0.6880331200361252,0.6879541331926982
44,0.6880374139149984,0.6880232865810394
45,0.6880376074711482,0.6881945937871933
46,0.6880253472328186,0.6880001259644827
47,0.6880337276326286,0.6879466478824615
48,0.6880317389170328,0.6879465406735739
49,0.6880262536207835,0.6882164378166199
50,0.6880273814201355,0.688085666735967
51,0.6880342353714837,0.6880286229054133
52,0.6880184815857145,0.6880699657599131
53,0.6880245881213082,0.688145892461141
54,0.6880144839286804,0.6879363537232082
55,0.6880150629414452,0.6882147452433904
56,0.6880299026701185,0.6880077008008957
57,0.6880215714507633,0.6879358636538188
58,0.6880167381895913,0.6881819974978765
59,0.6880245207150777,0.6879469180107116
60,0.6880240405533049,0.687942259033521
61,0.6880269333786435,0.6881756886641185
62,0.688012641482883,0.6879967960516612
63,0.6880161746342977,0.6879483484427135
64,0.6880235696368747,0.6879582434892655
65,0.688024437573221,0.6880464653571446
66,0.688019256538815,0.6881786279678345
67,0.6880181340376536,0.6880530480146408
68,0.6880149185789955,0.6880009605089823
69,0.6880193213091956,0.6880461327632268
70,0.6880014239284727,0.6879727551142375
71,0.6880168003506131,0.6880332890351614
72,0.6880151571035386,0.6881546468337377
73,0.68801373954614,0.6879930811325708
74,0.6880074250035816,0.6879476857582728
75,0.6880146910481982,0.6880091139872869
76,0.6880042805406782,0.6879730414946874
77,0.6880117141670651,0.6882552245060602
