epoch,loss,val_loss
0,0.6377140156295564,0.6363456265528997
1,0.6366260350677703,0.6361999537150065
2,0.613061028374566,0.5326188982327779
3,0.5325252234405942,0.5323494468132655
4,0.5324972047938241,0.5321068705717723
5,0.5323994908332824,0.5322688080867132
6,0.5323504830731286,0.5320981559356054
7,0.5323406697114309,0.5338771675427755
8,0.5323068447642856,0.5321190211375555
9,0.532288131263521,0.5323951119979222
10,0.5322534773747126,0.5327170945008596
11,0.5322672471337848,0.5351127190192541
12,0.5322845866150326,0.5319154374202093
13,0.5322639879518085,0.5322599954605103
14,0.5322262566619449,0.5320314791599909
15,0.5321837385760413,0.5321318854490916
16,0.5322053965462579,0.5323187308708827
17,0.5321712322367562,0.5322978736956915
18,0.5321445552375581,0.5321500989993413
19,0.5321577589909235,0.5321354012091954
20,0.5321392804119323,0.5320085779428482
21,0.5321452776723438,0.5320381831725438
22,0.5321244953870773,0.532100035349528
23,0.5321178983714846,0.5319816814263661
24,0.5321219810114967,0.5330935287475586
25,0.5321282265318764,0.5320098249117533
26,0.5320988099045224,0.5321112806399664
27,0.5321033118830787,0.5319197999238968
28,0.5321139062113233,0.532128678282102
29,0.5321269827683767,0.5319481564362843
30,0.5321040578683217,0.5321130598783493
31,0.5320983003113005,0.5321846705277761
32,0.5320872957441541,0.5323549335400264
