epoch,loss,val_loss
0,1.0957407889555129,0.9316784454281506
1,0.9200585970074965,0.9152283052168333
2,0.9167404819050248,0.915857584033666
3,0.9170748075787977,0.9145235410571968
4,0.9146234178371292,0.9142590708492833
5,0.5991594851840201,0.16333118807418695
6,0.16700942795857895,0.16270834222037137
7,0.1635630463747333,0.12735527825737425
8,0.12274378987015773,0.11420254606303411
9,0.11883703536623187,0.12086363661874143
10,0.11996415867101105,0.1296106516976523
11,0.11912636620531662,0.11486474665702115
12,0.11866072456153323,0.11875850776178704
13,0.11920868375415417,0.11555783960602677
14,0.11789271328821957,0.11402619327966121
15,0.10291938263896086,0.09681163136057996
16,0.08916302229180109,0.0822164368395001
17,0.09080003157818765,0.08495189926895975
18,0.08983583795764238,0.09411034890770043
19,0.09044830949665357,0.08293813816290606
20,0.09075622153345397,0.09650794732696336
21,0.09116418251664854,0.09069255272958304
22,0.08994076712678871,0.08435322837987182
23,0.09022523223864641,0.0857273920016954
24,0.0903994474914954,0.08491799536267626
25,0.08999885238999362,0.08312896367189658
26,0.08911394006650958,0.08861563864729798
27,0.09010533333940206,0.08466266534334262
28,0.08894923693829293,0.08567041624564034
29,0.08911524632806965,0.08570350876979874
30,0.08896468064670948,0.08305433159882908
31,0.08942346439195023,0.08332759028320282
32,0.08979975515969092,0.08395972386280502
33,0.08951203497328025,0.09029451591496726
34,0.08953708337188912,0.0833519199275429
35,0.09370488668378112,0.08387236643978375
36,0.0902231366450401,0.0924553416868776
37,0.09739187993616272,0.08117905831672946
38,0.08796049453753581,0.08305978389503699
39,0.08913944454921828,0.08525732375639102
40,0.08827811317015782,0.08177775640678135
41,0.08812525628315057,0.08677490590939363
42,0.08789443899635031,0.08667583037877798
43,0.08786437527729188,0.08155751867040037
44,0.08723306924915963,0.0819488256770909
45,0.08672696089534591,0.08164906672776857
46,0.08744921460091543,0.08213826815770683
47,0.08804835065948763,0.08180420562951234
48,0.08729010637256028,0.08213367072649343
49,0.08775802483682255,0.08610391042770067
50,0.08826077578841351,0.08262598974402127
51,0.08819892327841804,0.08560150349928128
52,0.0873137927435941,0.08042064449309529
53,0.08680479861706424,0.08433455982323304
54,0.08754255417122948,0.08346002833541583
55,0.08715618464699071,0.08437457145928176
56,0.08698546199099697,0.08843463671371787
57,0.08637670188056554,0.09023776291495691
58,0.08761152796584477,0.08037854641047514
59,0.08839633516531835,0.08365961355485765
60,0.08879051516183001,0.08305530248561818
61,0.08711884776540428,0.08314175532476649
62,0.08710216825083793,0.0868385840578961
63,0.08704945496660027,0.08269259074985352
64,0.0871796609044934,0.0829478227816649
65,0.0889543257295799,0.08198774638921869
66,0.086874647875778,0.08988193009843308
67,0.08857468118648036,0.08118886502711925
68,0.0868497443280285,0.08380228071341356
69,0.08703371039848981,0.08573624158741881
70,0.08764708122078947,0.08656827118685839
71,0.08787602352483975,0.08078364943911753
72,0.08668327476199958,0.08193175322455501
73,0.0878316072808255,0.08366545628142956
74,0.08738818957363728,0.0801761632563134
75,0.08717261037056306,0.08236616124781959
76,0.08618032462220845,0.08058109634766614
77,0.08776236043346701,0.08300189563924476
78,0.08738595875408098,0.08196268565439153
79,0.0874145438043092,0.08391135749735681
80,0.08667240035925225,0.0805018668826624
81,0.08692707986033278,0.08164724349878903
82,0.08704614526240992,0.08051792106199149
83,0.08670396647983498,0.08316524422879347
84,0.0862602581045597,0.07985503060648041
85,0.08710789641408657,0.08395325718787465
86,0.0867490338249575,0.0807524627499095
87,0.08714325114297237,0.08211998029975319
88,0.08773560932068657,0.08294960035846567
89,0.08649280837015975,0.08144605605706681
90,0.08643413870464906,0.08316735876157626
91,0.08643286628089397,0.08041596270052283
92,0.0868120898840855,0.08549877067020244
93,0.0864467867422667,0.08385321485529754
94,0.08797984450661821,0.08167717570781902
95,0.08705875871209405,0.08712347668186979
96,0.08775543848617827,0.08229711259332306
97,0.08626166821492491,0.08097773307552206
98,0.0875021747803335,0.08088613380674221
99,0.08611891660436666,0.08051738098251655
100,0.08680025611171205,0.0821595363083257
101,0.08696340772810222,0.08269502676944857
102,0.08630721087756159,0.07989756581702082
103,0.08606107444394294,0.08008700863300353
104,0.08725213993630045,0.08531510886726394
105,0.08747092705425785,0.09265675191485775
106,0.08690820451232316,0.08263820315207394
107,0.087895683469989,0.08645638863994934
108,0.08614523418015055,0.08008026683647171
109,0.08611309381158615,0.08141750571018104
110,0.08608704442687756,0.0821313142643551
111,0.08697145024211622,0.08277943829453678
112,0.08661675472125661,0.08403663859315162
113,0.08637985625297571,0.0860282952888942
114,0.08678079357413983,0.0849330976714183
115,0.08609865607918979,0.0828490243183822
116,0.08656411589957697,0.08242179244297458
117,0.08711544825755853,0.08138579918737829
118,0.08685748916480233,0.08169381775789791
119,0.08615048591187709,0.08221647867272756
120,0.08695158486763796,0.08394995216953977
121,0.0862924998746909,0.08039139600324129
122,0.08647623124738948,0.08143565051154886
123,0.08593906472929962,0.08087657282048866
124,0.08677524794116795,0.08038083681442441
125,0.08622708998089604,0.08178007338023824
126,0.08723742622521231,0.080394003854495
127,0.08653529475422933,0.08108062071413019
128,0.08594816414903315,0.08030404721818024
129,0.08727289274263325,0.08343014721090196
130,0.08673993615900354,0.08748298264067055
131,0.08576975844269566,0.08227442282902353
132,0.0867223881417699,0.08175523232272845
133,0.08678821130417842,0.08226426908956344
134,0.0871354384635619,0.08234513622299985
135,0.08636346936309404,0.0819114694267584
136,0.08645143506942604,0.08035254101393577
137,0.08635250288244482,0.08226285851579417
138,0.08683638134337454,0.08065902779221729
139,0.08668651377813544,0.08549021179610312
140,0.08715782421913215,0.08011830963091646
141,0.08658585479979615,0.08208810182443887
142,0.0870742282037548,0.08175610142419325
143,0.08740623160492811,0.08971301047471318
144,0.08834486799366814,0.08289345645097243
145,0.08618547836150094,0.08698937756108348
146,0.08597046452118837,0.08105256154661922
147,0.08600192031024502,0.08190788235893022
148,0.08657007362153694,0.08213844336418243
149,0.08584810062658318,0.08085597404380784
150,0.08577377013295436,0.08173500787578554
151,0.08661209503479535,0.08227192480585388
152,0.08573789191577699,0.08159631387982443
153,0.08574793247388209,0.08440046765919343
154,0.086257456024114,0.0810482293482196
155,0.08720447421610784,0.08370587106458752
156,0.08666173643093285,0.0806774498180268
157,0.08643800725010607,0.08251473104576705
158,0.08693378489670323,0.08359803745503457
159,0.08701686954664124,0.08288990873888752
160,0.08665649344424327,0.08190924134060124
161,0.0861373280702208,0.08094700695667341
162,0.08593119188451213,0.08043447692500123
163,0.08616529821341423,0.08399509173566408
164,0.08573685366633513,0.08033898821446533
165,0.08631481549100842,0.0830039263001227
166,0.08595665399316219,0.08551352967214314
167,0.08620522616265582,0.08442152680682634
168,0.08615843892646274,0.08073831198847303
169,0.08747508532827715,0.08191761730385329
170,0.08630643811545151,0.08196203490992629
171,0.08618735726937664,0.08103812997141023
172,0.08669080798796791,0.08185248047306783
173,0.0857073758513308,0.08122886757200942
174,0.08575812490989534,0.08303025349164918
175,0.08681873099697981,0.08417103592448377
176,0.08669516190087156,0.08136442541133458
177,0.08596933241173016,0.08500617210785741
178,0.08617821286281077,0.08102011766408579
179,0.08639142453652605,0.08250208887281403
180,0.0860141248996254,0.08360153529113226
181,0.08671476111245499,0.08201412571970274
182,0.08575297869276628,0.08103228077618745
183,0.08585127467681782,0.08252862485583391
184,0.08548831231474542,0.08055253198184527
185,0.08521682310333435,0.08450721153824772
186,0.08570338398206225,0.08405713683835685
187,0.0861765793558237,0.08241713960071163
188,0.08628792494678612,0.08133120669258966
189,0.0861737333518491,0.08229127295152114
190,0.08695813753396821,0.08233306401644117
191,0.08620383284443182,0.08279098152195837
192,0.0862796079752157,0.08109666173257966
193,0.08549398405282044,0.08051744736398707
194,0.08599090157113999,0.08316356212577487
195,0.08531486500707791,0.08027078966033817
196,0.0857513539546771,0.08070352781996046
197,0.0859764268229588,0.08279795701172134
198,0.0858716054695,0.08098708682022052
199,0.08627489111941752,0.08179374657335653
200,0.08565507267413137,0.08371180843105668
201,0.0867140365032266,0.08080983543217134
202,0.08567727557879339,0.08048865818460106
203,0.08619948778393939,0.08073553548399162
204,0.08553338258432522,0.08030505645461229
205,0.08623325997878543,0.08022847586739672
206,0.08641587411336082,0.08103529731565536
207,0.08535220459389915,0.08264038283967044
208,0.0864021410856894,0.08027389299937215
209,0.08513295196229406,0.0798998850866826
210,0.08630993997781061,0.0809294824659921
211,0.08628322937495236,0.08415423317329727
212,0.08618436431030543,0.08293757419685764
213,0.0863368314168184,0.08370889349261243
214,0.08656922512478214,0.08327960386715183
215,0.08575166260795272,0.08192723935102894
216,0.0862697682546987,0.08203643837162661
217,0.08636334619139603,0.08427745415032248
218,0.08642132678706708,0.08111226420308745
219,0.08578338432576868,0.08215948125077087
220,0.08579148838312937,0.08587467878911907
221,0.0860011093407941,0.08024916631099371
222,0.08625554906322157,0.08051518903439449
223,0.08550331914265027,0.08364614551253949
224,0.08711666485266364,0.08099628596386094
225,0.08577694280671061,0.08318219771978823
226,0.08638494804775934,0.07999014268898906
227,0.08600348017340283,0.08081975588325746
228,0.08674009590505885,0.08665961560408758
229,0.08562760838897253,0.08035783937377651
230,0.08677965594087246,0.07773637718431174
231,0.0693529469025932,0.05264362752957259
232,0.05384022987531938,0.0558466304362497
233,0.053608309628189896,0.04744700985656264
234,0.05349571115857033,0.04997960806182991
235,0.053817584439575246,0.04642773846531437
236,0.05413579401091111,0.04526017272855485
237,0.05247332287387098,0.04160082824407364
238,0.053148786799073984,0.046561452820715825
239,0.05403876528471971,0.04461020318109962
240,0.05413203693335776,0.0488317159743978
241,0.05511666069461929,0.05224132622438819
242,0.05499412370375913,0.04491197206351879
243,0.05339940964245052,0.04589017774284321
244,0.051848752043837064,0.044263393079615763
245,0.052663059660596694,0.04853205121479572
246,0.052632094094689316,0.041853175958541475
247,0.05324705456904739,0.044637246901850725
248,0.05428915063263751,0.04945238792040632
249,0.054914096811766906,0.04396212762047968
250,0.05285167931955609,0.04138886858161542
251,0.05281090341341362,0.042923660660336295
252,0.05095401741534448,0.04480008689712337
253,0.05190594343273185,0.04507044435834508
254,0.05252561209987315,0.047627998274257774
255,0.0512773072506615,0.04204775251158108
256,0.05217976487868781,0.045191449792232344
257,0.05272816263103457,0.05944502980290441
258,0.05271334516211115,0.04635898350448697
259,0.05145002128608567,0.04631219495507826
260,0.05163896011652423,0.050154247060599406
261,0.05229178058047644,0.047359045236903964
262,0.051686765217454175,0.04624483163490444
263,0.05358658106274324,0.046008485566525564
264,0.051225537197102156,0.0454737253710688
265,0.051862662680465,0.05236211347198061
266,0.052332351521087034,0.04675729423821794
267,0.05161260819439892,0.05287397720542074
268,0.052111751136718225,0.04206198656784985
269,0.053042682769109575,0.04711472635842491
270,0.05145659969837738,0.04406789277845636
271,0.05200688645476289,0.04059484071987292
272,0.051465815098716124,0.048173179431529135
273,0.05155682080150176,0.04719584094721519
274,0.054904140648338866,0.049567041726781405
275,0.050685473142849435,0.04110208930657679
276,0.05219934422752445,0.05145848131552037
277,0.05251454163470967,0.04676143912068249
278,0.05017344260944711,0.04621052591693614
279,0.050775240495311826,0.04483294563438964
280,0.0521128832745113,0.045949738385081776
281,0.05201695506141079,0.04231705217465867
282,0.05128506619372876,0.0413192261119176
283,0.04979523039871068,0.04248645727047568
284,0.051053519070661475,0.04691294489454082
285,0.05047840238202086,0.04542645937117347
286,0.051644559435134796,0.04471826387776269
287,0.05131636142471225,0.053092920634554154
288,0.05134012568011295,0.04173088502456092
289,0.0509386639788544,0.04506567572541867
290,0.05178635998713293,0.05102894304128362
291,0.05106049458428418,0.05060405702015199
292,0.051862366291715964,0.04587563999081808
293,0.0508660585451737,0.04214797748912908
294,0.05190784627462836,0.046662470514660236
295,0.05204131175652803,0.046399501239199614
296,0.052048600943173,0.0432089167675011
297,0.05086306118972307,0.044148925501499736
298,0.050260051078289104,0.04599281109186661
299,0.05058985672819557,0.045262350792190646
300,0.05173735886221652,0.04810520591152362
301,0.05071041647127097,0.04271778018219096
302,0.051901396942601576,0.04381065872488037
303,0.04994300451037214,0.04484945404232273
304,0.05160020431242674,0.04202278614473217
305,0.05025777314081967,0.05009599470828765
306,0.050796550244474714,0.04785020844610551
307,0.051724107097908915,0.04748251699424815
308,0.051134067170733544,0.04511609317890436
309,0.05135600147000831,0.04152171264666179
310,0.04972954688696646,0.0442104290593763
311,0.051131890630356974,0.03966225563742625
312,0.05138263175542876,0.04160535302608359
313,0.04963145869596898,0.04247666653834845
314,0.05016044962158005,0.043421513570921264
315,0.05059442693908946,0.043798068432561864
316,0.050829893614861184,0.04288790091141055
317,0.04975735072830947,0.0384736559765424
318,0.050288975150812806,0.043699275179549336
319,0.050015917926239335,0.042973617739848556
320,0.05094958855968127,0.045983773202235775
321,0.05113974579269166,0.04159037436042147
322,0.051159710491343054,0.04211328549964681
323,0.05014629985949247,0.04230707064905451
324,0.04960350629264374,0.0460215511022548
325,0.05076981268023805,0.04328660873298904
326,0.05071990988295588,0.0402530134524863
327,0.050685121827692484,0.0487570253934255
328,0.050471693465263964,0.04224354462261521
329,0.049237493245159275,0.04328796638074631
330,0.05031612610147656,0.045750005685838376
331,0.05026201236906579,0.043970134180259725
332,0.04985150163046258,0.04282445191358128
333,0.05001681021976175,0.04407326625743148
334,0.05047800122432894,0.04172948031668874
335,0.050921145142067234,0.04282820147718246
336,0.05003486477804957,0.04276253042224453
337,0.05047823998889177,0.04563196432464798
338,0.050634534719338216,0.04241682253989473
339,0.04890277100096138,0.04229396226342287
340,0.0500481975487798,0.04106964434089935
341,0.05163701299169333,0.04215916819622723
342,0.04951071120005211,0.042171481770175503
343,0.05070326349185742,0.042431901696244584
344,0.05059914344964956,0.043371701684069654
345,0.05001742632133518,0.043765138369431265
346,0.050104219186081704,0.043456899003705064
347,0.050275323462125966,0.041891142653432786
348,0.05032435561372959,0.0433042852837964
349,0.04901081715688837,0.03943944659570515
350,0.05113152500459726,0.053245569619335784
351,0.05025044391103226,0.049707789511842064
352,0.04876793436318326,0.04311624429032315
353,0.05120624468965326,0.04190466055814222
354,0.050447883919549526,0.059283308428013506
355,0.05032645276426267,0.04247498335671782
356,0.04957059860002813,0.04035673654862564
357,0.05035602439752667,0.041240463314301486
358,0.04939211840428907,0.038863894976041036
359,0.049822401993567224,0.04461168227090356
360,0.049752218232716056,0.03929807325192128
361,0.05055989225725349,0.04175564835704591
362,0.05113686090432185,0.04089589212437229
363,0.049589389102985326,0.03975948097829353
364,0.04980476896574585,0.03758496786894493
365,0.049595018783159216,0.04484006841512154
366,0.05082380097565219,0.042096152566282706
367,0.050558852749146684,0.040390661942552766
368,0.0493519262763395,0.046366740359538756
369,0.0496902531467742,0.03976098391841508
370,0.04958767343530233,0.042566576534512075
371,0.048945270694965265,0.04621496450364445
372,0.04906646436374124,0.03820981011580183
373,0.049331610858309165,0.04972993664062806
374,0.050148611525901325,0.04468562208955982
375,0.04860942781917017,0.043325335961152456
376,0.050051799431753405,0.038200683770920334
377,0.04963636556841594,0.04579189995157216
378,0.04988944830389334,0.04572340885036763
379,0.05005088430330503,0.04134091013243357
380,0.0501395479482923,0.04553342078391701
381,0.04981791011517863,0.049264405679564985
382,0.052910440013087014,0.04529496628884755
383,0.04976156784342326,0.04332685683282139
