epoch,loss,val_loss
0,0.5633709427515665,0.561119837363561
1,0.5608301704857085,0.5604396655956904
2,0.5604916195736991,0.5600951901276906
3,0.5604011073112488,0.5600398024717966
4,0.560276550716824,0.5601412920951844
5,0.5596618030601077,0.4515667445460955
6,0.4505923678808742,0.4500199402372042
7,0.45035098901059895,0.4501916680932045
8,0.4502169292900297,0.44993290319045387
9,0.4501752649810579,0.44984061127901076
10,0.45012481137779026,0.4499840066631635
11,0.45012857348389096,0.45156001883745195
12,0.45009986509217154,0.4498612916469574
13,0.45010173726744124,0.4501912143826485
14,0.4500873504214817,0.4497468510468801
15,0.45007946833637025,0.4498239018122355
16,0.450085686730014,0.4497872175971667
17,0.4500613251262241,0.45000245680411655
18,0.4500687526398235,0.45032328287760415
19,0.45003806508249705,0.4498745175600052
20,0.4500090127521091,0.4497630025347074
21,0.45004134106636046,0.44974277905623117
22,0.45003203757603966,0.45046357399225234
23,0.45002525283230677,0.4499375361998876
24,0.4500211308929655,0.44986025486389797
25,0.450006120648649,0.44968554415305456
26,0.4499880074461301,0.4497150889436404
27,0.44997511755757863,0.45036277292172117
28,0.4499768166740735,0.4497644065221151
29,0.4499748611052831,0.44982500092188515
30,0.4499529958036211,0.450055634200573
31,0.44996996502743825,0.4504240848223368
32,0.44994648593001896,0.45028485520680744
33,0.44994068825244904,0.4497667051752408
34,0.4499270407358805,0.45000277743736905
35,0.4499377192258835,0.44978300599257154
36,0.4499402591851023,0.449642965734005
37,0.44991026589605543,0.44958746814727785
38,0.4499432737165027,0.44963541509707766
39,0.4499159915778372,0.4495840716958046
40,0.44992143856816824,0.45025231965382895
41,0.44993566378619937,0.44988225479920707
42,0.4499145331316524,0.4501130810578664
43,0.4498976375460625,0.4496105646689733
44,0.4499116299218602,0.44966068307558693
45,0.44990033667617374,0.4497051663796107
46,0.4499053425722652,0.4497334529360135
47,0.44990139271153345,0.4495691100358963
48,0.44987814487351313,0.45038174547751747
49,0.4499102767441008,0.44985181937615076
50,0.4498913177318043,0.44998268751303355
51,0.44989826710356606,0.449891587972641
52,0.4498712825046645,0.4499338365793228
53,0.44989571011066437,0.449668199857076
54,0.4498779801064067,0.4497187183698018
55,0.44989760866430073,0.4496491024891535
56,0.449889545917511,0.450257031361262
57,0.44987604236602785,0.4496544179916382
58,0.44985711391104594,0.44959973986943563
59,0.44987665953238803,0.4496013762752215
60,0.4498846210506227,0.4496760680874189
61,0.44988206713729434,0.4502275548775991
62,0.44989021272791757,0.4500837577581406
63,0.449884965174728,0.4505387497742971
64,0.44987715612517465,0.44987509355942407
65,0.4498674218389723,0.4507862641016642
66,0.4498863210876783,0.450392255226771
67,0.4498596198360125,0.4495717206398646
