epoch,loss,val_loss
0,0.5588377636273701,0.5565352751413981
1,0.5566400953001446,0.5565324601332347
2,0.5564505529271232,0.5563104917208354
3,0.5563416987392638,0.5562287538051606
4,0.5562880232466592,0.5562555042505264
5,0.556266545507643,0.5561552007993062
6,0.5562343112230301,0.5562399286031723
7,0.5562147480381859,0.5561382853984833
8,0.5561930648618274,0.556129410624504
9,0.5561805147594876,0.5560848274230957
10,0.5561818668047587,0.5561013326644898
11,0.5561709054046207,0.556204228123029
12,0.5561600208679836,0.5561994988918304
13,0.5561546444495519,0.5561389928658803
14,0.5561534122361077,0.5560704406897227
15,0.5561462061405182,0.5563189305861791
16,0.5561421528392367,0.5562459175189336
17,0.5561443951792188,0.5561414070924123
18,0.5561436276568307,0.5565231892665228
19,0.5561402932273017,0.5560778073867162
20,0.5561372753646638,0.5561602974335352
21,0.5561377026637395,0.5561060587565104
22,0.5561402336491479,0.556088139017423
23,0.5561328807671865,0.556182210167249
24,0.556133431368404,0.5561931005716324
25,0.5561298736333847,0.556051526149114
26,0.5561256163517634,0.5561030593713124
27,0.5561324407524533,0.5560751657883326
28,0.5561193408303791,0.5561078138351441
29,0.5561252533992131,0.5560578348239263
30,0.5561256356106864,0.5561936974128088
31,0.5561219648652607,0.5560668655633927
32,0.5561227734486262,0.5560611368815104
33,0.5561228002839618,0.5562602687676748
34,0.5561212813721763,0.556061004281044
35,0.5561234971019957,0.5561806818246842
36,0.5561145872407489,0.5560545264482498
37,0.5561157541937298,0.5561552767753601
38,0.5561153620084127,0.5560565626621247
39,0.5561109258598751,0.5560527211825053
40,0.5561147275368372,0.5560538813273112
41,0.556113443520334,0.5561422115564346
42,0.5561162512567308,0.5560520534912745
43,0.556114595744345,0.5560453107357025
44,0.5561154488457574,0.5560652213096619
45,0.5561110555330913,0.5561243445475896
46,0.5561143624650108,0.5560858300924301
47,0.5561119478940963,0.5560801696777343
48,0.5561068811019262,0.5560965718428293
49,0.5561122057702806,0.5561647260586421
50,0.5561019252803591,0.5561531447569529
51,0.5561051035324732,0.556139240860939
52,0.5561028449138006,0.5560747552712758
53,0.5561063636673821,0.5561580133835474
54,0.5561004862917794,0.556047546863556
55,0.5561007966068056,0.5560392002264659
56,0.556095520761278,0.5560352151791255
57,0.5560990348127153,0.5560343859593073
58,0.5560978556871414,0.5561053026914596
59,0.5560969900687536,0.5560391484498978
60,0.5560944444470935,0.5560565898418427
61,0.5560864159663518,0.5560585168997446
62,0.556096163087421,0.5560616790453593
63,0.5560878162516488,0.5560677309433619
64,0.5560922626919217,0.5560117172002792
65,0.5560852456887563,0.5560367232163748
66,0.5560898062520557,0.556024169921875
67,0.5560965418683158,0.5560340890089671
68,0.5560858690871133,0.5560358771880468
69,0.5560920794804891,0.5561589836279551
70,0.5560897542900509,0.5560775220394134
71,0.556089222603374,0.556055160522461
72,0.5560908414787716,0.5560308163960774
73,0.5560847722556856,0.5561931231419246
74,0.5560935003227657,0.5560792714754741
75,0.5560837161276075,0.556032990694046
76,0.5560865164995193,0.5560583155155182
77,0.556086626874076,0.556062905907631
78,0.5560859774748484,0.5560297248363495
79,0.5560851641628477,0.5560191717942555
80,0.5560878412855996,0.5560552707513173
81,0.5560868122047848,0.556280988574028
82,0.5560838523573346,0.5560338997840881
83,0.5560874040126801,0.55610990913709
84,0.5560835129419962,0.5560818518400192
