epoch,loss,val_loss
0,0.5594042587677638,0.5566401452620824
1,0.5566760039329529,0.5564345030784607
2,0.5564963716665904,0.556251678109169
3,0.5563626842763689,0.5562457406520843
4,0.5563059987756941,0.5562611272732417
5,0.5562663052346971,0.5561662910779317
6,0.5562319372892379,0.5562596536477407
7,0.5562042549583647,0.5563036644061407
8,0.5561802047093709,0.5562563749154409
9,0.5561722600327598,0.5561297967433929
10,0.5561663273970286,0.5560825037956237
11,0.5561582049263848,0.5561150939067204
12,0.5561499456432131,0.5561423262357712
13,0.5561349640554852,0.5561231625080109
14,0.5561349413130019,0.5560487408638001
15,0.5561295560863283,0.5560452462832133
16,0.5561326539913813,0.5561066755056381
17,0.556120834271113,0.5560450550715128
18,0.5561252044174406,0.5562650847832362
19,0.5561208979951011,0.5560798417329789
20,0.5561177933878368,0.5561287237803141
21,0.5561131426758237,0.5561450939575832
22,0.5561182386080424,0.5561473026275635
23,0.556110703587532,0.5563596810897191
24,0.556113987882932,0.5562441933949789
25,0.5561104561222924,0.5560749181906383
26,0.5561072043445375,0.5560451232989629
27,0.5561089357270135,0.5560966382821401
28,0.5561129232115216,0.5560552066961925
29,0.5561031942764918,0.556180313150088
30,0.5561078680886162,0.5560495852629344
31,0.5561039060089323,0.5560788598855336
32,0.5561060736444261,0.5563823364575704
33,0.5561062770684561,0.5561097091039022
34,0.5561021487050586,0.5561491456826528
35,0.5561031159559886,0.5562486942609152
36,0.5560970155795415,0.5562171250184377
37,0.5561003087494109,0.5560574413537979
