epoch,loss,val_loss
0,0.6686766721804936,0.6668625194231669
1,0.6669909326765272,0.6668621183633804
2,0.6669020715024736,0.6668827870686849
3,0.6668682366742028,0.6669206152757009
4,0.6668515366183387,0.6668185818990071
5,0.6668324944708083,0.6668263098796209
6,0.6668235538403193,0.6667743477423986
7,0.6668214531342188,0.6669030802647272
8,0.6668134788274765,0.6667602680524191
9,0.6668094667196274,0.66678060845534
10,0.6668057486746046,0.6667694638967514
11,0.600846991247601,0.5557355908155441
12,0.5557718747191959,0.5558738175233205
13,0.5557627813683615,0.5557644509077072
14,0.5557584180567,0.5557257968982061
15,0.5557535509533352,0.5557083977063497
16,0.5557514257563485,0.5557253141403198
17,0.5557488523721695,0.5556984127759933
18,0.5557455843157239,0.5557061942021052
19,0.5557468387020958,0.5557252118984858
20,0.5557440385686027,0.5557725448608398
21,0.5557403958241145,0.5557426818211874
22,0.5557392635742824,0.5557152336835861
23,0.5557380519443088,0.5556922251383464
24,0.5557362583213382,0.5557984793186188
25,0.5557366657124625,0.5557466955979665
26,0.5557373823192384,0.5557327710390091
27,0.5557362031539281,0.5557154656648636
28,0.5557322086758084,0.5557497895558675
29,0.55573492497868,0.5557067037026088
30,0.5557307444678412,0.5557625436385473
31,0.5557329237063726,0.5557178605000178
32,0.5557326939635807,0.5557205475966136
33,0.5557316060463587,0.5557695847352345
34,0.5557287262810601,0.5557424998283387
35,0.5557283790376452,0.555848171154658
36,0.5557292322980033,0.5556922945578893
37,0.5557262436813778,0.555703233242035
38,0.5557205536100599,0.5556851137081782
39,0.5557162242068184,0.5557219846248627
40,0.5557160381740994,0.5556923905213674
41,0.5557164349423515,0.5556875142653783
42,0.555714039987988,0.5556883647839228
43,0.5557098162968953,0.5557086601654688
44,0.5557143323024114,0.5557389563719431
45,0.5557108600272073,0.5557136497894923
46,0.5557123116519717,0.5556887969573339
47,0.5557125822835498,0.5556799587806066
48,0.5557101119624244,0.5556987144947052
49,0.5557095880375968,0.555678429087003
50,0.5557109801504347,0.5557184861898422
51,0.555708729479048,0.5557909202973048
52,0.5557060408592224,0.555692794919014
53,0.5557056166860792,0.5556782142321268
54,0.5557060920000076,0.555674141407013
55,0.5557053484651777,0.5556819359064102
56,0.5557054226266013,0.5556741378704707
57,0.5557041612068812,0.5556891179084777
58,0.5557046952512529,0.5556856546799341
59,0.5557026263210508,0.5556896920998892
60,0.5557021253903707,0.5557313248316447
61,0.5557016092406379,0.5558601289987564
62,0.555700268679195,0.5556873306035995
63,0.5557016192542182,0.5556760807037353
64,0.5556994019481871,0.5556844002008439
65,0.5556992338101069,0.555690379579862
66,0.5556996721956465,0.5556850411097208
67,0.5556985592312284,0.5556985110839208
68,0.5556987105607987,0.5556847036282222
69,0.555696328692966,0.5557071120738983
70,0.555697694155905,0.5556957661310832
71,0.5556975066396925,0.5557691628138224
72,0.5556978473530876,0.5556811954975128
73,0.5556974114444521,0.5556937339703242
74,0.5556957973241806,0.5557265521685283
75,0.5556968961821662,0.5556654720306397
76,0.5556963309182061,0.5556937830448151
77,0.5556953917741776,0.5557503935098648
78,0.5556970763338936,0.5556766964197158
79,0.5556965342230267,0.5556657947699228
80,0.5556939906941519,0.5556748829285304
81,0.5556965193218655,0.5556648708184561
82,0.5556965487268236,0.5556985711256663
83,0.5556953518258201,0.5556804861625035
84,0.5556947672367096,0.5557947104374568
85,0.5556966633796692,0.555670185248057
86,0.5556964171595044,0.5556693718830744
87,0.5556970480680465,0.5556799158652623
88,0.5556940893199709,0.5556849711338679
89,0.5556956095298131,0.5558137353658676
90,0.5556943524811003,0.5557535783052444
91,0.5556944201389948,0.5558228645324707
92,0.555695452120569,0.5556741782824198
93,0.5556954137351778,0.5557041920820872
94,0.5556945272551642,0.555731051325798
95,0.5556942222383288,0.5556657589276631
96,0.5556954513390859,0.5556672215859095
97,0.5556932481394874,0.555711970726649
98,0.5556950031121571,0.5556773709456125
99,0.5556937806871203,0.5556836997667949
100,0.555696174899737,0.5556670331160227
101,0.5556948916514715,0.555687801917394
