epoch,loss,val_loss
0,0.44660642748408846,0.44543997289737064
1,0.4449960375295745,0.44488739923636117
2,0.4448890074160364,0.4447113685409228
3,0.44478550426827534,0.4453474139968554
4,0.4447470693058438,0.4446230576237043
5,0.4447220757537418,0.44463828204075495
6,0.4446990829308828,0.4445888275106748
7,0.4446874532169766,0.4446619704167048
8,0.44468413619200386,0.44466257419188815
9,0.4446677600873841,0.4445877250234286
10,0.44466376771529514,0.44460546875
11,0.4446498164203432,0.444688155690829
12,0.44464840542607836,0.4445947088996569
13,0.4446452319688267,0.4445823049147924
14,0.4446408953997824,0.4446685721278191
15,0.44463741462760503,0.44457583012183505
16,0.4446298641430007,0.44458419660727183
17,0.44463053623835247,0.4446302000681559
18,0.44463058106766806,0.4445908507903417
19,0.44462725773122574,0.4445750891168912
20,0.4446230514778031,0.4446612029671669
21,0.44462345669666925,0.4445688999692599
22,0.4446180167728,0.44457878257830935
23,0.4446201683746444,0.44462984349330265
24,0.4446136575274997,0.4445765908360481
25,0.4446168082356453,0.44473585166533786
26,0.4446121234761344,0.4445655080080032
27,0.4446128942105505,0.444657827993234
28,0.4446084585454729,0.4447159373561541
29,0.44461242292986974,0.44473076085249585
30,0.44460894263452955,0.44472345342238745
31,0.4446076273123423,0.44457722757260004
32,0.4446066868768798,0.4445794886350632
33,0.4446088049610456,0.44457277381420135
34,0.4446071783436669,0.44464260278145473
35,0.44460755456818474,0.44458378056685127
36,0.44460469714800516,0.44460220078627266
37,0.44460476780600017,0.44460881024599075
38,0.4446038385960791,0.44458780803283054
39,0.4446043325530158,0.44457500662406285
40,0.44460336676571105,0.4446350065469742
41,0.4446030987832281,0.44457945281267164
42,0.4446010843978988,0.4445800699790319
43,0.44460151093535955,0.44457801220814386
44,0.4446005950437652,0.44456971422831215
45,0.44460194402933123,0.44457313762108486
46,0.4446016011503008,0.4446850065390269
