epoch,loss,val_loss
0,0.6678762013382382,0.6667242942651113
1,0.6668014035887189,0.6668466279904047
2,0.6750363798803753,0.6667312676509222
3,0.6667442527214686,0.6667245004574458
4,0.6667642355627483,0.6667631823619207
5,0.6667509436607361,0.6667304544448852
6,0.6667504629558987,0.6667787928581238
7,0.6667388534280989,0.666943734049797
8,0.6667383123238881,0.6667342131932577
9,0.6667282509803772,0.6667237130006154
10,0.6669361316098107,0.666730389714241
11,0.6667228153016832,0.6667398363749186
12,0.6667351943651835,0.6667429568767548
13,0.6667563234170278,0.6683055516878764
14,0.666736754377683,0.6667243011792501
15,0.6667238059706158,0.6667254927158356
16,0.6667269364065594,0.6667239621877671
17,0.6667312129735946,0.6667236644029617
18,0.6667395604981317,0.6667273808320363
19,0.6674280198017756,0.666729420264562
20,0.6667386352883445,0.6667226498524348
21,0.6667335103882683,0.6667230618000031
22,0.6667224897940953,0.6667250690460205
23,0.666725455072191,0.6667255984544754
24,0.6667205887238185,0.6667193157672882
25,0.6667284225092994,0.6667224810123443
26,0.666725773996777,0.6667356229623159
27,0.6667290895779927,0.6667184685866038
28,0.6667230981455909,0.6667237158219019
29,0.6667154945267572,0.6667209468285242
30,0.6667243867847654,0.6667218058904012
31,0.6667186185386446,0.666723476489385
32,0.6667226819064882,0.6667232602834702
33,0.6667255855268902,0.666721219142278
34,0.666724276277754,0.6667383306821187
35,0.666722307311164,0.6668570326566696
36,0.6667254778676562,0.6667284823656082
37,0.6667233963542515,0.6667302880684535
38,0.6667213399675157,0.666721658150355
39,0.6667197516626782,0.6667238859335581
40,0.6667198378509945,0.6667224665085475
41,0.6667191509273317,0.6667240003347397
42,0.666717329925961,0.666738468170166
43,0.6667274542649587,0.6667438753445943
44,0.6667280107339223,0.6667343585093816
45,0.6667223727173276,0.6667278504769008
46,0.6667182439698114,0.6667285302480062
47,0.666722947994868,0.666726841211319
