epoch,loss,val_loss
0,0.44605430452691186,0.4445650820930799
1,0.4446286441816224,0.44458301514387133
2,0.4446333476172553,0.4445420914888382
3,0.36389096171988383,0.3335158828695615
4,0.3335953020983272,0.33350911058982213
5,0.33354157294167414,0.3340249313513438
6,0.33348521806796394,0.3334491325616837
7,0.3335048099822468,0.3334477881193161
8,0.3335014666716258,0.3334877903461456
9,0.3334780643913481,0.3334416375756264
10,0.3338506643242306,0.3334454989830653
11,0.33352086948686177,0.3334823342760404
12,0.33374850029415554,0.33347324895858765
13,0.3334580100244946,0.3334432199001312
14,0.33344954507218466,0.3334799450238546
15,0.3334569604529275,0.33353045185407004
16,0.33347662027014624,0.33344307537873585
17,0.3334495857887798,0.3334623018701871
18,0.3334672568241755,0.33344587540626525
19,0.33344785691632167,0.3335097220937411
20,0.33345202589035033,0.3334495747884115
21,0.3334510395328204,0.3334449433684349
22,0.333433821896712,0.33344285988807676
23,0.3334467304216491,0.33344486796855927
24,0.3334407182733218,0.3334687656760216
25,0.3334384289913707,0.3334708064198494
26,0.3334405032528771,0.3334422861933708
27,0.33344292158550687,0.3334493615229924
28,0.33343647225697837,0.3334429311553637
29,0.3334317616886563,0.3334709593256315
