epoch,loss,val_loss
0,0.5574957814878888,0.5556492569446564
1,0.5557409957249959,0.5556369823614756
2,0.5556895712746515,0.5556325378815333
3,0.5561335878902012,0.5556790664593378
4,0.5556750738620758,0.5556523843208949
5,0.5556663049856821,0.5556388041575749
6,0.5556493911743164,0.5557268914779028
7,0.5556662843094932,0.5556466161807379
8,0.5581924387349023,0.5556395003795623
9,0.5556575690640344,0.5556429983377457
10,0.5556893384986453,0.555675140539805
11,0.5556597974830204,0.5556322674751282
12,0.5556489894787471,0.5556597119172414
13,0.555637486855189,0.5556261853774389
14,0.5556360940668318,0.5556276823679606
15,0.5556359655989541,0.555632892092069
16,0.5556290874348746,0.5556725579500198
17,0.555638655755255,0.5556303930679957
18,0.5556289690468046,0.5559347554842631
19,0.5556211791568332,0.5556303761005401
20,0.5556588441265954,0.555629741470019
21,0.5556385893291897,0.5556308158636093
22,0.555621629887157,0.5556281921466192
23,0.5556222442123625,0.5556806701421738
24,0.5556289209922155,0.5556249425411225
25,0.55561885424455,0.555642731666565
26,0.5556211184130775,0.5556279852390289
27,0.5556151669025421,0.5556305380264918
28,0.555620637231403,0.5569730108579
29,0.5556188250250287,0.5556247431834539
30,0.5556153972678715,0.5556377915541331
31,0.5556170621713002,0.5556275912920634
32,0.5556192704836528,0.5556353774865468
33,0.5556163285573323,0.5556224225362142
34,0.5556173390812345,0.5556593312819799
35,0.5556142199171914,0.555622094074885
36,0.5556164825095071,0.5556236865123113
37,0.5556155631542206,0.5556331047614416
38,0.5556101237800386,0.5556305782397588
39,0.5556189581155777,0.5556256884336471
40,0.5556136493153042,0.5556240825255712
41,0.5556173102193409,0.5556226292848587
42,0.5556112603346507,0.5556354737281799
43,0.5556163118812772,0.5556269795497258
44,0.5556132522821426,0.5556258748372396
45,0.5556078643401464,0.5556407169103622
46,0.5556143384509616,0.555623703678449
47,0.555613528529803,0.5556257751782735
48,0.5556172131167518,0.555652533809344
49,0.5556214697360993,0.5556296912431717
50,0.5556172182295057,0.5556268944342931
51,0.5556201894018385,0.5556379771629969
52,0.5556147623724408,0.5556382708946864
53,0.5556217250559065,0.5556288126707077
54,0.5556183867719439,0.5556264792283376
55,0.5556178603437212,0.5556484012206395
