epoch,loss,val_loss
0,1.1442501102093223,0.9546990721861908
1,0.9586570384361154,0.9495606781599102
2,0.9409603186375242,0.9319510879984544
3,0.7552160595396789,0.17654753101133083
4,0.14575346092506347,0.13309010175046937
5,0.13835083024562886,0.16993463591695895
6,0.12898267028007726,0.11839153414587615
7,0.12430895565806913,0.12037022373754613
8,0.12425155172033535,0.11760695293751174
9,0.12425279252237087,0.12061899003103702
10,0.12364491204722965,0.1371945007934574
11,0.12431347113642528,0.11919358474808985
12,0.12303758366965503,0.11421905605414005
13,0.10610046564303846,0.11041831151436522
14,0.09981462455766978,0.0949328074538408
15,0.09704760799976327,0.09052825076785014
16,0.09491940568968522,0.08773000842898432
17,0.09683191912879555,0.09563394771270992
18,0.09678928484563068,0.09245686150259441
19,0.09702215183547155,0.09254820745163397
20,0.09538393280058026,0.09506020396464449
21,0.09566170897325867,0.09951589961701646
22,0.09239041863726653,0.08083082823761091
23,0.08614354570798152,0.0776868561269158
24,0.08367130409678619,0.07706522787501922
25,0.08478217579579478,0.07974856138978657
26,0.08554139957756544,0.07833096488029224
27,0.08468727556745513,0.07488366823706893
28,0.08423808220627788,0.07822733511128564
29,0.08603322569480698,0.07480978281429794
30,0.08874607777850832,0.10100640012714211
31,0.08533250105480035,0.08928437162997369
32,0.08665807852394777,0.07831305394437095
33,0.08326554030860014,0.07069942709557041
34,0.07457363690056497,0.0657917919711475
35,0.07599415443986773,0.06822352987825145
36,0.07366605941131651,0.059840871823312596
37,0.06829255574745975,0.062042635024826605
38,0.0678068660020685,0.056787824854919414
39,0.06688145898115501,0.06402836367185775
40,0.06712582251213617,0.07345842666748763
41,0.06788894929457083,0.06433460070764448
42,0.06666721710808474,0.06914030578340927
43,0.06625937379067473,0.06014513463954179
44,0.06506288687499454,0.0558410030151419
45,0.06487932352660845,0.05857345490547959
46,0.06423746758372523,0.06064005726940827
47,0.06376161531144806,0.07242615041168163
48,0.06361739193682102,0.05554118030987807
49,0.06419975133396512,0.0573182337511775
50,0.06353511733321356,0.057078150973412824
51,0.06405451684575782,0.05404353007335829
52,0.06453718239958998,0.05624838724176476
53,0.06406646080649166,0.05661204889332098
54,0.06321574163267477,0.05385857157632769
55,0.06396029242802802,0.06132319774735486
56,0.06421061386738279,0.050189196815697626
57,0.06477094427633992,0.05719476696541903
58,0.06387255078344177,0.053350968846850345
59,0.06452412982944777,0.05364403848000783
60,0.06590708152050252,0.05971158461136153
61,0.06563429755149029,0.06355195323916248
62,0.06511106491953826,0.05346991368913109
63,0.06526876012351009,0.06220556270189142
64,0.06510519398580655,0.06077946594101282
65,0.06509206081040389,0.05729950057147773
66,0.06574808087071674,0.059760560398650964
67,0.0647387195339768,0.054803980827114004
68,0.06492172815412689,0.056463034957985714
69,0.06406777603231113,0.05661695054146882
70,0.06347045030525392,0.06185231506159802
71,0.06338449207256086,0.05901891902536275
72,0.06381378929056913,0.05342474318164592
73,0.06396202990759889,0.05459713984193206
74,0.06382503579284927,0.05941337122848531
75,0.0631636211289178,0.06848402954909923
76,0.06427684069139133,0.052587549072982624
77,0.06325104589267574,0.05872437181155177
78,0.06345131376935684,0.056132305866682906
79,0.06254650627205476,0.06281558019679345
80,0.064099538113901,0.06761635403055924
81,0.06353932849651246,0.05626902404782836
82,0.06320632682938734,0.06921822568046689
83,0.06365896541151025,0.05764839984627632
84,0.06411050938165264,0.055949663708631525
85,0.06439252184320679,0.05897309448017111
86,0.06330316364496731,0.053539540603551455
87,0.0621100949828891,0.058164254812839454
88,0.06415146557961682,0.055359220647367154
89,0.06088079582359955,0.05129158064807612
90,0.06290790742282584,0.05541836211136078
91,0.06263766587496376,0.062272491587653744
92,0.061625027936623035,0.05498692650115306
93,0.06327152616076702,0.05731554955715391
94,0.0621284702919525,0.049986727085547626
95,0.06215377868987542,0.055221447855572536
96,0.06188952680632436,0.062126483402644726
97,0.06105391811982119,0.059888716853568925
98,0.06229375437755075,0.05373829935842767
99,0.060604559667736556,0.056794739271675006
100,0.061661636517990864,0.057029900756654754
101,0.06243311690153171,0.052096115266609656
102,0.06113330494490168,0.05372732009705449
103,0.06154287784838314,0.054181615584088065
104,0.06190521103308332,0.04622153466188221
105,0.06188040887795276,0.05518315873876976
106,0.06237962097376943,0.05332648291857573
107,0.062113647907674076,0.05253205872582693
108,0.06304166037395441,0.05743814220188211
109,0.06047450006157279,0.06514741971315355
110,0.06090688370645428,0.054981989479364654
111,0.06093075231546827,0.04730694249139408
112,0.06067527663723243,0.050527441446025105
113,0.06067296174959577,0.05398432194691118
114,0.05967421057649715,0.05691750545208762
115,0.061083445689373246,0.05143108551858019
116,0.060483907517179955,0.0567841652028462
117,0.059376486255716475,0.05357881695249655
118,0.05962904686745021,0.05156660896619451
119,0.06018904848449272,0.055336045172286054
120,0.059957115950467016,0.04977594969215571
121,0.05969489027885459,0.05246105388604522
122,0.0598208343414806,0.04687061806157267
123,0.06068996294402332,0.04982428745474645
124,0.06058301394425028,0.051008299606439066
125,0.05969034568716088,0.04959724725368346
126,0.05952383068392428,0.0502282887098998
127,0.05963379594447424,0.05102481855878671
128,0.059025559877101376,0.060934518994907004
129,0.05873905147035853,0.05050498104238065
130,0.06037905769164654,0.054009777541360715
131,0.059145197510910186,0.052370145376122106
132,0.060686980799926196,0.05486330289668604
133,0.05967839159148994,0.05275189039650141
134,0.05963785284526163,0.04912012260760704
135,0.058379062728060066,0.0570667965182036
136,0.060184870714588674,0.052710645592681585
137,0.05961500791709026,0.05329834539307295
138,0.06005507815417478,0.049363444913526136
139,0.05925983840299903,0.05409742064248326
140,0.05955972781239317,0.05258713284052685
141,0.05911768712341976,0.05959591300612722
142,0.05990183241277623,0.052229211063691494
143,0.059770263983510895,0.051682812058263354
144,0.05814326636857085,0.05050161417757991
145,0.06021378346061926,0.048705383953966945
146,0.060637696575316744,0.052085549189178126
147,0.05991510683752662,0.051653683475624323
148,0.05952040345711504,0.04945993894486048
149,0.05952898229064466,0.0515104252104825
150,0.06075661071092248,0.0587373831900802
151,0.06052038722557483,0.051246198073984256
152,0.06127243271594147,nan
