epoch,loss,val_loss
0,0.84774712290889,0.7780532563010538
1,0.7781566107806178,0.7789970032336143
2,0.7781254580540563,0.7784699641645315
3,0.778119299530932,0.7782593189762106
4,0.7781257996276488,0.7781745794607448
5,0.7780495170293514,0.7779895272423837
6,0.7780229927144838,0.7778786043767252
7,0.7780902694363605,0.7778844476555614
8,0.7779465393202746,0.7780073719038659
9,0.7779819510351622,0.777991382008978
10,0.7780053918825608,0.7781217833640794
11,0.7779239382431428,0.7787814000414629
12,0.7780328109234184,0.7778705084382952
13,0.7779585922713118,0.7778624415857067
14,0.7779202407898579,0.7780276733071328
15,0.77800144545491,0.7778907653541166
16,0.7778939492747551,0.7779748417364608
17,0.7779761465957874,0.7779272086118466
18,0.7779364072927213,0.7784110451099041
19,0.7779964864702482,0.7778964955164853
20,0.7779188290053335,0.7779111316125751
21,0.7779274166319475,0.7778639152063582
22,0.7778751689293716,0.7779650363075031
23,0.7779561165509884,0.7778420727457294
24,0.7779276467809154,0.7779366956060798
25,0.7778617550220199,0.7778619310137853
26,0.7779515281309591,0.7778486551921682
27,0.7779287450129945,0.7778782152018212
28,0.7779383744392482,0.7778619231270265
29,0.7778639031301006,0.7779135399071267
30,0.7778797407883011,0.777966364105156
31,0.7779494267928533,0.777839157981246
32,0.7778758065535868,0.7778509465854831
33,0.7778541338934536,0.7778453168507606
34,0.7778689292014364,0.7779156775359911
35,0.7779625364383106,0.7780789134151936
36,0.7778820398350174,0.7778841481665599
37,0.7778587603361926,0.7778953852227334
38,0.7779101826528121,0.7778372880208818
39,0.7778626074446461,0.7781073979815992
40,0.7779246193666797,0.7779027573185944
41,0.7778421768013575,0.7779535464046854
42,0.7778926894206363,0.7778488906463761
43,0.7778497317584493,0.7778289208917099
44,0.777871929334706,0.7779602566691227
45,0.7778611071811157,0.7778503666516509
46,0.7778827819195904,0.7779266552042143
47,0.7778726136158634,0.7778375567394914
48,0.7778662887014526,0.777849850697919
49,0.777878207154629,0.7778890373554114
50,0.7778645995567937,0.7778376888563752
51,0.7778880878231931,0.7778852333342576
52,0.7778568487433678,0.7778683134581457
53,0.7778915769500951,0.7778834691724114
54,0.7778438042703226,0.7778570166113705
55,0.7778532783496691,0.7779924745711958
56,0.7778571528047205,0.7778691329153596
57,0.7778723774433515,0.777832262514709
58,0.7778440990265396,0.7778322021771755
59,0.7778571684287434,0.7778678345426461
60,0.7778449923961382,0.7778247039150504
61,0.7778450736993969,0.777977612209355
62,0.7778529956915871,0.7778544556024775
63,0.7778408085161549,0.7779186140136732
64,0.7778705589091762,0.7778975797543987
65,0.7778511286481933,0.7778935960223421
66,0.7778417691510919,0.777977406409798
67,0.7778670646046516,0.7778513542466874
68,0.7778914767156984,0.777847380906338
69,0.7778248389598433,0.7778425283619277
70,0.7778465702146202,0.7778358903581406
71,0.77784962819506,0.7778345561941997
72,0.7778212781119305,0.7778416566727118
73,0.7778262804245419,0.7778965819098573
74,0.7778607973915623,0.7778306601900292
75,0.777848988693045,0.7778251431342286
76,0.7778661676617641,0.7778267142072164
77,0.7778675769595711,0.7778557283678368
78,0.7778366463858323,0.7778253647619966
79,0.7778544523901638,0.7778197201179089
80,0.777823917051335,0.777835998628791
81,0.7778490904078044,0.7778257900453485
82,0.7778495494623815,0.7778709249160425
83,0.7778431630837572,0.7778412616128199
84,0.7778398215045125,0.7778982440142003
85,0.7778272118897747,0.7778456804511262
86,0.7778573507940892,0.7778171923624789
87,0.7778115625438934,0.7778465040759617
88,0.7778285463125967,0.7778227679618762
89,0.7778295189326361,0.7778985634005864
90,0.7778573776156325,0.7778539999862792
91,0.7778190631177175,0.7778130195779218
92,0.7778274760433255,0.7779876050718948
93,0.7778780035464459,0.7778469199958384
94,0.7778308449436446,0.7778439602844867
95,0.7778256878565815,0.7778763697111928
96,0.7778472521111544,0.778095152481343
97,0.7778318156202525,0.7778707303614064
98,0.7778397036953688,0.777862162836365
99,0.7778328201957031,0.7778169732396593
100,0.7778245645750187,0.777808585381766
101,0.7778303320709627,0.7778132277511636
102,0.777823400444931,0.777849059801492
103,0.7778271828221642,0.7780437442354596
104,0.7778911527277913,0.7778246699615146
105,0.7778204361903979,0.7778162481829013
106,0.7778225525144394,0.7778066239525012
107,0.7778284909484977,0.7778475675304607
108,0.7778058065007044,0.7779348528063567
109,0.7778325075037641,0.7778097871881731
110,0.7778403649470446,0.7778348613931709
111,0.7778167279917231,0.7778731394107242
112,0.7778298401895295,0.7778575006352146
113,0.7778126721120489,0.7779156884199371
114,0.7778268652005451,0.77784493054178
115,0.7778280668902734,0.7778193592959576
116,0.7778332247831496,0.7780812173441892
117,0.777827939743178,0.77781126928627
118,0.7778203452684292,0.7778585523197379
119,0.7778187806492385,0.7778583578526109
120,0.7778150280141652,0.7778256287332368
121,0.7778656332144396,0.7778244041963376
122,0.7778075153823146,0.7778269703573296
123,0.7778179315519587,0.7778113043664858
124,0.7778229064523404,0.77782254085385
125,0.7778137082928742,0.7778127585491755
126,0.7778109331601197,0.777811839134677
