epoch,loss,val_loss
0,0.3538170088308845,0.3342941627084148
1,0.33457318500378025,0.3349728695480818
2,0.3351316796137724,0.33442807221088877
3,0.3342676239982981,0.3341259881703651
4,0.33615529307307196,0.3338244043592795
5,0.333975683850105,0.33394793260642247
6,0.33396506266666276,0.3337878364284097
7,0.33425308013863686,0.33368960512977364
8,0.3344447374117807,0.33379982579496065
9,0.3339669559573211,0.33483832971746497
10,0.33418868156232595,0.3336590891815059
11,0.3340720119786684,0.333873291423855
12,0.33386835739022913,0.33364205653349355
13,0.3339385916977153,0.33367903535246607
14,0.33391161217137916,0.3337144813727492
15,0.33403655881180766,0.3339572127072346
16,0.3338230037194053,0.33358929372310725
17,0.3337688835332858,0.3338014039507173
18,0.33370765521525314,0.33359752273008264
19,0.3337469219435842,0.33356543366877084
20,0.33389096037979965,0.33373665239181316
21,0.3338710552342056,0.3345070615900309
22,0.333922638746258,0.3337762724108424
23,0.3339178128939503,0.33360943745135996
24,0.33371248958511457,0.33481694202528983
25,0.33387761531295035,0.3338144059836657
26,0.33369819790666355,0.3335154834887942
27,0.3337464784984451,0.3334845177108683
28,0.33370309170979773,0.3341048900020912
29,0.33366004136452115,0.33353686022045287
30,0.33363849062463696,0.3337732075955763
31,0.3337099740153286,0.3337104565496947
32,0.3337813786387028,0.3338617933608125
33,0.33389046781834764,0.3335343944925762
34,0.3336739863573889,0.3335866838239665
35,0.33364017896165965,0.33355500521868126
36,0.33361206569277546,0.33351151590763833
37,0.33361756293687744,0.333534946264882
38,0.33384071948361,0.33346859005683716
39,0.3335753196936219,0.3340537003375649
40,0.3336788066127595,0.33352519050281537
41,0.33364339702361406,0.33358991458932724
42,0.333608360733761,0.334645158715326
43,0.33370751924979153,0.3334891472218955
44,0.3336381276094885,0.3334664434801659
45,0.33367226993905635,0.33404571445825276
46,0.33362945928488724,0.33400216614419026
47,0.3336565888218977,0.33361230338028885
48,0.3336390127878696,0.3344224765609658
49,0.3336158623175861,0.33355021856316386
50,0.3335344604452779,0.3340208168521149
51,0.3336902490819916,0.3334944124975693
52,0.33360084461430756,0.3334676690835825
53,0.3336005272023458,0.33355060910539774
54,0.3336056528462907,0.33346804920129325
55,0.3336962135609497,0.33377696704177556
56,0.3335791753816147,0.33345601795069296
57,0.33354195514140655,0.33353330425481925
58,0.3335862059275834,0.33370741870364345
59,0.3335160279504428,0.33404257865668785
60,0.3337001752644101,0.33342244551693284
61,0.333502261115191,0.333463373977693
62,0.33355012696846886,0.3335104843775577
63,0.3334866635145423,0.33373856858980505
64,0.3335908936267017,0.3335273700758916
65,0.333553037587208,0.33342106607796446
66,0.33349342943295257,0.3339461929908825
67,0.3335436028049227,0.3334218128205746
68,0.33349105170460486,0.3334454592706348
69,0.333468755667834,0.3333976666059685
70,0.3335784487442233,0.3336302842825219
71,0.33357574541634244,0.3335483536892669
72,0.33345989965623896,0.3335248782976458
73,0.333669238696297,0.3334464016562756
74,0.33351728467975705,0.3334029557989768
75,0.33351498172430044,0.33345045868268386
76,0.3335517232240271,0.333532010662291
77,0.3334668720742792,0.3334456647092168
78,0.33348459150110493,0.33344339075756196
79,0.3335369468672367,0.3335772004777695
80,0.3335300762569342,0.33341502729829986
81,0.33349605762514417,0.33348840028238985
82,0.33349179019401176,0.333929875007921
83,0.3335348558716142,0.33358377124721095
84,0.33351706177581447,0.33345563684303536
85,0.33347016412336583,0.33353090886786174
86,0.3335505384035035,0.3335096564593064
87,0.3334930055552158,0.3334679666419142
88,0.333497812264905,0.33359185438743316
89,0.3335039762646414,0.33356635475688123
