epoch,loss,val_loss
0,0.680744950928994,0.6672795388562501
1,0.6672607982655275,0.6671113433652371
2,0.6671696359056606,0.6671558750246748
3,0.6670765227160702,0.6684898368960938
4,0.6672164130452986,0.6701490900061025
5,0.6675240827961684,0.6670004555907331
6,0.6670546691855386,0.666920080001605
7,0.6672454604739668,0.6670669307072549
8,0.6671496596096882,0.6669067087950543
9,0.666995632110287,0.6670914806342164
10,0.6671966555913873,0.6668549002059163
11,0.6669551576358679,0.6668142822931219
12,0.6669334113112924,0.6671554409247797
13,0.6671575374280071,0.6670341599663587
14,0.6669109546132589,0.6668658969073716
15,0.6670632336769307,0.667151362103133
16,0.6669591701183143,0.6668328248944758
17,0.6668835493295632,0.6668090724052476
18,0.6669392651459154,0.6675140213191914
19,0.6669947404070076,0.6668667573297893
20,0.6668692812020023,0.666796462659246
21,0.666896763807292,0.6668340791954122
22,0.6668934539829167,0.6668685674667358
23,0.6668480148393896,0.6669637160490228
24,0.666953035813337,0.6667918113092257
25,0.6668482582715116,0.6667551461065071
26,0.6668732756976797,0.6669338946387098
27,0.6669089351727444,0.6668440460239907
28,0.6668159947990678,0.6667248001337532
29,0.6668407294067205,0.6667239274709985
30,0.6668366886333069,0.6668216450145691
31,0.6668064013354136,0.6670819473695396
32,0.6668222077273371,0.6667926117441462
33,0.6668908837746281,0.6673139421234089
34,0.6668282302977616,0.6667264607395026
35,0.6668447472782698,0.6667863691721647
36,0.666791834521018,0.6667246857921582
37,0.6668550690438118,0.6667206680081179
38,0.6668108793189418,0.6667421428320233
39,0.6667725157976924,0.6668626280153841
40,0.6668063168599495,0.6668029700775587
41,0.6668425928403633,0.6670951849934289
42,0.6667927778911363,0.6667912058883642
43,0.6668027103796803,0.6667898710571663
44,0.6667997706532223,0.6667621498546331
45,0.6667725344407797,0.6667360946177824
46,0.6667956683827794,0.6668046128205103
47,0.6668101607269196,0.6670275454806459
48,0.6667955896027002,0.6667743452012287
49,0.6667927607174728,0.6668115850653554
50,0.6667740195506485,0.666731758628729
51,0.666767862770414,0.6668860805233721
52,0.6667788051432948,0.666778505340719
53,0.6668071873532075,0.666723581295885
54,0.6668015491228085,0.6667139518915086
55,0.6667785448693146,0.6667462243445752
56,0.6667736232401056,0.6667003600526061
57,0.6667493659837272,0.666729883177168
58,0.666816580636119,0.6669036513797776
59,0.6667561190182436,0.6667274772125464
60,0.6667560917154003,0.6667395530435706
61,0.6667614488956971,0.6668031896926171
62,0.6668089605467235,0.6667456545836774
63,0.6667641410588737,0.6667266131366233
64,0.6667747609460872,0.6667095168858936
65,0.6667744741313223,0.6667567978191429
66,0.6667704071379906,0.6667263125100034
67,0.6667880222922385,0.6668266924198974
68,0.6667625150447476,0.6667606330263569
69,0.6667578684858513,0.6667569406449543
70,0.6667441916500763,0.6667381683431168
71,0.6667508862503824,0.6667514909055391
72,0.6667771186749564,0.6667104654190497
73,0.6667548607575199,0.6667247538961255
74,0.6667627480195306,0.66677995348528
75,0.6667575407095289,0.6669443141519312
76,0.6667540323816687,0.6667441555635057
