epoch,loss,val_loss
0,0.7201642183727688,0.716669022321701
1,0.7178743771447076,0.7152515032291412
2,0.7161062372657988,0.7155647344986598
3,0.715760040892495,0.7146961436669031
4,0.715619023680687,0.7143616574605306
5,0.7153845429552926,0.7154899427890777
6,0.7154239838123322,0.7143614248832066
7,0.7153276235130098,0.7158856860796611
8,0.7152830718888177,0.7147591525713602
9,0.7152248196469413,0.7142573252518972
10,0.7151360069115956,0.7164528633356094
11,0.7151762922339969,0.7143631667693456
12,0.7151870453092787,0.714227584083875
13,0.7151157638364368,0.7146228744983673
14,0.7151566650072734,0.7148202187220255
15,0.7151819861465031,0.7142203907569249
16,0.7150732939243316,0.7145109186172486
17,0.7151167114575704,0.7173367699782054
18,0.7151137281258901,0.7144237020413081
19,0.7150817820098665,0.7143583052953084
20,0.7150992281172011,0.715072523355484
21,0.7151220257547166,0.7157988835175833
22,0.7150273412333594,0.7143142095009486
23,0.7150699904362361,0.7166139076153437
24,0.7150532525512907,0.7141920859018962
25,0.7150034643279182,0.7142349311113357
26,0.7150771599213283,0.714383800148964
27,0.7151163224909041,0.7145384567578633
28,0.7150574848916795,0.7141978085835775
29,0.7150502179463705,0.7145108356873194
30,0.7150345508654913,0.7159129052956898
31,0.7150626066260868,0.7147798874378204
32,0.7150645162529415,0.7144449535608292
33,0.7150902179744508,0.7161357999245326
34,0.715053622259034,0.7142591981490453
35,0.7150928328964445,0.7143888045152028
36,0.7150613101190991,0.7142922950983047
37,0.7150866590076023,0.7142649525801341
38,0.7150074959198633,0.714652101834615
39,0.7150405799945195,0.7143812823692958
40,0.7150530900028017,0.7143811082045237
41,0.7150180858771006,0.7142189957300822
42,0.7150032203727298,0.7172998214165369
43,0.7150592922634549,0.7171810024182002
44,0.714996405866411,0.7142866012255351
