epoch,loss,val_loss
0,0.7201344710720909,0.7197439967791239
1,0.7164911699692408,0.7144929585059484
2,0.7158335676855511,0.715677650252978
3,0.7157131094005372,0.7146865553855896
4,0.7155317848126094,0.7182442189057668
5,0.7153883817593256,0.7145378440618515
6,0.7154041721291012,0.7146585390965143
7,0.7152769714593887,0.7148588300148646
8,0.7153282577461667,0.714502091884613
9,0.7152516222397486,0.7145369387467703
10,0.7152378179232279,0.7152567307154337
11,0.7152472856309678,0.7143615394830704
12,0.7151312862767114,0.7143088652690252
13,0.7151387945810954,0.7145155841112136
14,0.7151114979055193,0.7142776033878326
15,0.7151448231538137,0.7148677139282227
16,0.7150713552501466,0.7149068604707718
17,0.7150722414255142,0.7142552224000295
18,0.7150533058775795,0.7144308480421702
19,0.7150486357212067,0.7148009292682012
20,0.7150910847981771,0.7151055297454199
21,0.7150973587830861,0.7144640151659648
22,0.715042124470075,0.714190040508906
23,0.7150482925044166,0.7164499793847402
24,0.715007902264595,0.7149293590386708
25,0.7150773577425215,0.7141788435379665
26,0.71510728167163,0.7146704924106598
27,0.7150849943955739,0.7142096790870031
28,0.7151390152109994,0.7142045909961064
29,0.7150991287496354,0.7148776881694794
30,0.7149784781535466,0.7157190937995911
31,0.7149983648724026,0.7141810487508774
32,0.7150380508634779,0.7143783119519551
33,0.7150484116872152,0.7147873123884201
34,0.7150364596843719,0.7151130113999049
35,0.7150256206591924,0.7170547576347986
36,0.7150334073437585,0.7147737345695495
37,0.7150297921366162,0.7144175237814585
38,0.715023535490036,0.7141724860668183
39,0.7150117152002122,0.7145130857626597
40,0.7149650963147481,0.7143126764694849
41,0.7149883838891983,0.7148610835870107
42,0.7149840593205558,0.7141916687091192
43,0.7150349163479275,0.7157616699934006
44,0.7149606883525849,0.7144342079957327
45,0.7149768401649264,0.7144182953834534
46,0.7149937999248505,0.7143561551173528
47,0.7150017662843069,0.7148522722323736
48,0.7149087056186464,0.7158709208965301
49,0.7149711142778397,0.7152139131228129
50,0.7150218081474304,0.7151224621136983
51,0.7150140269067552,0.7141609174410503
52,0.7149948687023586,0.7162528699636459
53,0.7149917524523205,0.7152816136280695
54,0.7150146728621589,0.7154052977164587
55,0.7149134292602539,0.714111008644104
56,0.7149786194033093,0.7144238536755244
57,0.7149473563697603,0.7148471422195435
58,0.7149925112856759,0.7142546528975169
59,0.7149758358531528,0.7148740691343943
60,0.7149856454133987,0.7141619385083516
61,0.7149265470637215,0.7170075506766637
62,0.7149534837537341,0.7188586263259252
63,0.7150261182917489,0.7144957736730576
64,0.7149210617674722,0.7148295661608378
65,0.7148897966278924,0.7168925226529439
66,0.7149021306832631,0.7148745739857356
67,0.7149388335148493,0.7146137709617615
68,0.7149768596887589,0.7142151476939519
69,0.7149491167068481,0.7147537313302358
70,0.714915526178148,0.7143876363436381
71,0.7149717554913627,0.714224474310875
72,0.7148762710624271,0.7142019864320756
73,0.7149260123173395,0.7148082111676534
74,0.7149446690744824,0.7140775946378708
75,0.7149292526774936,0.7143050984144211
76,0.7148673214117686,0.7142884525060653
77,0.714937201499939,0.7141720200777054
78,0.7148926206562254,0.7140983666181564
79,0.7148751079638799,0.7143162541786829
80,0.7149487030506134,0.7167579025824865
81,0.7149625682433446,0.7160968848069509
82,0.714881673945321,0.7161990330616633
83,0.7149792706701491,0.714187343120575
84,0.7149430658419927,0.714088032245636
85,0.7148871733612484,0.714196656982104
86,0.714895274175538,0.7141217534542084
87,0.7148547009097205,0.7141692928473155
88,0.7149176808728112,0.7165981789429983
89,0.7148708636098438,0.7156232964197795
90,0.7149833699729707,0.7156832801103592
91,0.7148628345595466,0.7141383149226507
92,0.7149175148672527,0.7145120105346043
93,0.7148456068171395,0.7167353658676148
94,0.7149415511555142,0.7160975896517435
