epoch,loss,val_loss
0,0.7436922128332986,0.8901976672013601
1,0.8897113970518112,0.889371499657631
2,0.8893712611198425,0.8894749456246694
3,0.8892863416406843,0.8893190706570944
4,0.8892549840344323,0.8892277440627416
5,0.8894400982194477,0.8893009338378907
6,0.8892483724753062,0.8892346600294113
7,0.889499503797955,0.8892291722297668
8,0.8892415723005931,0.8892031853199005
9,0.8892269628445307,0.8892014113664627
10,0.8897474164565404,0.8892598146597545
11,0.8892585220336914,0.8892278536160787
12,0.8892319089969,0.889260346253713
13,0.8892173147731357,0.8892630581061045
14,0.8892123573091295,0.8891848911444347
15,0.8892046148247189,0.8891979201634725
16,0.889202440460523,0.8892811040480931
17,0.8891985392305586,0.8891934346357981
18,0.889195052517785,0.8892152515252432
19,0.8891923584010866,0.889178551753362
20,0.889189042157597,0.8891730147997539
21,0.8891860994497935,0.8891800578435262
22,0.8891854124996397,0.8891670310497284
23,0.8891832558049096,0.88921994916598
24,0.8891819216012955,0.8891784983078639
25,0.889180378847652,0.8891696424484253
26,0.8891808639234967,0.8891933437983195
27,0.8891770948701435,0.8891965928077697
28,0.8891763505935669,0.8891626417636871
29,0.8891758127609889,0.8891577605406443
30,0.8891729946798749,0.8891640288829803
31,0.8891736750072903,0.8892365333239237
32,0.8891719543271595,0.8891721808115641
33,0.8895480709473292,0.8891901341676712
34,0.889192362692621,0.8891702097654343
35,0.889181786523925,0.889169429898262
36,0.8891751651101643,0.8891576437950134
37,0.8891732112699084,0.8891792322794596
38,0.8891713959640927,0.8893026860555013
39,0.8891689859496222,0.8891646628777186
40,0.8891675427887175,0.8892073623339335
41,0.8891674086120394,0.8891699899435044
42,0.9626782282723321,1.0
43,1.0,1.0
44,1.0,1.0
45,1.0,1.0
46,1.0,1.0
47,1.0,1.0
48,1.0,1.0
49,1.0,1.0
50,1.0,1.0
51,1.0,1.0
52,1.0,1.0
53,1.0,1.0
54,1.0,1.0
55,1.0,1.0
56,1.0,1.0
