epoch,loss,val_loss
0,0.7840685374869241,0.7800879728396733
1,0.7790752390888002,0.7786974524656931
2,0.7717601155307557,0.6684143864313762
3,0.5738793250719706,0.5573609019120535
4,0.558446333527565,0.5606338219642639
5,0.5579349851873185,0.5572930839459102
6,0.5575691437058978,0.5572464879751206
7,0.5577588225470649,0.5572881571849188
8,0.5571820431417889,0.5571589672962824
9,0.5571685848236084,0.5570797959566116
10,0.5571864796611998,0.5572207923730215
11,0.5579901151392195,0.5572524862686793
12,0.5571098926862081,0.5571057354609171
13,0.557293228175905,0.557163358926773
14,0.5570873057577345,0.5569922394752502
15,0.5570567549864451,0.557033111890157
16,0.5570396717124515,0.5569792755444845
17,0.5647285281154845,0.5579200816949209
18,0.5576225654549068,0.5571429193019867
19,0.5597480757898754,0.5574487861394882
20,0.6442122474246554,0.6678109475771586
21,0.6678267992867364,0.6680850146214167
22,0.6678054068618351,0.6677842308680216
23,0.6678051952388552,0.6678782147169113
24,0.6678260429037942,0.6677027319669724
25,0.6677565104696486,0.6677083892424901
26,0.6677467162609101,0.6677702928781509
27,0.66773866642846,0.6676731182734171
28,0.6677370353804695,0.6681746624708176
29,0.6680677042139901,0.6677097403208415
30,0.6677328178750144,0.6677301463683446
31,0.6677269951899847,0.6678863661289215
32,0.667723394619094,0.6677115296522776
33,0.6677189337412516,0.6676552145083745
34,0.6677195082505544,0.6676703967650731
35,0.668009081363678,0.6678276101748148
36,0.6677072765429815,0.6678947429656983
