epoch,loss,val_loss
0,0.37305667835474016,0.3366676708261172
1,0.24239378316866028,0.22604949388901394
2,0.22608858648935953,0.2255740415453911
3,0.22588086714347202,0.22550146358211834
4,0.2257207128107548,0.22535815513134003
5,0.22563217915097872,0.2253056748211384
6,0.2255505613187949,0.22526941899458566
7,0.225518047147327,0.225229651927948
8,0.2254666655825244,0.22535615367690723
9,0.2254250291287899,0.2256917025645574
10,0.22541026653846105,0.22518208987514177
11,0.22538827206359968,0.22516878467798232
12,0.2253650973604785,0.22521811096866926
13,0.22535543377200762,0.22516544830799104
14,0.22534892134202852,0.22524926897883416
15,0.22533108251293502,0.22529006496071816
16,0.22532346456911828,0.22536618051926294
17,0.22533051697744264,0.22516610242923102
18,0.22531604427430366,0.22521366734306017
19,0.225299882001347,0.22533737242221832
20,0.2253027098112636,0.2251678577462832
21,0.2253020975920889,0.22507748696208
22,0.22530463990569113,0.22513364231586455
23,0.2252754798796442,0.22508939443031947
24,0.22527607866459423,0.2251659171183904
25,0.22528962049881618,0.22513782893617948
26,0.22525534864597851,0.22517749229073525
27,0.22525650232368044,0.22529820203781128
28,0.22526723918981023,0.22530027226607005
29,0.22526010120246145,0.2253656374812126
30,0.22525908470816083,0.22537113605936368
31,0.2252610579762194,0.22515347824494045
32,0.2252273418671555,0.22552901232242584
33,0.225229704744286,0.22506565509239831
34,0.22522084123889605,0.22507391455769538
35,0.2251749343474706,0.22526983428994815
36,0.22517058452963828,0.22503668173154195
37,0.22514252876904275,0.22531746438145636
38,0.22518867668509485,0.22526637416084608
39,0.22513130217790603,0.2250629914601644
40,0.22511832683616215,0.2250381156305472
41,0.2251211546626356,0.22499028549591701
42,0.2251060477859444,0.2249387425283591
43,0.22511546599202686,0.2252404266099135
44,0.22509988657302327,0.2251121106346448
45,0.22513159132997196,0.22498766575256984
46,0.22509571951958868,0.2259306202729543
47,0.2251033956276046,0.2251007263859113
48,0.22507682310872607,0.224957215487957
49,0.2250918895105521,0.22488969145218532
50,0.22509940852721533,0.22495295869310697
51,0.22508706116345192,0.2249095998307069
52,0.22507381650474337,0.22575261572003363
53,0.22508902340465123,0.22506336284677186
54,0.22506777200102807,0.22545288398861885
55,0.22507032536798052,0.22521833217144013
56,0.22509418267011644,0.22497365308801334
57,0.22507693793376288,0.2250715847015381
58,0.2250505555205875,0.22486067552367847
59,0.22506184269322288,0.22516562886039415
60,0.22504757322536575,0.22488682746887206
61,0.225057940767871,0.22504094459613164
62,0.22504343023896217,0.22489142432808876
63,0.22505167320370675,0.224834514071544
64,0.22504670662350124,0.22561801128586134
65,0.2250465613471137,0.22508568883935612
66,0.22505186153782739,0.22498266989986102
67,0.2250389226840602,0.22693129536509513
68,0.22503062030010754,0.22499625425537428
69,0.22502511758274502,0.22524225022395453
70,0.2250325458082888,0.2248874196410179
71,0.22501978605323367,0.22486487273375194
72,0.22502143918143377,0.22484683217604956
73,0.2250252530641026,0.2250077694753806
74,0.22501972502801154,0.22524444008866945
75,0.22501730800999536,0.224864868948857
76,0.22502331531710096,0.22489640763401986
77,0.22502449076705508,0.22510742701093356
78,0.2250356723235713,0.2248769453962644
79,0.2250346369975143,0.22489633315801622
80,0.22501111285222902,0.22490594864885013
81,0.22503496957818667,0.22486743078629176
82,0.22502142300539546,0.225127825319767
83,0.2250252613723278,0.22496372750401497
