epoch,loss,val_loss
0,0.6695143592225181,0.668382705450058
1,0.6684069003529018,0.6681991750796636
2,0.6682887980408139,0.6682454776366552
3,0.6682122793065177,0.6682349532047908
4,0.6681175535519918,0.6680494713783264
5,0.6680869725015428,0.6680739227930704
6,0.6680517550177044,0.6679743446111679
7,0.6680504813856549,0.6680681511958441
8,0.6680003510978487,0.667912776350975
9,0.6679900725815031,0.6680723031759263
10,0.6679601053131952,0.6681956674655278
11,0.6679590118461185,0.6678427228132884
12,0.6679461753500833,0.6679868723551432
13,0.6679370229906506,0.6678874444961548
14,0.6679290479156706,0.6679797101815541
15,0.6679158776336246,0.6678136504093806
16,0.6679223642481698,0.667879090865453
17,0.6679068349864747,0.6678543339967727
18,0.6679004811975691,0.6678619246482849
19,0.6679030511114332,0.6678195290168126
20,0.6679093622763952,0.6679804435571035
21,0.6678871686193678,0.6678013375997544
22,0.6678961093028386,0.6680928028424581
23,0.6678859531084697,0.6677986366748809
24,0.6678843375311957,0.6679716619253159
25,0.6678847944604026,0.6678020644585292
26,0.667873598019282,0.6678138387997945
27,0.6678769946893056,0.6677980039119721
28,0.6678851201534272,0.6678896962006887
29,0.6678757867680656,0.6682584113279978
30,0.6678624864949121,0.6678117525577545
31,0.6678656754493714,0.6678746676047643
32,0.6678590444193946,0.6677890506188074
33,0.6678602560891046,0.6680340354045232
34,0.6678622226185269,0.6680682043631871
35,0.667851957321167,0.6677729495366415
36,0.6678577366007699,0.6677793979247411
37,0.6678586629231771,0.6678558930158615
38,0.6678553870519002,0.667788476785024
39,0.6678528583182229,0.6677658906380336
40,0.6678543537722693,0.6678086691300075
41,0.6678542867104212,0.667793308854103
42,0.6678531576130126,0.6678517727454504
43,0.667843323164516,0.6677802120049795
44,0.6678606057431963,0.6678065853118896
45,0.667850181500117,0.6679876902898153
46,0.6678545047309663,0.6677790094614029
47,0.667846002764172,0.6677937253316244
48,0.6678474501636293,0.6678515133460363
49,0.6678495982487996,0.6692624967098236
50,0.6678430763483048,0.6677672890822093
51,0.667892448120647,0.667789457043012
52,0.6678428410291671,0.6677495847145717
53,0.6678432261678907,0.6677928703228633
54,0.6678418789837095,0.6677664672533671
55,0.6678572501341502,0.6679742062886556
56,0.6678274543152916,0.6683343420823415
57,0.667849381102456,0.6678651247819265
58,0.6678333911498388,0.6678603871266047
59,0.6678557342158423,0.6677846561670303
60,0.6678353692822986,0.668239243944486
61,0.6678371474875344,0.6678899337053299
62,0.6678312196069294,0.6677617828845978
63,0.667853230131997,0.6677407536506653
64,0.667839001999961,0.6677467552026113
65,0.6678373541037241,0.667755475362142
66,0.6678261339267095,0.66813019434611
67,0.6678338539335463,0.667806809425354
68,0.6678400744597117,0.6679129722515742
69,0.6678304750257068,0.6679677557547887
70,0.667873392144839,0.6679712371031443
71,0.667831728749805,0.6677799809773763
72,0.6678399916489919,0.6679154504140218
73,0.6678291946384642,0.6679082292318345
74,0.6678274812301,0.667869117975235
75,0.6678359227577845,0.6678021677335103
76,0.6678294019036823,0.6677805282274882
77,0.6678231264087889,0.6677447999715805
78,0.6678251602649689,0.6678872001568477
79,0.6678318150573307,0.6677998219331106
80,0.6678281698756747,0.6681051994959514
81,0.6678334360784954,0.6678744170268377
82,0.6678296393288506,0.6677646327813467
83,0.6678257224957148,0.6677280373175939
84,0.6678285044696596,0.6677561791737875
85,0.6678235198656718,0.6678088197310765
86,0.6678377031087875,0.6681430925528209
87,0.6678348707622952,0.6678158913056056
88,0.6678259225951301,0.6678207897345225
89,0.6678177149825626,0.6677696584065755
90,0.6678322359058592,0.6681943177779516
91,0.6678325779570473,0.6679746081431707
92,0.6678218019273546,0.6680770612955094
93,0.667825879070494,0.667820216814677
94,0.6678324885500801,0.6683428903023402
95,0.667826691031456,0.6678355886936188
96,0.667827943192588,0.6678290457328161
97,0.6678224196698931,0.6677475721041362
98,0.6678264071808921,0.6677708224058151
99,0.6678278385400772,0.6678881258567174
100,0.6678201328913371,0.6677643080949783
101,0.6678191990719902,0.6678074937661489
102,0.667831168850263,0.6677669931650162
103,0.6678273068798913,0.6678134497404099
