epoch,loss,val_loss
0,0.26504956825757675,0.07158786806718233
1,0.07649260529761406,0.0691052467019048
2,0.07488417708658153,0.06295524316162883
3,0.06954994330258607,0.06994726609412195
4,0.07097576049675378,0.061203937668826695
5,0.07212266551224972,0.07673130592517996
6,0.06828879316647847,0.05389352771435183
7,0.06856500125117153,0.07425118544989434
8,0.0656087707875551,0.04591712247118671
9,0.06946923615013381,0.08094432355502316
10,0.06810123372307832,0.0551076898823221
11,0.06676273049785197,0.05760805043902751
12,0.06794214741714734,0.057281544759881335
13,0.06679304110572683,0.05679996061743764
14,0.07061650039707061,0.08187771621494662
15,0.06989243029684519,0.06503022657949904
16,0.06965056750521385,0.08246061890646991
17,0.06995079972647981,0.048313732537563714
18,0.06582749331761584,0.05512140981776562
19,0.07046629574081356,0.05986139100359572
20,0.07038162933955852,0.06838154969494363
21,0.06941661593704511,0.042832155023196504
22,0.06730701569482672,0.045065174345294605
23,0.0690812709481477,0.04755740885600013
24,0.06774056703373373,0.05080858859268106
25,0.06911162673819551,0.08468994771107596
26,0.07208760116818093,0.08354285642822239
27,0.06938469997100193,0.037066400478922575
28,0.07121338862568426,0.050834944755450515
29,0.06812184369064969,0.05889146765892489
30,0.07197344911952527,0.05641118168313389
31,0.07347867397560204,0.06225450874115881
32,0.07125406458580809,0.06752434256468218
33,0.06767361753617974,0.058872689640747815
34,0.07055526524097275,0.06377626318946163
35,0.06757737819007117,0.06028873579548679
36,0.06840780664303844,0.046720995540541745
37,0.06935645139692045,0.05620252717677401
38,0.06703467571811615,0.05231357403187744
39,0.06612582896336568,0.07288985711176187
40,0.06454899152078264,0.044145595593982165
41,0.06426476202398944,0.0753619958100445
42,0.06339783080333143,0.046215975824699405
43,0.06322542560933758,0.044494698287209096
44,0.06514265449072937,0.042289155050994565
45,0.06234396720449511,0.046950063849751554
46,0.06147193877572874,0.04387372636604516
47,0.058476744874043286,0.03623586462041761
48,0.06184819432498097,0.03313434507400856
49,0.06310849542097507,0.04881668280760133
50,0.06243645076265485,0.0511321945273227
51,0.05927628069463894,0.045880549927642705
52,0.06238169967607081,0.04883243826577394
53,0.06048430565619569,0.046813974605363094
54,0.06021361345563718,0.07323354050434755
55,0.0627330091002462,0.058402278423074105
56,0.05845432816003319,0.04688752370856367
57,0.05943710500259789,0.04853753450649313
58,0.05754536804523495,0.047198971867232035
59,0.06134044061631536,0.03154369051426343
60,0.060254294429715874,0.03509137842248487
61,0.06062683365795371,0.045312136517515686
62,0.05943386528349156,0.0502576708599584
63,0.06155870515454135,0.040022679361284674
64,0.06061175734632545,0.03363858246712724
65,0.060901836691637165,0.055587849773072594
66,0.05986363048941421,0.03601153188141764
67,0.062196479589163925,0.05617113482286446
68,0.06505193280876517,0.07345851445489732
69,0.057735520069577474,0.03939926027575392
70,0.06342475335273763,0.05700027260520652
71,0.05993950206839995,0.0461520193851808
72,0.05745633089502486,0.04386480259337854
73,0.058630957041861866,0.05345646442511746
74,0.06016942585329357,0.04375626672950192
75,0.06177956186574426,0.04063073252110897
76,0.06358203616627543,0.05255882403627332
77,0.06245251485242618,0.0485445139951704
78,0.06029749259004276,0.04955947965724598
79,0.06033062677887037,0.04749599987995277
80,0.05980802495643008,0.04637863775443259
81,0.060074669367772976,0.0455214566468087
82,0.06595086560939713,0.04981872759577131
83,0.06283332041347865,0.04656664968630697
84,0.06072557191673419,0.06127601637613049
85,0.058817531494386524,0.0304842412768736
86,0.05988829383860342,0.06313866796155755
87,0.059946744824848255,0.05783378611588535
88,0.06461661862213906,0.04736467271208199
89,0.05877706199157819,0.0500823674339804
90,0.058232393238595206,0.04331725920773249
91,0.058399825348711604,0.04681083896059922
92,0.06122057269856655,0.07351670879062086
93,0.06053376934907252,0.06482187248678214
94,0.061143579033704445,0.04280449812107182
95,0.05867862677220985,0.03422568146148204
96,0.05884718058852674,0.056304254684517864
97,0.057296243553562796,0.03276966885173283
98,0.05751899997000214,0.03721974679102038
99,0.05473956101678973,0.04151795629850032
100,0.05879909828451159,0.043365751510014094
101,0.05848687651197163,0.04876382857408219
102,0.06045318148854516,0.05378468624288959
103,0.05790709836823906,0.047480034355982706
104,0.060066199239096243,0.06233740181918679
105,0.0560577196053428,0.041140222530914934
106,0.05834266003355277,0.031994023747689254
107,0.0619230707913792,0.04494726326501831
108,0.05639907812549294,0.03771585017448584
109,0.05901197588099517,0.08013180820910876
110,0.05696152050054069,0.03458820647121229
111,0.06046150749821743,0.0440240920666126
112,0.05628509103558023,0.042391269243577376
113,0.056484743681766814,0.04184169917798879
114,0.05794451653817408,0.043097527494805485
115,0.060214337131245244,0.03724359349298402
116,0.057227994953330565,0.08209075534682436
117,0.06379887604152414,0.048277227268293324
118,0.05773369672683646,0.05330803214433443
119,0.057356859610931905,0.045287409004914826
120,0.05644015079404382,0.04697841404986457
121,0.05940889770300578,0.03254149010920957
122,0.05845234789502182,0.055827033597955385
123,0.057547851006309096,0.07940293964948256
124,0.05882839031210787,0.041573934645142814
125,0.057716311196045436,0.052915565146172995
126,0.06017462570267878,0.043316364470625264
127,0.05758056961905232,0.031711638323674546
128,0.057163029435655766,0.05378051419707858
129,0.055970597594565484,0.04727805278836599
130,0.05654814385092087,0.0435310576696187
131,0.058783989637899554,0.031541111304967916
132,0.05932110798307698,0.04595363205085613
133,0.06154589135226586,0.061720290369021207
134,0.057458647574446235,0.02708309932943395
135,0.06025628109859358,0.05618728559108446
136,0.05764127005528894,0.05544365120385704
137,0.05858778709368549,0.04027129935237396
138,0.060850850143414036,0.04702165823109336
139,0.057213383073882046,0.04619815653658986
140,0.05726983192801881,0.06117486774674437
141,0.0613343205137683,0.04639997243610723
142,0.057394517418875586,0.03451503973069065
143,0.057814074842501985,0.047806267087783696
144,0.06144677599345585,0.0418840776026343
145,0.06225133164645099,0.0393319824826628
146,0.058101557753533484,0.052847138937524483
147,0.05854419068240529,0.04828526777962859
148,0.057990655649920925,0.06603841948151683
149,0.05748864885071199,0.03736832197652667
150,0.05596165143275004,0.03502321789730649
151,0.055197411150538285,0.03564591298428171
152,0.058778579969950714,0.05506823415961337
153,0.0594428060948551,0.04605182811570807
154,0.054143508670659514,0.049737684896190806
155,0.05695603446711858,0.05511763503432462
156,0.05469271740232178,0.03666002096809688
157,0.0577334250441844,0.044938409095299274
158,0.059494382506020536,0.0759847482435564
159,0.057795183998134304,0.04371422084655551
160,0.05632308145521952,0.03977950203402266
161,0.05595843029542745,0.04693045785860839
162,0.0569048773081933,0.0327901954791305
163,0.05925922974688019,0.06853445286214964
164,0.059386559629546316,0.048802259971329615
165,0.05635227643096333,0.050919126401689926
166,0.05616916796351842,0.032361755294588575
167,0.05720731121771556,0.06056158052023791
168,0.059973192031976943,0.0470099624763842
169,0.05592482358583515,0.049078344087386185
170,0.05942516799697535,0.047464727461573264
171,0.05965566012537856,0.04035768826398778
172,0.0590823929456117,0.05446389347797035
173,0.06118804913797348,0.03837753327353177
174,0.06044853739529776,0.036099779120431046
175,0.0579293737378564,0.044423561431496936
176,0.058265588216507416,0.0427546169411835
177,0.0590614582003235,0.058795691712596986
178,0.06129632902433642,0.03217518177756712
179,0.05823213392816526,0.041509916750095265
180,0.0635976952200623,0.05100516808214109
181,0.058791583644406356,0.056761870341523954
182,0.058763550056202665,0.05234974255195827
183,0.059594523848788584,0.055550562219301734
184,0.06270889539664669,0.04623966129245303
185,0.059458633737383984,0.09481766603551893
186,0.06352940787279086,0.04903156979225617
187,0.06367685220135058,0.057337726656738565
188,0.06052291976119713,0.04626282067541636
189,0.06645872106896245,0.049180289961238875
190,0.06026757745702061,0.04537943352069691
191,0.059855360114168255,0.05903990072181306
192,0.05731158676541609,0.04343337140207038
193,0.05948787372258546,0.04738118665347254
194,0.0564844807405933,0.034336708981511435
195,0.05625802759590338,0.04594934590296098
196,0.05535380999527151,0.029682512325253086
197,0.05629264358520436,0.06548966814329422
198,0.05555596477393028,0.03645193568433046
199,0.05671687747949629,0.040981010708078774
200,0.058507703585649946,0.03954391841259921
201,0.057188969220129324,0.04830520225199264
202,0.05773046405481206,0.033324153078006964
203,0.05855603343237647,0.05493918851006191
204,0.06372950015683397,0.04283169569519672
205,0.05892975252348003,0.047326494017123424
206,0.058711246811419274,0.042584514186585994
207,0.060588448944179224,0.04179492421542318
208,0.05950861993423707,0.04084316169035981
209,0.06108336816567907,0.055108682388453005
210,0.058770640951236616,0.05423186905829099
211,0.058431129942057757,0.036302659379784386
212,0.058547087139535624,0.04993326293970528
213,0.06102848928689742,0.046648927629817254
214,0.05972749671990351,0.04611626024568937
215,0.05985538809404647,0.0497639928345334
216,0.06096955143707357,0.04436979041491424
217,0.05705811684544709,0.043455614232779396
218,0.05916297769726371,0.05394495194211849
219,0.05820789662815875,0.048262970855763886
220,0.05506065333981237,0.05070018055595181
221,0.058477123820339795,0.04516988700871733
222,0.0601401791262398,0.044634884188059006
223,0.05864120856430724,0.045856498869837226
224,0.05886806243528827,0.03793548524156272
225,0.060197811599800005,0.03609995340050772
226,0.06177626839421278,0.04507415422371456
227,0.056641658774013524,0.061981549582075864
228,0.05901655039082257,0.04744325354460101
229,0.05821071343226947,0.034113008981745546
230,0.05837199187946977,0.03714110367676359
231,0.057468867140094776,0.03635615374137307
232,0.06019308103574551,0.055765722437975625
233,0.057263523105719534,0.028790289758106997
234,0.05925892455001577,0.059237437171313176
235,0.059465592718876,0.038166030122653745
236,0.05892329570203781,0.05144651110953671
237,0.05815769362298371,0.05615831893334355
238,0.06012352753123886,0.03338431568717806
239,0.06038941947935368,0.04999812238429979
240,0.058993512064778354,0.04742680582928677
241,0.058933906576526966,0.03951816132767001
242,0.057808919156120596,0.02922006425519063
243,0.062094900694539504,0.0436527088590278
244,0.061633644707435424,0.03652219883891759
245,0.061050680067708835,0.047659158386178346
246,0.06358539607512842,0.054120384474250396
247,0.058021931075971186,0.06125929227779489
248,0.06508660706193399,0.0375677927102432
249,0.06070983568377656,0.042009336015337455
250,0.060795735570786,0.05423090819507578
251,0.0645817248493159,0.05114902457150307
252,0.05857019888670396,0.039208750905735154
253,0.05847091796390301,0.046134373345121965
254,0.061530073520263656,0.03724193212524021
255,0.0604391862682218,0.049374054976236946
256,0.06413010310018354,0.05098125716963902
257,0.06145796594213691,0.04003557100768577
258,0.06131812843153898,0.03291732982541975
259,0.05688239173065844,0.06135808711176137
260,0.061508191001268746,0.051837047334134155
261,0.057532564407850297,0.050276790136190595
262,0.06153700518519353,0.03248168792702028
263,0.05928239974377157,0.056607082397945305
264,0.06180699211474565,0.04953551506469263
265,0.06140540141260905,0.04062158166303725
266,0.06107448569114069,0.057875259269996246
267,0.062184518623760614,0.04834038480063687
268,0.06547935960440637,0.041759717686141486
269,0.06422347118847256,0.05198986147660483
270,0.06500529776811957,0.039262451453468135
271,0.06367269135359452,0.0508996667318346
272,0.06565781172847363,0.0627781333315062
273,0.06153523775232996,0.043265921264392895
274,0.06359282731607878,0.0449668211875676
275,0.06341294240545955,0.04021416348570571
276,0.05981622129190359,0.051575920096912434
277,0.06338101033222594,0.03467948282403605
278,0.06132336583533447,0.05877731992453689
279,0.06112147893437998,0.04254281261072868
280,0.06202044883306673,0.03365328938104124
281,0.06225520117486791,0.051093013223551725
282,0.06406020579619898,0.0654723535908567
283,0.06048740102551419,0.0387612362983971
284,0.06217516528786444,0.06879878577782869
285,0.06123873463152148,0.04248412451526737
286,0.06000529520651348,0.049100723205797295
287,0.06115816202428606,0.038387743509194466
288,0.058923174285416983,0.03637507132268507
289,0.06239412080937271,0.05891115052571142
290,0.06803338418898584,0.03838509364287356
291,0.06391645291765079,0.06256695193750894
292,0.06133592947439062,0.04936763330200289
293,0.05722534639178682,0.042386047098118204
294,0.05916687833602361,0.04266458054256185
295,0.057047384965280404,0.04574129816171167
296,0.060632451876646565,0.03688734134434243
297,0.05773887990249528,0.04466131278670201
298,0.06154121699661826,0.03164274363404385
299,0.06287087011281296,0.052485908425009525
300,0.060823151753168644,0.05554083604791923
301,0.06173819061115587,0.04191826680423758
302,0.05856687787750499,0.06527524757850989
303,0.06414764260666238,0.053219240117632884
304,0.06096459501128879,0.04674094820420104
305,0.0668347514466011,0.05639672049724783
306,0.059810278913397776,0.053531680220845375
307,0.06041589339481865,0.0470013973445006
308,0.061925651134847166,0.031141202689546153
309,0.06542885712505006,0.05102890709322461
310,0.060393059142321036,0.04658538650871264
311,0.06168842291404351,0.05966661266847304
312,0.062330773532789624,0.0628499076176132
313,0.06069748891929952,0.03998008022862527
314,0.07037883983190944,0.05551627788460434
315,0.06292507354003324,0.03602941181354854
316,0.0634944699168634,0.03734488526672337
317,0.0589669278102944,0.04098051663226468
318,0.057576896622776985,0.038396033922235326
319,0.057491906894018036,0.057554199289010094
320,0.05722168495031379,0.052564765590565735
321,0.059108695931000106,0.03510775351963038
322,0.06079426928491091,0.04930922510168547
323,0.06195420741909843,0.04308577799682976
324,0.060384052708077965,0.0471818628202721
325,0.05948757350915294,0.062270624444018034
326,0.05913559801289908,0.03780622346636905
327,0.06268852980931004,0.06262868890081603
328,0.0648372467900578,0.061710517688844745
329,0.061619588840219806,0.035762903929615265
330,0.06327206442813031,0.06145437835953136
331,0.058103152214259886,0.035440515810601717
332,0.05619019641727804,0.04525513415560773
333,0.06462516439564937,0.03659242774553203
334,0.058205257298694336,0.05533300600387303
335,0.05829694398197172,0.05368092145415018
336,0.06687730370531622,0.02635264434155603
337,0.05799739298631819,0.02340628315077914
338,0.055436181477743755,0.024755832703156365
339,0.05586734164110143,0.035856900313294304
340,0.05767908823161984,0.043628074902079664
341,0.05818723313298991,0.04144759425759645
342,0.05848862231671095,0.057132302994392196
343,0.059920843145687235,0.04448782668787848
344,0.05552485024706899,0.041524198589862664
345,0.0594628954799079,0.03563717078937963
346,0.055051218590987244,0.03281429133744765
347,0.0625256594243667,0.056668879530424196
348,0.06469917885711987,0.04895212686816914
349,0.05958404320833399,0.042940195327905474
350,0.057956642926864914,0.04980930695111768
351,0.05796745756148196,0.04378926410871222
352,0.05546865836649442,0.05051514408429871
353,0.06217857760315438,0.0330824820029284
354,0.061810876779573906,0.052077721695591356
355,0.06368464780978852,0.07488725303827352
356,0.06348254131696683,0.04115458534943747
357,0.06478276441869833,0.06987897817107196
358,0.06022872599355465,0.05039149507786123
359,0.0639813814065058,0.04648803390603698
360,0.06251647194875753,0.05099364473604272
361,0.060065040549488184,0.03751850034527028
362,0.05667702865367718,0.03340489558446285
363,0.056369932598436624,0.03224868209622418
364,0.061317287631136336,0.05453027079459618
365,0.05867336388471887,0.03231687534926864
366,0.06143875919553421,0.04541222180733082
367,0.061905956092319615,0.040032267374969316
368,0.0585975196334622,0.037392348348035905
369,0.05627053475929059,0.03733448394013373
370,0.05787462442011523,0.042783576010152306
371,0.057128030101773884,0.047882058681962804
372,0.06332071448604075,0.06503477278323558
373,0.0579818490509995,0.04697765496389642
374,0.05535481240210249,0.042818478250548235
375,0.05645309354541161,0.05243386935674965
376,0.06030817164910688,0.035453355163276995
377,0.055649279511059455,0.042189656938378416
378,0.05812339866228646,0.048103309747334434
379,0.05922945072989074,0.03328238439252975
380,0.054133195506719994,0.050834346668472793
381,0.056326477168995935,0.04092440280942768
382,0.05983838619222101,0.04583088868689424
383,0.05979055675680189,0.052233909519173165
384,0.059806202977544354,0.04153303177064342
385,0.05850717893762173,0.05943975796086542
386,0.06247178146423553,0.036621179275843886
387,0.061379614685156604,0.06329682974502056
388,0.059981666322198986,0.056510988911047826
389,0.061358909274516205,0.042486279420760456
390,0.05992559430231865,0.05983078315995204
391,0.059049583618625175,0.05585650704806963
392,0.05871271176842882,0.04560028560659551
393,0.05770416406290732,0.028098674338155123
394,0.061409780524111245,0.04053862366734195
395,0.05229556618212201,0.04673883769934631
396,0.054158622402694825,0.05901600472517341
397,0.05926905040719288,0.041890749471128315
398,0.0560618855820732,0.040269378231634
399,0.05939816353436139,0.0730480963177538
400,0.06235825639593301,0.04774944615956828
401,0.05801013766301812,0.04974250973517629
402,0.058684848504309224,0.04456181681164391
403,0.05421864390105224,0.053302803442129114
404,0.05966381670208834,0.03696980611248429
405,0.06105090851867966,0.05107402601282993
406,0.05116764851268842,0.04857324482762823
407,0.060272798583888225,0.06045414491217722
408,0.0582609361195438,0.039385747730484984
409,0.055117474426682904,0.04118099387943886
410,0.05682675935533479,0.031769283573071884
411,0.062420572634402226,0.05444744924684632
412,0.058305594779038836,0.0459252970518093
413,0.058702538020724206,0.04999018905077191
414,0.05933478780516641,0.04862529562746528
415,0.05928246658533621,0.048279941646527755
416,0.061403232291981066,0.03941037394870852
417,0.06173931017479332,0.04969343300629481
418,0.0627132296460948,0.034927000489377
419,0.056923452127489636,0.05939560345923139
420,0.06340648398788976,0.043122699823827375
421,0.060175556243567775,0.061242443336660506
422,0.0707164365160975,0.032198328680660936
423,0.053062744968705514,0.039906547223265566
424,0.057199342407846,0.04300122659274134
425,0.06024707558093597,0.04419256311024656
426,0.06399027702229605,0.041000807510825625
427,0.06304714411309512,0.05275627804571658
428,0.06067249574047103,0.03898222005140292
429,0.05532976711685542,0.06302218037145102
430,0.06467024061298794,0.07890423200877521
431,0.05708820826644234,0.04424228503029932
432,0.059485525241959915,0.040044666977265546
433,0.05817182513205506,0.05011492915269231
434,0.05709524575001497,0.03033775012225689
435,0.05627590426869935,0.03359025471859215
436,0.06126434245868195,0.03832611032771189
437,0.05681461647531088,0.0773368021142511
438,0.05976596239992945,0.04376858461504154
439,0.06169626224476347,0.053080376281734516
440,0.06280304301979778,0.06317490118466783
441,0.06367444648868222,0.038819855111397523
442,0.05607534644471632,0.03973005659842971
443,0.06190091084769304,0.06180220828248275
444,0.061001597756265305,0.05598692381026807
445,0.061822835399920374,0.06421849517050275
446,0.06182185260818707,0.038306411443941216
447,0.056736055850911196,0.05409136280158701
448,0.05664931361799498,0.05841020656412948
449,0.060747697527299256,0.04330876937699111
450,0.05573752556639395,0.04285320709735132
451,0.058859429843306874,0.04202311703289882
452,0.05768298969598864,0.04658312614839568
453,0.056279320972595664,0.053416682138227534
454,0.06605367907147995,0.04044870314671237
455,0.05534154062958168,0.03123068961519939
456,0.05404075793177485,0.0685479986968714
457,0.05722585898845626,0.04989997873813408
458,0.05959943362208698,0.05558800496213909
459,0.060365815766804894,0.022964723765461954
460,0.06002471767377844,0.03077519896213074
461,0.060604804494737576,0.03615061428042124
462,0.06042158474503971,0.04374616042414611
463,0.055025069139075934,0.056029751376434865
464,0.055993340963082346,0.042833745026786024
465,0.055058293127202444,0.03925260862051829
466,0.061336461565554806,0.052512299087142604
467,0.05666211131903574,0.06914447958933244
468,0.055219424632396534,0.041496929113518655
469,0.06268970349388157,0.042139549424317566
470,0.05898272650663277,0.035391252245327666
471,0.055811045218637285,0.043213431988772956
472,0.06088878503285176,0.057262578786548515
473,0.06525283850741377,0.05962245036636927
474,0.055109386869090546,0.0451745399154117
475,0.060241600676483625,0.049713413903655836
476,0.060752577336726905,0.050228306154802074
477,0.05921962389723955,0.031303619307296054
478,0.06311170336865574,0.03708316730783742
479,0.05871152431502354,0.05341805813168106
480,0.05954198845975595,0.05472674943512598
481,0.056117705775232764,0.03130350237963655
482,0.05457152272287986,0.07425769106224003
483,0.05901325388039521,0.04310347133660843
484,0.05956273764032397,0.02980244976057485
485,0.05967214586307033,0.041886486379163604
486,0.05796587976033715,0.04560684177498227
487,0.05630788446398829,0.031137545611459434
488,0.055349106586603025,0.044851810259019756
489,0.05553950174457783,0.03520246770088844
490,0.06385736635399998,0.0381116000163621
491,0.05681669285489644,0.04794767134085639
492,0.05753643343971073,0.06743249263623237
493,0.056787252243009685,0.04716428718584771
494,0.06194235185692779,0.055108708693354075
495,0.06361969294909427,0.06418401773522102
496,0.05556930934594904,0.02824407754482109
497,0.055978833145345096,0.0543650901084729
498,0.05411533846316649,0.04618555265048779
499,0.061127098033027495,0.04608085607461508
500,0.05729496607975327,0.05246213776512981
501,0.058591380854584665,0.047599010381203705
502,0.05530787018134439,0.054688972727511
503,0.05405033497120455,0.0552643356402276
504,0.059896677070640496,0.05658420014776577
505,0.058445262206014065,0.038749822188277556
506,0.05690413822146724,0.035690693056832735
507,0.058561109021294126,0.04815285775484113
508,0.06299212789512891,0.03963543364415041
509,0.05497557092398453,0.04123275243804365
510,0.06035018642674938,0.03526051855413059
511,0.06058362008799776,0.05466491231090597
512,0.06357609738501237,0.06961639348679202
513,0.06230503952891516,0.03656554516572461
514,0.058958995243464464,0.06023370449584868
515,0.06159396949994693,0.0391333074527245
516,0.055554088610831165,0.04780699375608161
517,0.05988599329019527,0.05521104767942109
518,0.06263438225772193,0.06506642625441492
519,0.06395766286359583,0.04091072151321262
520,0.05703747792498504,0.04585321208619422
521,0.061560602272026164,0.05610050625611029
522,0.05840797458278785,0.05837981820094745
523,0.0555597574075611,0.056975746217118345
524,0.05695094606302363,0.04075778251030168
525,0.057433173446048744,0.05361700276443595
526,0.058857216738718306,0.03318560849243059
527,0.05909179175551013,0.031059592100773258
528,0.05580185112252319,0.02744367314853956
529,0.059102130812599504,0.046034764354400216
530,0.05827614529464814,0.039474682257626126
531,0.06332788972346355,0.06801988332346376
532,0.059787002444225586,0.03293079514888533
533,0.05998681389617262,0.05369857729845566
534,0.06125537719991472,0.04586022912620934
535,0.056417818761152996,0.04362855837537063
536,0.06017859689191544,0.06902337814045403
537,0.06245915445355441,0.05328982526138013
538,0.06060495474141279,0.05714634768282605
539,0.060983227046249776,0.04285423836620097
540,0.05694654650858147,0.05765848862626182
541,0.05933147977343757,0.04190543206921692
542,0.05792843609256186,0.057796059754083924
543,0.06177080190590889,0.03971806283372777
544,0.0614358551582868,0.0536192510050634
545,0.07024999903730876,0.06519206685632256
546,0.06251093496432264,0.04329249689145265
547,0.06376395893724654,0.034808884171185384
548,0.06700332248382432,0.05138238602933116
549,0.0585463727436525,0.0315722705724325
550,0.0630008785305716,0.054450495493463764
551,0.06274670023220978,0.03322460664687612
552,0.06009090399826698,0.026317979283366225
553,0.057599952821132186,0.06462617355509828
554,0.06151344621111807,0.059499171183936314
555,0.06098721989562257,0.037658343547345055
556,0.05580024724285737,0.03628106073762313
557,0.053444166945443926,0.061600337035795226
558,0.06468818735384899,0.030994702930302723
559,0.06038477571664764,0.06060619193446053
