epoch,loss,val_loss
0,0.5817946161826452,0.5792395975192388
1,0.5553773885303074,0.526800125002861
2,0.5265590326521131,0.5265252291361491
3,0.5265189835362964,0.5265073966979981
4,0.526501850048701,0.5269051007032395
5,0.5264890834358004,0.5266817224025726
6,0.5264799656470617,0.5264608259995779
7,0.526471188571718,0.5264774818023046
8,0.5264638129207823,0.5264303419589996
9,0.5264597946140501,0.5265372230211893
10,0.5264511780606376,0.526450604836146
11,0.5264513639476565,0.5264914708137513
12,0.5264445739189784,0.5264158258835475
13,0.5264438207414415,0.5264446938435237
14,0.5264365864992142,0.5264110074440638
15,0.5264347204897138,0.5264396829605102
16,0.5264320885870192,0.5264304844935735
17,0.5264253109958437,0.5264023922681809
18,0.5264247302744124,0.5264026877880097
19,0.5264213237762451,0.5264270837306977
20,0.5264187381532457,0.5264358922243119
21,0.5264182049565845,0.5265720230340958
22,0.5264151252640619,0.5263893849849701
23,0.5264125617212719,0.5264032343626023
24,0.5264105955494774,0.5264097659190495
25,0.5264112218221029,0.5263834581375122
26,0.5264088749885559,0.526389518459638
27,0.5264087509579128,0.5263819280465444
28,0.5264073784351349,0.526399292866389
29,0.5264059562948015,0.5264020496606827
30,0.5264064869350857,0.5264206391970316
31,0.5264045796526803,0.5264212395350139
32,0.5264037512805727,0.5264098229805628
33,0.5264011644257439,0.5263941728274028
34,0.5263989154232873,0.5263884824911753
35,0.5263991293642256,0.5263849608500799
36,0.526399268746376,0.526380583802859
37,0.5263962676657571,0.5264107971191406
38,0.5263957855568991,0.5263886423110962
39,0.5263932385577096,0.5263837249676386
40,0.5263929037650427,0.5263842281500498
41,0.5263911623160045,0.5263840425014495
42,0.526389763183064,0.5263774811824162
43,0.5263887640635172,0.5263736618757248
44,0.5263890266418457,0.5264043610493342
45,0.5263877548641629,0.5264082161585489
46,0.5263865665329828,0.5263717364470164
47,0.5263871861431334,0.5263825914065043
48,0.5263863825268216,0.5263789480924607
49,0.5263860678275426,0.5264084852139155
50,0.526385624633895,0.526410664041837
51,0.5263850762314266,0.5263715976874034
52,0.5263847948842578,0.5263688142697016
53,0.5263843675322003,0.52638267938296
54,0.5263844774829016,0.5263800202210744
55,0.5263841372198529,0.5264089659055075
56,0.526382962597741,0.5263679336309433
57,0.5263827000194126,0.5263763289054235
58,0.5263848596016566,0.526381331761678
59,0.5263833823071585,0.526385669350624
60,0.5263831536372503,0.5263826828400294
61,0.5263816234933005,0.5264009162982305
62,0.5263824502627055,0.5263881596724193
63,0.5263828756014506,0.5263894320726394
64,0.5263835846980413,0.5263795068264008
65,0.5263809988896052,0.5263951578140259
66,0.5263818712631861,0.5263684161901474
67,0.5263819952540928,0.5263775351842245
68,0.5263814605739382,0.5263677495320638
69,0.5263813447687361,0.5263674268722535
70,0.5263816703822878,0.5263963189125062
71,0.526380820857154,0.526366104722023
72,0.5263811927768919,0.5263765247265498
73,0.5263804377317428,0.5263669146299362
74,0.5263815012905333,0.526373564084371
75,0.526381057076984,0.5263712426821391
76,0.5263805419868893,0.5263969575166703
77,0.5263805785576503,0.5263726558685303
78,0.5263810112078985,0.5263651872873306
79,0.5263803777959611,0.5263726181586583
80,0.5263793342775769,0.5264311278661092
81,0.5263804981576072,0.5263665171861649
82,0.5263794760439131,0.5263804444869359
83,0.5263804418378406,0.5264193784793217
84,0.5263796156115003,0.5263818670113881
85,0.5263785478936301,0.5265009133021037
86,0.5263795008526908,0.5263661504983902
87,0.5263788854546018,0.5263697987794876
88,0.5263799573712878,0.5263654900789261
89,0.5263780418899324,0.5263855278491973
90,0.5263801254696316,0.5263866301774979
91,0.5263782967196571,0.5263694374958674
92,0.5263789443572362,0.5263669331073761
93,0.5263782388236787,0.5263948445320129
94,0.5263787174754673,0.5263704659541448
95,0.526377681016922,0.5264026557604472
96,0.5263778109285566,0.5263657129605611
97,0.5263776084582011,0.5263808147112529
98,0.5263783504035737,0.5264334271748861
