epoch,loss,val_loss
0,0.6677190724213918,0.666709840854009
1,0.6667846896648407,0.6667475374937057
2,0.6667641287512249,0.666715451836586
3,0.6667452637884352,0.6667050785223643
4,0.666741444879108,0.6667738887866338
5,0.6667372918658786,0.6667547938426336
6,0.6667338392072254,0.6667046556870143
7,0.6667309918933445,0.6667389887968699
8,0.6667290119065179,0.6667122482061386
9,0.666725819879108,0.6667023045619329
10,0.6667251460154852,0.6667304123640061
11,0.6667227455377579,0.6667160682280858
12,0.666720888879564,0.6668412228425343
13,0.6667190604739719,0.6667349780797959
14,0.6667183405558268,0.66670183579127
15,0.5920945322646035,0.5556312348047893
16,0.555622720334265,0.5556519308884939
17,0.5556215115785599,0.5556188567876815
18,0.555619919763671,0.5556337116956711
19,0.5556205515596602,0.5556125793457031
20,0.5556194776561525,0.5556045320828755
21,0.5556185964743297,0.5556220200459162
22,0.555617164320416,0.55564310892423
23,0.5556183376179801,0.5556131011644999
24,0.5556180067194832,0.5556718047062555
25,0.555617819706599,0.5556005367437998
26,0.55561754863792,0.555612142999967
27,0.5556174373229344,0.5556181439161301
28,0.5556171724531386,0.555648797750473
29,0.5556167432467143,0.5556010351975759
30,0.5556172112094031,0.555618470788002
31,0.5556162278519736,0.5556011462608973
32,0.5556146805286407,0.5556090906858444
33,0.5556146677202649,0.5556006861925125
34,0.5556139916314019,0.5556041881640752
35,0.5556142127116521,0.5556222498416901
36,0.5556139525969823,0.5556172544161478
37,0.5556140096452501,0.5556747355858485
38,0.5556134272416433,0.5556597342888514
39,0.5556124169561598,0.5556044394572576
40,0.5556121459139718,0.555603990316391
41,0.5556120381222831,0.5556099180380504
42,0.5556112187306086,0.555602955420812
43,0.5556120017634498,0.5556018534104029
44,0.5556110548973083,0.5556143396298091
45,0.5556104659901725,0.5556037713686626
