epoch,loss,val_loss
0,0.6676618036561542,0.6668378581206004
1,0.6668048967255487,0.6668467721939086
2,0.6667707644965913,0.6667146029472351
3,0.6667570522758696,0.6674384102423986
4,0.6667409942017661,0.66671606361866
5,0.6667414488130146,0.6667641067902247
6,0.6667382020685407,0.6667284224828084
7,0.6667336505386564,0.6667123952706655
8,0.666728694319725,0.6667059197425842
9,0.6667243735525343,0.6667117301225662
10,0.6667219632334179,0.6667120557228724
11,0.6667218465540145,0.6667046237389247
12,0.6667186917463939,0.6667025527954101
13,0.6667186625533634,0.6667003133694331
14,0.6667176852623622,0.6667216259241104
15,0.6667156364917756,0.6667015070915222
16,0.6667158958117168,0.6667047028541565
17,0.6667147999472088,0.66672753961881
18,0.6667139422231251,0.6667035884062449
19,0.6667125163608127,0.6666986598173777
20,0.6667132366365857,0.6666993693510691
21,0.6667120914459228,0.6666993958155314
22,0.6667100981076558,0.6666960836251576
23,0.6667092008855607,0.6667049397627512
24,0.6667097883092032,0.6666972641547521
25,0.666709815952513,0.666695388674736
26,0.6667084125147925,0.6667029893000921
27,0.6667082784043418,0.6667892478704452
28,0.6667074783775542,0.6667505323092143
29,0.6667070791191525,0.666711094379425
30,0.666706764737765,0.6666983170111974
31,0.6667061165438758,0.6667013291915258
32,0.6667061486906476,0.666697688182195
33,0.6667055911223093,0.6667105236450831
34,0.6667045873933368,0.6666944284836451
35,0.6667046802971098,0.6667061032851537
36,0.666704238679674,0.6666946148077647
37,0.6667050029569201,0.6666967451969783
38,0.6667043007082409,0.6666960210402807
39,0.6667046733697255,0.666701525648435
40,0.6667039475440979,0.6666938327550888
41,0.6667043628162808,0.6667049691677094
42,0.6667042068243026,0.6666991044282913
43,0.6667043579551909,0.6667066879272461
44,0.6667034449179967,0.6667138954798381
45,0.6667032942507002,0.666722464243571
46,0.6667031538221572,0.6667187929153442
47,0.6667036238511403,0.6667060626347859
48,0.6667038329044978,0.6666954667965571
49,0.6667031223111682,0.6667040351231893
50,0.6667033316691716,0.6666978836456935
51,0.6667025764915678,0.6666937155326208
52,0.6667039013703664,0.6667045199473699
53,0.6667032701041964,0.6667002241214116
54,0.666703232023451,0.6667017186482748
55,0.6667023004690806,0.6666955548922221
56,0.6667027223772473,0.666693932612737
57,0.6667026564545102,0.6666958487828573
58,0.6667026006513171,0.6666972336769104
59,0.6667020058764351,0.6666940676371257
60,0.6667016787131628,0.6666985884507497
61,0.6667014121347004,0.6666929264465968
62,0.6667016788323721,0.6666991438070933
63,0.6667008013195461,0.6667010530630747
64,0.6667012222607931,0.6667020847400029
65,0.6667020808060964,0.6666955946683883
66,0.6667010120815701,0.6667034153938294
67,0.6667010636462105,0.6667225187619528
68,0.6667013220654594,0.666694919705391
69,0.6667011324299706,0.666707846045494
70,0.6667008799446954,0.6667137273152669
71,0.6667007175021702,0.6666941482226054
72,0.6667009675502777,0.6666998590230941
73,0.6667006490363016,0.6666997316281
74,0.6667016271750132,0.6667033301591874
75,0.6667011067469915,0.6666939738591512
76,0.666700746456782,0.6666926150719324
77,0.6667006884548399,0.6666946235895157
78,0.6667007676760356,0.6666928990681966
79,0.666700494395362,0.6667018008629481
80,0.6667007508807712,0.6666962064901988
81,0.6667006931967205,0.6666982384125392
82,0.6667005248599582,0.6666982419888179
83,0.6667009800142712,0.6666948108275731
84,0.6667008292145199,0.6666941831509272
85,0.6667006511025959,0.6667136450211207
86,0.6667003644042545,0.666696059902509
87,0.6667001353767184,0.6667055143117905
88,0.6667007531325022,0.6667077800035477
89,0.6667007095283932,0.6666955996751786
90,0.6667008706596163,0.6666923182010651
91,0.6667006835540136,0.6667023639281591
92,0.6667005254162682,0.6666963905890783
93,0.6667002251015769,0.6666951880057653
94,0.6667004462877909,0.6667089575131734
95,0.6667001167933146,0.6666938153107961
96,0.6667002912892236,0.6666936719814937
97,0.6667001347541809,0.666694571574529
98,0.6667008641031054,0.6666955317656199
99,0.6667002514468299,0.6667131363550822
100,0.666700059109264,0.6667017631133397
101,0.6667003098991182,0.6666923318703969
102,0.6667008097569148,0.6666929452816646
103,0.6667002733151118,0.6666992356777192
104,0.666700195564164,0.6666950574715932
105,0.6667005890740288,0.6667017262776692
106,0.6667001258267297,0.666692365527153
107,0.6667003463374244,0.6666942734320959
108,0.6666998974879583,0.6667035506566366
109,0.6666999074618022,0.6667152793804805
110,0.6667006706396739,0.6666920363108317
111,0.66669990128941,0.6666967624425888
112,0.6667006625731786,0.6666996867259344
113,0.6666999031305313,0.6666924463113149
114,0.6667004370027119,0.6667208153804143
115,0.6667001597483952,0.6667191587289174
116,0.666700365278456,0.6666941495339076
117,0.6667003107733197,0.6666939359505971
118,0.666699984020657,0.6667027406295141
119,0.6667004747523202,0.6666926452716192
120,0.6667002949052386,0.6667059832016627
121,0.6667002524269952,0.6666962105433146
122,0.6667003077798419,0.6666961844762166
123,0.6667004392809338,0.6667057345708212
124,0.6667003228267034,0.6666923181613287
125,0.666700218849712,0.666695419271787
126,0.6667000650432374,0.6666952141920726
127,0.6667001231908798,0.6667002446254094
128,0.666699824280209,0.666697323401769
129,0.6667005605697632,0.6666939951181412
130,0.6667001322640314,0.6666952923138937
