epoch,loss,val_loss
0,0.556888211104605,0.5556478252808253
1,0.4753416837983661,0.4446094868183136
2,0.4446103595627679,0.44451407104730606
3,0.4445846104224523,0.4445996076067289
4,0.4445645928117964,0.44451934385299685
5,0.4445575778550572,0.4445107244650523
6,0.4445511327120993,0.4445802530845006
7,0.44454662352138097,0.444541383087635
8,0.44454063006242117,0.4445129910111427
9,0.44453741898139315,0.44458365563551583
10,0.4445365208586057,0.44452684350808463
11,0.44453416737582946,0.4445032833615939
12,0.4445300667285919,0.4445471355120341
13,0.44452615709437265,0.4445026445587476
14,0.4445260114007526,0.44452685274680453
15,0.4445235321455532,0.4445030725399653
16,0.44452301120095783,0.44454090015093484
17,0.4445189077986611,0.44450272381305694
18,0.4445181164609061,0.44450356527169543
19,0.44451651210917364,0.4445152078270912
20,0.44451574249400033,0.4444969328045845
21,0.44451545253064895,0.44451100860039394
22,0.444514219476117,0.44450063367684683
23,0.4445148162179523,0.4444998398224513
24,0.44451373653941684,0.444499427040418
25,0.44451236604319677,0.4445378399292628
26,0.4445129557053248,0.4445157513618469
27,0.4445111064645979,0.44451947971185046
28,0.4445109900765949,0.4445036125779152
29,0.4445101976129744,0.4445073300600052
30,0.4445113458832105,0.4445668100118637
31,0.44451153547896277,0.4444963853955269
32,0.4445100998613569,0.4445148384372393
33,0.44450972277588313,0.44456017901500067
34,0.44450945811139214,0.4445177112619082
35,0.44451009162267047,0.4444990328749021
36,0.4445092414749993,0.44449528843164443
37,0.44450864829619724,0.44451177392403285
38,0.4445096167524656,0.44449631055196126
39,0.4445085631277826,0.44449503109852473
40,0.44450952533218596,0.44449708992242815
41,0.4445084628595246,0.4445204825202624
42,0.4445092662307951,0.4444940916697184
43,0.4445092885361777,0.4444939554731051
44,0.44450858128733106,0.44449787026643756
45,0.444509096092648,0.4444940946698189
46,0.4445081390341123,0.4444968878626823
47,0.44450847666131127,0.444493167301019
48,0.4445088302559323,0.44449481449524564
49,0.44450935281647574,0.4445489995280902
50,0.44450897161165875,0.44453593709071476
51,0.44450800838073096,0.4444989365339279
52,0.44450957026084265,0.4444939421216647
53,0.44450799647304745,0.4445076573292414
54,0.44450858442650903,0.44449300837516786
55,0.44450878566503527,0.4444977995355924
56,0.4445086630251672,0.44449415989716845
57,0.4445082237124443,0.4445306433439255
58,0.4445079155829218,0.4445163760383924
59,0.44450778863165114,0.4444970853726069
60,0.44450813748439155,0.44450827304522195
61,0.44450768547587927,0.4444968654314677
62,0.4445066922638151,0.4444962943593661
63,0.4445067378679911,0.4445044883886973
64,0.44450686678621504,0.4444931050737699
65,0.44450698669751487,0.44451170031229653
66,0.44450736827982795,0.4445259332060814
67,0.44450691184070373,0.4445251901348432
68,0.44450729054874843,0.44450291130940117
69,0.4445060493018892,0.4444938674767812
70,0.4445068706803852,0.44451109393437704
71,0.44450611142317453,0.4445363936225573
72,0.4445075089335442,0.444496419608593
73,0.4445064752234353,0.44449916807810463
74,0.4445061614712079,0.44449405894676847
