epoch,loss,val_loss
0,0.5037887843582365,0.4246218151251475
1,0.42442623096704485,0.423907721777757
2,0.4234212747613589,0.42268937383095423
3,0.42307954563034905,0.4228260931770007
4,0.42288977212376067,0.42292670408884686
5,0.42279085883829326,0.4222097622156143
6,0.42271353736188677,0.4224634047547976
7,0.4226513987382253,0.42231899001200995
8,0.42260856431722643,0.4219928307930628
9,0.42242262247535917,0.42253619050979613
10,0.4223661036822531,0.42235231701533
11,0.4222745240330696,0.42189458598693214
12,0.4222101385527187,0.4217930217981338
13,0.4221992098093033,0.4249508458971977
14,0.4221019388569726,0.4240129548112551
15,0.42192242554823556,0.4217065218091011
16,0.42184221583604814,0.4215359009504318
17,0.4218031125664711,0.42218989616632463
18,0.42177491739723416,0.42136524613698323
19,0.4217515193356408,0.4214635154803594
20,0.4217423051993052,0.42245368208487827
21,0.4217371820807457,0.4216871474186579
22,0.42170808862315284,0.4214295682708422
23,0.42173102816608216,0.4213494154413541
24,0.4217334981362025,0.421318600277106
25,0.4216932631333669,0.4214573524991671
26,0.42169653923643957,0.42180467476447425
27,0.42170154644383323,0.423596437672774
28,0.421656378587087,0.4213032278617223
29,0.42155184139145746,0.4215786955157916
30,0.42152439865138797,0.4223621480266253
31,0.4215099128153589,0.4213816125392914
32,0.4214999549852477,0.42122401305039725
33,0.4214886081152492,0.4214545502662659
34,0.421469776822461,0.4212954106330872
35,0.42148928173383077,0.4212798406680425
36,0.4214696800245179,0.4213122847278913
37,0.42146263183487787,0.42163276008764905
38,0.42147710042529635,0.42121678924560546
39,0.4214515965316031,0.421178894340992
40,0.4214852899577883,0.42116793954372406
41,0.42144546871052846,0.4212558942834536
42,0.4214343354701996,0.4210470159451167
43,0.42144865798950193,0.4215836544235547
44,0.42145045363903044,0.4213372705380122
45,0.4214394102891286,0.42171020966768263
46,0.42142502235041723,0.4214878763953845
47,0.4214074017074373,0.4210675450960795
48,0.4214178672300445,0.42118128327528637
49,0.42144712881247204,0.4228530836502711
50,0.42143071645498276,0.42139793463548025
51,0.42143397257063125,0.42141184731324516
52,0.42144606508811316,0.42112809576590854
53,0.42140312376949524,0.42106999597946804
54,0.42139618869622547,0.4215434850255648
55,0.42140489513344237,0.42109366285800937
56,0.4214062466555172,0.42103279946247735
57,0.42140510963069067,0.42198842885096866
58,0.4213778900967704,0.42129343285163245
59,0.42141242661741046,0.4211145336826642
60,0.4213962232006921,0.4211946498155594
61,0.42140004907713996,0.4210746643344561
62,0.42138855966594485,0.42115201097726823
63,0.42138662708467906,0.42122937250137327
64,0.42139103938473593,0.42105896906057994
65,0.4213891641961204,0.4211559115052223
66,0.4213678803112772,0.42146368803580603
67,0.4213813808295462,0.4212738090952238
68,0.4214034574164285,0.42182651444276176
69,0.4214155797825919,0.42115044965346654
70,0.4213827177617285,0.4211284069816271
71,0.4213728455702464,0.42113661593198776
72,0.42137897469600044,0.4214216234087944
73,0.4213831769559119,0.4211445199251175
74,0.42138840156793594,0.421105051557223
75,0.4213830430044068,0.42109382889668145
76,0.4213789845969942,0.42161684602499006
