epoch,loss,val_loss
0,0.7548275098933114,0.7533700663646062
1,0.75339320994748,0.753213288585345
2,0.7531053727202945,0.7527930548191071
3,0.7529131517940097,0.7527663338979085
4,0.7527938256131278,0.7532874634663264
5,0.752711149626308,0.7532045573393504
6,0.7526307425631417,0.752490801135699
7,0.7526082864734862,0.7527420885165532
8,0.7525737679402034,0.7524729034503301
9,0.7525504114230473,0.7524340875546137
10,0.7525045236216651,0.7524680622816086
11,0.7524750884241528,0.752396189570427
12,0.7524674679040909,0.7530802181959152
13,0.7524489750729667,0.7523981186548869
14,0.7524399479892518,0.7523249749342601
15,0.752426244854927,0.7523771760861079
16,0.7524158005052143,0.7523858814636867
17,0.7524084027608235,0.7522467612822851
18,0.7524119536876679,0.7524730948607127
19,0.7523861727979448,0.7522486934264501
20,0.752383141067293,0.7524331328471502
21,0.7523776828183069,0.7522033945322036
22,0.7523661023643282,0.7523895088831584
23,0.7523683572742674,0.7527636222839356
24,0.752371494796541,0.7527606348594029
25,0.7523552580012216,0.7522678360144297
26,0.7523535797993343,0.7522740104993184
27,0.7523543135854933,0.7523374611536662
28,0.7523520095348358,0.7522761139074962
29,0.7523558737436931,0.7525304061969121
30,0.7523528462383482,0.7522291074196498
31,0.7523378403981527,0.7521920710007349
32,0.7523497885730531,0.7523211600780487
33,0.7523402055766848,0.75262109319369
34,0.7523336146142747,0.7522023483514786
35,0.7523449611928728,0.7525749408404032
36,0.7523325846857495,0.7523245053688685
37,0.7523451927635405,0.7524107696612676
38,0.7523321288029353,0.7521806446313858
39,0.7523389614290661,0.7525978212753932
40,0.7523320830530591,0.752240341981252
41,0.7523174308405982,0.7525654070774714
42,0.752330567823516,0.7521766954263052
43,0.7523324594630135,0.7523112605810165
44,0.752325470911132,0.7521961429119111
45,0.7523315289947722,0.7523184142907461
46,0.7523260422680113,0.752366836865743
47,0.7523209649324417,0.7523292533159256
48,0.7523111432260937,0.7522028242746989
49,0.7523370373249054,0.7522005030711492
50,0.7523311149014367,0.752296287337939
51,0.7523315784666273,0.7521903779109319
52,0.7523178832266065,0.7524362812836964
53,0.7523164131641388,0.7522195009787878
54,0.7523159164587657,0.7527686167955399
55,0.7523138335413403,0.7525912423531215
56,0.752325833413336,0.7522795807123184
57,0.7523165165583293,0.7521867046356201
58,0.752316717505455,0.7522352686723073
59,0.7523221596214507,0.7524214182297388
60,0.7523182205359141,0.7521678040424983
61,0.7523254798385832,0.7522370812892913
62,0.7523074739244249,0.7521960834264755
63,0.7523271592590544,0.7527805792490642
64,0.752318206972546,0.7523979059060415
65,0.752317834297816,0.7525747423569361
66,0.7523144344091416,0.7523610044717789
67,0.752307710091273,0.752225591858228
68,0.7523080434799194,0.752361669977506
69,0.7523177735010783,0.7523409325281779
70,0.7523175366322199,0.7522421904007593
71,0.7523130192491744,0.752224428931872
72,0.7523169703351127,0.7522497621774673
73,0.7523135530948639,0.7521793143749237
74,0.7523100192414389,0.7523093593120574
75,0.7523093431923125,0.7522304472525915
76,0.7523182082176209,0.7522016915877661
77,0.7523159424596363,0.7522786509990692
78,0.7523076030280855,0.752182770093282
79,0.7523085507949193,0.7522853597799937
80,0.7523153041468726,0.7522127145926157
