epoch,loss,val_loss
0,0.7552046918736564,0.7545301938056945
1,0.7528520337078306,0.7524964284499486
2,0.7524708347585466,0.7527809283336003
3,0.7523251293500265,0.7524236001968384
4,0.752259356631173,0.7524526484012604
5,0.7522124669684304,0.7526931991974513
6,0.7521777820587158,0.7521996119419734
7,0.7521531140406926,0.7520666135152181
8,0.752144056836764,0.7520356944004695
9,0.7521219330231349,0.7519762863318126
10,0.7520939291583167,0.7519941573143005
11,0.7520672889682982,0.7521005739370982
12,0.7520677066114214,0.751936637600263
13,0.7520444863902198,0.7518787424961726
14,0.752042948126793,0.7518800125916799
15,0.7519928432305654,0.7518277696768443
16,0.7519192361036936,0.7521169888178507
17,0.7518784123261769,0.7516888449986776
18,0.7518690125015047,0.7518224946657817
19,0.7518547924227185,0.751876472791036
20,0.751845020837254,0.7518850905895234
21,0.7518107661803564,0.7516653065681458
22,0.7518204276959102,0.7530874865452448
23,0.7518099281787872,0.7520955903132757
24,0.7517964417404599,0.7518319348494212
25,0.751803879433208,0.7518456593354543
26,0.7517975753015942,0.7518779594103495
27,0.7517894008027183,0.7516603839794794
28,0.7517904028362699,0.7516309908628463
29,0.7517818613052368,0.7522732125520706
30,0.7517772617869907,0.7516078557570776
31,0.7517694892088572,0.7515851985216141
32,0.7517816427416272,0.7518086146513621
33,0.7517688708967633,0.7516385810375213
34,0.7517747542063395,0.7516722047726313
35,0.7517677214940389,0.7517093111673991
36,0.7517611211008496,0.7515935677289963
37,0.7517586221430037,0.7516025863885879
38,0.7517485893699858,0.7516093554099401
39,0.7517434590392642,0.7516172801653545
40,0.7517498487366571,0.751611665447553
41,0.7517552342679765,0.7522268962065379
42,0.7517406723896662,0.7519670295715332
43,0.7517304444313049,0.7516890763044357
44,0.7517394447724024,0.7515808316071828
45,0.7517342411809498,0.7516077301899592
46,0.7517365110715231,0.751572823603948
47,0.7517332506577173,0.7518181161085764
48,0.7517317042748133,0.7515606847604116
49,0.7517333111895456,0.7517959630886714
50,0.7517180220948325,0.751522985736529
51,0.7517222052945031,0.7515366727908452
52,0.7517187053097619,0.7515296342770259
53,0.7517171735631095,0.7515959796508154
54,0.7517138763003879,0.7517528048753739
55,0.7517115260627535,0.7518958659569422
56,0.7517152084906896,0.7516059486071268
57,0.7517103667126761,0.7516432023843129
58,0.7517127857340706,0.75157563940684
59,0.7517088091240989,0.7519048707882563
60,0.7516981660392549,0.7515723621447881
61,0.7516998313268026,0.7518159534136454
62,0.7517083733081817,0.7516394077936809
63,0.7516959256860944,0.7515681025187174
64,0.7516987680594126,0.7515589271783829
65,0.7516875295771492,0.7516206623315811
66,0.7516787737078137,0.7522432797749837
67,0.751687431189749,0.7515226602554321
68,0.7516653332445357,0.7516293342113495
69,0.751678327454461,0.7515371013879776
70,0.7516724988619486,0.7515895124673844
71,0.7516714345879025,0.7518706038792928
72,0.7517117250098122,0.7518500303824742
73,0.7516679590675566,0.7514832149744034
74,0.7516500361628002,0.7515988957484563
75,0.635773524330722,0.42171467568476995
76,0.4226384019189411,0.42137722609440487
77,0.4214854054450989,0.4211759018301964
78,0.4213908233973715,0.42106140303611755
79,0.42131115168995326,0.4210392495791117
80,0.42128900353113813,0.42110857780774436
81,0.4212671837872929,0.42096645442644753
82,0.42122066503100924,0.42099659897883734
83,0.42120095407300523,0.421091639260451
84,0.42118954065773223,0.4210769981145859
85,0.4211721269554562,0.42092309123277666
86,0.4211232221921285,0.4209629325270653
87,0.4210143343276448,0.4207054884235064
88,0.42084187068541845,0.42066402635971706
89,0.4207556961443689,0.42050719042619067
90,0.4206908844841851,0.4205286884109179
91,0.4206648602816794,0.4206307208339373
92,0.4206489612526364,0.4203211100101471
93,0.4206641247338719,0.4204164718786875
94,0.4206413042280409,0.4217574021816254
95,0.420629824022452,0.42031504124403
96,0.4206170578930113,0.42176302192608517
97,0.4206087470187081,0.42026745071013766
98,0.4206079215804736,0.4205070932706197
99,0.4206430232789781,0.42167769561211266
100,0.42061230988634957,0.42054205123583477
101,0.42061120205455355,0.42032443851232526
102,0.42059807407855987,0.4203257351915042
103,0.4205923520922661,0.4201494786341985
104,0.4205643966727787,0.4202687842051188
105,0.42063123685121534,0.420441646416982
106,0.42058428481552335,0.42057849977413814
107,0.42059111533562343,0.42038607931137084
108,0.42055644991000496,0.4210049818555514
109,0.42056991657945847,0.4203788830041885
110,0.42057741806904475,0.4202745473782222
111,0.42056518385145397,0.42032713868220645
112,0.42056104244126213,0.42027919163306554
113,0.4205716045300166,0.4212049072384834
114,0.42058790747324626,0.4205704196691513
115,0.4205501057571835,0.4203432858387629
116,0.42054234070910346,0.42126905111471813
117,0.4205359978146023,0.4201369486053785
118,0.4205359310971366,0.4203074649175008
119,0.42051193639967177,0.42024805647134783
120,0.42054656816191144,0.42047669750452044
121,0.4205305972827805,0.42056050153573354
122,0.4204964070452584,0.4201206639011701
123,0.4205054984754986,0.4201130682031314
124,0.42053038662672043,0.42019865371783577
125,0.42049277479781044,0.4205094320178032
126,0.4204804936448733,0.42111066285769144
127,0.42049041508966023,0.42017917523781456
128,0.42051135110855103,0.42037146000067394
129,0.4204856111738417,0.42025101472934084
130,0.4204852498968442,0.42111480208237967
131,0.4204908806681633,0.4203160860538483
132,0.4205048669974009,0.42094435781240463
133,0.4204827976822853,0.42027545934915544
134,0.4205050680968497,0.4207434675296148
135,0.42046343157688776,0.4201714952985446
136,0.4204778796037038,0.4208574210604032
137,0.4204829074078136,0.4205561874906222
138,0.42049042052692837,0.42011407313744226
139,0.42047934540112814,0.4205613779624303
140,0.4204630178809166,0.42008438775936763
141,0.42043451309866375,0.4213490932782491
142,0.420474282529619,0.4201531008084615
143,0.42049450107415515,0.4201073434948921
144,0.4204439586202304,0.42049483064810433
145,0.4204496453271972,0.4201473985314369
146,0.42048643901613025,0.4206124764283498
147,0.4204599817262755,0.4201839200059573
148,0.42043260210752487,0.4205003313422203
149,0.4204727335241106,0.42075391004482904
150,0.42047298973136477,0.4202283476392428
151,0.4204673271112972,0.4208620308637619
152,0.42043508126338325,0.42011431117852527
153,0.42046938392851085,0.4201570599079132
154,0.4204433788922098,0.42022368746995925
155,0.4204152802295155,0.42125657135248185
156,0.4204584904776679,0.4201759522159894
157,0.4204388598402341,0.42035852577288946
158,0.4204263331691424,0.4200221640268962
159,0.4204326844480303,0.4209006283481916
160,0.42042826040585835,0.42054839511712394
161,0.4204683024287224,0.42006556230783465
162,0.4204369402925173,0.4208396349747976
163,0.420436349802547,0.4200742340683937
164,0.42040852359930675,0.420316646973292
165,0.4204615130225817,0.42020070429642997
166,0.42044153217474617,0.42067936424414315
167,0.4204484800166554,0.42137434047460554
168,0.42043268599112826,0.42009382901589076
169,0.42041374368800055,0.42064509002367656
170,0.4204486414061652,0.42108374859889347
171,0.4204163677427504,0.4202605031132698
172,0.4203921755419837,0.4200585472385089
173,0.4204104635450575,0.4208881008823713
174,0.4204031346175406,0.4201167252262433
175,0.4204205164578226,0.4203472593426704
176,0.42041641987032363,0.4202341650724411
177,0.4204103856417868,0.4200817544658979
178,0.4204615899854236,0.42010290298859276
