epoch,loss,val_loss
0,0.7546512658596038,0.753335360566775
1,0.7532976084682677,0.7529900155464808
2,0.7324660556846195,0.6700209214289983
3,0.6702466973331239,0.6700129766464233
4,0.6701198226081,0.6698769385417302
5,0.6700998258458244,0.6705211016734441
6,0.6700802452961604,0.6701308791240056
7,0.6700451228486167,0.6698674916823705
8,0.670035876247618,0.6701138884623845
9,0.6700105825265249,0.6700689078569412
10,0.6699957151942783,0.6697652749617895
11,0.6699692998329798,0.6701091151634853
12,0.6699603633615706,0.6699836351474127
13,0.6699665709204143,0.6697976993322372
14,0.669940480099784,0.6697670695384343
15,0.6699589277770784,0.6699421887000402
16,0.6699485525157717,0.669789655884107
17,0.6699346937338511,0.6699988070726395
18,0.6699365685515933,0.6698439148664475
19,0.6699350702497694,0.6697630788882574
20,0.6699076875713137,0.669751590291659
21,0.6699120135174857,0.6700302944580714
22,0.6699063194990158,0.6697800058921178
23,0.6699114123980204,0.6699510132074356
24,0.6699138339493009,0.6698731212615967
25,0.6699148531092538,0.6697906598647435
26,0.6699145716826121,0.6697249753077825
27,0.6699097666872872,0.6699074876308441
28,0.6699113149378034,0.6701718941926956
29,0.6699094238148795,0.669743490298589
30,0.6698971262507969,0.6703100774288178
31,0.6698959083689584,0.6697515332301458
32,0.6698967756165398,0.6700821011861166
33,0.669896621995502,0.6699528505007426
34,0.669896335694525,0.6709405309359232
35,0.6698931811385684,0.6697754191557567
36,0.6698907723029455,0.6703011643886566
37,0.6698965697156058,0.6698934282461803
38,0.6698931690057118,0.6700880147616068
39,0.6698865961896049,0.6697399914662043
40,0.6698832507928213,0.6697254382371902
41,0.6698872249258889,0.6697407097419102
42,0.669896870083279,0.6697301079829534
43,0.6698784112003114,0.6697124687830607
44,0.669885506802135,0.6699918325742086
45,0.6698862500455645,0.6703662725687027
46,0.6698848486211565,0.6697884882291159
47,0.6698826296197044,0.6699055040677389
48,0.6698710285425186,0.6697585612535477
49,0.6698835143645604,0.6701683742205302
50,0.669866886721717,0.6698255876700083
51,0.6698809493780136,0.6697315631310145
52,0.6698758412732019,0.669695526679357
53,0.6698805964257982,0.6697183539072673
54,0.6698816888597277,0.6697834345499675
55,0.6698685174518161,0.6698778719504674
56,0.6698798883756002,0.6697120419343312
57,0.6698805227014754,0.6697546034653982
58,0.6698686887820562,0.6699582432905833
59,0.6698746264908049,0.6697150214115779
60,0.6698677686187956,0.6698117630879085
61,0.669879652288225,0.6697561869621277
62,0.6698760859568914,0.6698301845788955
63,0.6698845317098829,0.6698313984870911
64,0.6698733020755979,0.669694067120552
65,0.6698726772467295,0.6698997487624486
66,0.6698808162079917,0.6699550187587738
67,0.6698726585970984,0.6697167570590973
68,0.669869064172109,0.6697262269655864
69,0.6698653028938505,0.669769681930542
70,0.6698806835015615,0.6697545358339946
71,0.6698663659758038,0.6703438848257065
72,0.6698768338097466,0.6697213038603465
73,0.6698526608943939,0.6698034839232763
74,0.6698702910343806,0.6701857879956563
75,0.6698685102065405,0.6698569209973018
76,0.6698738001320097,0.6697495876550674
77,0.6698680044809977,0.6697093286911646
78,0.6698620780441497,0.6697332785129547
79,0.6698652296993468,0.6697611376444499
80,0.6698646829393174,0.6699389756917954
81,0.6698655072848002,0.6697862878243128
82,0.6698690951797698,0.6697066709200541
83,0.6698619126081466,0.6696866763035456
84,0.669860949450069,0.6697471037705739
85,0.6698707540829977,0.6700423423846563
86,0.6698688153028488,0.6699218499263128
87,0.6698652364810308,0.6697439320882161
88,0.6698676930930879,0.6702115826209386
89,0.6698703448904885,0.6700258074204127
90,0.6698561139769025,0.6698102292617162
91,0.6698737071885003,0.6699661042292913
92,0.6698674272563723,0.6697624919017156
93,0.6698652533690135,0.6697491609652837
94,0.6698587083816528,0.6698087737957636
95,0.6698700933323967,0.6697841292222341
96,0.6698743000162972,0.6697018180290858
97,0.6698624488512674,0.6698302440245947
98,0.6698691340949801,0.6697485489050548
99,0.6698761608468161,0.6697553407351176
100,0.6698608349694146,0.6697238414287567
101,0.6698609647221035,0.6696982544660568
102,0.669868729405933,0.6703839293718338
103,0.6698663293653064,0.6698150153954824
