epoch,loss,val_loss
0,0.5861377758449978,0.5849277104536692
1,0.5849279897212982,0.5851388043165207
2,0.5848605602582295,0.5847074282964071
3,0.5848235487010743,0.5846956347227097
4,0.5848085721996096,0.5848309751749039
5,0.5848038312064276,0.5856282959381739
6,0.5847865952385797,0.5847118364572526
7,0.5847774241632886,0.5849679189125697
8,0.5847714236709807,0.5852173244953156
9,0.5847655987209744,0.5846974787314733
10,0.568480425953865,0.5022439262866973
11,0.5017184277243084,0.5018412440220515
12,0.5017050086922116,0.5017556147178014
13,0.5017080354955461,0.501687072912852
14,0.5017005546490352,0.5016870992978414
15,0.5016994832091861,0.5016299618085226
16,0.5016910885969798,0.5017802883783976
17,0.5016921444866392,0.5019459971189499
18,0.5016888395150503,0.5018442283074062
19,0.5016797729995516,0.5016118847926457
20,0.501680517938402,0.5016541793346405
21,0.5016859109799067,0.5016553605000178
22,0.5016929896407657,0.5016867865721385
23,0.5016808041731516,0.5016867765982945
24,0.5016780254973305,0.5016288212140401
25,0.5016840032868916,0.5016053162018458
26,0.5016881680356131,0.5018337519168854
27,0.5016883380942875,0.5017056903839111
28,0.5016825832260979,0.5016144151687623
29,0.5016783050431145,0.5016000998417537
30,0.5016851481464174,0.501628688732783
31,0.5016797360446718,0.5016077752908071
32,0.5016871245967017,0.5016432542403539
33,0.5016907758712769,0.5016086814800899
34,0.5016808876991272,0.5016511126756668
35,0.5016766622463862,0.5017437275250752
36,0.5016806251870262,0.5016044683059057
37,0.5016807279056973,0.5016660287777582
38,0.5016825855440563,0.5017155784368516
39,0.5016785032484267,0.5017329102357229
40,0.5016835729413562,0.5016115673383077
41,0.5016777378982967,0.5016098088423411
42,0.5016759639051226,0.501692466934522
43,0.5016789296468099,0.5018055673042933
44,0.5016832400295469,0.5017545977036159
45,0.5016875392198563,0.5016282369295756
46,0.5016776069137785,0.5016656787395477
47,0.5016751364337073,0.5016962372859319
48,0.5016798034641478,0.5016087481975555
49,0.5016852928929859,0.5016488096316656
