epoch,loss,val_loss
0,0.5134725958572494,0.5636833922068278
1,0.5628973323106766,0.561952114701271
2,0.561849505437745,0.5613477181593577
3,0.561179442803065,0.5608841854731242
4,0.5609434827301237,0.560677012483279
5,0.5607801368633906,0.560706111629804
6,0.5606468943887287,0.5606102273066839
7,0.5604834957122803,0.5606184631188711
8,0.5603851242462794,0.5603400399287541
9,0.560191499710083,0.5598273880084356
10,0.5600265586773554,0.5600658235549927
11,0.559914404683643,0.5597565711339315
12,0.5597739941941368,0.5598252854744593
13,0.5596511855257882,0.560099128683408
14,0.5594891500075658,0.5595097347100576
15,0.5593782834476895,0.5601281752983729
16,0.5592766568660736,0.5588829924662908
17,0.5591663848559062,0.5592941655715307
18,0.5590766952964995,0.5589625322024028
19,0.5590117448038525,0.5592277601162593
20,0.558895968331231,0.558838167587916
21,0.5588393453094694,0.5585942444006602
22,0.5588313942750295,0.558865457812945
23,0.5587675824827618,0.5589479621648789
24,0.5587066815561719,0.5592632959286372
25,0.5585865961313248,0.5582781168222427
26,0.5585861429373423,0.5588584807316462
27,0.5585146171781752,0.5584386587142944
28,0.5584804453717338,0.5583839735587438
29,0.5584384973843892,0.558291199405988
30,0.5583976568778356,0.5585818296670914
31,0.5583314692444271,0.5592192018826803
32,0.558333708776368,0.5580438148975372
33,0.5583165456851323,0.55886095281442
34,0.5582893472115199,0.5583874964316686
35,0.5582789464394251,0.5579002476135889
36,0.5582237673997879,0.5581349116961162
37,0.5582086928950416,0.5581430189609528
38,0.5582282098929088,0.5585179889996846
39,0.5582355164686839,0.558451299905777
40,0.5581798312664032,0.5581310319900513
41,0.5581823348469205,0.5579823677142461
42,0.5581224561797248,0.5579312937259674
43,0.5581334161625968,0.5582365785837173
44,0.5581094949775272,0.5579868386189143
45,0.5580803699758318,0.5580131616592408
46,0.5580990167458852,0.5585832279920578
47,0.5580877147118251,0.5579511630137761
48,0.5580369017653996,0.5577501009702682
49,0.5580560719304615,0.5582495663960775
50,0.5580480953322516,0.5578777934312821
51,0.5580030770566728,0.5583086175918579
52,0.5580446169243919,0.5581653057336807
53,0.5579846102661556,0.5577851738532384
54,0.5580168486701118,0.5577246857484182
55,0.5579761903021071,0.5577265119155248
56,0.5579916878541311,0.5577193034092586
57,0.557974324411816,0.5582090967098872
58,0.5579472579028871,0.5577387219667435
59,0.5579457841846678,0.5584461857477824
60,0.5579404868019952,0.5579719992081325
61,0.5579231077300177,0.5577387556632359
62,0.5579415918853547,0.5581793002684912
63,0.5579613064924875,0.5576076361735662
64,0.5579543701145384,0.5577026145060857
65,0.5579272178676393,0.557628723025322
66,0.5578968604140812,0.5576377144257227
67,0.5579057610564762,0.5577105076313019
68,0.5578913630512026,0.5576496169567108
69,0.557890690114763,0.558040555079778
70,0.5579150644275878,0.5579722127517064
71,0.5578511790831884,0.5575866112311681
72,0.5579088438219494,0.55759787940979
73,0.5578458883894815,0.5578804880777994
74,0.5578491067488989,0.5577552707990011
75,0.557860351536009,0.5576572388013203
76,0.5578492770195007,0.5578552304506302
77,0.5578301697439617,0.5577487560113271
78,0.5578388684988022,0.5577097040812174
79,0.5578335373269188,0.5578389427661896
80,0.5578002284632789,0.5580862312316894
81,0.557838649087482,0.5575915593703588
82,0.557814217991299,0.5579102447032929
83,0.5578174189726511,0.5584006289641062
84,0.5578176068994734,0.5579674580494562
85,0.557813432958391,0.5577772578001022
86,0.5578095903926426,0.557778203924497
87,0.5577919223043654,0.557520690759023
88,0.5577784715228611,0.5577838960488637
89,0.5577888396713468,0.5578560516436895
90,0.5577790211174223,0.5575730076233546
91,0.5577894511355294,0.5576202391386033
92,0.5577450771464242,0.5575243399143219
93,0.5577548814614613,0.557555258512497
94,0.5577585646311443,0.5575208460887273
95,0.5577416287528144,0.5578815909226735
96,0.5577510284582774,0.5576416838566463
97,0.5577200753556357,0.5576178372303645
98,0.5577357579469681,0.5575315876801809
99,0.557726386613316,0.559232518196106
100,0.5576939206123352,0.5575877976020177
101,0.557683669143253,0.557288815776507
102,0.557692029039065,0.5579847006400426
103,0.5576850496530533,0.5582084900935491
104,0.5576792527967029,0.5580104368925095
105,0.5576655851999919,0.557552308122317
106,0.5576591303348541,0.5576435441176096
107,0.5576448838048511,0.5573074021736781
108,0.5576428720553716,0.5577003345092137
109,0.5576205689907074,0.5575316675504048
110,0.922259031534195,1.0
111,1.0,1.0
112,1.0,1.0
113,1.0,1.0
114,1.0,1.0
115,1.0,1.0
116,1.0,1.0
117,1.0,1.0
118,1.0,1.0
119,1.0,1.0
120,1.0,1.0
121,1.0,1.0
