epoch,loss,val_loss
0,0.5283688926431868,0.5634609173933665
1,0.5634488078488243,0.5626294849713643
2,0.5622429964542389,0.6068115939299266
3,0.5629376314083735,0.5612952654361725
4,0.5625605680810081,0.561184852361679
5,0.5613403201765484,0.5614260843197505
6,0.5612427478763792,0.5681124738057455
7,0.5613188661204443,0.5605684631665547
8,0.5614401538504494,0.561498340288798
9,0.5607391940487756,0.5604208280642827
10,0.5606245718664593,0.5600635110537211
11,0.5604211504194472,0.5604740129311879
12,0.5602237896786796,0.5602495694557825
13,0.5599455087052452,0.5596025088628133
14,0.5595310174889034,0.5596915793418884
15,0.5591136562824249,0.5585125024318696
16,0.6636265046464073,1.0
17,1.0,1.0
18,1.0,1.0
19,1.0,1.0
20,1.0,1.0
21,1.0,1.0
22,1.0,1.0
23,1.0,1.0
24,1.0,1.0
25,1.0,1.0
26,1.0,1.0
27,1.0,1.0
28,1.0,1.0
29,1.0,1.0
30,1.0,1.0
31,1.0,1.0
32,1.0,1.0
33,1.0,1.0
34,1.0,1.0
35,1.0,1.0
