epoch,loss,val_loss
0,0.3876457698610094,0.3437824315627416
1,0.34417323294613095,0.3440716302990913
2,0.3442238457534048,0.34213719580570856
3,0.3421793388724327,0.34145323862632115
4,0.3416887705657217,0.3413901139497757
5,0.341336409787337,0.34087744988997776
6,0.34107850563526154,0.3414226059317589
7,0.34082314270734787,0.34188362914323805
8,0.3405068097843064,0.3402046306331952
9,0.340046166367001,0.3401633505423864
10,0.33947756470574275,0.33921930819749835
11,0.3387509392698606,0.33850520247220994
12,0.3381095337735282,0.3378374543587367
13,0.3376478739778201,0.3372376020352046
14,0.35039404410123826,0.3387221017678579
15,0.3379954880608453,0.3371498789787292
16,0.33725923192501067,0.3369149740338325
17,0.33708353987667294,0.33651844336589176
18,0.3369773219095336,0.3369126004378001
19,0.3368838247524367,0.33725707987944287
20,0.33951159134838316,0.33854570325215655
21,0.33754404619667266,0.33702600306272507
22,0.337060970849461,0.3366390528678894
23,0.33694019955396654,0.33651591557264326
24,0.3368503257963392,0.3363083613316218
25,0.33672706531153784,0.33608418293793996
26,0.33663475765784584,0.3368607857028643
27,0.3366465546819899,0.33634730223814646
28,0.3366018021040493,0.3377059334317843
29,0.3365356492797534,0.336739687204361
30,0.336468542098999,0.3370728271404902
31,0.3364624640146891,0.3372654024163882
32,0.33642647085587185,0.3360059533516566
33,0.33642007920477124,0.3362460506359736
34,0.33655230385065077,0.3359168558518092
35,0.3363099649614758,0.3358497008085251
36,0.33632432836294174,0.3366023755868276
37,0.3364118650092019,0.3360569396217664
38,0.33630492972665366,0.33607059268156686
39,0.3362743181321356,0.3358078704078992
40,0.33625004116694135,0.335938605984052
41,0.3362499393224716,0.33681293322642647
42,0.3362483280499776,0.3361936606566111
43,0.3362197355363104,0.33571552975972496
44,0.33623820306857427,0.3369514417250951
45,0.33619481601979995,0.33592019993066785
46,0.3362771118548181,0.337449779689312
47,0.33616736180914775,0.33638095448414485
48,0.3361930223041111,0.33732884017626447
49,0.33616242151127923,0.33633431810140607
50,0.3395717917879422,0.3360180138746897
51,0.3363962416781319,0.33630089648564654
52,0.3363105891413159,0.3366573462287585
53,0.3365912272334099,0.3408811111052831
54,0.3369815851913558,0.3364606136282285
55,0.33624155089590285,0.33587888328234355
56,0.33622427278757094,0.335839006225268
57,0.336089126918051,0.33631062956651053
58,0.3361131001710892,0.3359469441771507
59,0.33607165765100055,0.335662907063961
60,0.3360273377299309,0.33587274795770644
61,0.37031098947260116,0.5608637739022573
62,0.5586628003252877,0.5584641055266062
63,0.5581858366595375,0.5593173034588496
64,0.5578565799660152,0.5575118435621261
65,0.5575875954627991,0.5577501967748006
66,0.5575610444678201,0.5578439852794012
67,0.5575123085313373,0.5577135852177938
68,0.5574996012581719,0.5607406925360362
69,0.5574953689045377,0.557948346455892
70,0.5574836482604345,0.5584901741743088
71,0.5574587420490053,0.5578587162097295
72,0.5574433827400207,0.5577029723326365
73,0.5574374330441157,0.5572242670456569
74,0.5574102816051907,0.5572639263470968
75,0.5573769932587942,0.5574826338291168
76,0.5573911316394806,0.5578167472283045
77,0.5573742664655049,0.5573634439706803
78,0.5573573786682553,0.5575661883354187
79,0.5573514946036868,0.5571596084833145
