epoch,loss,val_loss
0,0.5289239119821124,0.5266842004060746
1,0.5266815943188138,0.5264937677780788
2,0.4769251524541113,0.42133288145065306
3,0.42132703957292766,0.42125880030790963
4,0.4212806830803553,0.42129235045115154
5,0.42126286047034794,0.42129633502165476
6,0.4212456974983215,0.4211725485523542
7,0.42123119996653663,0.4212763747771581
8,0.42122537774509855,0.42116020983457564
9,0.4212099055449168,0.42115210407972337
10,0.4212056694957945,0.4212160141468048
11,0.421201570087009,0.42115258816878
12,0.42119676237636144,0.4212053501407305
13,0.4211942728029357,0.4211699430346489
14,0.4211913591490852,0.42116552648941674
15,0.4211920402116246,0.4213596585392952
16,0.42118627161449856,0.4212364278634389
17,0.4211795121166441,0.4211503589351972
18,0.42117954557471804,0.42117021103700003
19,0.4211799017853207,0.4212179137070974
20,0.42117632997698257,0.42113530737161636
21,0.42117592258585823,0.4211732271909714
22,0.42117508335908255,0.421217115342617
23,0.4211788035896089,0.42121161323785783
24,0.42117337802383636,0.4211398920019468
25,0.4211712280644311,0.42115182826916375
26,0.4211726954711808,0.4211489047606786
27,0.4211717378762033,0.42114866385857264
28,0.4211687902145916,0.4211384559472402
29,0.4211675349606408,0.42124351060390475
30,0.4211654270688693,0.4211360768675804
31,0.4211628053387006,0.4212506271004677
32,0.42116522310177484,0.4211606349349022
33,0.42116415833764603,0.42119989317655565
34,0.4211625538468361,0.42117153070370356
35,0.4211597191294034,0.421121680855751
36,0.4211603011422687,0.4211640735665957
37,0.42115500646829607,0.42115764220555624
38,0.4211560993989309,0.42112710334857306
39,0.4211533357964622,0.42114919165770215
40,0.42115348443057804,0.4211609847942988
41,0.4211519417034255,0.4211543351809184
42,0.4211507860620817,0.42113554320732755
43,0.4211514459318585,0.4211340285340945
44,0.42115119919512006,0.42118965925772983
45,0.4211512533360057,0.4211830679575602
46,0.4211501276956664,0.4212214014728864
47,0.4211494220495224,0.4211296062072118
48,0.4211478925678465,0.42113614692290624
49,0.4211483705639839,0.4211362456679344
50,0.42114765248033736,0.42113433971007663
51,0.42114788932932745,0.4211467810471853
52,0.42114728177256056,0.4211216911673546
53,0.4211477864715788,0.4211350812315941
54,0.4211458581884702,0.421122273405393
55,0.4211492143538263,0.42112748352686563
