epoch,loss,val_loss
0,0.5103909873697493,0.5022307023604711
1,0.5023924873537488,0.5002926760911941
2,0.5074189632866117,0.5016774706840516
3,0.5015490830077065,0.5003753618796667
4,0.501227216415935,0.500690631667773
5,0.5038657803138097,0.5013630018631617
6,0.5009953973823124,0.5002466034094493
7,0.5016370154884127,0.5002334800958633
8,0.5014998219543033,0.500447924097379
9,0.5007560275528166,0.5002539168596267
10,0.5026735050280889,0.500564613699913
11,0.500857056538264,0.5008593035936355
12,0.5014917349153095,0.5003702819347382
13,0.500411364449395,0.5004366125265757
14,0.500370177745819,0.5002210302352905
15,0.5011072653929393,0.5054567682743073
16,0.41663320655292935,0.4002423021594683
17,0.4003859119547738,0.4004295592308044
18,0.40045649364259506,0.4002302172780037
19,0.7783267682790757,1.0000000251928964
20,1.0,1.0000000251928964
21,1.0,1.0000000251928964
22,1.0,1.0000000251928964
23,1.0,1.0000000251928964
24,1.0,1.0000000251928964
25,1.0,1.0000000251928964
26,1.0,1.0000000251928964
27,1.0,1.0000000251928964
28,1.0,1.0000000251928964
29,1.0,1.0000000251928964
30,1.0,1.0000000251928964
31,1.0,1.0000000251928964
32,1.0,1.0000000251928964
33,1.0,1.0000000251928964
34,1.0,1.0000000251928964
35,1.0,1.0000000251928964
36,1.0,1.0000000251928964
37,1.0,1.0000000251928964
38,1.0,1.0000000251928964
