epoch,loss,val_loss
0,0.7064249787463083,0.7021214532057444
1,0.7018796823289659,0.7002600180705388
2,0.6106829665501913,0.6002428114016851
3,0.6013354793257184,0.6004544318517049
4,0.6009528455734253,0.6002375637690226
5,0.6005292642911275,0.6005014879306158
6,0.6009559069209629,0.6006333280007045
7,0.9905779956579208,1.0
8,1.0,1.0
9,1.0,1.0
10,1.0,1.0
11,1.0,1.0
12,1.0,1.0
13,1.0,1.0
14,1.0,1.0
15,1.0,1.0
16,1.0,1.0
17,1.0,1.0
18,1.0,1.0
19,1.0,1.0
20,1.0,1.0
21,1.0,1.0
22,1.0,1.0
23,1.0,1.0
24,1.0,1.0
