epoch,loss,val_loss
0,0.5910766456869719,0.5572053936566169
1,0.5310617907463406,0.5086153719788727
2,0.5039932607673854,0.49031964947514095
3,0.4918789227811502,0.4900883659297436
4,0.472339642701672,0.45659302125495327
5,0.4611820970729793,0.4597655914705745
6,0.4601708776097569,0.4565711135750173
7,0.4606116906798678,0.46389626223965574
8,0.461139471185885,0.4623082687191526
9,0.46164286679463734,0.45326423391228465
10,0.4606266501691458,0.45514846834243067
11,0.4605727295001284,0.451914633446753
12,0.46029263027340434,0.46784887718458246
13,0.45937537746108753,0.4534142756984182
14,0.4596800393371987,0.4598188621671047
15,0.4588777250867543,0.45499559248354216
16,0.4593614355457411,0.47019906671957956
17,0.45909232621769414,0.4562991201539206
18,0.45859839281050846,0.45976705758531017
19,0.4578491289845651,0.45318740910857264
20,0.45735822365081624,0.4506240259653557
21,0.45719237443062666,0.4567332525903001
22,0.45748709767364903,0.4487133194350268
23,0.45673258618128787,0.45634011683769565
24,0.4572454918924573,0.45055289792511777
25,0.45646406550279517,0.45029991036107264
26,0.45655426068054,0.45597143494203046
27,0.45675226363589805,0.4549001850012542
28,0.4562930336134065,0.4524374718793697
29,0.4559190897845191,0.4489304399886754
30,0.45649404715212755,0.4533967237983017
31,0.4555451239796998,0.4525764329783431
32,0.4566212003115562,0.4491763650790908
33,0.4563125141197629,0.45033464009744406
34,0.45548702480556297,0.4538315488909283
35,0.4568039953016681,0.4568942074648075
36,0.4561857100579145,0.45078147840229166
37,0.45572182592198407,0.45232045391856995
38,0.45536934089861075,0.45047505300217106
39,0.455644589564722,0.45766826098466057
40,0.4567091318132211,0.4541712538894366
41,0.4574331239140253,0.45591016506529974
42,0.45711189118311635,0.45036219385515264
43,0.45671227682915755,0.45154866556858303
44,0.4561137533765301,0.4534659144942198
45,0.45562697151262727,0.45046154210843986
46,0.455795522078311,0.45186748880732863
47,0.4550541023715579,0.4485510081560362
48,0.4551588436357492,0.4483446395696901
49,0.4537259256057113,0.45269199272818617
50,0.45146834006826814,0.4423799388600092
51,0.45080380276549425,0.44400482647126993
52,0.39377133180801155,0.35430701622030936
53,0.36875722141529294,0.35658412702858977
54,0.3675752219507654,0.358051948352065
55,0.3640117456881498,0.35292953216536493
56,0.3617318241690711,0.34454005168688945
57,0.36188891397608675,0.350639282110157
58,0.3567758458819363,0.34117654550877996
59,0.35180132716202184,0.3347981235455036
60,0.3435378688588154,0.3326173724194223
61,0.3403206792018049,0.337820029340908
62,0.341448407038581,0.33917427266021133
63,0.33594587699378176,0.3289955680146028
64,0.343378307761623,0.34239733127298533
65,0.3526967053560375,0.36127356898465585
66,0.3570342315159577,0.3551468855466479
67,0.36046970407183976,0.3640617187054101
68,0.3545317038046636,0.342032887325573
69,0.367930505564921,0.32143900997253905
70,0.3990140105124184,0.4230787389566525
71,0.3828609923513724,0.2958932336954595
72,0.2528142875628628,0.16284306400545417
73,0.18399133613173535,0.1914206060904946
74,0.1835998580146065,0.18397410908851408
75,0.17032363388040145,0.17300456508522777
76,0.16810868711496374,0.17036850312354598
77,0.16806427712997404,0.1598643248980836
78,0.1663424291396685,0.15152985116184386
79,0.1654100564447902,0.16336865032458828
80,0.16541446870367368,0.15096722954139416
81,0.16395550716617663,0.15523450228854688
82,0.16634668833952698,0.14968856906900538
83,0.1647581526274391,0.14674368654192702
84,0.1637813706305907,0.14977570318610128
85,0.16348434092582848,0.16050854281787455
86,0.16409142067830404,0.15060194851853262
87,0.16228723371501347,0.1519447528702016
88,0.16193495159618276,0.1556642675849353
89,0.16154749399488025,0.1647612378545051
90,0.15983479348323745,0.160068061882562
91,0.1605045566882631,0.14003358275568398
92,0.15899469620220846,0.14269814979275938
93,0.15691779550609347,0.13297390316017063
94,0.15585960417365533,0.1438185828288493
95,0.15837763631649263,0.14516720891192206
96,0.16037768611104322,0.14960645167617806
97,0.15757632209323616,0.14656106977204628
98,0.1561732954823608,0.14200765521107703
99,0.15398800314618072,0.1425450250917301
100,0.15399405236741465,0.14728463882246542
101,0.1565121871272357,0.15708628828604823
102,0.15344096096851426,0.13362841902713127
103,0.15616614707082724,0.12850078824977032
104,0.1499203316348376,0.13098178669774038
105,0.14843731005195143,0.12112038029057169
106,0.14573371626609702,0.1261104164827866
107,0.1425463891565036,0.12810730770387402
108,0.14387198706702578,0.11878182792798929
109,0.14214304327559146,0.1443206010037385
110,0.1415983304423127,0.11547991111935006
111,0.14064593226302138,0.14234763583272622
112,0.14163113407212033,0.12450091755327324
113,0.14210287418613154,0.14100781628153522
114,0.14130782303187825,0.11161428827728959
115,0.1408948435860457,0.11217943034516246
116,0.14475328494922174,0.12018619150237542
117,0.14230537608122712,0.11780167605489227
118,0.14919027999294004,0.15213124780324253
119,0.15025261900811981,0.13592402046034227
120,0.14595814803249843,0.1571560911985306
121,0.14820794420864125,0.13448855254288525
122,0.1514513230412077,0.15450655522137663
123,0.1544164225363655,0.1431639608470096
124,0.1585499308854222,0.1287043096810362
125,0.15293437763273096,0.1642048412696772
126,0.16092922499446605,0.14751923895181918
127,0.1626460715991149,0.13582490976153597
128,0.16592755768779185,0.1581617962970834
129,0.1770158532807071,0.1497680709575698
130,0.17310882230297484,0.15824336797869118
131,0.15666973078735263,0.17897310628218083
132,0.18204153125421155,0.14952873400528066
133,0.20373489876524556,0.19887759844075348
134,0.20027187879714037,0.288088457101453
135,0.23215417154103493,0.1512179569509681
136,0.2116154435100414,0.2885952905025892
137,0.2655415287117561,0.17665107433426602
138,0.1681944787907925,0.16977447589190142
139,0.17692110095146277,0.1492033747522597
140,0.17199279003447776,0.21040402354018434
141,0.17102423465077737,0.1743963505447346
142,0.19531560325033193,0.1550653405360642
143,0.15408917071165038,0.13004467587401397
144,0.1377693526387167,0.1123227674305584
145,0.13013735408182617,0.12580458079642237
146,0.1299043647539291,0.10136179398180312
147,0.13312638307615124,0.11745598451789568
148,0.13413353771675196,0.11659051365515902
149,0.13241362187555067,0.10792482784508885
150,0.13464640442422143,0.11863087327955993
151,0.1323240758438078,0.12882098753159354
152,0.12857233828680814,0.1549683808132293
153,0.1323036250380204,0.12980229126565937
154,0.13459439812492047,0.11150350037959177
155,0.13506028026915054,0.11941194258152907
156,0.13658963871584404,0.09641362012447811
157,0.13795669270072392,0.13425027791165958
158,0.1416309021049447,0.13806255733396403
159,0.14744597924552602,0.14218719206321365
160,0.156533795895817,0.1276594181541302
161,0.13923418152334693,0.1213420679292733
162,0.13865111263586674,0.11120945825532308
163,0.14091769360405526,0.14832046855806047
164,0.1407795907516447,0.13165282337818315
165,0.14006033437169962,0.13460316704185823
166,0.1428527432300741,0.1265599430513788
167,0.14780169666063986,0.11063390475941787
168,0.14923721772907161,0.135482165234319
169,0.16106185899843112,0.12609818042992385
170,0.15521914866850603,0.1475762144722111
171,0.18021324749370876,0.11842274265809458
172,0.15797941874059512,0.15396233136854032
173,0.17319862643261258,0.17299918430371683
174,0.16817901833199136,0.15832469734421417
175,0.1778258945616939,0.15597729796403226
176,0.17158846887017937,0.16719432554033262
177,0.18621150040931947,0.15647364520775237
178,0.16975648689558737,0.17142654158966578
179,0.1717008157037467,0.15985205677690684
180,0.19520784444432912,0.18380920987784719
181,0.15503192287955503,0.13861327560955397
182,0.14504136564471037,0.14962420291709203
183,0.1406952938239416,0.13361339164113767
184,0.1347963710586198,0.11738877581539718
185,0.13131157204425267,0.12482909701118021
186,0.1303172856509638,0.13312930821623148
187,0.13042267453107384,0.1134996981951442
188,0.13686657377523934,0.13581583902711125
189,0.1344402677672591,0.11548042768689548
190,0.13300288761790702,0.14254091388794435
191,0.1344174934958247,0.1076725191781894
192,0.13015665833929999,0.10977448556883396
193,0.13565632539858716,0.12688241323753768
194,0.1364544746193817,0.12853823521832383
195,0.13446122285476725,0.1374417062114625
196,0.14073346975782186,0.13807180227178534
197,0.14429242343450185,0.11180532935157793
198,0.12726835894575111,0.12741045819388497
199,0.1320765266915242,0.09644402437280661
200,0.12887209584955886,0.1292444354184546
201,0.13195477006099432,0.12253022103873289
202,0.13714341748896552,0.12872715944549656
203,0.1374254491004207,0.10979130728788136
204,0.1336600251340742,0.11344784197291029
205,0.13883240084895332,0.13332243195439583
206,0.13694086825971702,0.10310763379880691
207,0.13752275433024472,0.1127743200011497
208,0.1433852979416748,0.10852373103155707
209,0.15495970725022953,0.2055996688806421
210,0.15394792548888583,0.14243664782243537
211,0.1687020178469684,0.12019507512027233
212,0.15393439681530954,0.16581748819940959
213,0.1581289656132197,0.20763224915624728
214,0.16770698827765196,0.18644561697725157
215,0.16038598206111962,0.11920927544120648
216,0.1618932003350712,0.13273780564539625
217,0.16259414007703812,0.15002119351429177
218,0.1616045011191057,0.11555726844923146
219,0.17476720958232306,0.17031751412955706
220,0.1729724134525077,0.16919376472100336
221,0.16813495750125165,0.1571584913429456
222,0.17296933265234396,0.14814891646233208
223,0.16400116443144883,0.1511941219937579
224,0.17595650123848353,0.15818458402775595
225,0.17203812634317373,0.15703266516436626
226,0.16403935439258313,0.14415346953144714
227,0.17146029164664167,0.15887792372814738
228,0.17580841073066927,0.1667742829978321
229,0.16918076037931098,0.1564364187836357
230,0.1696601733296895,0.13518007760089487
231,0.18261100189556018,0.14731202635911067
232,0.1685313255734163,0.16736802155422373
233,0.17961048116509298,0.16238000339980252
234,0.17496715666796323,0.1537879328670196
235,0.176527680398179,0.1783733233048098
236,0.1709418014419661,0.16003734687311516
237,0.17173933978375194,0.16293859747687878
238,0.167333123491133,0.18969927087655805
239,0.17161683740916014,0.1563490625812286
240,0.1691897684324971,0.15989139096000188
241,0.1712327151387047,0.15352758291477317
242,0.17961910100365944,0.20797832918089768
243,0.1705822639728041,0.15363408697637618
244,0.1727153295882231,0.151225508498111
245,0.16867737366174393,0.1669245608338281
246,0.17016583886012446,0.15082768703125785
247,0.17567385745058067,0.1524802695926572
248,0.17883487539686518,0.16321937612349294
249,0.17515933471288178,0.1694233477454019
250,0.1675084692458089,0.1486247000794341
251,0.20582106832662422,0.2765783414498443
252,0.24778086247684672,0.12994970575228804
253,0.17355299183876635,0.16821780278734919
254,0.12875577863201415,0.09525374382951834
255,0.15914946571111774,0.13971983489111392
256,0.13566620929168166,0.11039504965363918
257,0.09761477348725017,0.06913436043762812
258,0.08257504066137718,0.05765768652970677
259,0.07856835304998798,0.0599947313068847
260,0.07797824317593877,0.057603560342768395
261,0.07764103855666302,0.07474465025264078
262,0.08795763622280404,0.08460936192589277
263,0.09148198076552921,0.0756736503791635
264,0.09180412616571777,0.08443074040145093
265,0.10668537647778793,0.12172287000405141
266,0.13985883253063555,0.14401091554860032
267,0.19662408899065492,0.20064366695267924
268,0.16047561765790844,0.13513034206889843
269,0.13455076745932726,0.11736703908187243
270,0.13312889479273696,0.17936427639880417
271,0.12111391900502462,0.1211730613821131
272,0.13419813912114303,0.12811229665010612
273,0.1427322264859159,0.14967700381010215
274,0.15539238851568143,0.17982520163059235
275,0.15221321113926586,0.1365689746824011
276,0.14548194412294152,0.14201739769419905
277,0.13976763531541805,0.12609554058588915
278,0.13776508829980683,0.11703719011986052
279,0.1268910227613367,0.11735380306803687
280,0.12885535718967095,0.12491194590841573
281,0.1266793592827763,0.10334222531739233
282,0.12369678764521265,0.12374873752407398
283,0.12422363980530833,0.14113932293866188
284,0.1266512998474465,0.10917748874000485
285,0.12677963966245742,0.11892720842424294
286,0.12597709916251673,0.1002546983007387
287,0.12223134676905706,0.12155407071959556
288,0.12706481578876916,0.10987852163316753
289,0.12380215685495478,0.10674520502802036
290,0.12684234180111137,0.10342447590218844
291,0.13038931310988122,0.11659711792714597
292,0.1257001547406825,0.12710220715981232
293,0.12455894678437394,0.11024546952554103
294,0.12559036392154838,0.1226043313657087
295,0.1263016482369245,0.11510848305327856
296,0.12494715898513221,0.1352276999838741
297,0.12645265683710719,0.10922660553542367
298,0.1264754357554609,0.09912290573966087
299,0.1269483721708421,0.1252676963576532
300,0.1292683796806513,0.10870521218309727
301,0.12815025818047282,0.11282716912654775
302,0.13067203498571467,0.10894116838458874
303,0.12919033648933861,0.102149245573173
304,0.13692588959518578,0.13307960125385795
305,0.1331070290686036,0.1089559370608032
306,0.12748301354608982,0.12175416195914693
307,0.12820856285999543,0.12059794695079569
308,0.12973060029103242,0.10933657158513622
309,0.13154434361118522,0.12414051738582002
310,0.13017861723744745,0.1507189911031085
311,0.12671044946396895,0.11841798433543026
312,0.13018572040862614,0.10115870017035647
313,0.13020394610358868,0.11317955098278815
314,0.13384264271208246,0.12739998941511424
315,0.13570354532918708,0.12628727670326914
316,0.13729126021576177,0.11758715299238351
317,0.13587504823366292,0.12803909283460685
318,0.13554289211050047,0.14032480307376588
319,0.13796513555966633,0.13280924719615575
320,0.1347149540368226,0.12353270836869393
321,0.1340196056155752,0.12311088948813474
322,0.13683679326473952,0.13423587018072558
323,0.13722455200311945,0.09309024868316991
324,0.1387724295359931,0.09981388223432276
325,0.13619387369629762,0.12678025781939112
326,0.13420617684208935,0.11737619428642378
327,0.14087252218941387,0.13167317388677444
328,0.1434867293137708,0.13510958791165842
329,0.14074790912618437,0.126853701183444
330,0.14161116385860764,0.11891875301230176
331,0.1470217510664148,0.14814095138077416
332,0.1486764835347358,0.1360247765712301
333,0.14902109770869332,0.14581435083110256
334,0.14701454308304526,0.1223983405896637
335,0.14104051586744593,0.1638357926459208
336,0.14911468863021954,0.13769215008807395
337,0.14361908906598012,0.13095879884676923
338,0.14830410983070458,0.15770515234535146
339,0.14833366374274173,0.1361041334182
340,0.14959691787918536,0.13655090304235085
341,0.1556627489835191,0.13744507566251507
342,0.1510787904769588,0.13389372913240902
343,0.15655872323591294,0.13740675283077763
344,0.15392180573078898,0.1411704618335737
345,0.15659360322740384,0.13739351076221235
346,0.15841581187456297,0.1591497107325099
347,0.15700861935118277,0.14860794895055907
348,0.17363867700827704,0.15346166005075607
349,0.21025205461727417,0.27195580729071145
350,0.21791370492503107,0.11731746144417525
351,0.13313360644386615,0.14690157212165925
352,0.1347702137940974,0.12687792418719498
353,0.1368779623068219,0.12307518959311287
354,0.13261737648525937,0.11963530611745342
355,0.12887237480192112,0.11289804185901535
356,0.128041840523028,0.1180293633567059
357,0.12286290047978095,0.10014606093789925
358,0.12767550887598145,0.09841271380486763
359,0.12726278217126122,0.09984793423977888
360,0.1279681385446301,0.12528078809731005
361,0.1334794166567232,0.12089327606769083
362,0.12996892450605516,0.12071718019943167
363,0.13101621472639882,0.13514424164969072
364,0.12739152538241913,0.10141367282769782
365,0.1292955051150152,0.10789225714557653
366,0.12634842221537906,0.11597770613233732
367,0.12685450675745932,0.10575402691198961
368,0.12888014145356547,0.10621169167181775
369,0.12946545992425387,0.11433832611456599
370,0.13309876618383407,0.12356035920752806
371,0.12865033091677486,0.12186918480190337
372,0.1287288712598592,0.12118467938121702
373,0.13200950323700236,0.12890032355561068
374,0.13477731910679605,0.13079987440351926
375,0.1371294061472122,0.11250490842074373
376,0.13703512551309205,0.12531961986473297
377,0.1355965155168616,0.1331405868785515
378,0.13765336381341572,0.14047155221690033
379,0.14614069704905905,0.12456686766961679
380,0.1406092368621078,0.12175322369357386
381,0.14411734122994713,0.13486938079439909
382,0.14699580028855963,0.13217081235901476
383,0.1494192165300978,0.1451932565767593
384,0.15815745376414353,0.1690391062155354
385,0.17808271668630662,0.16577317728226687
386,0.17113216674392276,0.12913896976112835
387,0.16616902194076102,0.1736620828352222
388,0.15061862129357168,0.14871800077560948
389,0.16940031251351867,0.12402963434668546
390,0.14554554181661103,0.16630399598764967
391,0.14773808118459986,0.15519203620283756
392,0.14392968672838471,0.10736583978155234
393,0.15315277444674455,0.15744115621310759
394,0.15026876055974786,0.18585905427866994
395,0.1530686186893498,0.13573008442157086
396,0.15636394978213825,0.14900003859451508
397,0.17830235703443412,0.14157110619428964
398,0.16634515328131455,0.1472968516171897
399,0.15171891818340535,0.18425823647803827
400,0.18740001954048802,0.24706564739721149
401,0.23202342971312323,0.17483708476353155
402,0.16004056271144732,0.14687596494747387
403,0.1636882456835267,0.10845747918784861
404,0.15944658734912487,0.1496714923624478
405,0.1545652892467401,0.16761405040892952
406,0.1557481251955271,0.13336921094736237
407,0.20994895489944565,0.13525275937421286
408,0.15803004764885403,0.10652104110154116
409,0.15356663011724325,0.1553515333377145
410,0.16520920483838375,0.18842543691203348
411,0.16855496885754567,0.13833722160390405
412,0.15919458502239947,0.14239142876834474
413,0.17131511995000684,0.14483837376062403
414,0.16389327458112693,0.15427778746452356
415,0.1641298563266583,0.1637226079876889
416,0.16211819139907988,0.15179947437378613
417,0.16928353581765446,0.168479397977549
418,0.19966058317330287,0.1436293150712974
419,0.1679689495371665,0.14905420446652082
420,0.1679954182973998,0.1644721027563378
421,0.16660520025462605,0.15010787625793318
422,0.17015019274526258,0.1346080143364193
423,0.16655921919332495,0.13635737531110706
424,0.1641770440688412,0.13147657848622676
425,0.1704259643061243,0.16140003378494716
426,0.16410839861874776,0.18347653026321703
427,0.17246740947576691,0.15038337034006383
428,0.17437800907606693,0.14432207620056875
429,0.17221770435869932,0.14785574617684613
430,0.1639632686668391,0.14916250481899443
431,0.17589779345809317,0.17429030887836958
432,0.17598232351917567,0.22651886947253616
433,0.17162617551292583,0.1661873364221344
434,0.16475753177157204,0.1339360996839097
435,0.1772943494425381,0.19318627845873604
436,0.17980346567421746,0.17012321604574393
437,0.17050389186132422,0.1656468033983953
438,0.17590442811361878,0.1611920572388298
439,0.17389886771993127,0.16213529795069861
440,0.18114691510724965,0.15220503638357238
441,0.17660344974566594,0.15652976062417706
442,0.1706595546733722,0.23057502980698247
443,0.20364282344631238,0.25528515196146273
444,0.17408920317184362,0.25228752216380107
445,0.17971126656469294,0.197643932526129
446,0.1744986965602116,0.15805643932276012
447,0.1843210285793456,0.14943660735262185
448,0.17383180904366952,0.16043652191045124
449,0.18311905211883128,0.16358609396030724
450,0.18828964520624583,0.1518330779666835
451,0.17030294791901943,0.2151358749744666
452,0.1809548747250803,0.24196914993740154
453,0.18973835616456786,0.1614083794382947
454,0.18181155159103096,0.15646807687464326
455,0.22336613672604266,0.288447788077356
456,0.12646822156078869,0.06958207961803321
457,0.08363255975489095,0.08548122116297314
458,0.08766754292506423,0.0703800066078908
459,0.08389154102823274,0.07453681726767006
460,0.08741060237409927,0.09887347153455188
461,0.08749848382593728,0.05721924370585277
462,0.0860605428086294,0.08226237377485703
463,0.08875741929358678,0.07934988130847806
464,0.08705643867944077,0.06281066443604952
465,0.08794654894760363,0.07838990188234721
466,0.09455886885696788,0.09140525407793071
467,0.09686317624713632,0.09762723490728756
468,0.11385225531778591,0.12195503810799808
469,0.14128259919565903,0.13208357287028508
470,0.1514252922337374,0.13935606149595536
471,0.15787923806686227,0.1318367894282693
472,0.16458158890863625,0.15158974824039703
473,0.17299007406954864,0.1588007661922618
474,0.17162972042938057,0.1543089452366566
475,0.1742132379471349,0.1579709568960533
476,0.16309065377717022,0.1537541657420357
477,0.1613552314643148,0.14984093375642998
478,0.16287742154575807,0.17547350014890004
479,0.16187868819976922,0.1492005321956319
480,0.16019657815846086,0.16193517292672216
481,0.16101755398371106,0.14898799522345568
482,0.15621608228171416,0.1417436991294805
483,0.15693640702958103,0.14366941192071803
484,0.16367518702287784,0.1817699383766015
485,0.17278758478198078,0.13168318411342902
486,0.15592556765632595,0.1372829785710994
487,0.16998123827042153,0.162138130283172
488,0.21148395321791988,0.22972607449458463
489,0.17545504058846195,0.14833619629258754
490,0.15530209380199758,0.1339465334455559
491,0.1480591375711825,0.14975582478932029
492,0.15283133391681625,0.2020957408546918
493,0.23024535685288514,0.1526730847087993
494,0.196350085582611,0.21599041198630306
495,0.17970811036095513,0.1377331642653047
496,0.18485964290958773,0.1508465923266206
497,0.22374831734178924,0.14212240319810837
498,0.14188097076441308,0.12072858931035987
499,0.1296546384036016,0.1412016992235899
500,0.13441313593219623,0.13592138825421013
501,0.1345701477407598,0.10949239222406858
502,0.13583838637825774,0.12653372992685144
503,0.133713775931047,0.12918861200677992
504,0.1330079474360395,0.11033353349684895
505,0.13151665509128876,0.13352402226526566
506,0.13020852647178932,0.10554587661567395
507,0.12795214535738583,0.12231585616057034
508,0.12897747463648848,0.1295690859659648
509,0.1309111178953281,0.10162494572699796
510,0.12801092462517244,0.10967694306919851
511,0.13097921133136825,0.09798170351223161
512,0.12744589301468945,0.1121576679666547
513,0.12908107161319093,0.12938968730306394
514,0.13493835987199584,0.1262354104442028
515,0.13375940152687774,0.11918823677209558
516,0.12988926670413384,0.10887095933993077
517,0.12768337278782702,0.11386270788464233
518,0.1289561230292599,0.1101364009716795
519,0.12585433754470465,0.10715967842769739
520,0.12560042028753066,0.14773365724091594
521,0.12531316219817837,0.10067137833518511
522,0.12208994382692634,0.11171703879923137
523,0.12557721220320756,0.10600553402210385
524,0.12276725113403807,0.09579433860001967
525,0.1221250330446194,0.12435300086850765
526,0.12521445147806495,0.11326449424245932
527,0.124186218274031,0.10357747383457998
528,0.1309703145208981,0.11350667568502248
529,0.13234706146357725,0.11276491606926782
530,0.13165549107128569,0.10284739264739498
531,0.1282553019716417,0.09021194170728411
532,0.1269726128764063,0.12263426927899503
533,0.1263731908354404,0.11281604768175085
534,0.12531026835449702,0.10224973875651587
535,0.12732569118432277,0.14469099635166166
536,0.12757428882835958,0.13294186831632476
537,0.12540839354189232,0.10102841920927107
538,0.131547028110851,0.12030674250069809
539,0.1310442881173998,0.12080124024806328
540,0.13064185154733896,0.13456514291616348
541,0.12923350845805828,0.11734919202878817
542,0.1316125573749968,0.1160830039733421
543,0.12970650965292707,0.1350069962629243
544,0.13195998417892105,0.13162501401661472
545,0.13311218105859046,0.14167309180808474
546,0.1316318727442152,0.10354745189228004
547,0.13636109083175085,0.12801071560948435
548,0.13145486448255417,0.11697455308273955
549,0.13578960710496688,0.12577499562250533
550,0.13750863985551462,0.11767180155228524
551,0.13678527017346948,0.12595977603374026
552,0.1371584082420489,0.14744753197790256
553,0.14151754442921535,0.12940201147581057
554,0.14028411149215086,0.12207166976253868
555,0.14695581465697077,0.15411046580604104
556,0.18181995858697056,0.1441374885315636
557,0.17094521810583252,0.15771634323221828
558,0.18945663137207802,0.19122106285232504
559,0.18343995629345253,0.1679738786521716
560,0.18510505072683026,0.188745747046169
561,0.19467305154610481,0.15804459423503542
