epoch,loss,val_loss
0,0.6685524115694894,0.6673560000658035
1,0.6670669436852137,0.6667041698296865
2,0.591758962949117,0.5556069451967875
3,0.5556140430635876,0.5555772113800049
4,0.5556968061526616,0.5555744320948919
5,0.55564500368966,0.5555831423600515
6,0.5556837244563633,0.5555804939270019
7,0.5556439673900604,0.5555966977675756
8,0.5555954999128977,0.5558158518075943
9,0.5556185121006436,0.5555909978151321
10,0.5556003036499023,0.5555995161135991
11,0.5556153481536441,0.5555840746959051
12,0.5556140126387278,0.5555822335481644
13,0.5556117917961545,0.5555738689899444
14,0.5556018762058682,0.5555850673913956
15,0.5555995179414749,0.5555727932453155
16,0.5555985795127021,0.55557972184817
17,0.5556059423685074,0.5555778178771337
18,0.5557107332547506,0.5555776991049448
19,0.5555890621344248,0.5556032280524572
20,0.5559117525815964,0.5555761758089065
21,0.5555898399882846,0.5555831967989604
22,0.49232404864496654,0.44447772240638733
23,0.444482385052575,0.4444846970240275
24,0.44453033167786066,0.44446653495232263
25,0.4444825980199708,0.4444741603334745
26,0.4444994830555386,0.44446355060736337
27,0.4444791586995125,0.44447295290231703
28,0.44448878624041877,0.44447248739004136
29,0.4444802199602127,0.4444668557246526
30,0.4444836187495126,0.4444700811902682
31,0.4444805069367091,0.44447126032908757
32,0.4444815364877383,0.44447504305839536
33,0.4444815765089459,0.4444761674602826
34,0.44448136142227385,0.4444671408732732
35,0.4444788460003005,0.44446372310320537
36,0.4444768388205104,0.4444852782289187
37,0.44448138998614417,0.44446858648459114
38,0.4445015148454242,0.44446445324023565
39,0.4444729796051979,0.4444761467377345
40,0.4444798150261243,0.444467997888724
41,0.4444822183913655,0.44446408180395763
42,0.44448235224352944,0.44446593141555785
43,0.4444754911330011,0.4444706913232803
44,0.44448576460944283,0.44447447069485985
45,0.4444754988816049,0.4444705624183019
46,0.44448057525025475,0.44448592605193454
