epoch,loss,val_loss
0,0.4477834370467398,0.4444943297505379
1,0.44464268269141516,0.4444940529266993
2,0.4447336785064803,0.4445223516821861
3,0.4446211093465487,0.4444938201705615
4,0.44463009552823174,0.44449142467975616
5,0.44460395524899166,0.4444920798540115
6,0.4446169574128257,0.44449134743213653
7,0.44459095817804334,0.44449271976947785
8,0.444586587217119,0.4444931125243505
9,0.44458412002192604,0.44449296963214874
10,0.4445614201227824,0.44449164263407387
11,0.44457867474688423,0.44449108342329663
12,0.44457264363765714,0.4444916607141495
13,0.444574538939529,0.44449132110675177
14,0.44456629610061643,0.4444912234743436
15,0.44458038864533106,0.4444919044772784
16,0.44454970198869703,0.44449202823638917
17,0.4445612895157602,0.4444915901819865
18,0.444561686721113,0.44449160198370613
19,0.4445518548621072,0.4444914108713468
20,0.4445602970321973,0.44449112792809803
21,0.4445630302561654,0.44449155137936275
22,0.44455711631642447,0.44449986320734025
23,0.4445555433895853,0.44449321895837784
24,0.4445562338762813,0.44465382826328276
25,0.44454892161157394,0.4444914902647336
26,0.4445516259007984,0.4444920490781466
27,0.4445629845658938,0.4444910336931547
28,0.4445460135340691,0.4444911526242892
29,0.4445575975643264,0.4444912748535474
30,0.4445552061465051,0.4444935694336891
31,0.44454133168194027,0.44449169681469597
32,0.44455277805195914,0.44449111221234006
33,0.4445432697998153,0.44449117467800775
34,0.44454461861981287,0.4444914997021357
35,0.44454590759674706,0.44449204806486764
36,0.4445588813026746,0.44449187350273134
37,0.4445496806436115,0.44449286031723023
38,0.44454702403148016,0.4445252084732056
39,0.4445480545229382,0.4444911745389303
40,0.4445392588112089,0.44449214287598926
41,0.44455071819490855,0.4444911469419797
42,0.44454263418912887,0.44449112164974214
43,0.4445417983995544,0.4445066164334615
44,0.44454497887690864,0.44449231390158334
45,0.44454170951578353,0.44449144222338993
46,0.4445419489476416,0.44449836281935373
47,0.4445325500236617,0.4444916626214981
