epoch,loss,val_loss
0,0.7790734569761488,0.7777971514860789
1,0.7778911125527488,0.7777968311707179
2,0.7778785999483533,0.7777972504297892
3,0.7778607571257485,0.7778016939163208
4,0.7778500658803515,0.7778303493261337
5,0.7778479037417306,0.7777977908849716
6,0.7778503197961384,0.7777973322868347
7,0.777844361477428,0.7777972240050633
8,0.7778462805880441,0.7777973399559657
9,0.7778419160842895,0.7777972474098206
10,0.7778427493174871,0.7777983052333196
11,0.7778392313321432,0.7777971937259038
12,0.7778398234976662,0.7777972616354625
13,0.7778375012079874,0.7777972381512324
14,0.7778359473546346,0.777797193924586
15,0.7778337610695097,0.7777972350915273
16,0.7778421725564533,0.7777972217400869
17,0.7778375087844001,0.7780138250986735
18,0.7778296755419837,0.7777972494363785
19,0.7778399365345637,0.777797214905421
20,0.7778366765313678,0.7777972744305929
21,0.7778396791087256,0.7777979344526926
