epoch,loss,val_loss
0,0.6679261443217596,0.6667117083470027
1,0.6668924709028667,0.6666975670258204
2,0.6082370795408885,0.5555947070519129
3,0.5557470919688543,0.5555943705240886
4,0.5557244254483117,0.5555945509672164
5,0.5556965061426162,0.5555993524392446
6,0.5556929540104336,0.5555944888194402
7,0.5556928494638866,0.5555944448709488
8,0.5556878739330504,0.5555944199959437
9,0.5556843351655536,0.5555946541229884
10,0.5556739158233007,0.5555944479306539
11,0.5556816044251124,0.5555945129791896
12,0.555668301873737,0.5555945301453272
13,0.55567490556505,0.5555944367249807
14,0.5556826344066196,0.5557171248992284
15,0.5556645513772964,0.5555944074789683
16,0.5556683447493447,0.5555944030284882
17,0.5556596836381489,0.5555944485267004
18,0.55565415555901,0.5555945616563162
19,0.5556615580320359,0.5555944431622823
20,0.555658506737815,0.5555975474913915
21,0.5556533458497789,0.5555944624344508
22,0.5556591498719321,0.5555946157773336
23,0.5556570907566283,0.5555944668054581
