epoch,loss,val_loss
0,0.6676153346300125,0.6666961417198182
1,0.6668389983442095,0.666695869922638
2,0.6668207440243827,0.6666958061059316
3,0.666803661359681,0.6667334010998408
4,0.666794389989641,0.666696195046107
5,0.6667700918118159,0.6666957780520121
6,0.6667728223403295,0.6666960579156875
7,0.6667672739691205,0.6667458375692368
8,0.6667727293570836,0.6666958502928416
9,0.666773062494066,0.6666958606243134
10,0.6667594595485263,0.6666958035230637
11,0.6667666072183185,0.66669580133756
12,0.6667496305704117,0.6666957972049713
13,0.6667554052670797,0.6666965498924255
14,0.666750359137853,0.666695895155271
15,0.6667485800451702,0.6666957876284917
16,0.6667599467304017,0.6666958652734757
17,0.6667496419350306,0.6666958339611689
18,0.6667483530839284,0.6666957757075628
19,0.6667361651394103,0.6666958461602529
20,0.6667470938629574,0.6666958124637604
21,0.6667427926990721,0.6666957670450211
22,0.6667523972325855,0.6666957981189092
23,0.6667440843317244,0.6667183614571889
24,0.6667447589635849,0.6667152597506841
25,0.6667374871174494,0.6667636595567068
26,0.6667480321857664,0.6666957988739014
27,0.6667417278952069,0.6666966364383697
28,0.6667401045825746,0.6666957645813624
29,0.66674094692866,0.6666958024899164
30,0.6667433041466607,0.6666957641839981
31,0.6667417053646512,0.6666958256165186
32,0.6667436209784614,0.6666957892974218
33,0.6667406709988912,0.6666958522796631
34,0.6667382387850019,0.6666957790454229
35,0.6667448035081227,0.66669575548172
36,0.6667305410835478,0.6666958193778991
37,0.6667450874116686,0.666695860783259
38,0.6667393788496653,0.6670617557366689
39,0.6667393583721585,0.6666957539717356
40,0.6667374562687344,0.6666957702239354
41,0.6667406993707021,0.6677860211928686
42,0.6667352701160643,0.6667125425736109
43,0.6667325760523478,0.6666957721710205
44,0.6667367118332121,0.6666961717605591
45,0.666738278693623,0.6666957753101984
46,0.6667387324836519,0.6666978581349055
47,0.6667405052847333,0.6666957677205404
48,0.6667304400205613,0.6666957908868789
49,0.6667434708939658,0.6666957899729411
50,0.6667351423369514,0.6666957981983821
51,0.6667361078262329,0.6666957736412684
52,0.6667320183648003,0.6666958257357279
53,0.6667390019098918,0.666695818901062
54,0.6667339937951829,0.6667719383239746
55,0.6667381054692798,0.6668900091250738
56,0.6667357519070307,0.6666957869529724
57,0.6667366793817944,0.666697366197904
58,0.6667365789148543,0.6667022999127706
59,0.6667375266816881,0.6666958039999008
