epoch,loss,val_loss
0,0.4468423124750455,0.4449797363479932
1,0.44513362997108036,0.44507886640230815
2,0.44500585295094386,0.4449267237583796
3,0.44495754664474063,0.4448399266799291
4,0.444910692387157,0.4448310010433197
5,0.4448997750547197,0.4448294111887614
6,0.44487693193223743,0.44478999183575313
7,0.44487625671095316,0.4448754513661067
8,0.44485886019468307,0.4447730305592219
9,0.44485152843263415,0.4447818384170532
10,0.444838645418485,0.44486731364329657
11,0.4448352961473995,0.4448116452097893
12,0.4448290629585584,0.4447955841620763
13,0.4448239036069976,0.4447756853501002
14,0.4448319405118624,0.4448013986349106
15,0.444823581053151,0.4447558219631513
16,0.4448225237793393,0.44479851897557576
17,0.4448168733649784,0.4448133062124252
18,0.444821187251144,0.4448584013779958
19,0.44481496264537174,0.44474953043460846
20,0.4448250962363349,0.44491896841923395
21,0.44481884917947984,0.444806028564771
22,0.44481216798226036,0.4447864540219307
23,0.44481578302383423,0.4447946629325549
24,0.4448147519694434,0.4448042266170184
25,0.4448173841436704,0.44476182488600413
26,0.44480955411990486,0.4447594522237778
27,0.4448084080749088,0.4447513829867045
28,0.44480841774410673,0.44478114330768587
29,0.4448067465159628,0.4447522145708402
30,0.44481114670303135,0.44474030286073685
31,0.4448099186817805,0.44489262127876283
32,0.44481263476610183,0.44475666002432507
33,0.4448071928554111,0.444755238811175
34,0.4448094045718511,0.4447480756044388
35,0.4448025022082859,0.4447660994331042
36,0.44480159861511653,0.4447580778002739
37,0.4448039181166225,0.4447789862950643
38,0.4447994061509768,0.4448154810269674
39,0.4448047015733189,0.4447945251464844
40,0.44480341086784997,0.4447396916548411
41,0.4448017046848933,0.4449325532515844
42,0.4447996448609564,0.44474511953194934
43,0.44479682887262767,0.4450039814710617
44,0.4448010545902782,0.44474529212713243
45,0.4447975393599934,0.44473764423529305
46,0.4447955151796341,0.444921883781751
47,0.4447965170476172,0.44476117950677874
48,0.44479642133580316,0.4447845359444618
49,0.4447935547563765,0.4447509010831515
50,0.4447954800658756,0.44474280486504236
51,0.44479335001442166,0.4448061450322469
52,0.44479403386513394,0.4447501995762189
53,0.4447922566400634,0.44474363378683723
54,0.4447901376022233,0.44482596989472706
55,0.444786743051476,0.4447537485957146
56,0.4447902974287669,0.44491092199087146
57,0.44479295454422635,0.44473553425073625
58,0.44479136164320837,0.4449276374578476
59,0.44479133164220386,0.4447486645380656
60,0.4447907625105646,0.44474517238140104
61,0.44479104859961405,0.4447771325707436
62,0.4447915195160442,0.4447427619894346
63,0.4447889968355497,0.44475992864370345
64,0.4447905370328161,0.44473530636231107
65,0.44479121696949003,0.4448377171754837
66,0.44479223979843985,0.44477028453350065
67,0.4447872685458925,0.44473884282509485
68,0.4447885454032156,0.4447303750514984
69,0.4447866201599439,0.44475963215033215
70,0.4447934416797426,0.44481437597672147
71,0.44478757698668375,0.44474441464742026
72,0.4447886700961325,0.44474043482542036
73,0.4447894752820333,0.44472581777969994
74,0.44478703234593076,0.4447360032995542
75,0.4447855929401186,0.4447608002026876
76,0.44479140042596393,0.444734831849734
77,0.4447871680657069,0.4447888344923655
78,0.44478924399614334,0.4447616313497225
79,0.4447881055937873,0.44484576803445813
80,0.44478977932532626,0.4447984188596408
81,0.4447846795717875,0.4447642286022504
82,0.4447897045612335,0.44473703908920287
83,0.4447923487159941,0.4448062051137288
84,0.44478840080897014,0.4448004191915194
85,0.4447861565219031,0.44474754814306894
86,0.44479324885209404,0.4447565974593162
87,0.4447875675426589,0.44477858271201454
88,0.44478442445728517,0.44478981256484984
89,0.44478690057992937,0.44473329025506975
90,0.444788458791044,0.44474816632270814
91,0.4447865690059132,0.444742518723011
92,0.4447894921898842,0.4447374024192492
93,0.44478857742415534,0.4447421411673228
