epoch,loss,val_loss
0,0.779071211748653,0.7780126388072968
1,0.7641048446628782,0.6670793466965358
2,0.6670375808477401,0.6669204365809759
3,0.6670093726581997,0.6669810527960459
4,0.6669743171532949,0.6669011593659718
5,0.6669557745721605,0.6668868851264318
6,0.6669438047144148,0.6669054475227991
7,0.6669383585188124,0.6669167093435924
8,0.666931045598454,0.6668906449874242
9,0.6669249871969223,0.6668809021313985
10,0.6669254746569527,0.6668915849129359
11,0.6669568342765172,0.6668824005524318
12,0.6669230070379045,0.6670212650299072
13,0.6669161440663868,0.6668665713866552
14,0.6669135998090108,0.6668894285758337
15,0.6669245928790835,0.6668974489370982
16,0.6669090178410212,0.6668972456852595
17,0.6669058582517836,0.6668592373132706
18,0.6669078467819426,0.6670284852584203
19,0.6669058529668385,0.6668904285828272
20,0.6669018252293268,0.6668708593845367
21,0.6668965219921535,0.6668589920600255
22,0.6668940977785323,0.6669081515868505
23,0.6668955065674252,0.6668786505858103
24,0.6668918669886059,0.6669033899704615
25,0.6668934663799074,0.666869401216507
26,0.6668942702611288,0.6668571109771728
27,0.6668929842578041,0.6669606076478958
28,0.6668925737407473,0.6669121518532435
29,0.6668926972415712,0.6668919441699982
30,0.6668932741085688,0.6668799029986063
31,0.6668907567395105,0.6669267490704854
32,0.6668903016381793,0.6668706816832225
33,0.666893053650856,0.6668516008853912
34,0.6668898799684313,0.6668572432200114
35,0.6668901058965259,0.6668911906083425
36,0.6668921378850937,0.6668684653838476
37,0.6668908980290095,0.6668618202209473
38,0.6668906109333038,0.6668936529954275
39,0.666887541214625,0.6669222056070964
40,0.6668907188839382,0.6668582744598389
41,0.6668916385306253,0.6668825716972351
42,0.6668898517423206,0.6668664650122325
43,0.6668866341246499,0.6668560113906861
44,0.6668871719439824,0.6668586978514989
45,0.6668870790667004,0.6668546323776245
46,0.6668890004820294,0.6668835230271022
47,0.6668879736264547,0.6668593491713206
48,0.666887481159634,0.6668556136290232
49,0.6668871074385113,0.6669119270642598
50,0.6668910650014878,0.6668580597639084
51,0.6668873972760306,0.6668808529376984
52,0.6668873960971833,0.6670171649853388
53,0.6668847034904692,0.6668556952476501
