epoch,loss,val_loss
0,0.2173410170873006,0.2146631129880746
1,0.21480622362759377,0.2145349523027738
2,0.21464410685168372,0.21449899183710416
3,0.2145994391474459,0.21461791574954986
4,0.21457553641001384,0.21441068746646244
5,0.21457414687010978,0.21464296987652778
6,0.21451743850111962,0.2147614620923996
7,0.21450674233502812,0.2148550257484118
8,0.21449013517631424,0.21449661203225454
9,0.21447982087069087,0.214561999052763
10,0.21447526413533421,0.21470443284511567
11,0.2144668007493019,0.21443805540601413
12,0.2144646679593457,0.21441320092479388
13,0.21445735593967968,0.21474920133749645
14,0.21445455678635172,0.21440755357344946
15,0.21444999338520898,0.21439759706457456
16,0.21444674758778678,0.21441400087873141
17,0.21444834163453844,0.21440409650405248
18,0.21444290670090252,0.21442072264353434
19,0.21444013811813462,0.21443813837567965
20,0.21443652640779814,0.214401850938797
21,0.2144358818895287,0.21440122957030933
22,0.21443395149376657,0.21439483309785526
23,0.21443484076195293,0.21441360115011532
24,0.21443528588281738,0.21450753492116928
25,0.2144313642680645,0.21445906098683676
26,0.21443287713991271,0.21441299671928088
27,0.21442571905917593,0.21439301951726278
28,0.21442750194999907,0.21449765611688296
29,0.21442510623402067,0.2144340487817923
30,0.21442591436041725,0.21440336255232492
31,0.21442452845308516,0.21439445535341897
32,0.21442378857069544,0.21439928801854452
33,0.21442190219958623,0.21441886619726816
34,0.21442243551545673,0.21440534542004266
35,0.21442167676157423,0.2144433485666911
36,0.2144228041867415,0.21439192136128743
37,0.21442006118098894,0.21442758912841478
38,0.21442331512106788,0.21439405656854313
39,0.21441940783129798,0.21444011905789376
40,0.21442243703868655,0.21452028756340344
41,0.21441929751634597,0.2143965393602848
42,0.21441838885678186,0.2144434032738209
43,0.21441754818293784,0.214385590950648
44,0.21441618674331242,0.21444800154368082
45,0.21441565867596202,0.21439500786860785
46,0.21441735252737998,0.2143919548690319
47,0.21441405534413127,0.21441319127877553
48,0.2144144555694527,0.21439493162433307
49,0.21441439669330914,0.21438547426462173
50,0.2144138227072027,0.21446241399645805
51,0.21441424685385493,0.2143889917532603
52,0.21441487647427454,0.2143922943472862
53,0.21441184853514036,0.21438619059324265
54,0.21441217999656995,0.214482208609581
55,0.21441326965557203,0.21442466491460802
56,0.21441270820962058,0.21439568719267846
57,0.21441180952390035,0.21438865155975023
58,0.21441250813338492,0.2144210834801197
59,0.21441472484668095,0.21445221474766732
60,0.21441110138429537,0.21438372965653738
61,0.21441066064106093,0.21438238057494163
62,0.2144135250945886,0.21438212621212005
63,0.2144101779792044,0.21439602667093277
64,0.21441052990820672,0.21437714834014573
65,0.21440971378154225,0.2143913358449936
66,0.2144091011484464,0.2144222795367241
67,0.21440974609719382,0.21439022229115168
68,0.21440741574764252,0.2144721846282482
69,0.21440741071105004,0.2144196392695109
70,0.21440495661232206,0.21442722874879838
71,0.21440632048911518,0.21438509632150332
72,0.21440573676427205,0.21439060521125794
73,0.21440571553839577,0.21437566863497098
74,0.21440500711401303,0.21437966938813527
75,0.21440522317091623,0.21438577635089556
76,0.21440449590815439,0.2144081912835439
77,0.21440640618072615,0.21437796114881832
78,0.21440568659040662,0.2143890934884548
79,0.21440451944536634,0.21462583910425503
80,0.21440168959233497,0.21437863715489705
81,0.2144041077958213,0.21438464911778768
82,0.21440184870031145,0.21441889184713364
83,0.21440445367164082,0.21440075555443763
84,0.21440427818563249,0.21438302844762802
85,0.21440195555157132,0.21438725703954697
86,0.2144036449558205,0.21442374869187672
87,0.21440394707189667,0.21439819356799125
88,0.21440431602795917,0.21438972255587577
89,0.21440770488315158,0.21441847865780195
90,0.2144028770758046,0.21442389458417893
91,0.2144044441216522,0.21438703320423763
92,0.21440370607044962,0.2143923725982507
93,0.21440446640385522,0.21438632249832154
