epoch,loss,val_loss
0,0.7797839731375377,0.7788575398921966
1,0.7788568569024404,0.778666796207428
2,0.7787029086881214,0.7786018448670705
3,0.778657430516349,0.778912545879682
4,0.7786284533076816,0.7785542534987132
5,0.7786045826276143,0.7786452416976293
6,0.7785868021912045,0.7785846762259802
7,0.7785796472628911,0.7785330915848414
8,0.77857570429643,0.7786869168678919
9,0.7785740995804469,0.7785099496841431
10,0.7785628416273329,0.7785508425633113
11,0.7785573357608583,0.7785235057671864
12,0.7785560714668698,0.7786434460878372
13,0.7785470956166586,0.7787274636427561
14,0.7785463997655445,0.7785189453363418
15,0.7785468367735545,0.7785883468786875
16,0.7785415921476152,0.7786865524450938
17,0.7785425403647953,0.7784945499499639
18,0.7785387989812427,0.7785618342558542
19,0.7785372153653038,0.7785004859368007
20,0.7785387105676863,0.7785145791371664
21,0.778535703725285,0.7785671118497849
22,0.7785377266009649,0.7784898231824239
23,0.7785341580841276,0.7785554897785186
24,0.7785335587528017,0.7785574425061543
25,0.778532101670901,0.7785435410340628
26,0.7785330912272136,0.7784885694185892
27,0.7785322744846344,0.7785151671965916
28,0.7785279239945941,0.7788246924479802
29,0.7785274911324184,0.7785386509100596
30,0.778529130101204,0.7786183303991954
31,0.7785263622336918,0.7785278866688411
32,0.7785263665914536,0.778580681125323
33,0.7785265564653608,0.7785262937148412
34,0.778526622944408,0.7785128901004791
35,0.7785254166391161,0.7784906811714173
36,0.7785244136916266,0.778483091990153
37,0.7785272491375606,0.778485849459966
38,0.7785242494212257,0.7788235069115956
39,0.7785270122024748,0.7784840594132741
40,0.7785240647792816,0.7784802963336309
41,0.7785180917316012,0.7784991718133291
42,0.7785240695079167,0.7785374065637588
43,0.7785186939769321,0.7785339163144429
44,0.7785211771859063,0.7785319741566976
45,0.7785207791195975,0.7784738136132558
46,0.7785196959575017,0.7784870533148448
47,0.7785189532571368,0.7786294242540995
48,0.7785206055641174,0.7785512015422186
49,0.7785186129146152,0.7785250424544017
50,0.7785202757517496,0.7785236356258393
51,0.7785167610777749,0.7784635020097097
52,0.7785162382920583,0.7785859455664953
53,0.7785162835386065,0.7785185832579931
54,0.7785136436886257,0.7786010704437891
55,0.7785206534994973,0.7785217260122299
56,0.7785135674873987,0.7785266147057215
57,0.7785167202154796,0.7785306476751963
58,0.7785147853692372,0.7785651112000147
59,0.778516599814097,0.7784674687385559
60,0.7785161674022675,0.7786635862588882
61,0.7785167997545667,0.7784754892985026
62,0.7785103850894504,0.7784767616987228
63,0.7785110998683505,0.7784936632315318
64,0.778513663954205,0.7785825951894124
65,0.7785137455993228,0.7784681579669317
66,0.7785104072358873,0.7785573979218801
67,0.7785158680809868,0.7784834567308426
68,0.7785091427564621,0.7784851361513138
69,0.7785110536416372,0.778491620182991
70,0.7785091949303945,0.7785795015891394
71,0.7785107115507126,0.7784656140406927
