epoch,loss,val_loss
0,0.7800677088763979,0.7791720288197199
1,0.7788815790149901,0.7787161046266555
2,0.7787047886848449,0.7785708920558294
3,0.7786523964140151,0.7785589201052984
4,0.7786221179697249,0.7785506845315298
5,0.7786096592876647,0.7787345968882243
6,0.7785923884974586,0.7785302922725678
7,0.7785835684802798,0.7785553286472956
8,0.7785765288405948,0.7785300336281459
9,0.7785741294225057,0.778560623606046
10,0.7785664387411542,0.778588976542155
11,0.7785598523616791,0.778761181473732
12,0.7785625617901484,0.778658595085144
13,0.778557613187366,0.7785905021429061
14,0.7785538159343931,0.7785219572782517
15,0.7785484501520793,0.7785305718183517
16,0.778549872080485,0.7784949667056401
17,0.778547307531039,0.7785159883101781
18,0.7785452515946494,0.7786946798563004
19,0.7785372185044819,0.7785052001078924
20,0.7785418568584654,0.7784905484120052
21,0.7785329727199343,0.7784908022085826
22,0.7785312395095825,0.7784932675361633
23,0.778529678079817,0.7785019013484319
24,0.7785320409668817,0.778552360812823
25,0.7785262207852469,0.778599164366722
26,0.7785261703994539,0.7785288695096969
27,0.7785269333521525,0.7784895818630855
28,0.7785222272343105,0.7784786907831828
29,0.7785290401644177,0.7784764559268952
30,0.7785254512627919,0.7785125343004863
31,0.7785182943079206,0.778496618827184
32,0.7785216811365552,0.7785881468454997
33,0.778522242307663,0.7785909354289373
34,0.7785188397831387,0.7785758775075277
35,0.7785186849832535,0.7785024617513021
36,0.7785146668222216,0.7785766931374868
37,0.7785199851327472,0.7784601020415624
38,0.7785126974582672,0.7784826428890228
39,0.7785160433716244,0.7785084945758184
40,0.7785171746942732,0.7784910704692205
41,0.7785175351566739,0.778495338956515
42,0.7785135837263532,0.7784952750205993
43,0.7785159789456262,0.7784923408826192
44,0.7785173452695211,0.7784708526531855
45,0.7785124809741973,0.7785077180465062
46,0.7785109799835417,0.7786722284555435
47,0.7785129797326193,0.778470405459404
48,0.7785111320945952,0.7785014830827713
49,0.778510373128785,0.778551229039828
50,0.7785124096208148,0.7786370352506637
51,0.778514022535748,0.7785620516935984
52,0.7785060676733653,0.7784672753016154
53,0.778513537870513,0.7784587161938349
54,0.7785101198355356,0.7784840904871623
55,0.77851306576199,0.7785555407603582
56,0.7785082619057762,0.7784761046171188
57,0.7785096351173189,0.7784570318857829
58,0.7785078371100955,0.7784857037862142
59,0.7785140015019311,0.7785319505929947
60,0.7785131645070182,0.7784493675629298
61,0.7785116713179482,0.7785619194507599
62,0.7785069226291444,0.7784875861008962
63,0.7785114621188906,0.7785423150459926
64,0.7785103408892949,0.7785774315198263
65,0.7785093553066254,0.7784967553218206
66,0.778509786831008,0.7785597337086996
67,0.7785064493285285,0.778456013639768
68,0.7785030658509996,0.7785064599116643
69,0.7785079534186258,0.7784555264314016
70,0.7785087839232551,0.7785855072339376
71,0.7785061282979118,0.7784570550918579
72,0.7785096462965012,0.7785183242559433
73,0.7785046579705345,0.778463968038559
74,0.7785052536196179,0.7784910692771276
75,0.7785049275292291,0.7784506337245305
76,0.7785058935880661,0.7785115876595179
77,0.7785061050256094,0.7784928129116694
78,0.778505379901992,0.7784619026978811
79,0.7785034969912635,0.7790093894402186
80,0.7785047355890274,0.7784899259010951
