epoch,loss,val_loss
0,0.62096511873934,0.5574343928496043
1,0.5574323732588026,0.5572356147368749
2,0.5573152764638265,0.5572097472349803
3,0.5572328020466698,0.5571492751439412
4,0.5572021855115891,0.5570718064705531
5,0.5571633726358414,0.557102907260259
6,0.557161586827702,0.5570411801338195
7,0.5571380834579468,0.5570254202286402
8,0.557120926062266,0.5570605348745982
9,0.5571118347777261,0.556993937532107
10,0.557110927912924,0.557054026722908
11,0.557096113204956,0.5570195970932642
12,0.5570896795193354,0.5569789147774379
13,0.5570824501249525,0.5574342175324758
14,0.5570807925065359,0.5571524206002554
15,0.5570705151028104,0.5569885304371516
16,0.557067203561465,0.5570375668605169
17,0.5570666239261627,0.5569691092570622
18,0.55706285349528,0.5570005484024684
19,0.5570618866549598,0.5570300985177358
20,0.5570649968120787,0.5569792397816976
21,0.5570494477748871,0.5570462764104207
22,0.5570596480502022,0.5570059775114059
23,0.5570558621618483,0.5570096225341161
24,0.5570500947766834,0.5570353030363718
25,0.5570522649023268,0.5570696457624436
26,0.5570526330338584,0.5569798639615376
27,0.5570465571482976,0.5570372551282247
28,0.5570411916838752,0.5570890531539917
29,0.5570394788053301,0.5569609227577845
30,0.5570333782302008,0.5572847992976506
31,0.5570358064439561,0.5572027643124262
32,0.5570332766109043,0.5569805283149083
33,0.5570449115567737,0.5570566477378209
34,0.5570337321758271,0.5577661350568136
35,0.5570423458417256,0.5569535949230194
36,0.5570319424602721,0.556972752571106
37,0.5570311815738678,0.5570905181566874
38,0.5570292270448473,0.5569757226308187
39,0.5570315622356203,0.5570482030709585
40,0.557027183704906,0.5570386382738749
41,0.5570276773505741,0.5569453966617585
42,0.5570321947203742,0.556967857281367
43,0.5570258939663569,0.557136587023735
44,0.5570243513451683,0.5569746111631393
45,0.5570281322399775,0.556941101829211
46,0.5570227976640065,0.5569609452883403
47,0.5570357217523787,0.5569504216909409
48,0.557023771736357,0.5569534628391266
49,0.5570247931347952,0.5569539401531219
50,0.5570207589599822,0.5569596446752548
51,0.557021517276764,0.5569506575266521
52,0.5570236812167697,0.556948606689771
53,0.5570260289112727,0.5571142872571945
54,0.5570221185551749,0.5570578583876292
55,0.5570187894635731,0.5571653478542964
56,0.5570202403730816,0.5571265434821446
57,0.5570188616249296,0.5569883596499761
58,0.5570193480120765,0.5570149359305699
59,0.5570158441331652,0.5569710724751155
60,0.5570099590089586,0.5570267720222473
61,0.5570160127480824,0.5569417871236801
62,0.5570163422822952,0.5573146024147669
63,0.5570202166106966,0.5569853941599529
64,0.5570158492591646,0.556964626789093
65,0.5570181063943439,0.5569202357530594
66,0.557016991549068,0.5570225316683451
67,0.5570199002159967,0.5570379803578059
68,0.5570188693337971,0.5570914735794067
69,0.5570174376169841,0.557065682888031
70,0.5570091885858112,0.5569357750018438
71,0.5570118227667279,0.5570642228921254
72,0.5570143049690458,0.5569117545684179
73,0.5570142304764854,0.556945569952329
74,0.557013017018636,0.5569363481998444
75,0.5570124253696865,0.5570729188124339
76,0.5570111660824881,0.5569471715688705
77,0.5570073881414201,0.5569936076402664
78,0.557018481903606,0.5569254327615102
79,0.5570109459029303,0.5569122747580211
80,0.557005637049675,0.5569648385047913
81,0.5570101865530014,0.5569156194527944
82,0.5569981403218375,0.5569631425142288
83,0.5569979246060054,0.5569439771970113
84,0.557012981944614,0.5569629418849945
85,0.5570006221930186,0.5569281231562296
86,0.557003747396999,0.556932847181956
87,0.557000874347157,0.5569269556204478
88,0.5569975965155496,0.5570354221661885
89,0.5569978204833137,0.556946329553922
90,0.5570036690632503,0.5569769409100215
91,0.5570070982509189,0.5569193645715713
92,0.5570013926691479,0.5569325255552927
