epoch,loss,val_loss
0,0.7795164910289977,0.7786814403533936
1,0.7787633344729742,0.7785825861295065
2,0.7786872717539469,0.7786020206212998
3,0.778642382423083,0.7785902005831401
4,0.7786156237257852,0.7785883043607076
5,0.7785989979505539,0.7785527914762497
6,0.778590231789483,0.7785310664176941
7,0.7785746336380641,0.7786643873453141
8,0.7785756196843253,0.7785478025277456
9,0.7785653959910075,0.7785266007582347
10,0.7785615763001972,0.7785822907686234
11,0.778556691567103,0.7785223147074382
12,0.7785530477762223,0.7785052622556686
13,0.7785494721333186,0.7785837063789368
14,0.7785426107380126,0.7785485489765803
15,0.7785468576219347,0.7785116286277771
16,0.7785429153574838,0.7785557719866435
17,0.7785398313071993,0.7784917624394099
18,0.7785413362052706,0.7785276231368383
19,0.7785389663510852,0.7785069782336553
20,0.7785366563267178,0.7785026948054632
21,0.7785357710785336,0.7785038661162058
22,0.7785338105493121,0.778495365579923
23,0.7785322183238136,0.7784945268630982
24,0.778532493074735,0.7785251744985581
25,0.7785280074410968,0.7784776498476664
26,0.7785293953683641,0.778583371758461
27,0.7785290833711624,0.7785170346498489
28,0.7785280680126614,0.7786839548746745
29,0.7785278768936793,0.7785865834156672
30,0.7785271540880203,0.778484427412351
31,0.7785255026949777,0.7784907997846603
32,0.7785216272936927,0.7785193008581798
33,0.7785216243399514,0.7785091000795364
34,0.7785222799248166,0.7785137327114741
35,0.7785228041013081,0.7784759525855383
36,0.7785249990622203,0.7784931685527166
37,0.7785205455753539,0.7784871544043223
38,0.7785234791967603,0.77855890194575
39,0.7785212503406737,0.7786273248593012
40,0.7785245481861962,0.7785951616764069
41,0.7785181280374527,0.7786746942996978
42,0.7785199543767505,0.7784629815419515
43,0.7785206361081866,0.7784919583002726
44,0.7785200772947736,0.7784666636387507
45,0.7785215488274893,0.7787129560709
46,0.77852089354727,0.7785028434991836
47,0.7785198115772671,0.7785240349372228
48,0.7785200481679705,0.7785954045057297
49,0.7785198783477147,0.7785105342467626
50,0.7785197933647368,0.7785266113678614
51,0.7785217256546021,0.7785178896188736
52,0.7785184347894457,0.7784879637161891
53,0.77851731189092,0.7786740853389105
54,0.7785209642516242,0.7785772254864375
55,0.7785141186051898,0.7787477974096934
56,0.7785185447136561,0.7784744784037272
57,0.7785185128317939,0.7784848372538884
58,0.7785176664458381,0.7784741880496343
59,0.7785156041516198,0.7784665307601293
60,0.778514957441224,0.7784734710852305
61,0.7785182114707099,0.7784721801280975
62,0.7785193275080787,0.7784748786290486
