epoch,loss,val_loss
0,0.5381466287242042,0.5221556464831034
1,0.5199628392060598,0.5167347793976466
2,0.5181127926111221,0.517683443625768
3,0.5169286349614461,0.5171488720178604
4,0.5160185354153315,0.5146189989248912
5,0.5155897857613033,0.5149245417515437
6,0.5150497360097037,0.51503779621919
7,0.5147265813748042,0.5143705235322317
8,0.5142134321398205,0.5134906536738078
9,0.5139947246048185,0.5148220283587773
10,0.5136557929250929,0.5131165340344112
11,0.5131821848683887,0.5118781373500824
12,0.5127945016490089,0.511348680973053
13,0.5124753586716122,0.5119704678058624
14,0.5120757951868905,0.5114276786247889
15,0.5119032147725423,0.5117542456388473
16,0.5117027390400569,0.5128855980237325
17,0.5114271172417535,0.5108557764291763
18,0.5112262998157078,0.5111214890877406
19,0.5108827192518446,0.51051651263237
20,0.5106987740596135,0.5096543214321136
21,0.5103800530168745,0.5109770679076513
22,0.5103909032212364,0.509729354262352
23,0.5100849488841163,0.5091428456703821
24,0.5098933403359519,0.5091495393911998
25,0.5097203873660829,0.5090821646054586
26,0.509683154463768,0.5090415703455607
27,0.5094852416647805,0.5101258297363918
28,0.5094100279013316,0.5093588121732076
29,0.5093566994402143,0.509588722983996
30,0.5092655196587245,0.5090577586491902
31,0.5090574443075392,0.5078713041941325
32,0.5089426999224557,0.5097466693321864
33,0.5089477715492249,0.5112748985290527
34,0.5089571434656779,0.5110433301925659
35,0.5087348572942946,0.5094349506696065
36,0.5086955735550986,0.5082210645278294
37,0.5085264051887725,0.5100996264219284
38,0.5084504516389635,0.5077512948513031
39,0.5084318002065022,0.5089300192991892
40,0.5082551059325536,0.5081398645242056
41,0.5080236914687687,0.5072381991545359
42,0.5080900709893968,0.5086627120574315
43,0.5079985683494144,0.5076613495747249
44,0.5077953705920113,0.5069836524327596
45,0.5076861089203093,0.5075710918505987
46,0.5075402970049117,0.507115183989207
47,0.5074726353486378,0.5069920199712118
48,0.5074148282474942,0.5065359163284302
49,0.5071718349721697,0.5071610925197602
50,0.5070636473894119,0.5070699066718419
51,0.5069566333823734,0.5071017330884934
52,0.5070153503285514,0.5066653884649277
53,0.5066420913272434,0.5063462897936503
54,0.5066146108176973,0.5065600598653157
55,0.5064323938820097,0.5075570553143819
56,0.5062069705459806,0.5065714148283005
57,0.5061703623798158,0.5063286769787471
58,0.5063152122762468,0.5049964495897293
59,0.5059748296207852,0.5052641031742096
60,0.5060110080904431,0.5056468185981114
61,0.5058827611207962,0.5049041850964229
62,0.5059594656096564,0.5060393528938294
63,0.5056155806117587,0.5059916664759319
64,0.505630213856697,0.5047605915864308
65,0.5055530500279533,0.5066951201359431
66,0.5057019263373481,0.5055493534406026
67,0.5054873704645368,0.5045931548674901
68,0.5055194828510284,0.5051346154610316
69,0.5054351710213555,0.5046639766295751
70,0.505294415500429,0.5070913984378179
71,0.5052956749863095,0.5055049645105998
72,0.5053021762371063,0.5044431942303975
73,0.5052517223490609,0.5048170446554819
74,0.5054579615857866,0.5046954361995061
75,0.5050915129979452,0.5052014853159587
76,0.5051392931673262,0.506229059457779
77,0.5050810563431846,0.505732164422671
78,0.505030816687478,0.5046123812198638
79,0.5050226932499143,0.5077556332349777
80,0.5050706649091509,0.5068797723054886
81,0.5051075283553865,0.5049226165612538
82,0.5050066378646427,0.5051997190713883
83,0.5049230307340622,0.5040809363921483
84,0.5048790666129854,0.5042892098824183
85,0.5049563903941049,0.5050366852680842
86,0.5047637201150258,0.5049308472474416
87,0.504779305656751,0.5050600471099218
88,0.5049083296325472,0.5039028366009395
89,0.504785355952051,0.5057877578735351
90,0.5047417504257626,0.5043597847223282
91,0.5048106991582446,0.5043349915742874
92,0.5045564187367757,0.5041213765939077
93,0.5047625330819024,0.5063375672896703
94,0.5046889092127482,0.5038247836430868
95,0.504579916159312,0.5059001276890437
96,0.5045738999843598,0.504219754020373
97,0.5046368569930394,0.5041999683380127
98,0.5045747399197684,0.5051615867614746
99,0.5045672071907256,0.5047918169498443
100,0.5045622567865584,0.504217604637146
101,0.5045599396626155,0.5054619703690211
102,0.5045141990052329,0.5040799881219864
103,0.5045007136132982,0.5091119676828384
104,0.5046325273248884,0.5055415344635645
105,0.5044830576181412,0.5040255711078644
106,0.5044877930879593,0.5045564167102178
107,0.5043983582523134,0.5046145493189493
108,0.5044438996579912,0.503983666618665
109,0.5044022574557199,0.5041631420850754
110,0.5043243146604962,0.5040430512825648
111,0.5043800682226817,0.5042722065846126
112,0.5043917365603977,0.5041550076007844
113,0.5043779649999407,0.5036020097732544
114,0.5043287518819173,0.5049657136201858
115,0.5043271828095118,0.5042941514253616
116,0.5043390278418859,0.5042352602481842
117,0.504353229853842,0.5057192315657933
118,0.5044031656185786,0.5044432271321615
119,0.50428749455346,0.5039793970187505
120,0.5042047144042121,0.5036838578383128
121,0.5042456334961786,0.5036414596239726
122,0.5042806723647647,0.5037127774556478
123,0.504226710319519,0.5072742752234141
124,0.5043267232444552,0.5039648066361745
125,0.504149919907252,0.5039308363993963
126,0.5041249293751187,0.5055537001689275
127,0.50419171778361,0.5035005495945613
128,0.5041609150966009,0.5038578668038051
129,0.5041656750837962,0.5054258381128311
130,0.504210728155242,0.5039233335653941
131,0.504223571618398,0.5044311009645462
132,0.5041457255946266,0.5042760337591171
133,0.5041121985250049,0.5038923790454864
134,0.5042285470035341,0.5041962990760803
135,0.504061964948972,0.5034995443423589
136,0.5040739370054669,0.5038910259405772
137,0.5041033223734962,0.5040118455092112
138,0.5040754842360814,0.5042421365181605
139,0.5040858688751857,0.5036198689937591
140,0.5040793219539854,0.5038273125886917
141,0.5040165096653832,0.5038731107314428
142,0.504017341295878,0.5038666013081868
143,0.5040450299448437,0.5041600739161174
144,0.5040318160586887,0.503917076865832
145,0.5040338176091512,0.5046652719577154
146,0.5039941952096091,0.5041995147466659
147,0.5040219710535473,0.5037553644180298
148,0.5039669650528166,0.503466549038887
149,0.5039892070293427,0.5033854154348374
150,0.503955708252059,0.5036850349505743
151,0.5039118809302648,0.5044212129116058
152,0.5039881551795535,0.5038561093409856
153,0.5039455177121692,0.5038384907245635
154,0.503912797609965,0.5035897372166316
155,0.5039490755399069,0.5040830199718476
156,0.5039488650163014,0.5039075546264649
157,0.5039043397506078,0.5036724202632904
158,0.5039034179846446,0.5055394243399303
159,0.5039145838022232,0.5044764717817306
160,0.504007302986251,0.5053035778601964
161,0.5038693823681938,0.5038706485033035
162,0.5038390826914045,0.5046838382085165
163,0.5038585031429926,0.5049722650845846
164,0.5038789934714635,0.5034227124055226
165,0.503876876089308,0.5036211535930634
166,0.5038313284847471,0.5032455223401388
167,0.5038395060565737,0.5035581030845642
168,0.5038822260167863,0.5066621503035228
169,0.5038448913362291,0.5047583260536194
170,0.5038872074153689,0.5034219446579615
171,0.5038609871996773,0.503456758181254
172,0.5038186844189961,0.5038231041034062
173,0.503779400838746,0.5042044105927149
174,0.5038285617695915,0.5035620835622152
175,0.5038197586139043,0.5043909559249878
176,0.5038216734329859,0.5036561990578969
177,0.5037601384056939,0.5044678347110748
178,0.5038184416956372,0.5041523024241129
179,0.503818975104226,0.5040697503884634
180,0.5037871207528644,0.5044334093332291
181,0.5038149958319135,0.5040293921232224
182,0.5037564030223423,0.5038804061015447
183,0.5037272611061732,0.5032699686288834
184,0.5037906185123655,0.5044594620466232
185,0.5037568514611986,0.50465938047568
186,0.5037379155423906,0.5032006949186325
187,0.5036763497326109,0.5038655625184377
188,0.5037190819183985,0.5030607976118724
189,0.5037081140412225,0.5050249574184418
190,0.5037694079213673,0.5036314738591512
191,0.5037128667036692,0.5032767431338628
192,0.5037294870747461,0.5033987140655518
193,0.5036874276134703,0.5035053958495458
194,0.5036971886025535,0.5038306588331858
195,0.5036870659324858,0.5037460221846899
196,0.5036998066239887,0.5033582995335261
197,0.5037457120021184,0.5036457875569661
198,0.5037624345090654,0.5056404088338217
199,0.5037551583316591,0.5034714877208074
200,0.503621976825926,0.5035447165171305
201,0.503660443133778,0.503307510137558
202,0.5036851061847475,0.5042902966340382
203,0.5036724410057067,0.5036844220161438
204,0.5036770929627948,0.5033732774655024
205,0.5036274657381905,0.5037778234481811
206,0.5035694096618228,0.5033440009355545
207,0.5036741933160358,0.5032844948371251
208,0.503645590464274,0.5035922056436539
