epoch,loss,val_loss
0,0.6519507194360097,0.6413682529528936
1,0.6402354043722153,0.6391009194453557
2,0.6386090374920104,0.6396115859349568
3,0.6376913213994768,0.636129087249438
4,0.6371173948314455,0.637276938199997
5,0.6367638106875949,0.6355861912171046
6,0.6361699371205436,0.6349849392175675
7,0.6357829732365078,0.635916719118754
8,0.6353498799535964,0.6353682293891907
9,0.6349865151776208,0.6343779649734497
10,0.6349362587531407,0.6357856295903523
11,0.634570710990164,0.6337687874635061
12,0.6344013404316372,0.6330481879313787
13,0.6342490555577808,0.6346230854988099
14,0.634055868546168,0.6333035881519318
15,0.6338056196239259,0.6329278081258138
16,0.6336319221655528,0.6345911756753921
17,0.6334188415871727,0.633002614180247
18,0.6332448343700833,0.6336261524359386
19,0.6330652466350132,0.6331607026259104
20,0.6329995121426053,0.6333627734184265
21,0.6326261628071467,0.6329584523836772
22,0.6325096829864714,0.6316453346014023
23,0.6323138910267088,0.6328945188124975
24,0.6321970174180137,0.6317772768338521
25,0.6320052356455061,0.6309923926989237
26,0.6318369474278556,0.6325019058386485
27,0.6315704746511247,0.6323620536724727
28,0.6313640225728353,0.6317664073308309
29,0.6310869660112592,0.6305282013018926
30,0.6308228981494903,0.6304182064135869
31,0.6307645590040419,0.6302765332460404
32,0.6305837533738878,0.6298727906545003
33,0.6304715339475208,0.630052298227946
34,0.6302527495887544,0.6296713455120723
35,0.6301666760842005,0.6299208869139353
36,0.6301301979223887,0.6290557805299759
37,0.630431828101476,0.6306199813286464
38,0.6299226775566736,0.6303595189650854
39,0.6298193427721659,0.6287600111564
40,0.6296649465693368,0.6297211422920227
41,0.629735234538714,0.6295359505017598
42,0.6295749047994613,0.6304256211121877
43,0.6294582871198654,0.6310503909190496
44,0.6293714836306042,0.6288588066895803
45,0.6294962026013269,0.6292317085266114
46,0.6294047558705012,0.6288527400096258
47,0.629310998916626,0.6289968828757604
48,0.629371468702952,0.6313909908135732
49,0.6292388220495648,0.6288833360274633
50,0.6293366617361704,0.6295419928232828
51,0.6291562610467275,0.6286393062671025
52,0.6290584879186418,0.6289383404652278
53,0.6290488432645798,0.628340674161911
54,0.6289946878883573,0.6282749061981837
55,0.6290206123193105,0.6286925198634465
56,0.6289663154416614,0.6283035426537196
57,0.628983414000935,0.6285935566027959
58,0.6289803058836195,0.6282736827929815
59,0.628833159883817,0.6282430024544398
60,0.6289284560680389,0.6294166914224625
61,0.6288917448653115,0.6284210518995921
62,0.6288453335497114,0.6286756436824799
63,0.6287990549008051,0.6285593317349751
64,0.6286835388872358,0.6282005554437637
65,0.628704666601287,0.6283196208079656
66,0.6288737842241923,0.6303805718421936
67,0.6287124167813195,0.6297659901777903
68,0.6287870739168591,0.6309832675059637
69,0.628576035393609,0.6285151237249375
70,0.6286922564506531,0.6286648854811986
71,0.6286257731782066,0.6277109761635462
72,0.6285914796060986,0.6285852760076522
73,0.6285598820315467,0.6287283198038737
74,0.6285865419308344,0.6305224085251491
75,0.628608023153411,0.6287025113900503
76,0.6286093967358272,0.6286840159098307
77,0.6285431341462665,0.6279439071416855
78,0.6285463647312588,0.6292491508722305
79,0.6284078515105778,0.6293067914644878
80,0.6285191445085737,0.6279720960855484
81,0.6284911703401141,0.6279162727197012
82,0.6284955795738432,0.6291915479501089
83,0.6283940433263778,0.6286924721797308
84,0.6284664636320538,0.627981324950854
85,0.6284622557693058,0.629196497519811
86,0.6284066789150238,0.6293161503473917
87,0.62835849334134,0.6281838028828303
88,0.6284150962962045,0.6281109371582667
89,0.6283345579571195,0.6277172648111979
90,0.628300494392713,0.6283241727749507
91,0.6283139638900757,0.6282362293799718
