epoch,loss,val_loss
0,0.6538038772609499,0.6430269486109416
1,0.6406003333065244,0.6386951574484507
2,0.6387211261192958,0.6388807722330093
3,0.6378525371154149,0.6361439922650655
4,0.6372173441648483,0.6424356434345245
5,0.6367996471193101,0.6366022835969924
6,0.6365146659877565,0.6358030811945597
7,0.6360313740173975,0.6356724436283112
8,0.6357085743347803,0.635738860766093
9,0.6354881091250314,0.6342344266176224
10,0.6351114260885451,0.6340433321793875
11,0.6348036501407623,0.6348433830340703
12,0.6345978778203328,0.6338930925925572
13,0.6344699663453632,0.6342871636946996
14,0.6341825656758414,0.6330251990954081
15,0.6343421802520752,0.6330924218495687
16,0.634051419933637,0.6344930930137634
17,0.6339212976164288,0.6338078398307164
18,0.6337972662448883,0.6333168572584787
19,0.6336464909580019,0.6336726346810658
20,0.6334815929730733,0.6334054651260376
21,0.633396821114752,0.6331700051228205
22,0.6332434404823515,0.6337401691675186
23,0.6330342927906248,0.6320685030221939
24,0.6329446113771863,0.6349481767018637
25,0.6327688578764598,0.6323862424691518
26,0.632698440723949,0.6329855980078379
27,0.6326937049892214,0.6312749831676483
28,0.6322611794074376,0.6319523293574651
29,0.6324162685208851,0.6316693733930587
30,0.6321081726418601,0.6313031417926153
31,0.6319918700853984,0.6322571312586467
32,0.6319044722716014,0.6338474178711573
33,0.6319935636123022,0.6338047633171081
34,0.6317978755765491,0.6318254178762436
35,0.6316045957141453,0.6319151864449183
36,0.6316435820791456,0.6338732738892238
37,0.6313356160720189,0.6336003490686417
38,0.631257594731119,0.6308818016846974
39,0.6311458147366842,0.6303757166465124
40,0.631041447242101,0.6315355923175812
41,0.6310570886002647,0.6302018363873164
42,0.6307851071490181,0.6304856026172638
43,0.6306167301866743,0.6302869412104288
44,0.6307861815161175,0.6296672923167547
45,0.630450871626536,0.631604444583257
46,0.6303561435672972,0.6300978172620137
47,0.630323632756869,0.6296611447334289
48,0.6300065322849485,0.6333107575178146
49,0.6299990182187822,0.6298032048940658
50,0.6299187818898095,0.6297928037246069
51,0.6298152578406864,0.6301016336679459
52,0.6297626745303472,0.6292251736323039
53,0.6296510063674715,0.6297854115168253
54,0.629644288579623,0.6292083331743876
55,0.6296600866317749,0.6293106849988301
56,0.6294225478569666,0.6287880238691965
57,0.6295186579359903,0.6304350643157959
58,0.6294539118342929,0.6288545570770899
59,0.6293297211858961,0.6288690122365952
60,0.6293194886048635,0.6289199148019154
61,0.6292693369123671,0.6292591007550558
62,0.6292390943898095,0.628962042649587
63,0.6292028969393836,0.6294541990359624
64,0.629179304877917,0.6284321597019832
65,0.6291576501263513,0.6298634213209152
66,0.6291652404202356,0.6287696979840597
67,0.6291370085080464,0.6283533825476965
68,0.6290013716220856,0.6289847327868143
69,0.6290660705963771,0.6290181363026301
70,0.629062466568417,0.6297304838101069
71,0.6290604988998837,0.6289256874322892
72,0.6289765407774184,0.6281903101205826
73,0.6289299464490679,0.6283011720577876
74,0.6288675642940733,0.6283548956712087
75,0.6289637740320629,0.628670949459076
76,0.6288930223253039,0.6281260470549266
77,0.62878160572052,0.628489644130071
78,0.628794883939955,0.6284119687477747
79,0.6288441980017556,0.6284432776371638
80,0.6287711985641056,0.6289273143212001
81,0.6287949787643221,0.6284460026820501
82,0.6288344186411964,0.6285300622781118
83,0.6287557653453615,0.6299595115184784
84,0.6286955610116323,0.6285262647072474
85,0.6286164620584912,0.6296321811676026
86,0.6286480206516054,0.6283582645654678
87,0.6286758935583963,0.6291172134478887
88,0.6286580314371321,0.628081456621488
89,0.628556563840972,0.6281571411689123
90,0.6285796178711786,0.628233820438385
91,0.6285779513120652,0.6282132900555929
92,0.6285268828736411,0.6294710420767466
93,0.6284841873115964,0.6287379207611083
94,0.6285896093315548,0.6285133135318756
95,0.6284965420299106,0.628085879445076
96,0.6284796003633075,0.6282412571112315
97,0.6285294295416938,0.6279149535894394
98,0.6285883571836683,0.6305285042524338
99,0.6283734984132978,0.6282966467539469
100,0.6284535200860766,0.6299896185795466
101,0.6284672930902905,0.627875121474266
102,0.6284229364262687,0.6278359325726827
103,0.6284104217688242,0.6284694138765335
104,0.6283717495335472,0.6278674525022506
105,0.6283821422259013,0.6291801115274429
106,0.6283976312081019,0.6279710074265797
107,0.628327926463551,0.6282223834991455
108,0.628293749332428,0.6291328235864639
109,0.628295817732811,0.6278437418540319
110,0.6283058364391327,0.6278482325871786
111,0.6282754833963182,0.6289632474978765
112,0.6283393375343747,0.6290123295386633
113,0.6284083747466406,0.6285458435217539
114,0.6282906867927975,0.6289316314061483
115,0.6282519655889935,0.6281668197711309
116,0.628271911210484,0.6278142691850662
117,0.628229095723894,0.6280568627516429
118,0.6281869063244926,0.629112827817599
119,0.6282868673404057,0.6278719024658204
120,0.6282589660220677,0.6280601390997569
121,0.628215493745274,0.6277908956607183
122,0.6281920302444034,0.6276704200903575
123,0.6282074227995342,0.6282341501315435
124,0.6281660127507316,0.6276166215737661
125,0.6282277915610207,0.6287249074379603
126,0.6281834235058891,0.6292898497184117
127,0.6281480315658782,0.6281089597940445
128,0.6281410311460495,0.6278772400617599
129,0.6282289050420126,0.6282450911998749
130,0.6281567547718684,0.6293522956371307
131,0.6281319465504752,0.6283073929548264
132,0.6281040182378557,0.6279177255630494
133,0.6281086936526828,0.6277337359587352
134,0.628169708053271,0.6277503786484401
135,0.6280613334311379,0.6274992065827052
136,0.6281197639173931,0.628899575829506
137,0.6280993144247267,0.6275359061161677
138,0.6280942960977555,0.6283800280888875
139,0.6281121068530613,0.6282182578245799
140,0.6280572973092398,0.6277042108376821
141,0.628065379222234,0.6281396830876669
142,0.6280090887678994,0.6280596415996551
143,0.6280551492240694,0.6277024311621984
144,0.6280679194132487,0.6276989382108052
145,0.6279984050724241,0.6281492665608724
146,0.6280043834845225,0.6284731865326564
147,0.6280579277012083,0.6281094475984573
148,0.628015592429373,0.6275505336920421
149,0.6280455543729994,0.627894905726115
150,0.6280216917064455,0.6279589772224426
151,0.6280050163931317,0.6276958152850469
152,0.6279660575389862,0.6291976939837138
153,0.6279671748346752,0.6287323121627172
154,0.6279751433134079,0.6285070838928223
155,0.6279643430709839,0.6281883297761282
