epoch,loss,val_loss
0,0.01216770278318249,0.004712253509675487
1,0.00420420324699051,0.00392142954091364
2,0.003580665659048319,0.003314346390030825
3,0.003437535449925115,0.0033831249870396153
4,0.0035472169931004163,0.0034842664768295444
5,0.0035435421550959597,0.003473680894685923
6,0.003554194394068075,0.003466402734716673
7,0.003586881214941444,0.003456910435202481
8,0.0035798288604954455,0.0035797139059069406
9,0.003603178373030167,0.0035126278311352565
10,0.0036256872236824114,0.003578357357344464
11,0.0036262680008020205,0.003501161162508085
12,0.0036089359472257446,0.00352860843862459
13,0.003634540070824361,0.0036590092245939536
14,0.0036300443233273404,0.0035747814659536827
15,0.003656736149950724,0.0035631748306091393
16,0.0036452842866621605,0.0035555207314814192
17,0.003668731749687848,0.003579310866621144
18,0.003615741883710271,0.0035332257984793725
19,0.0036603625585288524,0.0035808670569803425
20,0.003632563732085739,0.003582748265510964
21,0.003607701728108516,0.00355381610828232
22,0.0036256576031133284,0.003613601163571998
23,0.0036512737182357474,0.003727956137197683
24,0.003626340786103246,0.0035675675893355
25,0.003619727928204845,0.00349427394596112
26,0.003610667257157383,0.0035603897266893586
27,0.003584843783604326,0.0034724053925255256
28,0.003581106011700586,0.00345816272926507
29,0.0035845503371150747,0.0035163030163925034
30,0.003577796278056876,0.003531829310114294
31,0.003569888628630029,0.0036355071868792795
32,0.0035587754476184637,0.003608062488139461
33,0.003551404956382236,0.003541812838477423
34,0.0035777620341497555,0.0035881588427351435
35,0.0036095598588784853,0.0034987048192337963
36,0.0035336331500328056,0.003465568041957655
37,0.0035253994980919434,0.0034916096448895295
38,0.0034937906465616177,0.003379417565407266
39,0.0034917624079338233,0.003561613028521581
40,0.003543625742695134,0.003744092179252332
41,0.003486976944643846,0.0033553730001913296
42,0.00350279387377808,0.0034077037150374123
43,0.0034782946730715584,0.003430655260478952
44,0.0034690168615373923,0.0034970428782537134
45,0.0034506127779432433,0.0034864937613921397
46,0.0034472379631014633,0.00331763917918635
47,0.003449225916715117,0.003347926824115706
48,0.0034342228010516046,0.0033008093614847267
49,0.0034041428894514415,0.003317869350688784
50,0.0033552783937137527,0.003262174284782046
51,0.003358191994631781,0.0031970518928954783
52,0.0033422611926714357,0.003339562095083834
53,0.0033318915310613303,0.003145394087500949
54,0.003331187413818985,0.003290715597536708
55,0.0033987263085028295,0.003381054408074827
56,0.0032970943575608637,0.003222528064815329
57,0.0032989213106485666,0.00322974258894063
58,0.0032949070205719614,0.0032816010040879876
59,0.0032792056631446003,0.0031589752649291685
60,0.00324423921729227,0.003225184338044946
61,0.0032890993625289493,0.0033446869182960103
62,0.003288221190492656,0.003290180202055381
63,0.003294524582538357,0.003235867607466943
64,0.0032796072443683232,0.0032014109874831547
65,0.0032770835690676056,0.003148035477886138
66,0.0032169672220966235,0.0031179630776167833
67,0.0031965956668085376,0.0031098481628360998
68,0.0032183436593532957,0.0032384295816422232
69,0.003212541292382,0.0033268824605677586
70,0.0031993390389794918,0.0030941220732301545
71,0.003162275637862376,0.003081021438800675
72,0.0031871581976723263,0.0031705866261881634
73,0.003213420109502715,0.0031286540406469834
74,0.0031820133492854643,0.003044009130880152
75,0.0031272172079674357,0.0030715916908534194
76,0.003145783885924207,0.0030505761865976615
77,0.0031116318049075587,0.0031474940286192435
78,0.0030868002074659526,0.003034043728562022
79,0.0030785382232607138,0.003194701086105862
80,0.0031203336759639665,0.0030347601811205917
81,0.0030099375252116076,0.0028814160281456914
82,0.003008324400133329,0.0030849535023492955
83,0.0029923690469365856,0.0029339402006139915
84,0.002976851525799997,0.002947828457868278
85,0.0029544644333176864,0.002885139084648453
86,0.002996252017267931,0.0030779445720254916
87,0.0029777918417611456,0.0029103260473910923
88,0.0029711377207362047,0.0029788982521195724
89,0.0029291989685545526,0.002946303052894185
90,0.002949645799443758,0.0029237523479711956
91,0.0029446566044938286,0.0027971314356019547
92,0.0029712391282216287,0.002911230418166419
93,0.0029652525561401624,0.0028851205788610165
94,0.0030095894749032513,0.0029812165806394762
95,0.002990281129471385,0.002889431953741372
96,0.0029147407108040943,0.0029497320030340795
97,0.0028995593865845707,0.00288675257136225
98,0.002828045691597649,0.0028064687929319375
99,0.002877372926961574,0.0028115138140547076
100,0.002876518203944394,0.002845605008986938
101,0.0029153033989027526,0.002897796890300314
102,0.002917354951073543,0.0028239056822637644
103,0.002913700189539123,0.002889108185547601
104,0.0030150709484925296,0.0030127030227783485
105,0.002999396516092933,0.0029814772527673966
106,0.003008195159086634,0.002967274998180985
107,0.0029814246408786742,0.0029190113535339716
108,0.0029724569240170387,0.002868896414845312
109,0.0030014970095819226,0.003005654063145271
110,0.003045148755575838,0.0029516121450379575
111,0.003015095044040771,0.002918013113204145
112,0.002999717259085741,0.002928196453879869
113,0.002988973770867004,0.00289094767632191
114,0.0030022266645150764,0.0029596142291067966
115,0.0030235527394588493,0.003059615072887164
116,0.003037360464289838,0.002938436781413497
117,0.0030400598798434827,0.003037128266663157
118,0.003021766027997511,0.0029331805820471857
119,0.003018547067033937,0.002907827209314182
120,0.003008449127546417,0.002981001680787873
121,0.0030251779565378858,0.0030170587074262335
122,0.0029863575615102144,0.002929334407136001
123,0.0029749265756645205,0.002882320266360506
124,0.002966480432579695,0.0029003781852646997
125,0.0029975730839861725,0.0029847564017860895
126,0.002986500363776817,0.002840050502014796
127,0.002964788265832013,0.003085700422109974
128,0.0029248293760263198,0.002897603655122946
129,0.0029153767726652537,0.0028233219652654966
130,0.0029490175025964124,0.00288950845739666
131,0.0029473832223655357,0.0037223657374840535
132,0.0029733990814187843,0.002829994384874646
133,0.0029131235429264747,0.002811669361919606
134,0.002926951183771955,0.0029119078180581234
135,0.002922813389155778,0.0028346008550343975
136,0.002891244967855823,0.002892683468236371
137,0.002885009636923528,0.0029300397455719485
138,0.002868545495922132,0.0028055403340987058
139,0.0029059867970190577,0.00282039683495723
140,0.002876870432714622,0.0028499574017154306
141,0.002866364595703214,0.0028554898914628017
142,0.0028895572138453625,0.002863511246752178
143,0.002880452375439964,0.0028861993516848964
144,0.0028557338209575216,0.0028186368564142267
145,0.0028545879620948344,0.002838706798792574
146,0.0028822607433667976,0.0029831615632395386
147,0.0028934192155309624,0.0028582093804781624
148,0.0029130836284560584,0.0028871408235417667
149,0.0029073154340420603,0.0028255950672354093
150,0.0028405717224627585,0.0027997158747241927
151,0.0028364542396172427,0.0027631951083594577
152,0.0028415353746161615,0.0027916033701088946
153,0.0028159457808427566,0.002794972493253582
154,0.0028110678496735516,0.0027060194623815944
155,0.0028046562229756644,0.0026959181330427347
156,0.002743202772866144,0.0026378120777793136
157,0.0027407415991248614,0.0026992924296352274
158,0.0027515315990861476,0.0026943188076438526
159,0.0027383790876484475,0.002646545605924334
160,0.00271208272960553,0.002687143010543531
161,0.002708023000037666,0.0026500609366106897
162,0.002693283669050303,0.0026148083234177138
163,0.00269538920554105,0.002662782918356679
164,0.002698984896319376,0.002636721604507468
165,0.0027276886675265985,0.002653610338558898
166,0.0027194216403662055,0.002583607009877145
167,0.0026904664845787455,0.0025793134954486827
168,0.002676900855569039,0.002567509474763035
169,0.002710649832409081,0.002669024058664482
170,0.002639743268025295,0.002579742616298552
171,0.0026378969466063925,0.002592243148155196
172,0.002649220508466243,0.002604364385486211
173,0.002635647307520656,0.002500894541013004
174,0.0026116353443624667,0.0026452858812974077
175,0.00261538246593582,0.0025132456479974798
176,0.00261067482992355,0.0025208351845850763
177,0.0025832537953869353,0.002540379680507338
178,0.00254912833214176,0.0024045474964382078
179,0.002526130562676512,0.0023409467089856276
180,0.002522209280379656,0.0024000172426248845
181,0.0025041206412034496,0.0023671969315732034
182,0.002465322828418042,0.002307893362690129
183,0.0024599257590595166,0.0023731994493626546
184,0.002457902913797927,0.0023340404480061247
185,0.0024159795085390997,0.0023085337662079883
186,0.002406806896936172,0.0023517257563991883
187,0.002415164310760644,0.0023006457938916152
188,0.0023944332202194816,0.0023218082312784563
189,0.0023870984226759015,0.0023247942018578705
190,0.002369817411299613,0.0023242126290542162
191,0.002348235007899301,0.0022351686900900034
192,0.002352477626496996,0.0022563726685802237
193,0.0023193042279796017,0.002214422865562286
194,0.002321788409032864,0.002225423745062453
195,0.0022843307019039852,0.0021644501285196945
196,0.0022991070250016426,0.00226256674320255
197,0.0022856503980158956,0.0021067818893770788
198,0.0022849249805911354,0.0021948957988925863
199,0.0022676035296171904,0.0021401753307139656
200,0.002282647818416056,0.002251765491997571
201,0.0023692089663870674,0.0028721378549301977
202,0.002284997105289003,0.0021082348827935835
203,0.0022285821191628005,0.002158316362132556
204,0.002220506578522792,0.002087052032315238
205,0.002200283560796743,0.0021397003058770134
206,0.0022421809782690143,0.0020919880459261855
207,0.0022221227811971564,0.0021831037182835234
208,0.0022258175282721952,0.0021275825989610134
209,0.002194773657821578,0.002130937379889118
210,0.00217101847806243,0.002131983921719626
211,0.0021683805575743436,0.002017182482494115
212,0.002115414095457175,0.0019971225115176764
213,0.002105571142760582,0.002000719604848311
214,0.0020983548858874083,0.0021240098991250774
215,0.002096263355446131,0.0020271433902177764
216,0.0018231978184318734,0.0014618223596576507
217,0.0016352076068182392,0.0015778160853321239
218,0.0018986866497091674,0.0019249081305157927
219,0.0021055080866205504,0.0022947033825696773
220,0.002154823315547581,0.001984354265397513
221,0.0020661615657812512,0.0019769924306646835
222,0.002130220645154678,0.00214387722870838
223,0.002187105126444435,0.002073883932232645
224,0.0020707943396578677,0.0019190024654588693
225,0.0019717587374929587,0.001975625196440842
226,0.002052440601076671,0.0020865663601499465
227,0.0023072092475860213,0.0021857018572137075
228,0.002181610548907922,0.0021228124381897297
229,0.0020802116125998786,0.0019275819357229278
230,0.0020483898592097245,0.0021811354379845664
231,0.0021568451241162825,0.002023051918593038
232,0.0021691460108248036,0.0020834170912588067
233,0.0020329691553555482,0.0019746351585287632
234,0.00206064909188229,0.0019147549637850896
235,0.0019703983585834892,0.001949273738126359
236,0.0019295364906776508,0.0017968576294970482
237,0.0018397406747156801,0.0018307901578989343
238,0.002011708668654962,0.001934313389419035
239,0.0020076001928973825,0.001954738757971883
240,0.0019519338039871458,0.0019122465842781892
241,0.0019589083689508036,0.002030708289755069
242,0.002037984042486595,0.0019348615856761141
243,0.0019478040291656337,0.001857001187422578
244,0.0018801746954820793,0.0017393792212569885
245,0.0018735267123361427,0.001881555994857021
246,0.0018531079942325475,0.001769286351707452
247,0.0017942319006584151,0.0016872022839698152
248,0.001690912327663548,0.0017245274286570643
249,0.0016860010779212588,0.0016474885268296234
250,0.0017276543034673083,0.0017002710490204268
251,0.0017133559247550052,0.0015933106810878735
252,0.0016406602473661835,0.0016004251179191687
253,0.0016259691165163635,0.0014924187370291206
254,0.00160007302417607,0.0015464399366553446
255,0.0016658532129730389,0.0017050197872481273
256,0.0016118049546736952,0.0015213899542418944
257,0.001543520257860091,0.0015105476154623264
258,0.0016476423125430714,0.001583055063350608
259,0.0016521042600770692,0.0015965278496639463
260,0.0015241293335365902,0.00141025124808293
261,0.0014450448622087835,0.001329764118427539
262,0.0014608419626167162,0.0015027471361054895
263,0.0014660298484152003,0.0014556088761085854
264,0.00149756394350641,0.0014338079636572088
265,0.0013836629293915675,0.0013679613750911372
266,0.0013406083400085722,0.0014532580358011758
267,0.0014881524935208509,0.0013638469933937036
268,0.0015150882592236473,0.0013206689135116334
269,0.0014926103011806018,0.0014887818675665737
270,0.0016461045262834402,0.0015857689505985304
271,0.0016520081607202103,0.0017425273517705652
272,0.0016608393221064206,0.0015893184473879322
273,0.0016574575356972084,0.0015577418083005524
274,0.001566854151331367,0.0015800089979168882
275,0.001656472958192629,0.001918038130879088
276,0.0021533929818416844,0.0016023367946432709
277,0.0014984167373287688,0.001229526556930856
278,0.0014578388682588953,0.0014565607454682136
279,0.0013755202129631609,0.0011915622496866415
280,0.0011676255689016368,0.0009911219263062205
281,0.0012454563850895603,0.0018712160850150718
282,0.0014890444641282262,0.0010600853832691624
283,0.0010840851611109545,0.0008902304486876893
284,0.001077394781466812,0.0010684279352294345
285,0.0012068789392848424,0.0008927930904571601
286,0.001065902354021324,0.0009119586216027879
287,0.0010626230388320534,0.0009751962811764653
288,0.001118540149505509,0.0009943487927837286
289,0.0011381666818728747,0.00125583551421124
290,0.0011578580342494905,0.001176625870403117
291,0.001181902206866175,0.0010542949116452683
292,0.0011509216109158737,0.00101028582860511
293,0.0013390908921301495,0.0010878070355702677
294,0.0011666538190559668,0.0010465085490860516
295,0.0011680133361984537,0.0011378291542362346
296,0.0012146607068388925,0.0011640091696512392
297,0.001288613634890697,0.0011444340704729523
298,0.0013816365292450537,0.0014222611441667473
299,0.0013419820237026779,0.0012934818150647836
300,0.0012779748991871471,0.001143560878373909
301,0.0011563759982295848,0.0010661735940654365
302,0.0011700413359837642,0.001147162219400337
303,0.0011477696533080748,0.0011199186580117403
304,0.0011831944439218292,0.0011789908604594424
305,0.0011685713941316748,0.0011178015133430947
306,0.0011774146558140503,0.001103133039704969
307,0.0012068676192462937,0.0011765565310581454
308,0.0012057554713807168,0.001220066164514852
309,0.0012299422888609815,0.0012981396799454645
310,0.001266434491094533,0.0012421788794965923
311,0.0012529387700448247,0.0013380102133068702
312,0.0012845700923653559,0.0012446477289677167
313,0.0013255064365072988,0.001437164776566131
314,0.0015302543576426128,0.0018083301991441824
315,0.0016165128573739872,0.0015459872804134964
316,0.0016164631970117527,0.0015784468621148488
317,0.0015536986124661532,0.0014787185872491035
318,0.001531151027388474,0.004021078106454012
319,0.001443353754849851,0.0013057771751608788
320,0.0013357428293009688,0.0013330334623586704
321,0.001294536702623822,0.001232215821771714
322,0.001288252591830846,0.0011701895113726995
323,0.0011629350256924932,0.0010646224641377093
324,0.0011486366647826933,0.0010959702425044173
325,0.0011322271935442303,0.0011070635821594762
326,0.0011333630827721208,0.0010129026893944768
327,0.0011526147117357317,0.0010533843465928903
328,0.0011444836445523724,0.001071569571363689
329,0.0011263221481658766,0.0009881282394350827
330,0.001101406700421666,0.001023414866107124
331,0.0010965971666094798,0.0010358814139425942
332,0.0010771156501241574,0.0010723589451391393
333,0.0010670768029235073,0.0009353440445411606
334,0.0010216320213154138,0.0009021644036486497
335,0.0010558937209890597,0.0009153942833975598
336,0.0009538334514908463,0.0009468178533080706
337,0.0009615977486026764,0.0008903660359512939
338,0.0009681663232171547,0.0008419272603381377
339,0.0009476479413297275,0.0009074390992191405
340,0.0009554393878530971,0.0009264934948743348
341,0.0009392519185245536,0.000869759866142221
342,0.0009302936135364355,0.0009532927464473228
343,0.0009450647749101446,0.0009160686179926424
344,0.0009181801088809933,0.0008013225752529473
345,0.0009361812550222405,0.0009131825627043046
346,0.0009088725365597302,0.000830258027681951
347,0.0009150338794499579,0.0008929204402509578
348,0.0009133010952077468,0.0007772739953842975
349,0.0009121897263065416,0.000846529329635221
350,0.0009147283288663637,0.000811679948691395
351,0.0008957963190775952,0.0008321710116472035
352,0.000891085018976957,0.0008418394542704824
353,0.0009733411280788388,0.0009281911985610294
354,0.0009281376251944149,0.0007985297050952098
355,0.0009030091514971422,0.0007612559128775875
356,0.0008915056462925907,0.0007860416099449903
357,0.0008947302820487209,0.0008086282612851444
358,0.0008867423232814247,0.0009201461311323237
359,0.0008748406417799474,0.0007664711755465879
360,0.000873360427522348,0.0007791076313082237
361,0.0008736823168542204,0.0006843026534970306
362,0.000852190946367494,0.0009169781673378602
363,0.0008600781294168625,0.0007830914579430446
364,0.0008459594940740221,0.0007200820969588774
365,0.000886355340448182,0.0007383988866928455
366,0.0008649977437724576,0.0007785732460107023
367,0.0008698655346102208,0.0007971670110925235
368,0.000843463980783768,0.0007155677680865033
369,0.0008587155675336949,0.0008710687043918002
370,0.0008928718280607911,0.0009071070577009654
371,0.000920168611599342,0.0009039648801599314
372,0.0009056134748519037,0.0008760572906380741
373,0.0009169147156000554,0.0008306074162632822
374,0.0009520782387626765,0.0009036238147312169
375,0.0009590300881284087,0.0009277029039352582
376,0.0009758716804935247,0.0008901130731991022
377,0.001052198995037017,0.0013721141915478338
378,0.0010229592072246918,0.0009675835617238222
379,0.0009149429223135195,0.0009439450607273278
380,0.0009056671475464989,0.0008671124936570545
381,0.0009013183668668339,0.0007894025629387061
382,0.0009068003342076063,0.0007488157234348384
383,0.0009047515980945565,0.0008495158352719171
384,0.0009146673787111943,0.000896593674229736
385,0.0009076695580044209,0.0007680788802049846
386,0.0008925667213164367,0.0009082349539195873
387,0.0009142224972093071,0.0008758563901773984
388,0.0008950888699826018,0.0008424634052017917
389,0.0009112391952853806,0.0009160519222368615
390,0.0008852825401341721,0.0008077054311043982
391,0.0008713653241997223,0.001041585830378664
392,0.0008855887611194911,0.0008416082670608881
393,0.0009096347847537737,0.0009205483557941167
394,0.0009302073247918824,0.0008056520280023752
395,0.0009108961489134721,0.0008345672217577647
396,0.000907297165149743,0.0008559341558520754
397,0.0008889816495331915,0.0008686821867065279
398,0.0009338015585495017,0.0009415171827459278
399,0.0009313109642143747,0.0009150614212599447
400,0.000925767796493066,0.0007543862906465154
401,0.0008868398454520863,0.000784930990850636
402,0.0008794706229354814,0.0008704046405691711
403,0.0008910899919920412,0.0008604022121832639
404,0.000875164079463562,0.0007565465416994916
405,0.0009035443394236845,0.0008090778299009115
406,0.0009015679637169066,0.0007721496578732721
407,0.0008881593872484504,0.0009135499755026348
408,0.0008953412143134955,0.0008359820413581093
409,0.0008934339319274323,0.0008407541828893582
410,0.0009052305506282092,0.0008151700688514326
411,0.0008953704112459174,0.0008968852023897724
412,0.000911701415633105,0.0007974630002820273
413,0.0008978327566435676,0.0008216174670379149
414,0.0009105788081211618,0.0009124640255750271
415,0.0009038259203232015,0.0008809820101688943
416,0.0009138846516033546,0.0008402206335303246
417,0.0009054358117771726,0.0008442135161064212
418,0.0008865587835747628,0.0008307364700828125
419,0.0009109756007161979,0.0008690595775867214
420,0.0008965251418019797,0.0008915755479024014
421,0.0009185479942187622,0.0008414130465207593
422,0.0009094548631146113,0.0009335674963353711
423,0.0009137143825326791,0.0008374165132904647
424,0.00090734694370988,0.0008327084142542524
425,0.0009083202421053568,0.0008809374126912354
426,0.0009191579552334894,0.0008564118273672931
427,0.0009210687425922232,0.0008545836269436668
428,0.0009020146970286499,0.0008157324573683756
429,0.0009063576647016914,0.0008765062298746561
430,0.0009036705726512512,0.000842025076589205
431,0.0009090197914560736,0.0009072279290481949
432,0.0009166300611123457,0.0008671543582543483
433,0.0009306506600275299,0.0008358875214167933
434,0.000933370559446583,0.0009662171990098168
435,0.0009337267283022327,0.0008833879002417904
436,0.0009282632690402877,0.0007977401904270071
437,0.0009371401730612974,0.0008979933337321307
438,0.0009177262050402034,0.0009430101635036515
439,0.000921710036338767,0.0008722583498982886
440,0.0009125694923452009,0.0008218955938399914
441,0.0009251357481876065,0.0008137693007126154
442,0.0009143760407816439,0.0008222215141829508
443,0.0009110781206600062,0.0008139196089910765
444,0.0009089032343550182,0.000872507652719879
445,0.000904494037851598,0.0008311277031035533
446,0.00090791732589196,0.0009166472919556461
447,0.0009387721315801204,0.0008543922587309942
448,0.0009453588379974819,0.0008865080370955979
449,0.0009304098027618118,0.0009190688263877942
450,0.0009240601516805598,0.0008892068936903444
451,0.0009170934835018618,0.0008798637680425358
452,0.0009423071090185126,0.000999648598279949
453,0.0009251683301005656,0.000901170426782142
454,0.0009095877636009842,0.0009044577060373075
455,0.000943556684868584,0.0008719192707292895
456,0.0009254602764959069,0.0008777745026954966
457,0.0009310151608391449,0.0008763441405402963
458,0.0009192258506018618,0.0008597487465452798
459,0.0009118149313722268,0.0009676834635133647
460,0.0009186874164797416,0.0008483338496434017
461,0.0009263140585785583,0.0008753086645856714
462,0.0009229867197971178,0.0008230421783763988
463,0.0009252190474864264,0.0008823505377782915
464,0.0009325964338022371,0.000908744178424587
465,0.0009266457366307837,0.0008683898503191932
466,0.00092013648182103,0.0008948152475168555
467,0.0009240531281852764,0.0008767961844451051
468,0.000924024962667906,0.0008865891658287081
469,0.000917004154036172,0.0008874069833701261
470,0.0009133468964696378,0.0009233737299264094
471,0.0009093097390194466,0.0009143051648110647
472,0.0009199055185294698,0.0008636102685695386
473,0.0009337248250072579,0.0010408757724485753
474,0.0009217497132715954,0.0008488619634077189
475,0.0009406999704630089,0.0008667773801623031
476,0.0009240243029150607,0.0009150598666480375
477,0.0009124162093325376,0.0008771663478504645
478,0.0009182800583903409,0.0008954055004848344
479,0.0009163780635923894,0.0008525354343242505
480,0.0009223853559583706,0.0009629549807963314
481,0.00091909949749867,0.0009102879845964384
482,0.0009288657741266765,0.0008375525977976155
483,0.000924555264285011,0.0009079665045070009
484,0.0009216833929237675,0.000871077091393453
485,0.0009105366007395997,0.0009244379270657526
486,0.0009199768279472573,0.0009014442976742049
487,0.0009215145976160742,0.0008404306623023849
488,0.0009053773184839503,0.0008658782109472408
489,0.000899790322211507,0.0009200846620956972
490,0.0009080786074248305,0.0008709299045421156
491,0.00091021145100976,0.0008339325734102586
492,0.0008884019244389923,0.0009006668301979011
493,0.0008960121262756499,0.0009840208435067054
494,0.0009165929742340145,0.0008643706880699819
495,0.0009019972418606978,0.0008661338181117065
496,0.0008808282433657253,0.0008567450550140848
497,0.0008765916526979365,0.0009190669485888257
498,0.00087976488056876,0.0009246256792986205
499,0.000879170298085621,0.0007526187152720365
500,0.0008541546518766389,0.0008451448717503525
