epoch,loss,val_loss
0,0.7814617232460649,0.7784964057454251
1,0.7782269996094179,0.777963613368919
2,0.77828906817498,0.7779647162083856
3,0.7780589213601016,0.7780144934142582
4,0.778062518514603,0.7781441336542998
5,0.7780416204557918,0.7780489472390746
6,0.6792813079646918,0.6670013525956561
7,0.6669736075927084,0.666902880745727
8,0.6669509504831794,0.6669314576732813
9,0.6669635342891448,0.6667823929688418
10,0.6669642828069763,0.6671058620286678
11,0.6669227944939689,0.6668594337564354
12,0.6669474001432506,0.6668838296230531
13,0.6668680732043574,0.6667665623818013
14,0.6668992211259201,0.6669452937230862
15,0.6668829246552463,0.6669518764096523
16,0.6668738678341625,0.6668050223185509
17,0.6668488330687115,0.666828108270123
18,0.666859650651692,0.6667922938731958
19,0.6668585536732222,0.6670719410666227
20,0.666832568284492,0.6668161952298622
21,0.6668443028093342,0.6668072557085084
22,0.6668382254256098,0.6667700189217557
23,0.6668309901753868,0.6667890894114389
24,0.6668120000003048,0.6667877488416685
25,0.6668352408702447,0.6667836337386873
26,0.6668110402126192,0.6670681982570695
27,0.666828318843369,0.6668611316787644
28,0.6668210282890377,0.6667927018722308
29,0.6668144893515784,0.6667542343750413
30,0.6668145997677816,0.6667485952080832
31,0.6668045467456384,0.6667661536839021
32,0.6668104911402846,0.666789939399722
33,0.666804727863734,0.6667475324262415
34,0.6668131216609738,0.6667462840112451
35,0.6667963681065252,0.6668065478967337
36,0.666791810729484,0.66676654828804
37,0.6668136004210902,0.6667443721094062
38,0.666785261906156,0.6668960277363725
39,0.6667954615418609,0.6667608890446195
40,0.6668018997103808,0.6667936370901791
41,0.6667769145719347,0.6667699926931707
42,0.6667897170388603,0.6667749778503084
43,0.6667962804255612,0.6668498948955011
44,0.6667908814592296,0.6667503776929797
45,0.6667856297545051,0.6667727902888998
46,0.6667842713751407,0.6667419281177822
47,0.6667921442949617,0.6667473788349513
48,0.6667747857626163,0.6668039369401002
49,0.6667866978391866,0.6667652424497024
50,0.6667878258320638,0.6667583295709817
51,0.666777522079891,0.6667353420851391
52,0.6667854682895504,0.6667655681945392
53,0.666764956246949,0.6667714070778246
54,0.6668037365731362,0.6667717906377904
55,0.6667658353325124,0.6667881273931076
56,0.6667769662546129,0.6668874655169732
57,0.6667644532987858,0.6667827525132926
58,0.6667942161257017,0.6667512256376145
59,0.666762382604596,0.6667972738417962
60,0.6667820544740061,0.666730407426234
61,0.6667670987033408,0.6667636679933812
62,0.6667735198730232,0.6667911775964767
63,0.6667588781784708,0.6667277964060674
64,0.6667863574402894,0.6667438815596853
65,0.6667746224763575,0.6667441948943884
66,0.6667538241981813,0.6667306374160874
67,0.6667878713745473,0.6667720600605265
68,0.6667713285774465,0.6667526734406835
69,0.6667694720897873,0.6667999571626405
70,0.6667529128741249,0.6667409192861387
71,0.6667778055679794,0.666755112190826
72,0.666762524660662,0.666745924212662
73,0.6667581120349344,0.6667654059203909
74,0.6667734626600754,0.6667337697783549
75,0.666769200243926,0.6667625639256077
76,0.666762756601611,0.66674655851663
77,0.6667606742538992,0.6668597034121263
78,0.6667576521641408,0.6667738861926688
79,0.6667644592328483,0.6670026397552599
80,0.6667694864639704,0.6667451946302086
81,0.6667608982361732,0.6669259244901373
82,0.666763749627389,0.667312074330205
83,0.6667694309720842,0.6668288459530477
