epoch,loss,val_loss
0,0.45194672240423006,0.4484639050355282
1,0.4456889283203301,0.44865350144374094
2,0.4454110803827652,0.445019817019805
3,0.44540784774179115,0.4449702297514551
4,0.4414424425066061,0.3445866698480919
5,0.3340902068454177,0.33372067614693607
6,0.3339436920217441,0.33391988677164447
7,0.3338970829197686,0.3337677673635739
8,0.33390207492771806,0.33472139506785603
9,0.3339178279339794,0.33361599681580295
10,0.3338293778030012,0.33363829873704764
11,0.33381121836703814,0.33353347175497
12,0.3337798776406788,0.33440733691857794
13,0.3338020078250713,0.3335627235470879
14,0.33373422579844725,0.3336145569173115
15,0.33369439463066825,0.33384259914204034
16,0.3337683829335726,0.33421606717005486
17,0.33369634779709795,0.3339112376071861
18,0.3336562881199044,0.33361358929747775
19,0.3336484310771954,0.33429643404824755
20,0.33369063282463607,0.3340537657236244
21,0.3336845721129028,0.3336189861438651
22,0.3336711385062483,0.33351049785462383
23,0.3336454395959335,0.3335667652958006
24,0.33363075020580557,0.33375611643974173
25,0.33364019325205496,0.3335470376090526
26,0.333607327079102,0.33355129639215886
27,0.333629681354482,0.33358417085272146
28,0.3336008998864095,0.333587322878486
29,0.33360673420934733,0.3335779564093476
30,0.33359255845166025,0.3335207813077084
31,0.33359754821757037,0.33350338055812606
32,0.33357201249609564,0.3335043923599425
33,0.3335986767024819,0.33358852925044774
34,0.33362961279932807,0.33350235108881104
35,0.3335727193653633,0.333542883412032
36,0.3335727368640005,0.3335697258963088
37,0.3335788134401389,0.33347243195550863
38,0.3335671478453005,0.33350321863870425
39,0.3335569139570792,0.33363702759837616
40,0.3335701731999934,0.3335973706290319
41,0.33356143501463564,0.3334996581003454
42,0.33357420365189794,0.33362161933179224
43,0.33356958114488394,0.33350935835655343
44,0.33354637691209804,0.3334610334275395
45,0.33354971527200517,0.33356443964518034
46,0.33354020967525766,0.3334623302018204
47,0.33353754126156177,0.3334698455332439
48,0.3335445149647624,0.33348257209378335
49,0.33354257390082725,0.3335815324603738
50,0.3335434256724779,0.33348441560752523
51,0.33356407293419593,0.3334767220763208
52,0.33351040746511307,0.3336313541553058
53,0.33353583454509717,0.3335316681664925
54,0.3335219863828226,0.3334638263747628
55,0.333523767099999,0.3335557084171233
56,0.3335124376585842,0.33354224029813956
57,0.3335502170102014,0.333540168419933
58,0.3335240190279948,0.3335831670454879
59,0.33352251824312823,0.3335107917852566
60,0.3335110304943917,0.3335399708372595
61,0.33352427367806353,0.333478547536071
62,0.33351867818385117,0.33353767476659574
63,0.3335059717017652,0.3336173122158735
64,0.33351176037703567,0.3337399976400483
