epoch,loss,val_loss
0,0.5768618620236715,0.5562502311468125
1,0.5562284708155526,0.555883673230807
2,0.5560005598200692,0.5558599604765574
3,0.5558707937929366,0.5558661749362945
4,0.5559591520229975,0.5558464288711548
5,0.555915828122033,0.5557614654699962
6,0.5559466632339689,0.5557792287270228
7,0.5560899038182364,0.5558028025627136
8,0.5694468151860766,1.0
9,1.0,1.0
10,1.0,1.0
11,1.0,1.0
12,1.0,1.0
13,1.0,1.0
14,1.0,1.0
15,1.0,1.0
16,1.0,1.0
17,1.0,1.0
18,1.0,1.0
19,1.0,1.0
20,1.0,1.0
21,1.0,1.0
22,1.0,1.0
23,1.0,1.0
24,1.0,1.0
25,1.0,1.0
