epoch,loss,val_loss
0,0.5933265751070447,0.5559617666006088
1,0.5565056746535831,0.5561645441055297
2,0.5560524886714088,0.5563703956206639
3,0.6964057580894895,0.777922980427742
4,0.7781101706955168,0.7779175867636998
5,0.778686771247122,0.7783483108679453
6,0.778532500161065,0.7779427355925242
7,0.777914069864485,0.7778997616767883
8,0.777905111670494,0.7778851982752482
9,0.7779665503766802,0.7779761168956757
10,0.7779068083100849,0.7778866820335388
11,0.9694159500863817,0.7779080866575241
12,0.7779050221045812,0.7778908302386601
13,0.7779080401261648,0.7778947431643803
14,0.7779008415407604,0.7778862011830012
15,0.7778968272871442,0.7779115096728006
16,0.7779093290567398,0.777874807993571
17,0.7778918816116122,0.7778805197874705
18,0.7778876091506746,0.7778723579645157
19,0.7778850468529596,0.7778732098340988
20,0.7778856530984243,0.7779075755675634
