epoch,loss,val_loss
0,0.3985746770357494,0.36241130901852564
1,0.3636197717763406,0.36441603793618355
2,0.3644614875841561,0.36481721710114584
3,0.3645182692641922,0.36462890417809807
4,0.3647467267331932,0.3640939533372092
5,0.3648227165230185,0.36484104547187357
6,0.36497053289241654,0.3658790840961444
7,0.36530041734011676,0.3647353654215226
8,0.3655706257510892,0.3651590687370068
9,0.3656658136529671,0.3640788729270106
10,0.3663001173109508,0.36674506199717616
11,0.3666219591879673,0.3671175674123679
12,0.36547670375594526,0.3602537912318886
13,0.35813984011200733,0.357163206286674
14,0.35527880396768513,0.3544663528504646
15,0.35206054479146215,0.3461037603994742
16,0.3472789593631502,0.3462449797555285
17,0.3465409210388712,0.34959173801944976
18,0.3460635094999599,0.3483449493301466
19,0.34567148229472633,0.34817385199779627
20,0.34640211178313457,0.3443154614578875
21,0.3464531544163477,0.3483394578957306
22,0.34646153916493716,0.34621150316693194
23,0.347450861341959,0.3521929774599547
24,0.3490824158235585,0.34388321335975075
25,0.3494934669082121,0.34865737746908526
26,0.3513131844725391,0.3527432368571257
27,0.3523309924442163,0.3537269506817993
28,0.3521463268751903,0.4446607557188082
29,0.3520327168669674,0.35210931100501147
30,0.3530373623291906,0.353990087423108
31,0.35222069756854907,0.35196457485406263
32,0.3517208163909095,0.35263322751790843
33,0.35249736658137165,0.35331498590409033
34,0.35335999180833466,0.35375500945955973
35,0.3532553561526933,0.35390140122257396
36,0.3532705387895445,0.35366422066046566
37,0.353725903064275,0.35343648982744147
38,0.35378978209938405,0.35307980734259736
39,0.3540457586964385,0.354902503916817
40,0.3541608420703963,0.35488354567580366
41,0.35369679942619714,0.35576826984188176
42,0.3542571305584392,0.35427214660880435
43,0.3543963897481167,0.3569331328654231
44,0.3552955109014618,0.3546485069169325
45,0.35520518205469376,0.35678412115680236
46,0.3554761126291475,0.3553563412233571
47,0.3555490200738128,0.3560067357953157
48,0.35561919821988497,0.35607685998311783
49,0.3556118161082745,0.35818526146379026
50,0.3561136407719506,0.3568308103258592
51,0.3562025304457204,0.35710945188854154
52,0.35613664796201583,0.35717860579684024
53,0.35623337539603367,0.3573835730455991
54,0.3568548808773581,0.3571883441226229
55,0.35706337009839195,0.35696866214033657
56,0.35771966499505375,0.3584371782712403
57,0.35808020809872615,0.3595214995637911
58,0.35836169504231696,0.35840236666912195
59,0.35826521566670066,0.36036326548285535
60,0.35995564049630285,0.36097608822105576
61,0.3612573124629388,0.35956941415697025
62,0.36168174970569944,0.3617615939298492
63,0.36154962847049565,0.3626960647705601
64,0.3621422340027135,0.3618501236500628
65,0.3624635787726976,0.36222022385106084
66,0.3614962561379632,0.3579955315647914
67,0.35775971132292567,0.3545547779845882
68,0.35363662054387923,0.3282665448853956
69,0.29829889581836255,0.2920791698198249
70,0.298039300130118,0.2958559860858314
71,0.29958123643938495,0.30042822000367414
72,0.3014868593053688,0.3053433440945928
73,0.303165078139286,0.30171885467697135
74,0.30319513564256784,0.3091031544254934
75,0.30467976766934485,0.3028269327711692
76,0.3049255557137551,0.30715126251168884
77,0.3045906700474248,0.30300474377154146
78,0.30546657753000267,0.3086767825090295
79,0.305682089135015,0.31058468290779134
80,0.3079572806270529,0.30894198445701443
81,0.31119323030913515,0.3081906298409607
82,0.31263062288705784,0.31849281239683613
83,0.3102326303410282,0.3053707526112995
84,0.31126440068881356,0.3110097389296604
85,0.3127719294294727,0.30704696975581935
86,0.3131042372187774,0.3104072282300765
87,0.3161687504252593,0.3154930271274755
88,0.31816916211878804,0.32015572615203486
89,0.3172861461619361,0.3277292183184179
90,0.3207905533625852,0.32240544809428834
91,0.3220747453246334,0.3212063698292939
92,0.31971546785653926,0.3159578979643785
93,0.3267836624426876,0.334957070787651
94,0.31743432639884034,0.33919247731095103
95,0.3210842557627263,0.33780700855398216
96,0.3292257156464651,0.304846043520987
97,0.32337432661898335,0.3542831150961425
98,0.34216978778545143,0.3352711289661838
99,0.34077458794685817,0.34449091821981465
100,0.34867710433452964,0.3208412312436471
101,0.31424209724864166,0.30540264464932926
102,0.29898438717218473,0.3094614075386515
103,0.31169233666218404,0.30787942874557295
104,0.3152220018082757,0.32390979594654506
105,0.34366721825135815,0.35263929969879637
106,0.33694475892785075,0.2961365008682907
107,0.2141819967954659,0.1700680570590815
108,0.1595946414272388,0.14471058096111256
109,0.14217997860727166,0.13902671146905238
110,0.1409970717348033,0.14354773953448247
111,0.14086809873974637,0.13925525905611258
112,0.14180982279314625,0.1381963483523955
113,0.14118313861845302,0.13857257709402623
114,0.14000955436697857,0.13958514531332597
115,0.14074860868141878,0.13670855346048932
116,0.14062804317145083,0.13933188198715907
117,0.13948837962684582,0.13720903607857296
118,0.13990479716367488,0.13623105091649346
119,0.1399812791153514,0.13857243430029542
120,0.14022176393312966,0.1358406645489822
121,0.13983447112149006,0.13524658930852756
122,0.13839226188637715,0.13974486556076365
123,0.1392169230616837,0.1359842179852197
124,0.13777922168433715,0.13940005517426488
125,0.13909237425598361,0.13537692135412907
126,0.1477131806850863,0.14064794719001672
127,0.14446996454241945,0.14018979680702537
128,0.144839890665107,0.14243621988839864
129,0.14447748273599137,0.14400627326283721
130,0.14701999778791464,0.14488965729727363
131,0.1508042587994861,0.1507305116524855
132,0.1510732322513723,0.14757365297710423
133,0.1497878948982665,0.1502723417396673
134,0.14998969167554446,0.15230482892229222
135,0.15106749079459375,0.14946535169860742
136,0.1520189626352657,0.15119878986407756
137,0.1524778415230487,0.15187129893152093
138,0.15378017245446615,0.15621794576530812
139,0.15432492546659646,0.1562772005530556
140,0.15662563316899838,0.15826038994493274
141,0.15690479723153541,0.1559029826343011
142,0.15730794977614457,0.15662957233620772
143,0.15833286100251376,0.15699058470813995
144,0.1582054034698668,0.15803041298845774
145,0.1579631021212014,0.1590864500642693
146,0.15733452072386458,0.15491860959337478
147,0.1575900511271816,0.15981368956194597
148,0.1559228287417713,0.15120058559902488
149,0.15476768367809712,0.15421822448982422
150,0.15524379345920203,0.15399198244353765
151,0.154527401135529,0.15899855790951342
152,0.15384468069677357,0.1528732753981929
153,0.15507610725631132,0.15218153330652287
154,0.15496458082770806,0.15511109761513062
155,0.1555303828425413,0.15356589749225832
156,0.15648233657889218,0.1570904921839997
157,0.15821922134408195,0.15826601755638386
158,0.15842638223218003,0.16078481856440494
159,0.15907808708502733,0.16557989667705278
160,0.15870208855721357,0.1580543910717442
161,0.15825241848265675,0.15911770564264527
162,0.15840410887061643,0.1567988710331414
163,0.15935670145995337,0.1596690502202037
164,0.1597386385628087,0.15701610932167429
165,0.1582780869586693,0.16040101182093391
166,0.157919786124825,0.16122182039883884
167,0.15806783294921117,0.15621071209147608
168,0.1584473978564012,0.1559564680078604
169,0.15776566359355412,0.15597988627639517
170,0.15803591241303971,0.15755824381538455
171,0.15804036655981507,0.1545966396958772
172,0.15884341592128703,0.15827187043761975
173,0.15958283863084807,0.15636186774243016
174,0.15834638776721432,0.16014930930378374
175,0.1586928758367574,0.15930028489978934
176,0.1592708434596407,0.1581236633614902
177,0.15940440506685535,0.1593371959220367
178,0.1592545152378617,0.16006265069446424
179,0.15912752733338442,0.1587329944240689
180,0.15991559015919535,0.15408426205969786
181,0.15509366386348578,0.15821910769786665
182,0.16429873991957467,0.16442559800878928
183,0.1650535318824508,0.16559837427404192
184,0.15592951892470244,0.15125373193793246
185,0.149829173157867,0.14112958783360874
186,0.14378217425200346,0.14114334511616708
187,0.1419681071119608,0.13388649861283738
188,0.137708424158794,0.13612393706142661
189,0.13578512323938244,0.13292174269683169
190,0.13476750829679857,0.12788073409164424
191,0.13405405172259452,0.12827420217156507
192,0.1325413242513366,0.1376719021835853
193,0.13042036725806178,0.12458855676293276
194,0.12895919735714184,0.12420783095237016
195,0.12750041449637867,0.13017654467890732
196,0.12641872948198152,0.12685005081589398
197,0.1253653014327785,0.12268015750761643
198,0.1267959783502442,0.1224892560607132
199,0.12574198017354676,0.12375621357441723
200,0.12556103273355265,0.11844841398703597
201,0.12486592720779445,0.11998819414184815
202,0.12580473945618534,0.1211040516029696
203,0.12538087665676784,0.12948677538375206
204,0.12476844861029719,0.1204158815238791
205,0.12320866062640666,0.12220649828489293
206,0.12295033434947268,0.12566616535428474
207,0.12432069643985948,0.12736662376342706
208,0.12344305958446739,0.12740297598608702
209,0.12206760163100554,0.11813619415617917
210,0.1205152025322517,0.119382937084536
211,0.12321708123501632,0.1225040943300637
212,0.12672731244535423,0.12304022947487943
213,0.12882976856729905,0.12412023004703375
214,0.12575970520619587,0.1232786398420272
215,0.12874765217518977,0.12196319290442091
216,0.12722390376216322,0.12148394242279528
217,0.1280603643515713,0.13125394002533694
218,0.1297586825821665,0.12844832214947552
219,0.1304463120229584,0.13147268837675852
220,0.13300180074283846,0.1359481659188371
221,0.1367630539648384,0.1392168929952968
222,0.14183381151816576,0.13419650741592232
223,0.14186174976374744,0.15148047399491868
224,0.15370061890698605,0.1505966199635976
225,0.15952108718687483,0.14727354082917163
226,0.13882288975928955,0.13440006019642753
227,0.13513635364983728,0.13555566377375827
228,0.135045777382948,0.13061481788573184
229,0.1332249264445326,0.1375789339476645
230,0.1330339552415572,0.13086215958953967
231,0.13258773050277686,0.12962111311648208
232,0.1309409382118522,0.12927770738498234
233,0.12914212785655255,0.12757318827043387
234,0.12765691859768427,0.12506087266954097
235,0.12773595045539166,0.13260472980414767
236,0.1273839019620724,0.12401466205148125
237,0.1262636144844602,0.12377603252970486
238,0.1269014333669332,0.1290745377987744
239,0.12863050863814887,0.12595630286069584
240,0.12658893388567016,0.12209733728461408
241,0.12664814031808924,0.12425598876803073
242,0.1259379817979683,0.12426783010931587
243,0.12569370989898762,0.12100380384163072
244,0.12497524991392898,0.12823073440272925
245,0.1303769762965562,0.13387287574286202
246,0.13943999680616648,0.1553480694763852
247,0.13726488901697415,0.12111911537172537
248,0.17108891295899956,0.175894467354981
249,0.15978370200964906,0.1214293325312333
250,0.12727578916401266,0.09303468373352594
251,0.10330301853086206,0.09877200992679751
252,0.10006213313143095,0.10355056867015526
253,0.10043454329797132,0.10257469338802236
254,0.147743493980699,0.19974717529247374
255,0.13572524508552325,0.1456190621524155
256,0.15283719503922497,0.12542157273948049
257,0.13540584477092668,0.13024582851010422
258,0.14675626357058413,0.1325359798768431
259,0.13179133237720586,0.16224872785569786
260,0.14248988911318627,0.10985574710567308
261,0.1368989058650189,0.1287989835862889
262,0.13966543448446178,0.20007306525887075
263,0.13383815958022213,0.13318166852795005
264,0.144685755943875,0.12794248515623716
265,0.1569274913152759,0.1667938218523793
266,0.15249829029170775,0.152218885399516
267,0.14383048759557135,0.21365746199504593
268,0.15725996819219654,0.13475527582329072
269,0.14025664418709097,0.1422965214719931
270,0.15327393152625013,0.1297542407975773
271,0.14373047744111123,0.14349873986968353
272,0.15866378365193395,0.1767881950491923
273,0.16919114781592826,0.1455771405512689
274,0.14575977257495407,0.12511098531693438
275,0.12066458177874334,0.11382496193812712
276,0.12023214266909132,0.12315001700674724
277,0.12319741913194271,0.1108965339669346
278,0.14251642919080654,0.13467022570549522
279,0.13159028931951122,0.12621625610729204
280,0.12754427090442305,0.12498924029811262
281,0.12691259194162485,0.12565755024733624
282,0.12915484609904052,0.1319374493402576
283,0.12756403186936394,0.11932998966344081
284,0.12702768685235033,0.125071560047017
285,0.12711117506695327,0.13573138632140117
286,0.1270503504477662,0.12989286078322929
287,0.14112798613999442,0.2500396887171297
288,0.14951887174701098,0.1318987728204557
289,0.14575530757144797,0.13171327819886094
290,0.14618643219049593,0.145118303077306
291,0.15856488424840215,0.15869934835742378
292,0.13715857891641778,0.12491138749555757
293,0.13260300755739404,0.145224390697982
294,0.14950524418174124,0.14840833628240485
295,0.1488514346412843,0.12457833341825134
296,0.12950498746444072,0.13374825780916677
297,0.14172806508176988,0.1928221884773499
298,0.16337151045473314,0.17797485216303946
299,0.15725377897878853,0.14223753776936054
300,0.15077731717792486,0.13022310835432446
301,0.1401921791301144,0.12423880865369884
302,0.1361763123914993,0.1390651146679609
303,0.14128298587423024,0.12601504103255678
304,0.14300274200516763,0.14027508000170227
305,0.14369269213180622,0.13480186476300426
306,0.13940271559216863,0.12606131614753122
307,0.1378996663535233,0.16826171049091357
308,0.15506140845384095,0.1300804062843903
309,0.1423143794248589,0.1402099717767956
310,0.1552119591833354,0.130570292750801
311,0.12777651467616316,0.12337305107956868
312,0.1239665405238696,0.1122118915761281
313,0.14724113923714482,0.13362770217613582
314,0.12739900573252963,0.1309585043403644
315,0.12733145289307982,0.11909165891417622
316,0.12146137601094212,0.11611645137596595
317,0.12209909333227824,0.1266785894504719
318,0.1229580950269325,0.1237127409231247
319,0.12302082560186962,0.12261403339936883
320,0.1242294747283976,0.12996126730705024
321,0.13368851071994622,0.1237093054682669
322,0.17734500106940088,0.17010480775184392
323,0.15062614595644278,0.1445238779435676
324,0.13499269356803478,0.1313300584318284
325,0.13352753499372183,0.13020198110004605
326,0.13319065962866652,0.12923863191770907
327,0.1327630812921125,0.12982017855671296
328,0.1319304871483981,0.13037272546944922
329,0.131684240096922,0.13193857763491312
330,0.1336067146491155,0.13344155088224163
331,0.1400237658961092,0.12881204559613513
332,0.15749873744071818,0.19299122795087964
333,0.16263485047295154,0.1679529164225129
334,0.15072937510173925,0.13352206860580584
335,0.14675545166906498,0.12798720913646866
336,0.14640516279230983,0.12900953899407328
337,0.14079116235634057,0.131989586122473
338,0.1470996724058381,0.13499459232122843
339,0.14542411838630565,0.13050621523788472
340,0.13457703193108306,0.13803068086178633
341,0.14498463462146402,0.126778285216241
342,0.13076009112801715,0.13246611110557896
343,0.1414593809229837,0.11853213706155763
344,0.1254955105590906,0.1313134097862031
345,0.13538456512533062,0.1466683111329535
346,0.15380092472541895,0.1258500045934346
347,0.1335686114493659,0.14434734925881498
348,0.13841604401437257,0.14470483846086268
349,0.14428243694828452,0.12552816334987982
350,0.13124756991648504,0.13434004403548036
351,0.1492353578070529,0.17327831135662417
352,0.17282491021627802,0.19035000469466098
353,0.1732579382170764,0.150054862488602
354,0.15361916582235058,0.13856046803942176
355,0.17250416939071506,0.17173025251305016
356,0.17008397771750955,0.18291573767872815
357,0.1672008922002953,0.13970960921397174
358,0.16073692107112336,0.16206943674582538
359,0.16660877900292054,0.12420947273886504
360,0.14335535279362557,0.131751323359001
361,0.15293455551907098,0.12494996630579885
362,0.147096430031274,0.13156433521927804
363,0.13718611674548817,0.13661747005830813
364,0.15905301977065298,0.21056918293503563
365,0.1563492256542556,0.14789824550918515
366,0.14266788433071037,0.13300957687241413
367,0.1491180961613086,0.20211114046154038
368,0.15457426679967115,0.13115182305049433
369,0.1544198241946791,0.13961328007734025
370,0.15318503474490083,0.14109737805520628
371,0.1489988126015787,0.18621879483709852
372,0.14745639507070457,0.1432059957779527
373,0.146026097760022,0.1330412881386928
374,0.1634922525834283,0.16302357719786653
375,0.15690498972674005,0.13545321823012413
376,0.14638286823327776,0.13147023436821098
377,0.15282269651957567,0.14993056694207305
378,0.14505311614387126,0.15456376839293182
379,0.15592460068549702,0.135440029318702
380,0.14408630444060525,0.14464157062604577
381,0.15167003371913115,0.1385381824766729
382,0.15311094570317393,0.138132382652572
383,0.14901643195707764,0.1491885421388244
384,0.1577899693082675,0.14338842099600466
385,0.15177866015091146,0.1327161495570042
386,0.143920584418494,0.130422458650857
387,0.1505967687406809,0.13138878759410647
388,0.14403705668745279,0.13373802469957194
389,0.1438287034171452,0.13507400573943557
390,0.15147024204281925,0.1478846129468081
391,0.1492813500740511,0.13700036025951282
392,0.146288847638737,0.13255941199511895
393,0.15132289849895778,0.16829557556112124
394,0.15223212753108636,0.15047040210684817
395,0.150801255961983,0.13448402081938748
396,0.14726019780739869,0.1296992007543281
397,0.1493996076637788,0.20908026141020117
398,0.14633082860918212,0.1600918190528103
399,0.14414955257140608,0.13414991766045176
400,0.1534816437781907,0.1648969908772884
401,0.15296728254330932,0.1318631328442961
402,0.14450971482156086,0.19007420051610285
403,0.15011943178512366,0.13112022164553427
404,0.14289589021936525,0.14326191382952463
405,0.1519240155231485,0.1570583832452477
406,0.14514046334463945,0.13533694029990387
407,0.1616786287499486,0.1558886215948807
408,0.14670730473173915,0.14710306955104133
409,0.13611208980051492,0.12431090566822889
410,0.13789576283686633,0.12548895927096226
411,0.1429769475284436,0.13628713479031418
412,0.1372513382213177,0.12846734777805965
413,0.14884983222660206,0.12378224914792293
414,0.14124946184665133,0.12635341500568853
415,0.14210483087025422,0.12397578760486062
416,0.14099269961599734,0.12849052832291943
417,0.14360182170716643,0.13980576239483974
418,0.14108931526446267,0.1272225963179889
419,0.15078990452820726,0.12804159401807955
420,0.13645257603368155,0.12674375782386132
421,0.1388513798548805,0.19309204838571759
422,0.1354263652148869,0.12977766055864526
423,0.1368525587559176,0.1431456725177297
424,0.13960143070134093,0.13368397838732912
425,0.13927322739453388,0.14507132145030074
426,0.1355338843138195,0.13511872620284798
427,0.14874383633295662,0.14783645975377052
428,0.1388824623498657,0.13433891429663283
429,0.13724036942168272,0.15069094212651737
430,0.13483786145396667,0.19575905246359493
431,0.1352163155446108,0.1402540803136907
432,0.14030861013753115,0.13687275388766765
433,0.14156690355035378,0.14863735608400025
434,0.13178321759434963,0.1387468403551217
435,0.13746023212698957,0.12320249085975486
436,0.13950472406512074,0.15684778294665777
437,0.1332359997133573,0.14326422249434542
438,0.1438803115876032,0.12245509437521782
439,0.1379838027746034,0.12984016350948607
440,0.13344410015009134,0.1427381149427444
441,0.14204176552027012,0.13164860642811968
442,0.13056120505217936,0.13020814036752573
443,0.1360109383799583,0.18753943051493274
444,0.13301511247567027,0.13218399945764356
445,0.13509076007539697,0.13667179430198206
446,0.13734990954578066,0.12594375662076598
447,0.13871195093632413,0.15305356787697436
448,0.1297428741383018,0.12448454939511763
449,0.1295510448867364,0.1289657968166681
450,0.13782027018091697,0.13137215310035444
451,0.13312962639918796,0.16601732925535312
452,0.13782788868590867,0.133675862819754
453,0.1303370182482217,0.12553847364217213
454,0.13759830126984773,0.12718953301605904
455,0.13788359443112028,0.133597554776452
456,0.1321341202104445,0.12923588257491445
457,0.13630337429772005,0.12709454897812297
458,0.13045188901219681,0.12338997126350727
459,0.13824007729049012,0.13427694781780822
460,0.13246969989925217,0.13843448823869275
461,0.13885308055578469,0.12018677352988807
462,0.12446202000407719,0.12181695912030298
463,0.12205479822879892,0.11776368057737482
464,0.12170243607438784,0.11785195240356626
465,0.11815383666760927,0.11937105092495703
466,0.12030568137597904,0.12036932336539634
467,0.12222335831500035,0.11971657370297965
468,0.12241139322567024,0.12449044308233145
469,0.128522204755663,0.13618924216777448
470,0.1635599977122821,0.13808299616184644
471,0.1358305024470779,0.1356187289624512
472,0.13324373032005907,0.136361597657252
473,0.13219274492491428,0.1286940976542278
474,0.13067992594096067,0.13036082917635555
475,0.1297473606643818,0.1329932592065955
476,0.13008800771734635,0.13363777862413087
477,0.13046088689763705,0.1301913864409063
478,0.1300658039074597,0.127811181918693
479,0.1397423317120541,0.12880676461493978
480,0.136318346994032,0.13605457583603972
481,0.14565563694931108,0.17889257286586902
482,0.14081883118797342,0.12190922886882481
483,0.12695871587630936,0.13970145632702455
484,0.1303741460930022,0.12984712994736766
485,0.15157614450594536,0.12923669396912482
486,0.12618491578820326,0.12087633095180128
487,0.12907561456100095,0.1280736874211927
488,0.1391687044639698,0.13265999640426496
489,0.12775737214520322,0.12115215441848047
490,0.12846993130920314,0.12411983948675288
491,0.1362601304956204,0.12357950733864298
492,0.12613433237083918,0.12208780500696427
493,0.126986975588495,0.13460368570620126
494,0.14262275877084324,0.1300724198360416
495,0.12883176508428956,0.11957933773669593
496,0.12853232447842391,0.13884611621148588
497,0.13937566571050972,0.12324669632066679
498,0.12766116453383902,0.1249101137181945
499,0.12995785021120973,0.130651079335787
500,0.13773636392551103,0.12259208034521568
