epoch,loss,val_loss
0,0.8352557497951719,0.8892453749577205
1,0.8890928887261285,0.888969512184461
2,0.8891974907186296,0.9117817078034083
3,0.8891065360837512,0.8889794334967931
4,0.8890094296534856,0.8889529684384664
5,0.8890119825601578,0.8889874588648479
6,0.8889733533064524,0.888952755689621
7,0.8894641543626786,0.8890290695428849
8,0.8910972480244107,0.8889687196413676
9,0.9576047241952684,0.8889728388388951
10,0.8889881790214115,0.8889668239752452
11,1.0059176654948128,1.0001105380853017
12,1.0000181278387705,1.0
13,1.0,1.0
14,1.0,1.0
15,1.0,1.0
16,1.0,1.0
17,1.0,1.0
18,1.0,1.0
19,1.0,1.0
20,1.0,1.0
21,1.0,1.0
22,1.0,1.0
23,1.0,1.0
24,1.0,1.0
25,1.0,1.0
26,1.0,1.0
