epoch,loss,val_loss
0,0.5593227993249893,0.5569073695341746
1,0.49173420494794845,0.4467144508560499
2,0.4458297466437022,0.4461188578208288
3,0.4470453517304526,0.4456985534628232
4,0.4196994563407368,0.33468900444110233
5,0.3347377789682812,0.3345199343164762
6,0.3346908762190077,0.3344245486855507
7,0.33462139754162895,0.3344837361971537
8,0.3345994350247913,0.3346416407227516
9,0.33455280514558156,0.334560560743014
10,0.33454506067434947,0.3344283203085264
11,0.33450287853346933,0.33442538148164747
12,0.3344884938663907,0.3346815772851308
13,0.33447442040840786,0.33436997878551483
14,0.3344592866235309,0.33432100133101145
15,0.33444992953538893,0.3342800799210866
16,0.3344592476023568,0.3343379403750102
17,0.33442838227086596,0.33445857020219166
18,0.33443156066205765,0.3342981213728587
19,0.3344178408781687,0.33489103605349857
20,0.3344204065269894,0.3342448012630145
21,0.3344022293686867,0.33427194494009016
22,0.3344059914416737,0.33438132017850875
23,0.3344051057961252,0.33434203402201335
24,0.33439724753962624,0.3343219724694888
25,0.3343803820411364,0.3343145982424418
26,0.33438782250218924,0.334599433362484
27,0.3343829414182239,0.33434027367830277
28,0.3343738361663289,0.3343374212185542
29,0.3343865932491091,0.3343042688171069
30,0.3343933379782571,0.3342414457798004
31,0.3343781770798895,0.33434004229307174
32,0.3343699849645297,0.33428731642166776
33,0.33436834210819666,0.3344012202620506
34,0.33435740054978264,0.33427999254067736
35,0.33436079964372845,0.33441939079761507
36,0.3343722253508038,0.33451259762048724
37,0.3343742953936259,0.33438522652784985
38,0.3343632208903631,0.3343580492138863
39,0.33436102753215363,0.33421284701426823
40,0.33435921892854903,0.3343332757751147
41,0.334354339937369,0.33477904826402666
42,0.3343557227916188,0.334666197737058
43,0.3343555976483557,0.3344071124792099
44,0.3343500686883926,0.3344251787662506
45,0.33434994134638046,0.33423333352804185
46,0.33436232656902737,0.33429695111513136
47,0.3343447747959031,0.3342537686427434
48,0.33435101864735284,0.33427183179060616
49,0.33435771840148504,0.33422471900781
50,0.3343497091399299,0.3346780002315839
51,0.33434317772256006,0.33420711906751
52,0.33433607584900327,0.3342186749776204
53,0.33433821224504046,0.3345541551510493
54,0.3343435574505064,0.3347192079226176
55,0.33433876962794196,0.3346660528977712
56,0.3343348567949401,0.3342798985640208
57,0.3343474760055542,0.33427175573507945
58,0.33433638681968053,0.3342912814617157
59,0.33432972409990097,0.335048287888368
60,0.334347023665905,0.33480501212676367
61,0.3343317883610725,0.33444407167037327
62,0.3343367348048422,0.33448179324467975
63,0.33434371193912293,0.3343815659284592
64,0.3343558574914932,0.3344484071135521
65,0.33433454651965033,0.33426501921812696
66,0.3343626443677478,0.33422528763612114
67,0.33434372733036677,0.33450478343168893
68,0.3343376315699683,0.3342538709441821
69,0.33433580682675046,0.3343750561475754
70,0.3343255876104037,0.33433520756165186
71,0.33432213448815873,0.3342176204919815
