epoch,loss,val_loss
0,0.5604219159815047,0.5571158675352732
1,0.5568717076778412,0.5565968429247539
2,0.5566708041297065,0.5565246475140254
3,0.5565415529542499,0.5564542550245921
4,0.5564893572595384,0.5565712968905767
5,0.5564416534900666,0.5565843364397685
6,0.5564216044743856,0.5564693648020427
7,0.9480981579621632,0.8892386707862219
8,0.889173261642456,0.8891412597497305
9,0.8891263404157427,0.8891637536287308
10,0.8891124118036694,0.889117531855901
11,0.889109726164076,0.8890759861071904
12,0.8890985890361998,0.8890998783111572
13,0.8890937654972076,0.8891116940577825
14,0.8890876940488815,0.8890731816291809
15,0.889086778945393,0.889071738799413
16,0.8890821955071555,0.8890591733058294
17,0.889079349650277,0.889061262567838
18,0.8890783716175291,0.8890760859648387
19,0.8890751895242267,0.8891471966107687
20,0.88907419804732,0.8890683773756027
21,0.8890803025166194,0.8890535586277644
22,0.8890732703738743,0.8890738342603047
23,0.8890734012126923,0.8891086452404658
