epoch,loss,val_loss
0,0.6698595881727006,0.6676596342325211
1,0.6327776915364796,0.5565595058600108
2,0.5567493288516998,0.5565406512419383
3,0.5566257122622595,0.5569550518989563
4,0.556509841216935,0.5564148173332214
5,0.5564447747866312,0.5563632575670878
6,0.5564022484355503,0.5562766105731328
7,0.5564859002961052,0.5565486198266347
8,0.5563929129044215,0.5565670620997747
9,0.5563533064391878,0.556364557504654
10,0.556775595664978,0.5566199127833048
11,0.6072311699787776,0.667340312520663
12,0.6672776187525855,0.6673557132482528
13,0.6672460188070933,0.6672202181816101
14,0.6672309822506375,0.6671818308035533
15,0.6672273251083162,0.667173921306928
16,0.6672262162102593,0.667211896498998
17,0.6672051780488756,0.6671758312384287
18,0.6672085157897737,0.6671769567728043
19,0.6672578716145622,0.6672497235536575
20,0.6672076491382387,0.6673229418595632
21,0.6671985117064582,0.6671443953514099
22,0.6672029961612489,0.6672168059746424
23,0.6671954620944129,0.6672105778853099
24,0.6671844896210565,0.6671901645660401
25,0.6671924027601878,0.6674595254262289
26,0.667193504969279,0.6671991461912791
