epoch,loss,val_loss
0,0.461353422443072,0.5555829302867253
1,0.5226218883660104,0.4444483065803846
2,0.44504186242156557,0.4445252129634221
3,0.5660832315815819,1.0000010305245717
4,0.9029510276317596,0.8888952307701111
5,0.8888993819289738,0.8888950974941253
6,0.8896311434242461,0.8889008001089096
7,0.8889114528894424,0.8888949408133825
8,0.888901065270106,0.8888957128127416
9,0.8889004651837878,0.8889059532086054
10,0.8888996077643501,0.8888949408531189
11,0.888898086587588,0.8889111102819443
12,0.8888996610376569,0.8888950896263123
13,0.8888956636587779,0.8888949408133825
14,0.8888966425922182,0.888894943356514
15,0.8888964056836234,0.8888949408531189
16,0.8888961730533176,0.8888960607846578
17,0.8888960495392482,0.8888952290614446
18,0.8888959251244863,0.8888951344092687
19,0.8888953833182652,0.8888952389955521
20,0.8888954941696591,0.8888949410120646
21,0.888895399067137,0.8888950382868449
