epoch,loss,val_loss
0,0.6011605206727981,0.6667206175724665
1,0.6666839878029294,0.6667255087296168
2,0.6667102088530859,0.6667324586311976
3,0.666816562877761,0.6666850527524948
4,0.6667006170882119,0.6666843802134196
5,0.6666958406766256,0.6666845585505168
6,0.6666955278714498,0.6666853140592575
7,0.6666920046276517,0.6667926212151846
8,0.666691880636745,0.6670089766581854
9,0.6666908677419027,0.6666977158387501
10,0.6666902678675122,0.6666852908531825
11,0.6666903345717324,0.666684752146403
12,0.6666900397671593,0.6666843450864156
13,0.6666886614031262,0.6666910353899002
14,0.6666879847049713,0.6666882200241089
15,0.6666879696448644,0.666685153722763
16,0.666687304602729,0.6667052776018778
17,0.6666865851349301,0.6667027905384699
18,0.6666864544285668,0.6666868570248285
19,0.6666855985456043,0.6666864227851231
20,0.666685617433654,0.6666951781113942
21,0.6666841990682814,0.6666899898846944
22,0.6666844541894065,0.6666843450864156
23,0.6666829786698023,0.666684395313263
24,0.6666834017833074,0.66668470454216
25,0.6666832584142685,0.6666843450864156
26,0.6666836811436547,0.6666877056360245
27,0.6666863755120171,0.6666843450864156
28,0.6666827342510223,0.6666845835049947
29,0.6666828822294871,0.6666843450864156
30,0.6666831878291236,0.6666865487098694
31,0.6666825652519862,0.6667036903301875
32,0.6666824221743478,0.6666846260627111
