epoch,loss,val_loss
0,0.8405839577780829,0.8889201759099961
1,0.866909036980735,0.7777906692822775
2,0.7777947718832228,0.7777953029076259
3,0.7778029938273959,0.7777987302939097
4,0.7778006593783696,0.7778701596657435
5,0.7777980895307329,0.7777896426518758
6,0.7777966471380657,0.777789702574412
7,0.7778104645543629,0.7777896426518758
8,0.7777904980844922,0.7777954783439637
9,0.7777936500840716,0.7778083389997482
10,0.77779270474116,0.7777909541924795
11,0.7778038305573993,0.7777909244298935
12,0.7778004741668701,0.7777896494865417
13,0.7777889999283685,0.777789812207222
14,0.777790256328053,0.7777896488507589
15,0.7777955746650695,0.7777896426518758
16,0.7777904577122794,0.7777896426518758
17,0.7777897892528111,0.7777902219295502
18,0.7777901392777761,0.7777896426518758
19,0.7777905821270413,0.7777897020975749
20,0.777789907640881,0.7777897098461787
21,0.7777899572981728,0.7777906226317087
22,0.7777900514602661,0.7777899862130483
23,0.7777895689143075,0.7777904682159423
24,0.777794706609514,0.777794750849406
25,0.7777895487414466,0.7777912096182505
