epoch,loss,val_loss
0,0.479622233721945,0.5555807047287623
1,0.5555983406437768,0.5556877003510793
2,0.6857965422868728,0.7777925828695297
3,0.7777854785786734,0.7777943739096324
4,0.7781539319753646,0.7777901787360509
5,0.8483074362940258,1.0
6,1.0,1.0
7,1.0,1.0
8,1.0,1.0
9,1.0,1.0
10,1.0,1.0
11,1.0,1.0
12,1.0,1.0
13,1.0,1.0
14,1.0,1.0
15,1.0,1.0
16,1.0,1.0
17,1.0,1.0
18,1.0,1.0
19,1.0,1.0
20,1.0,1.0
