epoch,loss,val_loss
0,0.5382610072626008,0.5555943972269693
1,0.5556060542133119,0.555636057138443
2,0.5556792123450174,0.5555792311827342
3,0.5559860434664621,0.555577985405922
4,0.6340129789908727,0.6666849158207575
5,0.6666991099649006,0.6667255043586096
6,0.6666983030504651,0.6666844569444657
7,0.6666947538852692,0.6666847037474314
8,0.6666939775149028,0.6666887222131094
9,0.6666933695607715,0.6667023238341013
10,0.6666918565299775,0.666685103615125
11,0.6666924017800225,0.6666950803597768
12,0.6666883140405019,0.6667124869028728
13,0.6666877635452483,0.6666912406285603
14,0.6666876899533801,0.6666868234872818
15,0.6666879423194462,0.6666847076416016
16,0.6666863358285692,0.6666848517656326
17,0.6666863807174894,0.6666843450864156
18,0.6666870843701892,0.6666856969594955
19,0.666685549153222,0.6666859596172968
20,0.6666858921978209,0.6666873731215794
21,0.6666862273348703,0.6666849710146586
22,0.6666848591036266,0.6667810941537221
23,0.666685720814599,0.6666850880781809
