epoch,loss,val_loss
0,1.0219434496877287,0.9165153624270858
1,0.2635682361831276,0.17019884226676033
2,0.16765275280519998,0.1621745866991501
3,0.1674474613596383,0.1714622592863182
4,0.17014052100879273,0.16329550073578022
5,0.16693271443044977,0.1692926428928089
6,0.16768312072448485,0.1654186551999195
7,0.16699052575507387,0.1635496961398523
8,0.16616791233814077,0.16133002507812302
9,0.16146757084133628,0.1574428299047651
10,0.16020748662867482,0.15907711668026128
11,0.1586420140605721,0.16205754377014348
12,0.156281384637205,0.15852309786393598
13,0.15497403133741086,0.14985771811984944
14,0.1328417023627447,0.1182480946739128
15,0.11072387937322152,0.09816285489853668
16,0.1043889564160016,0.0990424454937306
17,0.10446184832420799,0.10471221590709222
18,0.10349725962902089,0.09427591984289406
19,0.10384620391458774,0.09533329570283758
20,0.10262509807049512,0.09562608760397123
21,0.1026136590640625,0.09505118955975128
22,0.10136379475136391,0.0981268882630612
23,0.10219545450338943,0.09206157495529789
24,0.10071750622305324,0.0985479669015483
25,0.09846920190786151,0.09655294228354219
26,0.0996210899374025,0.09196863383272269
27,0.09937054512379549,0.09264109497595298
28,0.09940541204247025,0.08867994532146206
29,0.09887019207207463,0.09309418549019441
30,0.09943692927197326,0.09238235341854822
31,0.0963298998015513,0.08515829804133615
32,0.0949729797396782,0.08949954981182227
33,0.0961450092625723,0.08706384200515152
34,0.09647995947574596,0.09154594264205451
35,0.09450321454551813,0.08241514488752548
36,0.0939505452780818,0.08711699134121073
37,0.09191602767050695,0.08737645049889882
38,0.09257016332746984,0.08658354235729936
39,0.09199034504359774,0.09006283493880228
40,0.09237798295909161,0.08356389175837638
41,0.09113880324127485,0.08348751611651102
42,0.09294453884263913,0.09141809067296866
43,0.09220746380565546,0.08370069842800704
44,0.09200198646840618,0.07885408448319753
45,0.09127037983545787,0.08435142737573854
46,0.09047421616158359,0.07750793788748259
47,0.08918213567810597,0.07681285051533776
48,0.08956096884164455,0.07542744352325906
49,0.09024468235063066,0.08282761966744671
50,0.08933772466140236,0.08349681305430907
51,0.09073562681334939,0.07503562452330496
52,0.08800111289730399,0.07942230935115593
53,0.08823219490788572,0.0877031980736509
54,0.0876262200380369,0.08138680458975245
55,0.08784319871396805,0.08391598104185818
56,0.08844497143548188,0.08125824841692597
57,0.0886032840369748,0.0815264721161596
58,0.08928581790400564,0.08276758049913083
59,0.08890798941159173,0.08118159923058937
60,0.08895976664282208,0.07814468708665798
61,0.08891026258134575,0.077718223757069
62,0.08795008288354898,0.08273336106408251
63,0.08894567067225614,0.07869351791204328
64,0.08969461484801015,0.07847332218714778
65,0.08773736264690864,0.07892180404596374
66,0.08893960521663066,0.07930133920782287
67,0.08790681514891985,0.07885318976092029
68,0.08811657854301438,0.08091008266780014
69,0.08752011716085448,0.0789027870644038
70,0.08711599922471279,0.0765182433826645
71,0.08691683382070284,0.08171913993680081
72,0.08559341387326617,0.07556937967894624
73,0.0876202820460972,0.07889653461330419
74,0.08792430359580881,0.07979680515904303
75,0.08672465136449178,0.07326853068640632
76,0.08688621384779914,0.08141341682792387
77,0.08691307027086771,0.0798731476962808
78,0.08674428570982788,0.07785079190439552
79,0.0856481221369546,0.07589158414887975
80,0.08362860467472823,0.0759443201892084
81,0.0841087226415153,0.08400516004119572
82,0.08389920723722208,0.07239676015836768
83,0.08491430082787171,0.07328752043981042
84,0.08514652623264812,0.07981619974847548
85,0.08444216649821275,0.07569206259473978
86,0.08500079077640899,0.0747314354061887
87,0.08577574876914795,0.08336823424573653
88,0.08475021910134127,0.07605322779119257
89,0.08637292824948044,0.07396922767198578
90,0.08559313796168332,0.08200603979431993
91,0.08492799974184594,0.07600747910535925
92,0.08589625378863347,0.08137412733924844
93,0.0859100218113658,0.0779785100440136
94,0.08506975193665302,0.07715404630372028
95,0.08642514657267959,0.07926581890019381
96,0.08593755455208932,0.07512233220796129
97,0.08576769058743985,0.07922810478330819
98,0.08777734198964673,0.08193913849927213
99,0.08982096178035101,0.08473742576217806
100,0.09010092500415298,0.08312457141263255
101,0.0882919490743008,0.08055979432500385
102,0.08954802849400845,0.08296730795335885
103,0.08842825312599886,0.08212010030062916
104,0.08999748054662163,0.08232353543991107
105,0.08960283814584187,0.07941414677482839
106,0.08981489996501119,0.07895182950810407
107,0.09082307630748726,0.0823574801823857
108,0.09004446163063673,0.08311731855642573
109,0.09025820694249377,0.08780773439341122
110,0.09117771038193527,0.08270549791995722
111,0.09072504636553452,0.07872791901013276
112,0.08969281091570282,0.08526880852424895
113,0.09059557204751419,0.08182538938855893
114,0.09044527383543569,0.08653182971736134
115,0.08976075284367947,0.08335865882662671
116,0.09022707903714443,0.08347415985102974
117,0.09019932706502555,0.07728061078468282
118,0.08985854196753666,0.08189613782987301
119,0.08993856345055054,0.08227863507186699
120,0.08963039820585803,0.08348209365283872
121,0.08813131592863555,0.08279700259415966
122,0.08855561918770676,0.0977397935233847
123,0.08851874401096442,0.07854454742634287
124,0.08838913973280675,0.07778296938705329
125,0.08854308122809264,0.0778389374445293
126,0.0902224520565845,0.0835678205196198
127,0.08873968056326298,0.07890700072424739
128,0.08850724124211708,0.07702912997517852
129,0.08849719522880305,0.07961811461551636
130,0.08855150783773037,0.07790020405521068
131,0.0882355187526696,0.07799773795012044
132,0.08747816189610548,0.07956945900378533
133,0.08854054815745097,0.07935884092169279
134,0.08777096365735805,0.08771264168757882
135,0.09159655188970131,0.10213566827077936
136,0.08968664894553068,0.07902449717486862
137,0.08953094097067586,0.08494612319577736
138,0.08963475419615535,0.08268428438578015
139,0.08949179853423773,0.07811172341282833
140,0.09051149287779299,0.08072782410286058
141,0.08992146016408005,0.08206804605187291
142,0.09008522366313003,0.08093231396155925
143,0.08954676822740569,0.08188336108420693
