epoch,loss,val_loss
0,0.6262755351986667,0.587766791202146
1,0.5878061915608384,0.5879639190865645
2,0.5872528018285218,0.5922807524190719
3,0.5870904861401328,0.5893438446840811
4,0.5872325981684549,0.5868336398816166
5,0.5872174183829867,0.5864314595471527
6,0.5871528959016594,0.5865424567862245
7,0.5870827147729689,0.5874931581215653
8,0.5869913774552205,0.5873313847346124
9,0.5870037565859343,0.5865315890660251
10,0.586782495650031,0.5865675598648826
11,0.5868935024528336,0.5865301700597455
12,0.5869691160271128,0.5865466956287888
13,0.5868510672624251,0.5863845438756116
14,0.5867875765284316,0.5864678689453143
15,0.5867549189097219,0.5878152347925902
16,0.5868378099057081,0.588998148669485
17,0.5866428130478549,0.5864279258570242
18,0.5822088362647592,0.5626691001175094
19,0.5271623207985449,0.5198891778013519
20,0.5184243933571349,0.5196184798265412
21,0.5119353828547571,0.5146730823045036
22,0.5016327385094951,0.4998018935213994
23,0.49655207146922525,0.49562931662638404
24,0.49588284282993567,0.49326183473493446
25,0.4954316578835273,0.4950121900267651
26,0.49511659678647385,0.49620093014891903
27,0.49513730002318124,0.4970358215689369
28,0.4953289811400245,0.498420631484297
29,0.4953649790765191,0.4961789509240728
30,0.4952471533758913,0.4983255835393533
31,0.4866310022085356,0.41193082498421246
32,0.3754866587056266,0.36415549288507604
33,0.36698863673820986,0.36056052144716544
34,0.3634672522234669,0.35582140571492915
35,0.3668781672123435,0.3597799874811954
36,0.36477032060428466,0.3612976984724415
37,0.3644167508742063,0.3565284689074112
38,0.36350383693643146,0.3559180751189118
39,0.36484535626643555,0.35877603178863493
40,0.3650322091565121,0.3598737977717045
41,0.35985053043731985,0.3575816775905535
42,0.3615900141845425,0.35919251557007514
43,0.35987789597245956,0.36023580457558985
44,0.359441147149325,0.3523356818804776
45,0.35874102777056543,0.35647190368861953
46,0.35933568734851623,0.3471138440586161
47,0.3584169887179275,0.3451807928926463
48,0.3576587346122206,0.3551817525477305
49,0.35892374122782267,0.3710943771056402
50,0.3576245916376503,0.3584454959229735
51,0.3588480653884031,0.36095335439077164
52,0.3575037293094363,0.35224180381566844
53,0.35657438647756584,0.36609956025110446
54,0.35810495159022804,0.35722715274067496
55,0.35706164729032064,0.366731467352393
56,0.35483412790575247,0.34785660714612004
57,0.35762117447568664,0.3585509414945496
58,0.36147405747607575,0.3614918543667882
59,0.35591898351502094,0.34958868643566543
60,0.3556429431188383,0.35224828812907794
61,0.35551838842843225,0.35833648763240494
62,0.3583221857289107,0.3592500104617995
63,0.35767343406490176,0.34890586705780186
64,0.35665937740388537,0.36037674717852863
65,0.3593676392081454,0.3585030429022929
66,0.3578796851649296,0.35075511433492323
67,0.35806757271337547,0.34976598634917083
68,0.35969378521816553,0.34973457675587327
69,0.35542561004074025,0.3538963844016231
70,0.3599981136733384,0.36310673279677186
71,0.3637520733764403,0.36123432510283937
72,0.3802596558037522,0.39609516138287937
73,0.4089621390649278,0.4556321409400266
74,0.5051839817419732,0.47555690810434814
75,0.47814653848437333,0.47288071606474397
76,0.4758002842493874,0.4716802601976696
77,0.4761796083161123,0.46846701998780244
78,0.4760075475188424,0.4742935542304247
79,0.4753982367111837,0.47087395476405447
80,0.4746935698535559,0.4788684523260313
81,0.4735033501139443,0.46677955627344725
82,0.4721207460038084,0.469196373166249
83,0.47309000779381744,0.4732178518516884
84,0.4733079310485704,0.47450128550560416
85,0.4722549175624374,0.4674947045725337
86,0.47029463643785285,0.4829080029415678
87,0.47111568031452294,0.47769462317832584
88,0.4688133351128993,0.4641896957608615
89,0.47012403032319655,0.46476852458758944
90,0.4698867102304967,0.4642826288527622
91,0.4705107307987656,0.48037338019964276
92,0.46922235728932726,0.4761064201955958
93,0.46855558459762575,0.47184599248355513
94,0.4662138413103988,0.46911637645761656
95,0.4669868037092676,0.46275757945657064
96,0.46818467257641333,0.4684851351107221
97,0.4679844555757445,0.4632071304495317
98,0.4672337237527792,0.4677274167441007
99,0.46597011436263114,0.4649029595283406
100,0.4662305537799151,0.46776130270977284
101,0.4670284968361652,0.4565712265966389
102,0.46566220774375694,0.4662941119966716
103,0.4671761003062666,0.4676512899141629
104,0.4670345767843332,0.46138528559813147
105,0.4654292974403326,0.45914279452592305
106,0.4627083189922681,0.45696453400868664
107,0.46321012986431703,0.4535518514365562
108,0.46246742860997936,0.4531109142332472
109,0.4615864313727288,0.45820557113981597
110,0.4619604630814828,0.45388710987055486
111,0.4631244477340944,0.4739901548174466
112,0.4657950983513251,0.4670921569661406
113,0.465313512709639,0.4662761668170842
114,0.46586768700181247,0.4647647862693496
115,0.46525705535952044,0.4633506587967095
116,0.465233066899954,0.4652029750362607
117,0.46489613924959927,0.4627715282486593
118,0.46560552685235956,0.4622676234514077
119,0.46581341687730066,0.4660978692388109
120,0.4652776785546823,0.46293765427325667
121,0.4651605508344664,0.4604751473264006
122,0.46505253669545593,0.4624180756781223
123,0.4652996935350023,0.46105600747265474
124,0.4652799080022342,0.46199786788742425
125,0.4647996389717937,0.4616410758373511
126,0.46533933364218766,0.45930907326023074
127,0.4654270137449185,0.4624367498423351
128,0.4645964032153877,0.46877025579013964
129,0.4646183170968767,0.46875861855125583
130,0.46518768120804627,0.460484361247328
131,0.46456664558455313,0.4658530877792826
132,0.4654496761562349,0.4607180684007287
133,0.4652087280901076,0.4695916833523706
134,0.46511165482745925,0.4599205596313569
135,0.46459924489903964,0.4636401176839366
136,0.4645614568427432,0.46299393604368283
137,0.46442381932651455,0.4634441864123116
138,0.4653578243248934,0.4654038510280031
139,0.46494339944554675,0.4575791036512247
140,0.4651549689716296,0.4590773878306368
141,0.46467306044361323,0.46288915504214245
142,0.46497535876172175,0.4625270287630912
143,0.46504180015231056,0.46268163025620884
144,0.4651229127084283,0.4611565376913654
145,0.4645103872227993,0.4655973712844957
146,0.4645020944104374,0.4639223162130138
147,0.4647644789243718,0.4587274374076243
148,0.46523017778074005,0.46271166952277043
149,0.46552964577300726,0.47480311943860143
150,0.4651502845786494,0.4620634128625859
151,0.4655720013394367,0.46282414157798596
152,0.4658720904202152,0.4608496001167019
153,0.46642002283190614,0.46052241308459013
154,0.4661433463506072,0.4670214378920785
155,0.4655674220419961,0.4596849011630424
156,0.46623129559288606,0.460379530188521
157,0.4666609037533295,0.4740536223314491
158,0.46747863431087583,0.461881511644532
159,0.46643764404557625,0.4606913022412968
160,0.466439440691347,0.4623416854130574
161,0.46626227748117227,0.4622753535889071
162,0.4661989225040349,0.46030068636810695
163,0.4652954951775752,0.4715877817785073
164,0.4662419921808762,0.4677376140933257
165,0.46635042881373884,0.4612337759569807
166,0.4658085508905858,0.46050451602862313
167,0.46747856451760683,0.4629701775500954
168,0.46520121518471796,0.4594174543726473
169,0.46462649860985283,0.46151405029053233
170,0.4642173222797789,0.4612090821103748
171,0.46408892139565766,0.4607982593682947
172,0.4644411491025821,0.4618645371795184
173,0.4651471414119363,0.46909135722669276
174,0.4645041571415549,0.46317071082721567
175,0.46516559550388037,0.46436172535239634
176,0.4642025685792355,0.461636356701236
177,0.46517488743373164,0.46918659039077387
178,0.4645693105898255,0.45885019107069897
179,0.465501163760312,0.45920172628598394
180,0.4653486719219278,0.4612064220899503
181,0.465207493978085,0.46241359370371626
182,0.46576252638148347,0.46318608268624095
183,0.466369813232063,0.4650846333012577
184,0.4668138803745671,0.4570723483210546
185,0.46273217243466785,0.45448782223081163
186,0.4619400934685317,0.456519765333731
187,0.46256766518991027,0.4571028927526915
188,0.46534299502094045,0.4610767895046135
189,0.46625861512412065,0.4635381060746851
190,0.46516718372428195,0.4622808576161941
191,0.4641607328593206,0.4590077442264325
192,0.464608521808425,0.4631724212581514
193,0.46405942697492575,0.461054263952198
194,0.4648829541080374,0.4620070342406546
195,0.46501056839219085,0.4590395778925169
196,0.46426767338696623,0.4653871597696492
197,0.46478303199152265,0.4619674898702153
198,0.4645868692758849,0.46193425029830437
199,0.46471653797561596,0.465780523619996
200,0.46460084248486283,0.46336266325918135
201,0.4644173305210254,0.4593756790095389
202,0.46539686891057186,0.46237124068796975
203,0.4650587392292374,0.46151970161332023
204,0.4654917356679686,0.46008767921172405
205,0.465616143470387,0.46296101228454106
206,0.46567345806080596,0.4765589761231261
207,0.4627554953408489,0.45867089437742303
208,0.46059191032492514,0.4534764736528234
209,0.4607456148124104,0.45426540991589004
210,0.4606984399074168,0.46470629337446917
211,0.4610075521006214,0.4561866105376272
212,0.46106323470966254,0.4526237286113668
213,0.461759136045714,0.457022452683151
214,0.46072615727221516,0.4568919343911625
215,0.46295011061444297,0.46330805145814374
216,0.46598549059527317,0.46453840884365694
217,0.46610326810871916,0.4712638831535008
218,0.4656914321420859,0.45753177318839844
219,0.46492419631076487,0.4618844543156929
220,0.4647642207250679,0.4628784737012682
221,0.46445342532103306,0.46474730572077866
222,0.4646303092268966,0.46371316711591304
223,0.46458027916874667,0.4634521761418162
224,0.46415332886722205,0.46103145775520404
225,0.4647340260929256,0.4607693517440137
226,0.4644875678303148,0.46801249365060194
227,0.46469995102660955,0.4626513666866856
228,0.46357193199084035,0.4582416612204747
229,0.4643281477035953,0.45829179046701246
230,0.46481961924567805,0.460387085524402
231,0.465242994449633,0.46121995132915006
232,0.4642671417412136,0.46051947036508806
233,0.4641703400877211,0.4660304222808847
234,0.46536080332829344,0.46019139093107453
235,0.46418990731668813,0.45835116329177644
236,0.4653259716194281,0.4595335312761723
237,0.4651510838607104,0.46140288175457583
238,0.46580813350297623,0.45608612588045566
239,0.46179266928958357,0.4565754224880865
240,0.4615494066758381,0.45562445691998954
241,0.4600828762313096,0.45412297415133906
242,0.4607718078206309,0.45595056456660993
243,0.46074008321265775,0.45576725804699403
244,0.4595531022744335,0.45372106856383254
245,0.4604789604178613,0.455147680236572
246,0.4604590618438583,0.455586555085333
247,0.46030838406973595,0.4568655880021546
248,0.460281526868204,0.45433517459051836
249,0.46063643554337413,0.4562964605202253
250,0.4616658320610193,0.45590290093653973
251,0.46547084648290377,0.4626640437921662
252,0.46504510653982933,0.46046244302902006
253,0.4648468751874898,0.4665889061038705
254,0.46531362686040784,0.4589867931696234
255,0.4638135223578605,0.45988688912221504
256,0.464825748669519,0.4609051625707337
257,0.4645525670652871,0.4713118066897938
258,0.4638964917131955,0.4619497196614404
259,0.464176834357367,0.4643652618221413
260,0.46432936649689016,0.4634623381053154
261,0.46389141095409975,0.4619438665384987
262,0.46442581566454794,0.4607657183744225
263,0.4638671641997856,0.4703909360772695
264,0.46449898542453044,0.4618653492867608
265,0.46433760831840903,0.4641397336780396
266,0.4643547456678722,0.4595410971504252
267,0.4641395911777182,0.4631301240764395
268,0.46479175236818787,0.4627884496592547
269,0.4648231137290394,0.46658164876704283
270,0.46484233137127684,0.46092952247663715
271,0.46481767029548476,0.46693746843477235
272,0.46464964455132296,0.4612745542354151
273,0.46380361828735295,0.46128918973778865
274,0.46445484997464526,0.4638916223588651
275,0.464721598047271,0.4620973237239531
276,0.46448268771791956,0.4638810581486107
277,0.46487181853828097,0.46150878161216113
278,0.4647878275526534,0.4578231824478867
279,0.4643443169070779,0.45522706035376564
280,0.4615089090897428,0.45538954974574375
281,0.46134526775873974,0.45204982570004676
282,0.46060112147354143,0.4554690130580661
283,0.4607670644791819,0.4587698831658777
284,0.4608492425458731,0.4620082689946199
285,0.46032890589166586,0.45407503323640075
286,0.46075285084730533,0.45391039014926116
287,0.4607654957293128,0.4517467469097827
288,0.4603123973139388,0.4525720081431829
289,0.46152580055215053,0.45621941445904446
290,0.4605269499952264,0.45271389141666724
291,0.46024830706172987,0.4572724339107334
292,0.4610127753453602,0.45540970783840806
293,0.460094841076337,0.4541573411115088
294,0.4606520729102164,0.4531516898287474
295,0.4608436163732584,0.45631194138855635
296,0.46089812890112736,0.4560656474551242
297,0.4661152333474522,0.4606752051682561
298,0.46509996663817793,0.45982610840963717
299,0.46486293622930114,0.4660162388649977
300,0.4649563843937661,0.4670982199380384
301,0.4638631186120695,0.47349298271046164
302,0.46415328536871625,0.46256065975333843
303,0.4639455942486266,0.46489270119674786
304,0.46411202130936163,0.4607195325576476
305,0.4638125983307703,0.4610877242739957
306,0.46428479940247974,0.4623387270793621
307,0.46431430160188025,0.4593078223844901
308,0.4642389762559063,0.462956777091734
309,0.46389332313457426,0.4586452965995498
310,0.46393244945592554,0.4595571189804572
311,0.46393477509888387,0.4692797058013427
312,0.46538474550955383,0.4709975420461857
313,0.46433335716863744,0.46489215373316145
314,0.4642684848142491,0.46766476097478193
315,0.4643899521248354,0.4657277541970781
316,0.46473631124385745,0.4635510292366473
317,0.46504853745762875,0.45838762562350344
318,0.46477443273302266,0.46900037486961194
319,0.46532814487445057,0.4577967577703774
320,0.4662099248104042,0.4750600337788813
321,0.46345692803804356,0.4568129039013763
322,0.4620004197399171,0.45497344147839974
323,0.4616717041684113,0.4572232100456977
324,0.46122299527243865,0.45508716921930087
325,0.461140227291563,0.4577737412410158
326,0.46083976414272365,0.45604474822003377
327,0.4602839817897714,0.45248294705698766
328,0.46066591375059274,0.4564297439504811
329,0.46063320744362135,0.4528850232646026
330,0.46032464843067383,0.4535566942293472
