epoch,loss,val_loss
0,0.6729901447758191,0.6667698183985539
1,0.6667300063462449,0.667703046659129
2,0.6705148226771288,0.6667076143065075
3,0.6667082013504552,0.666720833247201
4,0.6667325222624211,0.6667887253331621
5,0.666711935922189,0.6667315339272034
6,0.6675109373193754,0.6667107900231667
7,0.6669309505112727,0.666700109995315
8,0.6666957224159932,0.6667048579225805
9,0.6667002593405554,0.6667095475687764
10,0.6667979118976709,0.666708771931751
11,0.66679442450272,0.6672309674261075
12,0.38917987276605415,0.3335478733681521
13,0.3334885521909181,0.33363553476368624
14,0.3338378672024566,0.33351900796755496
15,0.3339077215417267,0.3334396516462929
16,0.33344663288269943,0.333412309270711
17,0.33338627261496206,0.3333836997467611
18,0.33338078072897015,0.3333779316601304
19,0.33338326919280825,0.333369966465785
20,0.33337908424266127,0.33339662237612777
21,0.33338644783373034,0.33338024126081034
22,0.3337826692905602,0.3365015421444877
23,0.3342006338869985,0.3334225793074284
24,0.3334930948345656,0.33352410474990046
25,0.3334505247046636,0.3334987781139268
26,0.333498474016112,0.33381596763848514
27,0.33348359593362364,0.3334898297000006
28,0.33352957622256857,0.333635182791094
29,0.33350560847003724,0.3334870977858093
30,0.3335896455917824,0.3334243715706386
31,0.33357339947932635,0.3372259269801602
32,0.3388770505518857,0.33868817710224525
33,0.3335774465789195,0.2328438138437831
34,0.22298512848052743,0.22231766052925603
35,0.2369866903520122,0.22232532845514372
36,0.22232651361294198,0.2222764870839986
37,0.22229679499028648,0.2223061881638116
38,0.22229100268459717,0.22226859386316417
39,0.22229337449969885,0.2223035898432204
40,0.222293553550637,0.22228696695116162
41,0.22246946713031376,0.2223426149151351
42,0.22230898524768025,0.22231614828153495
43,0.22230810188602482,0.2223003673392669
44,0.22232936395248695,0.22232009239930978
45,0.22231967792697965,0.22231867740156017
46,0.2223347819233594,0.22229357891278345
47,0.22239605442620186,0.2222800997309257
48,0.22251974604465535,0.22228691238102552
49,0.22234616476971564,0.2223294934131045
50,0.2223944725595119,0.22234889374323605
51,0.22232283275357267,0.22227330004311324
52,0.22236578173321483,0.22226320103748848
53,0.22232875004688768,0.22258418801181315
54,0.2223187819831545,0.22226144256920394
55,0.22230983046630096,0.22231730444100084
56,0.22234612588832275,0.2222708255233054
57,0.22232750370381127,0.22226234710441858
58,0.22238434960555978,0.2222740087876256
59,0.22235833365392005,0.22228842851196348
60,0.2223292467932807,0.22228165206055528
61,0.22374561110435878,0.22250920269145377
62,0.22249970332288505,0.22238548995869206
63,0.22232272681832174,0.22230176784605427
64,0.22243009996613267,0.22261418339844732
65,0.2223837883312228,0.2223563795079658
66,0.22257295928723644,0.22247031994490782
67,0.22228347772763485,0.2222598553398461
68,0.22228293420579767,0.22226055891038213
69,0.22230411068378927,0.2223023273054887
70,0.22229337997631085,0.22229977718327631
71,0.22233481827974977,0.22226321813184682
72,0.2222971682221239,0.22227640688189632
73,0.22230900484881008,0.2222567889138654
74,0.22228443762421382,0.222271073824945
75,0.2223427288848165,0.22226604592321028
76,0.2223737282288682,0.22235010420210669
77,0.22229620119537527,0.22239249580430206
78,0.22234446204291314,0.2224875674633438
79,0.15656793223719148,0.11162988105226512
80,0.11132287811810375,0.11133501950530399
81,0.11130036148179698,0.11131652286674457
82,0.11132449714836451,0.11132903553779289
83,0.11130782791293782,0.1113080184029579
84,0.11133793824780583,0.11130729049121509
85,0.11131059648159732,0.11132265804863606
86,0.11132546196414067,0.1113248320785569
87,0.11133090247088867,0.11132475886351036
88,0.11132535675220726,0.11132665526803469
89,0.11131828528342207,0.11136231966594268
90,0.11132417347631068,0.11139335955041421
91,0.11132218578109436,0.11132318722308066
92,0.11133299748828421,0.11132253662153742
93,0.11133256893291192,0.11141571309844776
94,0.11132492855781005,0.11133228005028839
95,0.11133032820555036,0.11133985676023146
96,0.11132794808938888,0.11131239604908384
97,0.11131160368368867,0.11131395341185478
98,0.11131619379145877,0.11130790433209409
99,0.11132424501318768,0.11132561922303076
100,0.11131408949627412,0.11145476285066708
101,0.11131789061595389,0.11148262451489839
102,0.11133840130820379,0.11158007160335051
103,0.11131180282480499,0.11148323807547476
104,0.11133156056813438,0.11143031295209133
