epoch,loss,val_loss
0,0.35761714740405354,0.33343231747469393
1,0.3334373448933054,0.3334402407467048
2,0.3336140796275083,0.3348308963378781
3,0.33415363765918,0.3335064533577641
4,0.3335793469122384,0.3334060751980522
5,0.3336344373009581,0.33371522474625853
6,0.33415744964001687,0.3334713427872587
7,0.33358584502176925,0.3338954073231162
8,0.33379654868805514,0.3339112367317597
9,0.33364295182829273,0.33350548369115723
10,0.3337655399395084,0.3374092083531665
11,0.3336050000775296,0.33345359614145254
12,0.33360279692439354,0.33344549874271423
13,0.33381857979098556,0.3334740464524143
14,0.33363114151814927,0.33413966402895495
15,0.3396880997370717,0.3334918699585685
16,0.33342129427803147,0.33343358703503195
17,0.3334563205681453,0.33349080517502483
18,0.33455850905093565,0.33581206810148423
19,0.3336324494184176,0.3334233903200129
20,0.33343023605220373,0.33341535850388565
21,0.33342894262193196,0.3333926645139529
22,0.333428644631524,0.33341915205129247
23,0.333435998689569,0.3334424160318345
24,0.3334720013699065,0.33339288718089155
25,0.3335685719132985,0.33338233503667036
26,0.3334564365869984,0.3334133549499214
27,0.33364335830083147,0.33344635652891974
28,0.33352231476739647,0.3335738926825118
29,0.3339284484926959,0.3341777313355022
30,0.3334555640974387,0.333411664153528
31,0.33340614942765756,0.3334211546098405
32,0.33344726051629087,0.3333774362108777
33,0.33348517876564854,0.33341026890275677
34,0.3334322196796136,0.3335918696304268
35,0.333477125021196,0.3334382508496316
36,0.3335101519851296,0.33341381238193374
37,0.3334538607124948,0.33338684010426917
38,0.33347215412800235,0.33348364065624986
39,0.33359578531320916,0.3334165585218252
40,0.33344028344750587,0.33355071840974954
41,0.3359292485232367,0.3671381333143826
42,0.33444529064804096,0.33348581162608637
43,0.3334676667335982,0.33348394293460437
44,0.3334664930030316,0.33343257724002734
45,0.33344070534352577,0.3334866092825925
46,0.33345847953647156,0.33344427012023325
47,0.3334677776732765,0.33351468182874616
48,0.33655358855057954,0.33349497579920073
49,0.33343272766454685,0.333446097955898
50,0.33340693418568496,0.3334594538975777
51,0.3334064511481415,0.3334489988994108
52,0.3334066453727953,0.3334519129474134
